<?xml version="1.0" encoding="UTF-8" standalone="no"?>
<!-- Generator: Adobe Illustrator 21.1.0, SVG Export Plug-In . SVG Version: 6.00 Build 0)  -->
<svg id="Warstwa_1" style="enable-background:new 0 0 512 512" xmlns="http://www.w3.org/2000/svg" xml:space="preserve" viewBox="0 0 512 512" version="1.1" y="0px" x="0px" xmlns:xlink="http://www.w3.org/1999/xlink">
<style type="text/css">
	.st0{fill:#009900;}
	.st1{fill:#BF0000;}
	.st2{fill:#055E00;}
	.st3{fill:#BD6B00;}
	.st4{fill:none;stroke:#BD6B00;stroke-width:4.182400e-02;}
	.st5{fill:#BD6B29;}
	.st6{fill:#FFFFFF;}
</style>
<path d="m0.1 256.1c0 103.2 61.2 192.1 149.2 232.5v-465c-88 40.5-149.2 129.4-149.2 232.5z"/>
<path class="st0" d="m511.6 256.1c0-103.2-61.2-192.1-149.2-232.5v465c88-40.4 149.2-129.3 149.2-232.5z"/>
<path class="st1" d="m255.8 0.4c-38.1 0-74.2 8.4-106.6 23.3v465c32.4 14.9 68.5 23.3 106.6 23.3 38 0 74.2-8.4 106.6-23.3v-465c-32.4-15-68.5-23.3-106.6-23.3z"/>
<path class="st2" d="m181.5 268.7c0.2-0.2 0.5-0.5 0.8-0.6 0.1 0.3 0.2 0.5 0.3 0.7-0.2 0-0.7 0-1.1-0.1z"/>
	<path class="st3" d="m331.5 308.8c-1.2 0.2-2.4 0.3-3.5 0.2-0.7 0-1.4-0.1-2 0.1v0.2c2.7 0.2 5.5 0 8.1-0.5-1.5 2-3.1 4.1-5.1 5.9-1.5 1.4-3.3 2.5-5.5 2.7-2.9 0.3-5.9-0.1-8.7-0.6 0-1 0.1-2-0.3-2.9-0.4 0.8-0.7 1.7-1.2 2.5-2.5-0.6-5-1.8-7.3-3.2-2-1.2-4.1-2.5-6.2-3.5 0.3-1 0.5-2.1 0.6-3.2-1.7 0.3-3.3 0.9-4.6 2.2-0.6 0-1.2-0.1-1.7-0.1-0.1-0.6-0.1-1.1-0.2-1.7h-0.2c-0.5 0.5-0.6 1.2-0.9 1.8-1.6 0.1-3.1 0.8-4.7 1 0.8-1.1 1.8-2 2.8-3 1.2-1.2 2.5-2.3 4.2-2.9 3.4-1.5 7.3-1.9 10.8-1.2 6.1 1.1 11.2 5.1 17.2 6.5 0.9 0.2 1.7 0.5 2.6 0.2 0.1 0 0.2-0.2 0.2-0.2-1.8-0.1-3.5-0.5-5.2-1.1-5.4-1.9-10.4-5.4-16.2-5.9 0.3-0.6 0.5-1.3 0.5-2 0.4 0.5 0.8 1.1 1.5 1.2 0.6 0.2 1.2-0.1 1.8-0.4 0.1 0.5 0.3 1.3 1 1.3 2.2 0 4-1.5 5.8-2.6-0.1 1.6-0.8 2.9-1.1 4.6 1-0.3 2.1-0.4 2.6-1.3 1-1.6 0.7-3.6 1.5-5.5 0.7-1.6 1.7-3 2.4-4.7 0 1.5-0.3 3.1-0.8 4.6-0.3 0.9-0.9 1.7-1.3 2.6 0.5-0.1 1 0 1.5-0.2 0.7-0.4 1.1-1.2 1.4-1.9 0.8-2.1 0.8-4.5 1.1-6.7 0.3-1.7 1.3-3.1 1.9-4.7-1.1 0.4-2.1 1.2-2.8 2.2-0.2-0.1-0.4-0.1-0.5-0.2-2.4 2.3-5.5 3.7-8.2 5.7-0.7 0.5-1.3 1.1-1.8 1.8-0.4-1.7-1.5-3.1-2.2-4.6-0.5-0.8-0.8-1.7-1.2-2.5-0.2 0.2-0.3 0.5-0.3 0.8-0.1 2.1-0.4 4.4 0.2 6.5 0.3 0.9 1.3 1.6 2.3 1.4 0.5 0 0.8-0.4 1.2-0.7 0.2 0.4 0.6 0.8 1 1-1.2 0.6-2.5 1.2-3.4 2.3-0.6-1.4-1.5-2.6-1.9-4.2-0.4-0.9-0.5-2-0.6-3-1.2 1.5-1.3 3.6-1.3 5.5-0.6-0.8-1.3-1.5-2.3-1.6-0.3 1.7-0.7 3.7 0.3 5.3-3 0-6.2 0.6-8.8 2.1-1.9 1-3.3 2.6-4.9 4.2-0.5 0.5-1.1 1-1.3 1.8 0.5 0.1 1.1 0.1 1.6 0.1-0.6 2.5-1.7 5-1.5 7.6 0 0.8 0.5 1.5 1.3 1.6 0.6 0.2 1.2-0.2 1.6-0.4 0.2 0.5 0.2 1.2 0.7 1.6 0.8 0.5 1.7 0.2 2.6 0 2.1-0.6 4.1-1.7 6-2.8 0.4-0.2 0.9-0.4 1.1-0.9-1.9 0.2-3.8 0.2-5.9 0.2-1.4 0-3 0-4.3 0.9 0.2-2.7-0.8-5.4-1.3-8 0.9-0.3 1.8-0.5 2.8-0.6-0.6 1.6-1.4 3.2-1.2 5.1 0.2 0.8 1.3 1.2 2.1 1 0.5-0.1 0.7-0.7 1-1.1 0.1 0.6 0.1 1.4 0.6 1.8 0.7 0.5 1.8 0.3 2.6 0 2.1-0.7 4.1-2.2 4.9-4.4 3.3 2 6.6 4.2 10.4 5.2-1.2 1.5-3 2.3-4.5 3.6 0.1-0.9 0.4-1.7 0.5-2.6-0.1-0.4-0.5 0-0.5 0.2-1.2 1.6-2.8 2.8-4.4 4.2 0.4-1.5 1.1-2.9 1.3-4.6-0.7 0.7-1.2 1.6-1.9 2.2-1.5 1.6-3.3 2.8-4.8 4.6-0.7 0.8-1 2.1-0.2 3 0.3 0.5 0.9 0.5 1.4 0.6-0.4 0.4-0.6 0.9-0.5 1.5 0 0.5 0.5 0.7 0.7 1-2-0.3-4.1-1.1-6.3-1-0.5 0.1-1 0.4-1.5 0.5l-2.7-2.4c1-0.5 1.9-1.1 2.9-1.6-0.5 0.8-1.3 1.5-1.1 2.5 0.2 0.8 1.2 1.3 1.9 1 1.1-0.4 2-1.4 2.8-2.2 1.9-2.2 3.5-4.8 5-7.3 0.4-0.8 0.9-1.6 1.1-2.5-0.7 0.4-1.1 1-1.7 1.5-0.9 0.8-1.8 1.6-2.8 2.4-1.1-0.1-2.2 0.1-3.4 0.1-1.7 0-3.4-0.1-5.2 0.2-0.6 0.1-1.1 0.4-1.6 0.7 0.1-2.9-0.9-5.8-1.5-8.6-0.1 0-0.3 0.1-0.4 0.1-0.5 1.8-1 3.7-1.3 5.7-0.5-0.4-0.9-1-1.6-1.2-0.6-0.2-1.1 0.3-1.3 0.9-0.4 1.2 0 2.3 0.3 3.5-6.1 2.7-12.5 4.7-19 5.6-4.5 0.7-9 0.9-13.5 0.2-6.7-1-13.3-3-19.6-5.6 0.5-1.2 0.9-2.5 0.4-3.8-0.2-0.4-0.4-0.8-0.9-0.9-0.8-0.2-1.4 0.6-2 1-0.2-1.7-0.8-3.4-1.8-4.8-0.2-0.2-0.4-0.6-0.7-0.3 0.1 1 0.4 2 0.2 3-0.1 1.8-0.9 3.6-0.9 5.6-0.5-0.5-1.1-0.9-1.8-1-1.8-0.3-3.7-0.3-5.6-0.6-1.1-0.1-2-0.5-3-0.8 0 0-0.1 0.2-0.1 0.3 1.6 1.7 3.8 2.8 6.1 3.7 1.2 0.4 2.5 0.9 3.8 0.4 0.8-0.3 0.8-1.2 0.7-1.9 0.2 0.6 0.7 1 1.4 0.9 1.1 0.1 1.6-1.1 1.9-2 0.6 0.1 1 0.5 1.3 1-1.6 0.3-2.7 1.5-3.8 2.7-2.1 0.1-4.3 0-6.3-0.4 0.8 1.3 2.1 2.2 3.4 2.9-1 0.9-2.1 1.9-3.2 2.8-0.1-0.3-0.2-0.5-0.3-0.7 0.7-0.1 1.5-0.3 1.6-1.1 0.1-1.2-0.7-2.1-1.4-2.9-2.9-3.3-6.6-6.1-9.5-9.3-0.2 0.3-0.2 0.6 0 0.9 0.7 1.5 1.5 3 2.3 4.5 1.6 2.6 3.2 5.2 5.6 7.2-1.9 0.2-3.7 1-5.6 1.6-1.5 0.5-3 0.9-4.6 1.1 0.9 0.6 2.1 0.8 3.2 1 2 0.3 4.1 0.2 6.1-0.1-0.9 0.8-1.9 1.6-2.9 2.3-0.7-0.3-1.3-0.7-2-0.9-2.3-0.8-4.8-1.2-7.2-1.7-3.2-0.8-6.4-1.9-9.3-3.4 0.3 1.1 1.2 1.9 2.1 2.7 1.9 1.5 4.1 2.7 6.3 3.7 2.2 1.1 4.7 2 7.2 2.4 0.2 0.3 0 0.8 0.1 1.2 0.2 1.1 1.2 1.8 2.1 2.3 1.7 1 3.6 1.6 5.6 2.2 1.7 0.5 3.3 0.9 5.2 1.1 0.4 0.1 0.9 0 1.1 0.4 0.6 1 0 2-0.3 2.9-0.2 0.8-1.4 1.2-1.2 2.1 0 0.7 0.9 0.9 1.4 0.6s0.9-0.7 1.4-1c1.3-0.7 2.8-0.9 4.4-0.8 2.7 0.1 5.5 0.9 8 1.7 1.3 0.4 2.7 1.1 4.2 0.8 0.8-0.1 1.7-0.5 2-1.3 0.2-0.8 0.1-1.6 0.5-2.3 0.4-0.8 1.2-1.8 2.3-1.6 3.4 0.3 6.9 0.2 10.4 0.3 2.2 0 4.5 0 6.6-0.2 0.6 0 1.3-0.2 1.7 0.3 1.1 1.1 1.2 2.7 2.2 3.8 1 0.8 2.4 0.7 3.7 0.7 1.6-0.1 3.1-1 4.8-1.4 3-0.7 6.3-0.9 9.2 0.1 0.8 0.2 1.4 1 2.3 1 0.6 0 0.7-0.8 0.4-1.2-0.6-0.9-0.9-1.9-1.3-2.9-0.2-0.4-0.3-0.9-0.1-1.4 0.2-0.4 0.8-0.5 1.3-0.6 2.4-0.3 4.9-0.8 7.2-1.6 1.7-0.6 3.6-1.4 4.9-2.9 0.6-0.8 0.7-1.8 0.5-2.6 2 0 4-0.7 5.8-1.3 2.3-0.9 4.6-2.1 6.6-3.4 1.2-0.8 2.3-1.8 3.3-2.9 0.2-0.3 0.4-0.7 0.4-1-0.9 0.4-1.7 1.1-2.7 1.4-3.5 1.4-7.4 1.8-11 2.7-1.6 0.4-3.3 0.8-4.5 2.1-1-0.8-2-1.7-3-2.5 2.8 0.1 5.8 0 8.6-0.6 0.5-0.1 0.9-0.2 1.3-0.6-0.5-0.1-0.9-0.2-1.3-0.2 1.1-0.1 2.3-0.1 3.4-0.2 1.7-0.2 3.6-0.6 4.9-1.9-1.5 0.2-3.1 0.2-4.8 0-2.4-0.3-4.8-1.2-7.2-1.4 1.2-0.8 1.8-2 2.5-3.1 0.3 0.6 0.6 1.2 1.2 1.5-0.3 0.2-0.8 0.5-0.9 0.9 0 0.4 0.2 0.9 0.6 1.1 0.9 0.5 2 0.4 3.1 0.5 2.7 0 5.4-0.4 8-1 0.4-0.1 0.9-0.2 1.1-0.6-1.6 0-3.2 0-5-0.3 2.9-0.2 6-0.8 8.6-2.2 0.7-0.4 1.2-1 1.6-1.6-2.6 1.1-5.5 1-8.2 0.8-1.3-0.1-2.6-0.3-4 0-0.5 0.1-1 0.5-0.9 1.1 0 0.8 0.7 1.2 1.3 1.6-1.4-0.1-2.7-0.3-4.1-0.4 1.4-1.2 2-2.9 2.5-4.7 0.2 0.5 0.4 1 0.9 1.2 0.8 0.5 1.9 0.4 2.6-0.2 1.6-1.2 2.4-3.2 2.7-5.2 2.9 0.5 5.9 0.9 8.8 0.6 2.1-0.3 4.1-1.3 5.6-2.7 1.8-1.7 3.3-3.6 4.9-5.6 0.3-0.3 0.3-0.6 0.4-1-0.6-0.6-1.5-0.3-2.4-0.2zm-32.2 3.7c-1.2 0.2-2.5 0.1-3.8 0.4-0.5 0.1-0.7 0.5-1 0.9 0-1.6-0.2-3.1-0.4-4.8h1.5c-0.3 1-0.4 2.1 0.2 3 0.5 0.3 1.1 0.2 1.5 0.1 1.1-0.2 1.7-1.3 2.2-2.2 0.9 0.4 1.8 0.9 2.6 1.4-0.7 0.7-1.8 1-2.8 1.2zm-59.8 37.1c-4.6-2-9.9-2.8-14.7-1 0.8-1.1 1.2-2.4 1.2-3.7 2.4 0.2 4.8 0.1 7.2 0 2.3 0 4.9-0.1 7 0.9 1 0.4 2.2 1.3 2.1 2.5 0 1.2-1.7 1.8-2.8 1.3zm44.8-28.2c0 0.2 0.1 0.5 0.1 0.8-0.4-0.1-0.7-0.1-1-0.2l0.9-0.6zm-12.6 28.2c-1.1 0.5-2.7 0-2.8-1.3-0.1-1.2 1.1-2 2.1-2.5 2.2-0.9 4.7-0.9 7-0.9 2.4 0.1 4.8 0.2 7.2 0 0 1.4 0.4 2.6 1.2 3.7-4.8-1.8-10.1-1-14.7 1zm16.5-24.2c-1 0.1-1.4-1-2.1-1.6l1.2-0.6c0.1 0.7 0.3 1.6 1.2 1.8 1.7 0.2 3.2-0.6 4.8-1.2 1.4-0.6 2.6-1.4 4-2.1-1.3 1.2-2.7 2.3-4 3.5-0.1-0.1-0.3-0.2-0.4-0.2-1.6 0.3-3.2 0.5-4.7 0.4z"/>
	<path class="st3" d="m339.5 278.1c-0.1-0.7-0.1-1.5 0-2.2 1.1-0.4 2.3-0.8 3.3-1.5 1.7-1.3 2.9-3.3 4-5.3 1.1-2.3 2-4.8 2.4-7.3 0.2-0.8-1-1.6-1.5-0.8-1.7 2-3.6 3.8-6.1 5-3.5 1.5-7.3 2.4-11.1 2.8 0.7-0.2 1.3-0.6 1.8-1.1 1.6-1.7 2.3-4.4 2-6.7-0.6 0.7-1.3 1.3-2 2-1 0.8-2.2 1.6-2.9 2.8-0.5 0.9-0.5 2-0.3 3 0.2 0 0.5 0.1 0.8 0.2-0.5 0.1-0.9 0.1-1.4 0.2 0.2-0.5 0.3-0.9 0.3-1.4 0.1-0.8-0.3-1.5-0.9-2.1-0.7-0.7-1.5-1.3-2.2-2.2-0.6-0.7-1-1.5-1.5-2.3-0.3 1.1-0.1 2.3-0.1 3.4 0.1 1.7 0.3 3.7 1.9 4.9-1.2 0.1-2.4 0.2-3.6 0.2 0-1.3-0.6-2.5-1.2-3.7 0.6-2.1 1.4-4.2 2.1-6.2s1.3-4.1 2.5-5.9c0.2 1.3 0.4 2.8 1.3 4 0.5 0.7 1.5 1 2.3 0.6 0.1-0.2 0.2-0.5 0.3-0.7 0.2 0.7 0.3 1.6 1.2 1.8-0.7 0.5-1.4 1.1-1.6 2-0.3 0.8 0.1 1.7 0.3 2.5 1.9-0.1 3.4-1.6 4.3-3.1 0.7-1.3 0.9-2.9 0.4-4.4-0.2-0.7 0-1.3 0.1-2 0.3-1.8 0.1-3.6-0.5-5.5-0.5 1.3-1 2.6-1.9 3.7-0.8 1-1.6 2.1-2.2 3.2-0.2-1.8-1.6-3.2-2.5-4.8 0.3-0.5 0.7-1 1.2-1.5 0.1 1-0.1 2 0.3 2.9 0.3 0.6 0.7 1.1 1.2 1.4 0.9-0.2 1.5-1.1 1.8-1.9 0.4-1.7-0.2-3.4-0.6-5.1-0.1-0.4-0.3-0.8 0-1.2 1-1.3 2.1-2.6 3.2-4 0.8-0.9 1.6-1.8 2.5-2.6 0.3 1.1 0.6 2.3 1.4 3.3 0.4 0.6 1.2 0.8 1.9 0.7 0-1 0.2-2-0.2-3-0.3-1-1.1-1.8-1.7-2.6-0.6-0.7-1-1.6-1.6-2.2-0.1 0.5-0.1 1-0.1 1.5-1.7-0.1-3.3 0.5-5.1 0.4-0.5 0-1.1-0.4-1.2-0.9-0.5-1.6-0.1-3.4-0.7-5.1-0.1-0.3-0.4-0.7-0.8-0.7-0.5 0-0.8 0.4-1 0.7-1.2 1.8-2.2 3.7-3.5 5.6-0.4-2.2-0.8-4.4-1-6.6-0.1-1.3 0-2.6 0.4-4 0.2-0.6 0.5-1 0.5-1.6-0.1-0.7-0.8-1.6-1.6-1.3-1.2 1.3-1.3 3.2-2.4 4.7-0.4-1.3-0.4-2.8-1-4.2-0.3-0.6-0.7-1.2-1.4-1.4-0.6-0.2-1.4-0.4-2 0.1-0.4 0.4-0.2 1.1-0.1 1.6 0.3 1 0.6 1.9 0.6 2.9-1.6-0.7-2.3-2.5-4-3.1-0.7-0.3-1.6 0.2-1.6 1-0.1 0.6 0.4 1.1 0.8 1.4 1.5 1.2 3.1 2.3 4.7 3.5 2.3 1.7 4.5 4 5.9 6.5 0.4 0.8 0.9 1.6 1.1 2.4-0.5 1.2-1.3 2.3-1.8 3.4-1.6 3-3.1 6.3-4.1 9.7-0.9 3.8-0.4 8.1 1.8 11.4-0.6-0.3-1.2-0.6-1.9-0.8 0 2.4 0.7 5.1 2.4 6.9-2.3 0.6-4.3 2.2-5.7 4.2-1.5 2-2 4.6-2.8 6.9-0.5 1.3-0.6 2.7-1.4 3.8-0.8 1.3-1 2.8-0.9 4.3 0.1 1.1 0.4 2.3 1.2 3.1 0.5 0.5 1.4 0.6 2.1 0.5 0.2-0.8 0.5-1.7 0.4-2.6-0.2-1.6-1.4-2.8-1.7-4.6 1.3-1.4 3-2.5 4.8-3.2-0.8 1.6-2.3 2.7-3.3 4.2-0.3 0.4-0.5 1.1 0 1.5 0.8 0.6 2 0.6 2.8 0 2-1.3 2.6-4.1 2-6.3 1.6-0.4 3.2-0.8 4.9-1-1.1 1.4-2.7 2.2-4 3.4-0.4 0.4-0.8 1-0.5 1.6 0.2 0.5 0.8 0.5 1.3 0.6-1.5 1-3.1 1.8-4.7 2.8-0.6 0.5-1.2 1-1.5 1.7-0.3 0.6 0 1.3 0.5 1.8 0.6 0.2 1.3 0 1.8-0.2 1.4-0.8 2.6-1.9 3.8-3 1.8-1.6 3.4-3.4 5.1-5.4 0.5-0.6 1-1.2 1.1-1.9-1.4 0.6-2.3 1.9-3.6 2.5 1-1.3 1.9-2.6 2.1-4.4 2.9-0.6 5.8-1.3 8.7-2-0.7 1.6-1.4 3.2-1.7 5-0.2 1.2-0.2 2.4-0.1 3.6-0.3-1-0.6-1.9-0.7-2.9-0.1 0-0.3-0.1-0.4-0.1-0.1 2.1-0.1 4.3-0.1 6.4 0.1 1.4 0 3.2 0.9 4.4 0.5 0.6 1.3 0.5 2.1 0.5 0.5-0.5 0.9-1.2 0.7-1.9-0.4-2-1.5-3.8-2.2-5.8 0.4 0.7 0.9 1.2 1.6 1.5 0.1 0.6 0.2 1.4 0.8 1.6 1.4 0.2 2.8-0.5 4.1-1.2 2.4-1.4 4.8-3.1 6.6-5.3 0.5-0.6 1-1.2 1.1-1.9-1.2 0.4-2 1.4-3.2 1.9 0.8-1 1.8-2 2.7-3 0.8-0.9 1.7-1.8 2.4-2.8-0.7 0-1.2 0.5-1.7 0.8-1 0.5-2 1-3.1 1.3 2.4-1.4 4.6-3.3 6.1-5.8 0.7-1.2 1.4-2.6 1.3-4.1-0.1 0-0.3 0.1-0.3 0.1-2.6 3.6-6.8 4.9-9.5 8.1zm-6.7-0.2c0.5-0.3 1.1-0.4 1.7-0.5-0.1 1.7-0.6 3.4-1.2 5.2-0.4-1.7-0.6-3.2-0.5-4.7zm4.5 8c-1.2 0.4-2.4 0.8-3.5 1.4 0.1-1 0-2-0.2-3 0.6 0.2 1.4 0.6 1.9 0.1 0.9-0.8 1-2.1 0.9-3.2-0.1-1.4-0.7-2.7-1.7-3.8 0.7-0.1 1.4-0.3 2-0.5 0 0.9-0.1 1.9 0.5 2.5 0.4 0.5 1 0.5 1.6 0.7 0.1 0.2 0.3 0.4 0.4 0.6 0.5 0.1 1.1 0 1.6 0-1.5 0.6-3.1 1.2-4.3 2.4-0.7 0.8-0.4 2.3 0.8 2.8z"/>
	<path class="st3" d="m201.4 211.2c0.6-0.5 1.1-1.1 1.6-1.7-0.2 0.7-0.5 1.5-0.3 2.1 0.7 0.2 1.4 0.1 2.2 0.1-1.6 0.7-3.3 1.4-4.6 2.8 0-2-0.8-4.1-0.8-6.1 0-1 0.2-1.9 0.3-2.8-0.2 0.1-0.5 0.2-0.6 0.4-1.5 2.2-2.5 4.8-2.6 7.5-0.1-0.9 0.2-1.9-0.2-2.6-0.7 1.2-1.3 2.4-1.8 3.7-0.6 1.5-1 3.2-0.6 5 0.3 1.2 1.3 2 2.4 2.5 0.2-0.2 0.4-0.5 0.6-0.7 0.6 0.5 1.2 1.1 2 1 1.2 0.1 2.3-0.5 3.2-1.3 1.4-1.3 2.3-3 2.7-4.9 0.1-0.6 0.7-1 1.1-1.4 1-1.1 1.5-2.6 2.1-4.1 0.3-0.9 1.2-1.5 1.8-2.2 1.3-1.7 2.5-3.4 3.5-5.4-0.4-0.1-0.8 0.2-1.1 0.4-1.3 0.9-2.8 1.6-4.3 2.3-1.7 0.9-3.5 1.7-4.9 3.2 0.2-0.9 0.5-1.7 0.5-2.6 0-2.3-0.3-4.6-0.1-6.9-0.6 0.2-0.8 0.8-1.1 1.3-1 1.8-2.1 3.7-2.4 6-0.2 1.6 0.3 3.3 1.4 4.4zm-3.9 8.6c0.2-1.6-0.4-3.1-0.7-4.7 0.4 0.8 1.3 1.5 2.2 1.5 0.3-0.2 0.5-0.4 0.8-0.7 0 0.2 0.1 0.5 0.1 0.7 1.1 0.1 2.2 0.1 3.2 0-1.6 1.3-3.8 1.8-5.6 3.2z"/>
	<path class="st3" d="m188.7 212c0.7 0.3 1-0.5 1.3-0.9v0.7c1.3 0.1 2.7 0.1 4-0.6 1.7-0.9 2.7-2.6 3.1-4.5 0-0.7 0.7-1 1.1-1.4 1.5-1.5 2.5-3.4 3.1-5.5 0.2-0.7 0.5-1.5 0.5-2.3l-0.3-0.1c-0.8 0.9-1.5 1.8-2.4 2.5-2 1.7-4.7 2.6-6.7 4.5 0.9-4.9-0.2-13.2-1.1-14.7-1 2.5-1.7 8.6-1.7 13.1-0.5-2.5-0.8-5.2-1.5-7.7-0.4 0.4-0.4 1-0.5 1.4-0.6 4.1-1.3 8.1-0.9 12.3 0.5 1.1 0.8 2.6 2 3.2zm2.9-5.5c0.2-0.3 0.5-0.5 0.7-0.7 0 0.4 0.1 0.7 0.1 1.1 0.7 0.2 1.5 0.4 2.3 0.3s1.5-0.4 2.2-0.6c-1.4 1.1-3.2 1.2-4.9 1.9-0.8 0.3-1.4 0.9-1.7 1.7 0.3-2.3-0.1-4.7-0.2-7 0.1 1.2 0.4 2.5 1.5 3.3z"/>
	<path class="st3" d="m320.1 206.5c0.5-0.1 0.8-0.7 1.1-1.2-0.1 2-0.7 4.3 0.3 6.2 0.3 0.5 0.6 1.2 1.3 0.9 1.2-0.6 1.6-2.1 1.8-3.3 0.3-4.7-0.8-9.1-1.2-13.7-0.1 0-0.3-0.1-0.4-0.1-0.2 2.5-0.6 5.2-1.2 7.6-0.3-4.1-1.4-8-1.9-12.2-0.1-0.3-0.2-0.6-0.3-0.8-0.2 0.3-0.3 0.7-0.3 1-0.3 3.4-1 6.9-1 10.4 0 1.9 0.1 4 1.8 5.2z"/>
	<path class="st3" d="m195.7 201.8c0.9-0.4 1.5-1.3 2-2.2 0.8-2.1 0.9-4.5 0.7-6.6-1.4 1.2-2.8 2.5-4 4-1.1 1.4-1.4 3.3-1 5.1 0.9-0.1 1.6 0 2.3-0.3z"/>
	<path class="st3" d="m314.9 201.5c0.7 0.6 1.6 0.6 2.4 0.8 0.6-1 0.8-2.2 0.4-3.3-0.7-2.1-2.5-3.6-4-5.2-0.2-0.3-0.5-0.4-0.8-0.6 0.2 1.7 0.2 3.4 0.4 5.2 0.2 1.1 0.6 2.3 1.6 3.1z"/>
	<path class="st3" d="m313.9 205.5c1.3 1 3.1 1.5 4.8 1.4 0-0.6 0.1-1.3-0.2-1.8-0.6-1.4-2-2.1-3.1-2.9-2.2-1.4-4.4-2.9-6-5-0.3 0.4-0.1 1 0.1 1.4 0.8 2.7 2.2 5.2 4.4 6.9z"/>
	<path class="st3" d="m209 204.8c1.5-1.8 1.9-4.3 2.2-6.5-1.3 0.7-2.6 1.4-3.8 2.3-0.9 0.7-1.9 1.6-2.3 2.8-0.3 0.9-0.3 1.9 0 2.7 1.4 0.6 3-0.1 3.9-1.3z"/>
	<path class="st3" d="m183.4 222.2c0.3-0.3 0.6-0.6 0.8-1 0 0.1 0.1 0.3 0.1 0.4 1 0.7 2.4 0.5 3.4 0.2 2.3-0.8 4.1-2.8 4.6-5.2-1 0.4-2.1 0.8-3.2 1s-2.3 0.2-3.3 0.8c-0.6 0.3-0.9 0.9-1.2 1.4 0-1.5-0.1-3-0.4-4.5 0.4 0.6 0.8 1.4 1.5 1.5 0.5 0.1 0.8-0.4 1-0.7 0.4-0.9 0.4-2 0.4-2.9-0.2-4.5-1.3-8.8-2.3-13.2-0.1-0.5-0.2-0.9-0.5-1.4-0.4 0.9-0.9 9.5-0.6 13.9-0.8-3.2-1.5-6.6-2-10h-0.4c0 4.9-0.5 9.7-0.3 14.6 0.1 1.4 0.1 2.8 0.7 4.2 0.2 0.5 1 1 1.7 0.9z"/>
	<path class="st3" d="m304.6 206.2c0.6 0.1 1.3 0.1 1.9-0.1 0.4-1.7 0-3.5-1.4-4.7-1.3-1.1-3-1.6-4.5-2.7 0.5 1.8 0.5 3.8 1.4 5.6 0.6 0.8 1.5 1.8 2.6 1.9z"/>
	<path class="st3" d="m324.4 215.8c0.2 0.4 0.4 1 1 0.8 0.9-0.2 1.3-1.1 1.6-1.9-0.1 1.7-0.4 3.5-0.3 5.3-0.5-0.5-1-1.1-1.6-1.4-0.9-0.5-2-0.7-3-1-0.9-0.2-1.8-0.6-2.8-0.8 0.5 1.9 1.7 3.6 3.4 4.6 1.3 0.8 2.9 0.9 4.5 0.8 0.1-0.1 0.1-0.3 0.2-0.4 0.3 0.4 0.9 0.6 1.4 0.4 0.6-0.3 0.9-0.9 1.1-1.5 0.5-1.5 0.6-3.1 0.7-4.7 0.2-4.6-0.1-9-0.6-13.5h-0.4c-0.4 3.4-1.3 6.8-2 10.2 0.2-4.4 0-8.7-0.5-13-0.1-0.2-0.1-0.4-0.2-0.6-0.2 0.2-0.3 0.4-0.3 0.6-0.6 4.3-1.8 8.4-2.3 12.7-0.1 0.9-0.2 2.2 0.1 3.4z"/>
	<path class="st3" d="m303.8 210.8c-0.1 0-0.3 0.1-0.5 0.1v0.2c0.5 1.1 1.2 2.1 1.9 3.1 0.4 0.6 1.2 1 1.4 1.8 0.4 1.4 0.9 2.9 1.8 4.2 0.8 1 2 1.8 3.3 1.8 1 0 2.2 0.1 3.2-0.5 0.1 0 0.3 0.2 0.4 0.2 1-0.1 1.8-0.8 2-1.8 0.4-2.5-0.2-5.1-1.2-7.4-0.2-0.5-0.4-1.1-1-1.3 0 0.9 0 1.7-0.1 2.6-0.3 2-1.2 4.1-1 6.2-0.6-0.7-1.3-1.3-2.1-1.6-1.4-0.6-2.9-1.1-4.2-2.2 1.2 0.2 2.4 0.4 3.6 0.2v-0.7c0.4 0.3 0.7 1 1.2 0.8 1.2-0.4 2.1-1.5 2.1-2.8 0.2-2-0.6-4.1-1.5-5.8-0.4-0.8-0.8-1.6-1.5-2.2-0.1 0.8 0.2 1.6 0.1 2.4-0.1 2-0.7 4.1-0.7 6.2-0.4-0.6-0.9-1.2-1.5-1.5-1.2-0.6-2.6-0.8-4-1.1 1.1 0.1 2.2 0.2 3.3-0.3v-1.1l0.9 0.6c0.8-0.4 1.3-1.2 1.5-2.1 0.2-1.5-0.1-3-0.7-4.5-0.8-1.7-1.7-3.3-2.9-4.9 0 0-0.2 0.1-0.2 0.2 0.1 1.2 0.4 2.4 0.3 3.5-0.1 1.5-0.2 3.1 0 4.8-2.1-1.5-4.8-2.1-6.9-3.4-0.9-0.5-1.6-1.2-2.4-1.7 0.9 3.3 2.8 6.2 5.4 8z"/>
	<path class="st3" d="m319.9 208.8c-1-0.8-2.3-1.1-3.4-1.5-0.9-0.3-1.6-0.7-2.3-1.2 0.5 1.6 1 3.2 2.3 4.4 1.2 1.1 2.9 1.3 4.6 1.2-0.2-1-0.4-2.1-1.2-2.9z"/>
	<path class="st3" d="m331 219.1c0 1.2 0 2.4 0.4 3.6 0.1 0.4 0.5 1 1 0.9 0.7-0.3 0.5-1.2 0.5-1.8-0.3-1.7-0.5-3.5-0.1-5.2 0.5-2.1 0.6-4.3 0.3-6.4l-0.2 0.3c0.1 1.8 0.2 3.6-0.3 5.4s-0.3 3.7 0 5.7c0 0.6 0.3 1.4-0.4 1.8-0.6-0.6-0.6-1.4-0.7-2.2-0.1-1.8-0.2-3.6 0.2-5.5 0.6-2.1 0.6-4.5-0.1-6.6-0.1-0.3-0.3-0.8 0-1.1 0.2-0.2 0.6-0.1 0.7 0.1 0.3 0.7 0.4 1.4 0.5 2.1 0.5-0.7 0-1.6-0.2-2.3-0.3-0.6-1.2-0.6-1.4 0-0.3 0.8 0.3 1.6 0.5 2.4 0.2 1.6 0.3 3.3-0.2 5.1-0.5 1.3-0.5 2.5-0.5 3.7z"/>
	<path class="st3" d="m178.6 222c0 0.6-0.2 1.5 0.5 1.8 0.8 0.1 1.2-0.8 1.2-1.4 0.3-2.3 0.5-4.7-0.1-7-0.5-2-0.5-4.1 0.2-6 0.1-0.3 0.3-0.7 0.1-1.1-0.2-0.5-0.9-0.9-1.3-0.5-0.5 0.4-0.6 1.1-0.7 1.6-0.3 2.2-0.4 4.7 0.2 7 0.5 1.8 0.2 3.7-0.1 5.6z"/>
	<path class="st3" d="m192.3 212.4c-1.3 0.3-2.9 0.4-4 1.5-0.7 0.6-0.9 1.5-1.1 2.3 1.7 0.8 3.8 0.4 5.4-0.7 1.4-0.9 2.2-2.5 2.2-4.2-0.8 0.5-1.6 0.9-2.5 1.1z"/>
	<path class="st3" d="m319.5 215.7c1.3 0.8 2.8 0.9 4.4 0.8 0.1-1.3-0.4-2.7-1.6-3.3-1.8-0.8-3.8-0.7-5.7-1.5 0.3 1.6 1.4 3.1 2.9 4z"/>
	<path class="st3" d="m334.2 234.1c0.1 0.4 0.4 1.1 1 0.9 0.6-0.3 0.6-1.2 0.6-1.9 0-1.1 0.4-2.1 0.8-3.2 0.5-1.5 0.9-3.1 0.8-4.8 0-1.6-0.6-3.2-0.9-4.8-0.2-1.3-0.4-2.5-0.4-3.7-0.1-1.2 0.5-2.3 0.3-3.4-0.1-0.3-0.5-0.9-1-0.7-0.5 0.3-0.6 1.1-0.7 1.6-0.3 2.8-0.3 5.9 0.4 8.7 0.4 1.2 0.4 2.5 0.3 3.8-0.3 2.4-1.6 4.9-1.2 7.5z"/>
	<path class="st3" d="m175.7 233.7c0 0.5 0.2 1.4 0.9 1.4 0.4 0.1 0.5-0.4 0.6-0.6 0.4-1.7-0.1-3.5-0.6-5.3-0.5-1.7-0.7-3.5-0.5-5.3 0.2-0.9 0.5-1.8 0.6-2.8 0.4-2.4 0.4-5 0-7.4-0.1-0.5-0.4-1.4-1.1-1.1-0.6 0.3-0.7 1.3-0.5 1.9 0.6 2.4 0.1 5-0.5 7.4-0.6 1.9-0.8 4.1-0.3 6.1 0.4 2 1.5 3.7 1.4 5.7z"/>
	<path class="st3" d="m172.9 227.4c0.3-0.8-0.2-1.7-0.2-2.5-0.2-1.3 0.6-2.4 0.6-3.5 0-1.2 0-2.4-0.5-3.5-0.2-0.4-0.7-0.5-1.2-0.4-0.3 0.1-0.5 0.4-0.5 0.7 0.3 0.7 0.6 1.4 0.7 2.2 0.2 1.2-0.6 2.3-0.7 3.6-0.1 1 0 2.1 0.3 3.1 0.2 0.6 1.1 1.1 1.5 0.3z"/>
	<path class="st3" d="m338.7 224.9c-0.1 0.8-0.5 1.6-0.2 2.4 0.4 0.7 1.4 0.1 1.5-0.5 0.4-1.6 0.4-3.3-0.2-4.9-0.4-1.2-0.2-2.5 0.4-3.6 0.4-0.7-0.7-1.3-1.2-0.8-0.9 0.8-0.8 2.2-0.8 3.3-0.2 1.4 0.8 2.7 0.5 4.1z"/>
	<path class="st3" d="m180.6 224.4c-1 1.3-1.3 3-1.2 4.8 1.4 0.4 2.9-0.2 3.7-1.4 1.2-1.5 1.3-3.6 0.9-5.5-1.3 0.2-2.6 0.9-3.4 2.1z"/>
	<path class="st3" d="m182.8 301.5c0.5-0.5 0.3-1.2 0.1-1.8 0.4 0.4 1 0.7 1.6 0.5 0.7-0.3 0.9-1.2 1-1.9 0.2-3.5-0.9-7-2.5-10-0.2 1.5-0.3 3.1-0.7 4.7-0.3 2-0.9 4.5 0.2 6.4-1.6-1.1-3.6-1.4-5.5-2.1 0.8-0.2 1.4-1 1.1-1.8-0.4-1-1.6-1.5-2.5-2 0.7 0 1.6-0.3 1.7-1.1 0.1-1.2-1.1-1.8-1.9-2.3 0.9 0.2 1.9 0.8 2.7 0.2 0.5-0.3 0.4-1 0.3-1.5 0.7 0 1.5-0.3 1.9-0.9 0.8-1.1 0.5-2.5 0.3-3.7-0.4-1.8-1.1-3.6-1.9-5.3-0.1 0.3-0.2 0.6-0.1 0.9 0.1 1.1-0.1 2.3-0.3 3.4-0.4-2-1.5-3.8-2.1-5.8 4.1 1.1 8.2 2 12.4 3-0.2 1.7 0.8 3.3 1.8 4.7-1.2-0.6-2.4-1.5-3.4-2.4-0.2-0.2-0.5-0.3-0.8-0.4 0.4 0.8 0.9 1.5 1.5 2.1 1.1 1.4 2.4 2.8 3.6 4.2 0.6 0.6 1.2 1.1 1.7 1.7-1.4-0.8-2.5-1.9-3.8-2.9 0 0.3 0.1 0.7 0.3 1 0.8 1.4 1.7 2.7 2.8 4 1.3 1.6 2.8 3 4.6 4.3 0.8 0.5 1.7 1 2.6 0.7 0.7-0.3 0.9-1.4 0.4-2-0.7-1-1.8-1.7-2.8-2.4 0.5-0.1 1.2-0.2 1.4-0.7 0.5-0.8 0-1.7-0.6-2.3-1.5-1.4-3.4-2.4-5.2-3.4 0.4-0.2 0.9-0.4 1-0.9 0.2-0.6-0.3-1.1-0.7-1.5-1.3-1.1-2.6-2.1-3.7-3.4 1.6 0.3 3.3 0.7 5 1 0 1.7 0 3.5 0.7 5.2 0.4 1 1.5 1.8 2.7 1.8 0.7 0 1.5 0 1.9-0.8 0.1-0.7-0.3-1.3-0.7-1.7-1-1.4-2.3-2.5-3.4-3.8 0.9 0.1 1.6 0.6 2.4 1 1.2 0.7 2.2 1.6 3.2 2.5-0.4 1.6-1.5 3-2 4.7-0.3 1.1 0.5 2.8 1.8 2.5 1-0.3 1.4-1.3 1.7-2.2 0.6-2.3 0.3-4.9-0.8-7-0.2-0.1-0.3-0.2-0.5-0.3-0.5-2-1.1-4-1.8-5.8-1.1-3.4-3.8-6.5-7.3-7.6-0.1-0.2 0.1-0.3 0.3-0.5 1.6-1.6 2-4 2.1-6.2-0.9 0.1-1.5 0.6-2.3 1 2-3.4 2.8-7.7 2.1-11.5-1.2-4.7-3.5-9-5.8-13.3 1.1-2.9 3-5.5 5.4-7.6 1.9-1.7 4.1-3.1 6.1-4.8 0.5-0.4 1-1 0.7-1.6-0.3-0.7-1.2-0.9-1.8-0.5-1 0.7-1.8 1.8-2.8 2.6-0.2 0.2-0.5 0.3-0.8 0.4-0.1-1.3 0.5-2.5 0.7-3.7 0.1-0.5-0.2-1.1-0.7-1.1-1-0.1-2 0.2-2.5 1.1-0.8 1.4-0.8 3.1-1.2 4.8-1.1-1.3-1.2-3.3-2.4-4.7-0.7-0.3-1.4 0.4-1.5 1.1 0.1 0.8 0.6 1.5 0.7 2.3 0.5 3.2-0.2 6.5-0.8 9.7-1.4-2-2.5-4.2-3.8-6.2-0.4-0.5-1.2-0.9-1.6-0.3-1 1.7-0.3 4-1.1 5.8-0.4 0.7-1.3 0.7-2 0.7-1.4-0.2-2.7-0.5-4.2-0.4 0-0.3 0.1-0.7 0.1-1-0.5 0.3-0.8 0.8-1.2 1.3-0.6 0.9-1.4 1.6-1.9 2.5-0.7 1.3-0.7 2.8-0.4 4.2 0.7-0.4 1.4-0.8 1.8-1.5 0.7-0.9 0.9-2 1.1-3.2 2.1 2.1 4 4.5 5.8 6.8 0.3 0.4 0.1 0.9 0 1.2-0.5 1.6-0.9 3.3-0.5 5 0.3 0.8 1 1.8 1.9 1.9 1.3-0.8 1.6-2.3 1.7-3.7 0.4 0.5 0.7 1 1.1 1.5-1.1 1.5-2.3 3-2.6 5-0.9-2.4-3-4.2-3.7-6.6-0.2-0.4-0.2-1-0.7-1.3 0 2.7-0.2 5.6 0.7 8.1 0.6 1.4 2 2.4 3.5 2.5 0.1-0.3 0.2-0.6 0.2-0.8 0.9 0 1.9-0.2 2.5-0.9 1.1-0.9 1.3-2.4 1.6-3.7 1.1 1.6 2 3.4 2.9 5.2 1 2 1.8 4.4 1.6 6.7-0.5 1.1-1.1 2.2-1 3.5-1.6-0.2-3.2-0.1-4.9-0.4 0.8-0.3 1.6-0.5 2.1-1.2 0.9-1.5 0.7-3.3 0.7-5.1-0.1-0.5 0.1-1.2-0.5-1.4-0.6 2.3-2.9 3.6-4.2 5.6-0.1-1.1-0.9-2-1.8-2.7h1.3c0-1 0.1-2-0.4-2.8-0.6-1.1-1.7-1.6-2.6-2.4-0.9-0.7-1.6-1.6-2.2-2.4-0.5 0.2-0.9 0.5-1 1.1-0.8 2.1-2.9 3.3-4 5.4-0.8-1.3-2-2.3-3.1-3.3 0.7 0.3 1.4 0.5 2.1 0.4 0.2-0.7 0.6-1.5 0.2-2.2-0.6-1.6-2.2-2.6-3.3-4 0.3 0.2 0.6 0.3 0.9 0.5 0.7 0.4 1.5 0.2 2.2 0.2 0.6-2.3-1.1-4.3-2.3-6 0.8 0.3 1.6 0.6 2.4 0.5 0.3-2.1-0.8-4.2-2-5.8 0.6 0.2 1.3 0.3 1.9 0.3 0.3-1.1 0.1-2.2-0.4-3.3-1-2.3-2.9-4.1-4.2-6.3-0.5-0.8-0.7-1.7-1-2.5-0.3-0.1-0.4 0-0.4 0.3 0.3 3.1 0.8 6.2 2 9.1-1.4-1.4-2.5-3.1-3.1-5.1-0.1 0-0.3 0.1-0.4 0.1 0.2 3.4 1.3 6.7 2.7 9.7-1.3-1.2-2.3-2.5-3.5-3.8-0.1-0.1-0.4-0.2-0.5-0.2 0.3 0.9 0.9 1.6 1.3 2.5 1.5 2.9 2.1 6.3 3.8 9.1-1.6-1.5-2.7-3.4-4.1-5.2-0.5-0.2-0.2 0.5-0.2 0.7 0.7 2.2 1.5 4.5 2.6 6.6 0.4 0.8 0.9 1.4 1.2 2.2-0.7-0.6-1.3-1.4-1.9-2.2-0.2-0.3-0.4-0.8-0.9-0.8 0.2 1 0.8 1.8 1.1 2.7 0.8 1.8 1.4 3.7 2.4 5.5 0.5 0.9 1.1 1.8 2 2.4 0.7 0.4 1.4 0.3 2.1 0.3 0.1-0.4 0.2-0.7 0.3-1.1 1.2 0.4 2.8 0.3 3.6-0.9 1.2-1.9 0.8-4.2 0.9-6.3 0.2 1.6 0.8 3.1 1.5 4.7-0.5-0.3-0.9-0.7-1.4-1.1 0 0.9 0.2 1.8 0.4 2.6 0.5 1.8 1.3 3.7 3 4.8-3.7-0.4-7.5-1.3-10.8-2.9-2.1-1.1-3.8-2.6-5.4-4.6-0.3-0.2-0.5-0.7-0.9-0.6-0.7 0.1-1 0.9-0.9 1.5 0.4 1.9 1 3.7 1.7 5.5 0.9 2.2 2.1 4.4 3.7 6.1 1.2 1.2 2.8 1.7 4.5 2.2-0.2 0.9-0.4 2 0 2.8 0.3 0.7 0.9 1.1 1.4 1.5 0.9-0.9 1.6-2 1.5-3.3l0.4 0.1c0.1 2.1-0.4 4.3-0.2 6.4 0 0.5 0.4 1 0.8 1.2 0.7 0.2 1.4 0 2-0.3-0.2 1.1-0.4 2.1-0.3 3.2-1.1-0.7-2.3-1.1-3.5-1.5 0.4-0.3 1.3-0.4 1.2-1.1 0.1-0.9-0.5-1.7-1.2-2.2-1.1-0.7-2.5-1.2-3.7-1.7 0.6 0 1.4 0 1.9-0.4 0.3-1.1-0.6-1.9-1.3-2.5-2.8-2.4-6.3-4.2-8.8-7-0.2-0.2-0.4-0.3-0.7-0.5 0.2 1.1 0.9 2.1 1.4 3 1.5 2.5 3.3 4.9 5.7 6.7-1.1-0.3-2-0.8-3-1.4-0.3-0.2-0.6-0.3-0.9-0.3 0.6 1.2 1.6 2.2 2.6 3.1 1.2 1.3 2.6 2.3 4.1 3.4-1.7-0.5-3.2-1.5-4.7-2.5 0.1 0.8 0.7 1.3 1.2 1.8 2 2 4.4 3.7 6.8 5.3-2.1-1-4.4-1.9-6.4-3.2-0.6-0.4-1.1-1-1.9-1.2 1.4 2.8 3.8 5 6.2 6.9-2-0.6-3.6-1.9-5.4-3 0.1 0.4 0.2 0.8 0.5 1.2 1.7 2.4 4 4.4 6.3 6.1-1.4-0.4-2.5-1.4-3.8-2 0.5 1.1 1.5 1.9 2.3 2.8 2 1.9 4.4 3.6 7 4.8 1.4-0.4 2.7 0.1 3.5-0.8z"/>
	<path class="st3" d="m328.1 222.7c-0.9 0.6-0.8 1.9-0.6 2.8 0.4 1.4 1.1 2.8 2.4 3.5 0.7 0.5 1.8 0 2-0.9 0.2-1.6-0.6-3-1.6-4.3-0.4-0.6-1.2-1.4-2.2-1.1z"/>
	<path class="st3" d="m339.8 237.9c0.4 0.6 1.2 1.1 1.8 0.6 0.9-0.5 1.2-1.7 1.2-2.7 0-2.9-0.8-5.7-1.5-8.4-0.8 2.4-1.5 4.9-1.9 7.4 0 0.9-0.1 2.1 0.4 3.1z"/>
	<path class="st3" d="m170.7 238.7c0.9-0.8 1.2-2 1.2-3.1 0.1-2.4-0.9-4.7-1.4-7-0.1-0.3 0-0.9-0.5-0.8-0.3 0.8-0.4 1.5-0.7 2.3-0.5 2-1 4.3-0.6 6.3 0.4 1 0.9 2.1 2 2.3z"/>
	<path class="st3" d="m198 230c-0.1-0.5-0.6-0.7-1-0.6-0.3 0.1-0.6 0.4-0.9 0.6-1.4 1.3-3 2.5-4.2 4.3-0.8 1.1-0.9 2.5-1.3 3.8-0.2 0.8-0.7 1.6-0.6 2.5 0 0.4 0.2 0.9 0.6 1.1 0.6 0.2 1.3-0.2 1.7-0.7 0.9-1.4 0.6-3.2 1.3-4.7 0.7-1.7 2-3 3.2-4.4 0.3-0.6 1.3-1.1 1.2-1.9z"/>
	<path class="st3" d="m313.3 230.6c-0.3-0.5-0.7-1.1-1.3-1.1-0.7-0.1-1.2 0.7-1 1.3 0.3 0.5 0.9 0.8 1.2 1.4 0.6 1 0.9 2.2 1.2 3.3 0.2 1 0.1 2 0.5 3 0.5 1.3 1.6 2.2 2.4 3.3 0.3 0.4 0.5 0.8 0.9 1.1 0.5 0.3 1.3 0.2 1.5-0.4 0.2-0.9-0.4-1.6-0.9-2.3-1-1.2-2.4-2.4-2.5-4.1-0.2-1.7-0.7-3.4-1.5-5l0.3-0.3c1.4 1.6 3 3.2 4 5.3 0.6 1.3 0.4 2.9 1 4.3 0.3 0.5 0.8 1.2 1.5 1.1 0.5 0.1 0.7-0.5 0.8-0.9 0.1-0.9-0.3-1.6-0.6-2.4-0.4-1.3-0.5-2.8-1.3-4-1.1-1.6-2.6-2.8-4.1-4.2-0.3-0.4-0.9-0.7-1.4-0.5-0.4 0.2-0.2 0.7-0.2 1.1h-0.5z"/>
	<path class="st3" d="m194.8 243.5c0.5-0.5 0.9-1.2 1.5-1.7 0.9-1 1.8-2.1 2-3.5 0.1-1.9 0.6-3.7 1.5-5.5 0.3-0.6 1.4-0.9 1.2-1.7 0-0.5-0.6-0.7-0.9-0.9-0.4 0.2-0.9 0.5-1.2 0.9-1 1.3-1.5 2.8-1.9 4.4-0.3 1-0.1 2.1-0.7 2.9-0.6 0.9-1.3 1.6-2 2.4-0.6 0.6-1.3 1.3-1.2 2.3 0 0.9 1.2 1 1.7 0.4z"/>
	<path class="st3" d="m340.9 243.1c0.5 0.7 1.5 0.4 2.2 0.1-0.9 1.2-2.1 2.2-2.4 3.7-0.4-1.3-1.4-2.1-2-3.3-0.7-1-1.1-2.1-1.5-3.2-0.1 0-0.3 0.1-0.4 0.1-0.1 2.2-0.4 4.6 0.5 6.7 0.5 1.2 1.8 1.7 3 1.6 0.1-0.3 0.3-0.5 0.4-0.8 0.1 0.3 0.2 0.6 0.3 1 0.6 0.1 1.3 0 1.9-0.1-1.2 1.6-2.5 3.6-2 5.8 1.4 0.2 2.8-0.6 3.6-1.7 1.9-2.6 2.9-5.7 4.1-8.7 0.3-1 0.9-1.9 1.1-2.9-0.6 0.2-0.9 0.8-1.3 1.3-0.7 0.9-1.4 1.9-2.3 2.7 1.2-2.8 2.2-5.8 2.1-8.9-0.1-0.1-0.2-0.3-0.3-0.4-0.2 0.6-0.4 1.3-0.7 1.9-0.6 1.4-1.5 2.7-2.5 3.8 1.5-2.9 2.3-6.4 1.9-9.7h-0.4c-0.8 2.8-2.8 5-4.4 7.4-0.8 1-1.2 2.3-0.9 3.6z"/>
	<path class="st3" d="m174.3 240.3c-0.5 0.7-0.7 1.7-1.2 2.5-0.5 0.9-1.4 1.7-1.9 2.7-0.4 1-0.3 2.2-0.2 3.2 1.2-0.2 2.5-0.6 3.2-1.8s0.7-2.5 0.5-3.8c0.1-1 0.2-1.9-0.4-2.8z"/>
	<path class="st3" d="m340.2 254.2c0.3-0.9 0.5-2-0.2-2.9-0.8-1.1-1.9-2-2.6-3.1-0.7-0.9-0.9-1.9-1.5-2.8-0.3 0.8-0.1 1.7-0.1 2.5 0.1 1.6 0.4 3.2 0.8 4.8-0.3-0.4-0.3-1.4-1-1.3-0.2 1 0 2.1 0 3.1 0.1 1.4 0.2 2.9 1.1 4.2 0.6 0.7 1.7 0.9 2.5 0.7 0.2-1 0.4-2-0.1-3-0.6-1.1-1.6-1.8-2.3-2.9 1.1 0.6 2.3 1 3.4 0.7z"/>
	<path class="st3" d="m173.7 248.2c-1 1.1-2.1 2.1-2.5 3.6-0.2 0.8-0.1 1.6 0.3 2.3 0.7-0.1 1.5-0.2 2.1-0.7 1.2-0.9 1.6-2.5 1.8-4.1 0.1-1.1 0.4-2.3-0.1-3.4-0.4 0.8-1 1.6-1.6 2.3z"/>
	<path class="st3" d="m349.1 253.5c-0.6-0.1-0.9 0.5-1.1 0.9v-0.9c-0.7 0.6-1 1.5-1.7 2.2 1.2-2.4 2.5-4.9 2.5-7.7-0.1 0-0.3-0.1-0.3-0.1-0.5 0.8-0.9 1.6-1.4 2.3-1.7 2.3-4.1 4-5.7 6.3-0.7 1-1.1 2.3-0.4 3.4 0.4 0.1 0.9-0.1 1.3-0.1-1 0.9-1.9 1.9-2.6 3-0.2-0.6-0.4-1.2-0.8-1.7-1-1.2-2.2-2.2-2.9-3.7-0.3-0.5-0.4-1.1-0.9-1.4-0.3 1.3 0 2.6 0 3.8 0.1 1.3 0.3 2.8 1.1 4 0.6 0.9 1.8 1 2.8 0.7 0 0.3 0.1 0.5 0.2 0.8 1.2 0.2 2.5 0 3.4-0.8 1.8-1.6 2.6-4 3.5-6.1v0.9c0.3 0.3 0.7 0.5 1.1 0.7 0.7-0.6 1.1-1.4 1.6-2.1 0.6-1.1 1.2-2.2 1.5-3.4 0.3-0.6-0.7-0.9-1.2-1z"/>
	<path class="st3" d="m171.2 257.2c-0.2 0.6 0.1 1.1 0.3 1.6 1 0.1 2.2 0.2 3-0.5 1.3-0.9 1.3-2.7 1.3-4.3-0.1-1 0.1-2.1-0.3-3.1-0.5 0.8-0.9 1.8-1.5 2.6-0.9 1.3-2.4 2.2-2.8 3.7z"/>
	<path class="st3" d="m163.7 259.8c0.3 0.5 0.8 1.1 1.4 1 0.4 0 0.8-0.5 0.6-0.9-0.2-0.7-0.9-1.1-1.2-1.8-0.4-1.2-0.9-2.5-1.3-3.7-0.3-0.6-0.8-1.7-1.7-1.3-0.5 0.3-0.5 1.1-0.1 1.5 0.6 0.8 0.6 1.8 1.2 2.6 0.5 0.9 0.6 1.8 1.1 2.6z"/>
	<path class="st3" d="m325.3 255.2c-0.5 1-0.2 2.1-0.2 3.2 0.1 1.6 0 3.3 1 4.8 0.5 0.8 1.5 0.6 2.2 0.6 0.5-0.9 1-2 0.5-2.9-0.5-1.1-1.5-1.9-2.1-2.9-0.5-1-0.9-2-1.4-2.8z"/>
	<path class="st3" d="m185.4 262.8c1-1.3 0.8-3.1 0.8-4.8-0.1-0.8 0.1-1.5-0.3-2.2-0.5 0.8-0.9 1.7-1.5 2.4-0.7 1-1.7 1.9-2 3.1-0.1 0.7-0.1 1.5 0.3 2.2 0.9 0.2 2 0.1 2.7-0.7z"/>
	<path class="st3" d="m181.1 286.5c-0.4 1.6-1.1 3-1.8 4.6-0.3 0.8-0.8 1.6-0.8 2.4 0 0.9 1 1.6 1.9 1.4 0.7-0.2 1.1-0.9 1.3-1.5 0.7-1.9 0.7-4 0.6-6-0.1-1.2-0.3-2.4-0.7-3.5-0.4 0.9-0.3 1.8-0.5 2.6z"/>
	<path class="st3" d="m343.5 287.2c0.5-0.7 1.2-1.4 1.4-2.4-0.4 0.1-0.7 0.3-1 0.6-1.1 0.9-2.3 1.6-3.5 2.2-1.7 0.9-3.6 1.6-5.3 2.7-0.7 0.5-1.2 1.3-1 2.2 0.1 0.5 0.7 0.6 1 0.8-0.8 0.5-1.7 0.9-2.1 1.8-0.3 0.7 0.2 1.3 0.6 1.9-1.4 0.5-2.8 0.9-4.2 1.7 0.8-3.5-0.1-7.3-1.3-10.6-0.8 2-1.4 4.3-1.8 6.4-0.2 1.6-0.6 3.4 0.1 5 0.3 0.8 1.2 0.9 1.9 0.6 0.1 0.6 0.2 1.4 0.9 1.5 1 0.2 2.1-0.2 3-0.6 2.7-1.1 5.3-2.9 7.3-5.1 0.6-0.7 1.2-1.3 1.5-2.1-0.4 0.1-0.8 0.3-1.1 0.5-0.9 0.6-1.9 1.1-2.9 1.4 2.4-1.7 4.9-3.4 6.6-5.9 0.5-0.6 0.6-1.5 0.6-2.3-1.1 1.7-2.7 2.9-4.6 3.6 1.3-1.1 2.7-2.3 3.9-3.9z"/>
	<path class="st3" d="m189.5 290.3c-0.8-2.2-2.5-4.3-4.8-5.2 0.9 2.4 2.8 4.4 3.2 7 0.2 2.2 0.5 4.7 1.8 6.6 0.5 0.8 1.3 1.3 2.3 1.5-1.2-1.7-1.7-4-2-6.1 0.1-1.3-0.1-2.6-0.5-3.8z"/>
	<path class="st3" d="m204.4 295.1c0.6-2.1 0.1-4.4-0.7-6.3h-0.4c0.1 1.6-0.5 3.2-1.4 4.6-0.5 0.9-1.1 1.6-1.2 2.6 0 0.9 1.2 1.4 2 1.2 1-0.4 1.5-1.3 1.7-2.1z"/>
	<path class="st3" d="m196.2 304.2c-0.4-1.5-1-3-1.1-4.6-0.1-0.9-0.1-1.9-0.5-2.7-0.6-1.3-1.7-2.3-2.6-3.4-0.6-0.8-1.1-1.7-1.6-2.5-0.5 2.1 0.8 4.2 1.6 6 0.9 1.8 0.6 4 1.5 5.8 0.4 1 1.6 1.2 2.7 1.4z"/>
	<path class="st3" d="m335.2 301.8c0.6-0.8 1.3-1.7 1.3-2.7-0.3 0.2-0.6 0.4-0.8 0.6-1 1-2.4 1.6-3.7 2.1-2.5 0.9-5.2 1.3-7.6 2.4 1.1-3.1 0.3-6.6 0.7-9.9 0-0.4 0.1-0.8-0.1-1.2-0.4 0.1-0.5 0.5-0.6 0.9-1.2 2.6-2.6 5.3-3.2 8.1-0.3 1.2-0.3 2.7 0.9 3.4 0.4 0.3 0.8 0.2 1.2 0 0 0.7 0.3 1.5 1.1 1.7 1.8 0.5 3.5-0.3 5.2-0.9-0.5 0.4-1.1 0.8-1.6 1.4-0.3 0.3-0.1 0.7-0.1 1.1 1.4 0 2.7-0.8 3.8-1.6 1.5-1.1 3-2.4 4.1-4.2-1.4 0.5-2.6 1.3-4.1 1.9 1.2-0.9 2.5-1.8 3.5-3.1z"/>
	<path class="st3" d="m205 301.1c0.9-0.3 1.3-1.2 1.5-2 0.3-1.5 0.2-3-0.3-4.5-0.2-0.5-0.3-1.1-0.8-1.4-0.1 1.2-0.2 2.5-0.7 3.6-0.5 1.2-1.7 2.1-1.7 3.5 0.6 0.5 1.2 1 2 0.8z"/>
	<path class="st3" d="m183 308.3c0.5-0.3 0.3-0.9 0.2-1.4 1.2 0.5 2.5 1.1 3.7 0.5 0.8-0.4 1.1-1.4 1-2.2 0.8 0.3 1.8 0.2 2.2-0.7 0.5-1.3 0.1-2.7-0.3-4.1-0.7-2-1.6-4-3-5.7 0 1.6 0.1 3.3 0 5 0 1.5-0.2 3.1 0.4 4.7-1.3-0.7-2.8-0.9-4.4-1.3-2-0.5-4.2-1-6-2.1-0.8-0.4-1.4-0.9-2.1-1.2 0.1 0.3 0.2 0.5 0.3 0.7 1.6 2 3.6 3.5 5.7 5.2-1.7-0.5-3.3-1.1-5.2-1.4 0.2 0.4 0.7 0.7 1 0.9 1.4 0.8 2.7 1.9 4.1 2.8 0.7 0.2 1.7 0.7 2.4 0.3z"/>
	<path class="st3" d="m198.2 300.4c1 0.8 2.1 1.7 3.4 1.8 1.1 0 1.6-1.3 1.2-2.2-0.5-0.8-1.4-1.1-2.2-1.5-1.9-0.7-4-1.5-5.5-2.9-0.3-0.2-0.6-0.5-1-0.5 0.8 1.9 2.4 3.8 4.1 5.3z"/>
	<path class="st3" d="m196.6 316.8c0.6 1.9 1.4 3.8 2.9 5.3 0.7 0.6 1.9 1 2.6 0.3s0.3-1.7-0.2-2.3c-1.1-1.5-2.8-2.5-4.6-3.3 1.6-0.4 3.3-0.9 4.9-1.7 3.3-1.5 6.2-3.8 9.5-5.3 0.4 0.9 0.8 1.9 1.8 2.5s2.3-0.3 2.4-1.4c0.1-0.7-0.2-1.3-0.5-1.9 0.6 0 1.1-0.1 1.6-0.1-0.1 1.6-0.4 3.1-0.2 4.8 0.2 1.1 1.7 1.6 2.5 0.9 0.6-0.5 0.5-1.4 0.5-2.1 0-1.2-0.5-2.3-0.9-3.5 1.5 0.2 3 1 4.6 0.9-0.1-0.3-0.1-0.7-0.4-1-1.8-1.8-3.5-4-5.9-5.2-2.8-1.5-6.1-2.1-9.2-2 0.4-0.4 0.8-0.8 0.9-1.3 0.4-1.7-0.2-3.5-1.2-5-0.2 1.5-0.8 2.8-1.3 4.3-0.4 0.8 0.3 1.5 0.8 2-2.3 0.2-4.6 0.7-6.7 1.6-3.7 1.4-7.2 3.4-11 4.7s-8 1.1-12 0.4c-0.4-0.1-1.1-0.1-0.9 0.5 0.7 1.1 1.7 2.1 2.5 3.1 1.8 2.2 4 4.6 6.9 5.4 3.8 0.6 7.3 0 10.6-0.6z"/>
	<path class="st3" d="m221.5 319.1c0.7 0.3 1.5-0.2 1.8-0.9 0.6-1.3 0.5-2.8 0.2-4.2-0.3-1.8-1.2-3.7-2.7-4.9 0.2 1.1 0.5 2.1 0.4 3.3 0 1.7-0.6 3.3-0.8 5.1-0.1 0.7 0.3 1.4 1.1 1.6z"/>
	<path class="st3" d="m216.5 316c1.1-0.7 0.7-2.8-0.6-3.1s-2.7-0.1-4.1-0.3c-1.1-0.2-2.1-0.4-3.2-0.8 1.2 1.8 2.9 3.1 4.9 4 0.9 0.3 2.1 0.7 3 0.2z"/>
	<path class="st3" d="m217.4 319.9c0.9 0.1 1.9 0.2 2.6-0.5 0.7-0.8 0.1-2.3-0.9-2.5-1.1-0.3-2.3-0.1-3.4-0.1-1.9 0-3.7-0.3-5.6-0.9 1.8 2.2 4.6 3.4 7.3 4z"/>
	<path class="st3" d="m195.4 322.4c0.6-0.1 1.2-0.6 1.1-1.3 0-0.8-0.6-1.4-1.3-1.8-1.3-0.5-2.7-0.7-4.2-0.9-2.1-0.3-4.3-0.6-6.3-1.3 0.7 1.1 1.8 1.9 2.9 2.6 1.5 0.9 3 1.7 4.8 2.2 1 0.5 2 0.7 3 0.5z"/>
	<path class="st3" d="m211.8 327.6c0.8-0.2 1.4-0.9 1.5-1.7-0.1-1.1-0.8-1.9-1.4-2.7-1.8-2-3.8-3.7-5.7-5.7-0.2-0.3-0.5-0.3-0.8-0.4 0.2 0.5 0.4 1 0.6 1.4 1.2 2.5 2.1 5.4 3.6 7.7 0.6 0.7 1.3 1.5 2.2 1.4z"/>
	<path class="st3" d="m202.2 318.3c1 1.8 1.4 3.7 2.1 5.7 0.3 0.6 0.7 1.4 1.4 1.6 1.1 0.2 2.3-0.8 2.2-1.9-0.2-1.1-1.1-1.9-1.8-2.7-1.4-1.3-2.8-2.5-4.3-3.7-0.1 0.3 0.2 0.7 0.4 1z"/>
	<path class="st3" d="m317.7 318.9c-0.9 0.2-1.9 0.5-2.5 1.3-0.5 0.5-0.5 1.2-0.3 1.9 0.3 0.6 1 1 1.6 1 1.2 0.1 2.3-0.5 3.3-1 1.9-1 3.6-2.2 5.3-3.4 0.5-0.4 1.1-0.7 1.4-1.3-1 0.1-1.9 0.4-2.8 0.6-2.1 0.2-4.1 0.4-6 0.9z"/>
	<path class="st3" d="m195.2 327c0 0.1 0 0.3 0.1 0.4 3 1.2 6.3 1.4 9.4 1.4-1.7 0.5-3.5 0.7-5.4 0.8 0.1 0.1 0.2 0.4 0.5 0.4 2.8 0.8 5.8 0.9 8.6 0.8 0.9-0.1 1.8-0.2 2.6-0.6 0.4-0.2 0.9-0.5 0.9-1.1 0.1-0.8-0.8-1.4-1.5-1.5-1.3-0.1-2.5 0.4-3.7 0.6 0.3-0.3 0.8-0.6 0.8-1.1 0-0.7-0.6-1.3-1.2-1.3-1.6-0.2-3.2 0.2-4.9 0.5 0.4-0.2 0.8-0.4 1-0.7 0.6-0.7 0.1-2.1-0.8-2.2-1.9-0.2-3.8 0.3-5.8 0.2-2 0-4.1-0.3-6.1-0.6 0.6 0.7 1.3 1.2 2.1 1.6 2.5 1.2 5.4 1.8 8.2 1.8-1.5 0.4-3.2 0.6-4.8 0.6z"/>
<path class="st4" d="m282.7 324.1c0.6-0.1 1.4-0.3 1.7 0.3 2.8 4 7.1 6.7 10.9 9.7 0.5 0.4 1.2 0.8 1.6 1.4 0.3 0.7-0.5 1.1-0.9 1.3-4 1.4-7.8 3.1-11.8 4.5-6.3 2-12.7 3.1-19.2 3.6-5.7 0.4-11.4 0.5-17 0.2-6.7-0.3-13.5-1.3-19.9-3.4-4.4-1.3-8.5-3.3-12.8-5-0.7-0.2-0.9-1.1-0.3-1.5 4.3-3.2 8.2-6.7 12.1-10.5 0.6-0.6 1.7-0.9 2.6-0.5 9.2 3.7 19.2 6.3 29.4 5.6 6.3-0.4 12.4-1.9 18.2-3.8 1.8-0.6 3.5-1.3 5.4-1.9z"/>
<path class="st5" d="m255.1 207.2c0.3-0.2 0.8 0 0.9 0.4 0.2 0.8 0.3 1.7 0.6 2.4 0.4 0.6 1 0.9 1.6 0.9 1.9 0.1 3.8 0.6 5.6 1.7 1.6 1 2.9 2.5 3.6 4.3 1 2.3 1.2 4.9 0.8 7.3-0.2 1.5-0.6 3-1.5 4.4-0.4 0.7-1 1.4-1.7 1.7-0.1 0.1-0.3 0.1-0.5 0.1h-18.5c-0.1 0-0.3 0-0.4-0.1-1.1-0.8-2-1.9-2.6-3.2-0.6-1.4-0.7-3.1-0.7-4.7-0.1-1.5 0.1-2.9 0.5-4.4 0.7-2.2 2.3-4.3 4.4-5.5 1.6-1 3.4-1.5 5.4-1.6 0.7 0 1.5-0.5 1.8-1.2 0.2-0.6 0.3-1.3 0.4-2 0.1-0.1 0.1-0.4 0.3-0.5z"/>
<path class="st5" d="m248.3 213.7c0.6-0.3 1.4-0.2 1.8 0.5 0.2 0.4-0.2 0.8-0.5 1.1-1.3 0.9-2.2 2.3-2.7 3.8-0.5 1.6-0.5 3.4-0.4 5.1 0 0.4 0.1 0.8-0.1 1.2-0.2 0.2-0.4 0.4-0.7 0.4-0.4-0.1-0.7-0.5-0.9-0.9-0.4-0.9-0.5-1.8-0.5-2.8 0.1-2.2 0.6-4.4 1.7-6.3 0.6-0.8 1.3-1.6 2.3-2.1z"/>
<path class="st5" d="m261.6 213.7c0.7-0.2 1.4 0.2 1.9 0.5 1.2 1 2 2.4 2.5 4 0.6 2 1 4.3 0.4 6.3-0.2 0.5-0.4 1.2-1 1.3s-1-0.5-0.9-1c0.1-2 0.2-4-0.4-5.9-0.4-1.3-1.2-2.5-2.2-3.3-0.4-0.3-0.9-0.6-1-1.1-0.1-0.4 0.3-0.6 0.7-0.8z"/>
<path class="st5" d="m251 215.5c0.6-0.2 1.5 0 1.6 0.7 0 0.6-0.6 0.9-1 1.2-1.3 1.3-1.7 3.1-1.8 4.9 0 1.3 0.1 2.5 0.4 3.7 0.2 0.5-0.1 1.1-0.6 1.2s-1-0.2-1.4-0.6c-0.6-0.8-0.6-1.7-0.7-2.7-0.1-2 0.1-4.2 1-6 0.5-0.9 1.3-2 2.5-2.4z"/>
<path class="st5" d="m258.7 215.7c0.6-0.3 1.3-0.1 1.8 0.2 1.3 0.8 2 2.3 2.4 3.7 0.5 1.8 0.6 3.8 0.3 5.8-0.1 0.7-0.5 1.4-1.1 1.8-0.4 0.2-0.9 0.2-1.2-0.1s-0.3-0.7-0.2-1.1c0.4-1.7 0.5-3.4 0.2-5.2-0.3-1.3-0.8-2.5-1.7-3.4-0.3-0.3-0.7-0.5-0.9-0.9-0.1-0.2 0.1-0.6 0.4-0.8z"/>
<path class="st5" d="m228.5 219v-0.2-2.1-0.2h7.9v2.5h-7.9zm7.4-0.5v-1.6h-7.1v1.6h7.1z"/>
<path class="st5" d="m274.4 216.5h7.9l0.1 2.5h-0.2-7.5-0.2v-2.5h-0.1zm0.5 2.3h-0.2 0.2zm0-1.9v1.6h7.1v-1.6h-7.1z"/>
<path class="st5" d="m228.5 233.9v-0.2-13.9-0.2h7.9v14.3h-7.9zm7.5-0.4v-13.5h-7v13.5h7z"/>
<path class="st5" d="m282.1 234h-3.7-3.7-0.2v-0.2-13.9-0.2h0.2 7.5 0.2v0.2 7.1 1.3 2.7 2.8 0.2h-0.2zm-0.2-0.5v-2.5-2.7-1.3-6.9h-7.1v13.4h3.5 3.6z"/>
<path class="st5" d="m244 230.8c0.7-0.1 1.4 0 2-0.1 6.6 0 13.3 0 20 0.1 0.2 0 0.5 0 0.7 0.1 2.2 1.5 4.5 3.1 6.8 4.7 2 0 4.2 0 6.2 0.1 2.7 0 5.5 0 8.2 0.1-0.9 1-1.8 2-2.7 3-0.7 0.7-1.3 1.4-2 2.1h-17.9c-2-0.1-4 0-6 0h-31.6c-1.6-1.7-3.1-3.5-4.8-5.3h13c0.6 0 1.3 0.1 2 0 2-1.6 4-3.3 6.1-4.8z"/>
<path class="st5" d="m210 240.4c0-0.9 0.7-1.8 1.6-2 0.6-0.2 1.2-0.1 1.7 0.2 0.7 0.4 1.1 1.2 1.1 2 0 0.4-0.3 0.9-0.5 1.2 4.8 8 9.5 16.1 14.3 24.1 0.1 0.1 0.2 0.3 0.3 0.4v-1.2c0.5-0.1 0.9 0 1.4 0h6.8v4.2c0 1.6-0.1 3.1 0 4.8h-8.2v-4.2c0-0.2 0-0.4-0.1-0.6-2.4-4.2-4.9-8.2-7.3-12.4-0.5-0.8-1-1.7-1.6-2.5-1.6 1.1-3.4 1.9-4.9 3.2-0.5 0.4-0.7 1-1.2 1.6-1.1 1.8-1.3 4-1.7 6.1-0.1 0.9-0.4 1.7-0.6 2.5-0.4 1.6-0.8 3.2-1.3 4.9-0.2 0.7-0.4 1.5-0.9 2.1-0.2 0.3-0.7 0.3-1 0-1.8-2-3.5-4.2-5.6-6-0.4-0.3-1-0.6-1-1.3 0-1.5 0.8-2.9 0.9-4.5 0-0.9-0.1-3.4-0.1-3.7-0.1-2.4 0.5-5 1.7-7.1 0.6-0.9 1.2-1.9 2.1-2.6 0.6-0.5 1.3-1 1.9-1.6 1.3-1.1 2.3-2.4 3.4-3.7 0.4-0.5 0.8-1 1.3-1.3-0.1-0.1-0.1-0.2-0.2-0.3-0.6 0-1.3 0-1.8-0.4-0.2-0.5-0.6-1.2-0.5-1.9z"/>
<path class="st5" d="m296.9 240.8c0-1.1 0.9-2.1 2-2.1 1-0.1 1.9 0.6 2.2 1.5 0.3 1-0.2 2.2-1.1 2.6-0.4 0.2-0.9 0.2-1.3 0.2-0.1 0.1-0.2 0.3-0.3 0.4 0.8 0.6 1.4 1.5 2 2.3 1.3 1.6 2.7 3.1 4.5 4.4 1.4 1.1 2.4 2.6 3 4.4 0.6 1.5 1 3.2 1 5v2c-0.1 1.5-0.2 3 0.2 4.6 0.2 1 0.6 2 0.5 3-0.1 0.5-0.5 0.7-0.9 1-1.7 1.5-3.2 3.4-4.7 5.2-0.5 0.5-0.8 1.1-1.4 1.4-0.3-0.1-0.6-0.3-0.7-0.6-0.4-0.8-0.7-1.7-0.9-2.7-0.5-1.8-0.8-3.6-1.3-5.5-0.4-1.5-0.5-3.1-0.9-4.7-0.3-1.2-0.6-2.3-1.3-3.3-0.4-0.5-0.6-1.1-1.1-1.4-1.5-1.3-3.2-2.1-4.9-3.2-2.9 5.2-5.9 10.3-8.9 15.4-0.2 0.3-0.5 0.6-0.5 1v2.3h-8.2v-8.9h6.1c0.7 0 1.4-0.1 2 0v3.1c0.9-1.3 1.6-2.7 2.4-4.1 4.2-7.3 8.3-14.5 12.5-21.8 0.1-0.2 0-0.4-0.1-0.6 0.1-0.1 0.1-0.5 0.1-0.9z"/>
<path class="st5" d="m227.7 241.9c1.7-0.1 3.3 0 5.1 0h3.3c1.4 0 2.8-0.1 4.2 0 1.2-0.1 2.3 0 3.5-0.1 1.7 0.1 3.3 0 5 0.1 0.6 0 1.1-0.1 1.7-0.1 1.5 0.1 3.1 0 4.7 0.1 2.6-0.1 5.4 0 8 0 1.4 0 2.7-0.1 4.1 0 1-0.1 1.9-0.1 2.9 0 0.6-0.1 1.2 0 1.8 0 1.3-0.1 2.7 0 4.1 0 1.9 0 3.8-0.1 5.7 0 0 0.4 0.1 0.8 0.1 1.2h-22c-0.2 0-0.3 0-0.5 0.1 3.4 1 6.4 3 8.7 5.8 1.5 1.9 2.7 4.3 2.9 6.7v7.6h-1.5v-5c-0.1-1.2 0.1-2.4-0.2-3.6-0.3-1.7-1.2-3.3-2.3-4.7-1.3-1.6-2.8-2.9-4.7-4-2.1-1.2-4.5-2.1-6.9-2.2-2-0.1-4 0.4-5.9 1.1-2.9 1.2-5.7 3-7.6 5.6-1.3 1.6-2.2 3.7-2.1 5.9 0 0.6 0 1.2 0.1 1.7 1.5 0.1 2.9 0 4.5 0.1 3.1 0.1 6.3 0.1 9.4 0.1 0 0.8 0 1.5-0.1 2.3 0 0.3 0.3 0.3 0.4 0.5 0.7 0.4 1.3 1 2.1 1.2 1.3 0.4 2.6 0.8 4 1.2 0 1.2-0.1 2.4-0.1 3.6 1 0.3 2.1 0.6 3.1 0.9v3.5c1.3 0.5 2.5 1.1 3.7 1.6v3.5c-0.1 0.2 0.2 0.3 0.3 0.4 0.7 0.4 1.4 0.8 2.1 1.3 0 1.2-0.1 2.5-0.1 3.7 1.2 0.9 2.5 1.7 3.7 2.6-2.5 0.1-5.2 0-7.7 0 1.5 1.8 3.1 3.4 4.7 5.3h-7.7c-1.2-1.7-2.3-3.5-3.5-5.3h-4.1c0.6 1.7 1.4 3.4 2 5.2h-5.5c-0.4-1.7-0.8-3.4-1.2-5.2h-5.6c0 1.9 0 3.7 0.1 5.6h-17.4-5c1.5-1.5 3-2.9 4.2-4.8 0.7-1.3 1.2-2.8 1.1-4.4h9.4c0 0.7 0 1.5 0.4 2.3 0.2 0.4 0.7 0.7 1.2 0.7h5.6v-3.6c0.1-0.2-0.2-0.3-0.4-0.2h-5.1v-23.5c0-0.8 0-1.7 0.1-2.4 0.3-2.2 1.4-4.4 3-6 2.3-2.5 5.4-4.4 8.6-5.4-1.8-0.1-3.6 0-5.5 0-5.7 0-11.4-0.1-17.1 0 0.2-0.1 0.2-0.6 0.2-1z"/>
<path class="st5" d="m228.3 244.1h8.3v11.2h-8.3v-11.2z"/>
<path class="st5" d="m274.1 244.1h8.2v11.2h-8.2v-11.2z"/>
<path class="st5" d="m238.4 245h5.6c-1.1 0.9-2.2 1.8-3.1 2.9-0.8 1-1.5 2-2 3.2-0.2 0-0.3-0.1-0.5-0.1 0-1.9-0.1-4 0-6z"/>
<path class="st5" d="m266.9 245c1.8 0 3.7-0.1 5.6 0v6.1c-0.1 0-0.3 0.1-0.4 0.1-0.8-1.7-1.9-3.2-3.2-4.6-0.6-0.5-1.3-1-2-1.6z"/>
<path class="st5" d="m230.4 245.8c0.8-0.5 1.7-0.5 2.6-0.5 0.6 0.1 1.3 0.2 1.8 0.5 0.4 0.2 0.7 0.6 0.7 1.1v6.9c0 0.3 0 0.6-0.2 0.7-0.5 0.5-1.7 0.3-1.8-0.5 0-2 0-4.1-0.1-6.1-0.5-0.2-1.1-0.3-1.7-0.1-0.1 0.1-0.2 0.2-0.2 0.4 0.1 1.6 0.1 3.2 0.1 4.9 0 0.3 0 0.8-0.2 1.1-0.3 0.4-0.9 0.5-1.3 0.3-0.3-0.2-0.5-0.6-0.4-1v-6.5c-0.1-0.6 0.3-1 0.7-1.2z"/>
<path class="st5" d="m227.7 256.9h10.1c-0.5 0.9-1.1 1.7-1.6 2.7-1.6 0.1-3.3 0-5.1 0-0.7 0-1.4 0.1-2 0-0.3-0.9-0.9-1.8-1.4-2.7z"/>
<path class="st5" d="m272.9 256.9h10c-0.5 0.9-1 1.7-1.4 2.7h-7c-0.6-1-1.1-1.8-1.6-2.7z"/>
<path class="st5" d="m274.2 261.2h7.9v2.7h-7.9v-2.7z"/>
<path class="st5" d="m228.9 261.2c2.6-0.1 5.3 0 8-0.1 0.1 0.4 0 0.7 0 1.1v1.6h-8v-2.6z"/>
<path class="st5" d="m240.1 261.6h12.8v14.4c-1.2 0.1-2.4 0.1-3.6 0v-4.8c0-0.7 0.1-1.5-0.2-2.2-0.3-1-0.8-1.9-1.6-2.6-0.3-0.2-0.5-0.5-0.9-0.6-0.4 0-0.7 0.3-0.9 0.5-1 0.9-1.7 2.1-1.8 3.5v6.2h-3.4c-0.2 0-0.1-0.2-0.1-0.4-0.3-4.6-0.3-9.4-0.3-14z"/>
<path class="st5" d="m253.5 261.6c0.7 0.5 1.5 1.1 2.2 1.7v4.3c1.1 0.4 2.2 0.7 3.4 1.1v3.2c1 0.6 2.1 1.2 3.2 1.8 0.1 0.1 0.3 0.1 0.3 0.3v2.8c0.7 0.6 1.5 1.1 2.3 1.7v4.4c-2.4-2.1-4.9-4.3-7.3-6.5-0.1-0.1-0.3-0.1-0.4-0.1-1.2 0-2.5-0.1-3.7-0.1-0.1-0.4-0.1-0.7 0-1.1v-13.5z"/>
<path class="st5" d="m256.1 264h3.3v3.3c-1.1 0.1-2.2 0-3.3 0v-3.3z"/>
<path class="st5" d="m229.8 265.9h6v7.4h-6.1c0.1-2.4 0.1-4.9 0.1-7.4z"/>
<path class="st5" d="m275.3 265.9h6.1v7.4h-6.1v-7.4z"/>
<path class="st5" d="m270.3 273.8v-7.3h1.4v7.3h-1.4z"/>
<path class="st5" d="m244.7 268h3.6c0.1 1.8 0 3.6 0 5.6v2.3h-3.6v-7.9z"/>
<path class="st5" d="m259.4 268.7h3.3v3.3c-0.1 0.1-0.3 0-0.5 0-0.9 0-1.9 0.1-2.8 0v-3.3z"/>
<path class="st5" d="m263 273.7h3.3v3.4h-3.4c0.1-1.1 0.1-2.3 0.1-3.4z"/>
<path class="st5" d="m228 275.3h6.6c0.8 0.1 1.6-0.1 2.4 0v5.2h-8.6c-0.2 0-0.4 0-0.4-0.2v-5z"/>
<path class="st5" d="m274 275.3h5 3.8v5.2h-8.8v-5.2z"/>
<path class="st5" d="m265.3 279h3.5v3.4c-1.2 0.1-2.4 0-3.6 0 0.1-1.1 0.1-2.3 0.1-3.4z"/>
<path class="st5" d="m274.2 281.6c2-0.1 4.2 0 6.3 0 0.8 0 1.5-0.1 2.3 0 0.1 0.5 0.1 1 0.1 1.4 0.4 2.2 1.5 4.4 3.1 6 0.4 0.5 1 0.8 1.4 1.2h-16.7c0.8-0.7 1.5-1.4 2.1-2.4 1.3-1.8 1.4-4 1.4-6.2z"/>
<path class="st5" d="m228.3 215.7v-0.2h0.2-0.2v0.2h-0.2v-0.3c0-1.4 0.6-2.8 1.5-4 0.9-1.1 1.9-1.9 2.8-1.9s1.9 0.8 2.8 1.9c0.8 1.1 1.4 2.6 1.4 4.1v0.2h-8.3zm8-0.4c-0.1-1.2-0.6-2.5-1.4-3.5-0.8-1.1-1.8-1.8-2.4-1.8s-1.7 0.7-2.5 1.7-1.4 2.3-1.4 3.5h7.8v0.1z"/>
	<path class="st6" d="m299.3 336.3c-4.8-4.2-9.7-8.1-14-12.8-0.5-0.5-1.2-1.1-1.9-1-1.3 0-2.4 0.7-3.6 1.2-7.6 3.1-15.8 5.1-24 5.3-4.3 0.1-8.5-0.7-12.6-1.6-4.1-1-8.1-2.2-12-3.7-0.7-0.2-1.4-0.7-2.2-0.7-1 0-1.9 0.5-2.6 1.2-4.2 4.1-8.6 7.8-13.1 11.3-0.9 0.7-1.9 1.3-2.3 2.5-0.3 0.8 0.2 1.7 0.8 2.2 1.2 1.1 2.7 1.7 4.4 2.2 2.5 0.9 5.2 1.7 7.9 1.9 1 0.1 1.3 1.4 1.1 2.2-0.3 0.9-0.5 1.9-1.2 2.5-0.2 0.3-0.6 0.6-0.5 1 0.1 0.5 0.8 0.5 1.1 0.1 1.3-1.1 2.9-1.6 4.7-1.7 3.1-0.1 6.2 0.8 9.2 1.8 1.4 0.4 2.7 1.1 4.3 0.7 0.7-0.1 1.4-0.6 1.5-1.3 0.1-1.3 0.5-2.6 1.5-3.4 0.4-0.3 0.8-0.6 1.4-0.5 2.8 0.2 5.8 0.3 8.6 0.3 2.9 0 5.9 0.1 8.8-0.2 0.6-0.1 1.3-0.1 1.7 0.3 1.3 1.1 1.2 3 2.5 4.2 1.8 0.8 3.8 0.5 5.7-0.3 1.5-0.7 3.1-1 4.8-1.2 2.2-0.2 4.6-0.2 6.7 0.6 0.9 0.3 1.5 1 2.4 1.1 0-0.9-0.7-1.5-0.9-2.2-0.3-0.9-0.9-1.8-0.8-2.8 0.1-0.6 0.7-0.9 1.3-1 3.2-0.4 6.6-1 9.6-2.5 1.2-0.6 2.4-1.4 2.9-2.6 0.3-1.1-0.3-2.4-1.2-3.1zm-59.8 13.3c-4.6-2-9.9-2.8-14.7-1 0.8-1.1 1.2-2.4 1.2-3.7 2.4 0.2 4.8 0.1 7.2 0 2.3 0 4.9-0.1 7 0.9 1 0.4 2.2 1.3 2.1 2.5 0 1.2-1.7 1.8-2.8 1.3zm32.2 0c-1.1 0.5-2.7 0-2.8-1.3-0.1-1.2 1.1-2 2.1-2.5 2.2-0.9 4.7-0.9 7-0.9 2.4 0.1 4.8 0.2 7.2 0 0 1.4 0.4 2.6 1.2 3.7-4.8-1.8-10.1-1-14.7 1z"/>
	<path class="st6" d="m254.3 164.8c1-0.7 1.8-1.6 2.5-2.6 0.2-0.4 0.5-0.8 0.3-1.2-0.3-0.3-0.8-0.3-1.1-0.2-1.3 0.8-2.2 2.1-2.8 3.4-0.2 0.7 0.7 1 1.1 0.6z"/>
	<path class="st6" d="m249.7 165c0.9-0.3 1.8-0.9 2.4-1.6 0.3-0.4 0.1-0.9 0-1.4-0.9 0.4-1.6 0.9-2.4 1.3-0.4 0.3-1 0.6-0.9 1.2 0 0.5 0.5 0.7 0.9 0.5z"/>
	<path class="st6" d="m226.9 186.3c-1.1 0.5-2.4 0.9-3.6 0.5-1.4-0.7-2.1-2.3-2.8-3.6-0.7 0.3-0.6 1.2-0.5 1.9 0.3 1.3 0.8 2.8 2.2 3.2 2.1 0.6 4.6 0.5 6.4-0.8 1.4-1.2 2.7-2.7 3.2-4.6 0.5-2-0.5-4.1-1.3-5.9 1.6-1.2 3.3-2.6 4-4.7 0.3-1.3 1-2.5 1.9-3.5 0.3-0.3 0.7-0.5 1.1-0.5 0.8 0.2 1.5 0.9 2.4 0.8 0.8-0.1 0.9-1.4 1.8-1.1 0.7 0 1.6 0.6 2.2 0 0.7-0.9 0.7-2.1 0.6-3.2-0.1-0.5 0-0.9-0.3-1.3-0.3 0-0.7-0.1-0.8 0.2-0.5 0.6-0.5 1.5-0.6 2.3 0 0.4-0.5 0.3-0.7 0.4-0.1-0.8-0.8-1.3-1.6-1.1-0.5 0.6-0.6 1.3-1.2 1.8-0.2 0-0.4 0-0.6-0.2-0.7-0.6-0.9-1.6-1.6-2.2-0.2-0.1-0.5-0.1-0.6 0.2-0.4 0.7-0.5 1.7-1 2.4-0.6 0.6-1.2 1.3-2.1 1.3-0.6-0.5-0.7-1.4-1.3-2-0.5-0.6-1.4-0.6-2.1-0.4-0.7 0.4-0.9 1.3-1 2.1 0 0.6-0.1 1.4 0.3 2 1.1 0.8 2.5 0.3 3.7 0.7-0.6 1.8-1.9 3.2-3.4 4.4-0.9-1.7-1.9-3.3-2.5-5.3-0.3-0.8 0.1-1.8-0.5-2.5-0.5-0.6-1.6-0.4-1.8 0.4-0.1 0.7 0 1.5 0.3 2.2 0.7 2.2 2 4.3 3 6.4-0.9 0.6-1.8 1.1-2.8 1.6-0.3 0.2-0.5 0.5-0.7 0.8 0.3 0.5 0.7 1 1.4 0.9 1.1-0.5 2-1.3 3.1-1.7 0.7 1.6 1.5 3.2 1.1 5-0.6 1.3-2 2.4-3.3 3.1z"/>
	<path class="st6" d="m241.4 171.8c-0.3 0.7 0.4 1.2 0.8 1.6 0.6 0.6 0.5 1.5 0 2.2-0.6 1-1.3 2-2.2 2.8-0.2-0.9-0.3-1.9-0.3-2.8 0-0.5 0.1-1.1-0.4-1.5-0.4-0.1-0.8 0.3-0.8 0.7-0.1 1.7 0 3.5 0.3 5.3-0.9 0.9-1.8 1.9-2.8 2.7-0.4 0.3-0.8 0.7-1 1.2s-0.1 1.2 0.4 1.6c0.4 0.2 0.8-0.2 1-0.5 1.1-1.2 2.1-2.3 3.2-3.5 1.2 0.4 2.5 0.5 3.8 0.3 1.9-0.4 3.4-1.8 4.9-3.1 0.3-0.2 0.7-0.7 1.1-0.5 1.2 1.4 1.7 3.3 3.3 4.3 0.5 0.3 1.2 0.6 1.7 0.1 0.1-0.5 0-0.9-0.3-1.4-0.6-1.1-1.4-2.1-2-3.2 0.8-1.1 1.4-2.3 2.6-2.9 1.8-0.8 3.8-0.4 5.8-0.8 0.6-0.1 1.4-0.5 1.3-1.2 0-0.4-0.4-0.6-0.7-0.6-1.3 0-2.5 0.3-3.8 0.2-1.7-0.1-3.5-0.2-5.3-0.7 0.5-1.3 1.8-1.9 2.9-2.6s2.6-0.3 3.5-1.2c0.9-0.7 1.2-2.2 0.5-3.2-0.6-1-2-1-2.9-0.4-0.5 0.2-0.5 0.8-0.2 1.2 0.4 0.4 1.1 0.2 1.5 0.5 0 0.6-0.6 0.8-1.1 0.9-0.7 0.2-1.6 0-2.2 0.4-1 0.6-1.9 1.4-2.7 2.2-0.6 0.7-1.3 1.4-1.5 2.4-0.1 0.5 0.2 1.1 0.7 1.1 1 0.3 2.1 0.3 3.1 0.5-0.7 0.6-1.5 1.2-2.1 2-0.1 0.2-0.5 0.7-0.7 0.2-1.6-2.7-3-5.8-3.8-9-0.1-0.4-0.2-0.8-0.6-1-0.5-0.2-1.2 0.1-1.3 0.6-0.2 0.6 0.1 1.3 0.3 1.8 0.8 1.8 1.9 3.5 2.5 5.5 0.3 0.9 0.4 1.9-0.1 2.6-1 1.4-2.5 2.4-4.2 3.2-0.9 0.4-2 0.8-3 0.2 1.2-1.6 2.4-3.2 3.2-5.1 0.4-1 0.8-2.1 0.3-3.1-0.3-1-2.2-1.2-2.7 0z"/>
	<path class="st6" d="m270.3 165.7c0.5-0.7 0.2-2.2-0.9-1.8-0.6 0.4-0.5 1.4-0.2 1.9 0.4 0.4 0.9 0.2 1.1-0.1z"/>
	<path class="st6" d="m263.8 167.3c0.6-0.4 1.3-0.9 1.6-1.6 0.3-0.6-0.2-1.7-0.9-1.3-0.6 0.6-1 1.3-1.6 2-0.3 0.4 0.4 1.2 0.9 0.9z"/>
	<path class="st6" d="m251.4 165.9c-0.4 0.3-0.6 0.8-1.2 0.9-0.3 0.1-0.8 0.1-1 0.5 0 0.4 0.2 0.8 0.6 0.8 0.6 0.1 1.2 0.1 1.7 0 0.7-0.2 0.7-1 0.6-1.6 0.1-0.3-0.2-0.9-0.7-0.6z"/>
	<path class="st6" d="m268 170.6c0.7 0.2 1.6 0.1 2.3 0 0.6-0.1 1.4-0.1 1.7-0.7 0.1-0.6 0.1-1.4-0.2-2-0.1-0.3-0.5-1-0.8-0.5-0.3 0.6-0.3 1.3-0.6 1.9-0.2-0.2-0.4-0.4-0.6-0.5-0.4 0-0.6 0.6-1 0.6-0.2-0.2-0.3-0.5-0.5-0.7-0.4-0.1-0.8 0.1-1 0.5-0.1 0.5 0 1.2 0.7 1.4z"/>
	<path class="st6" d="m220.2 173.5c0.6-0.4 1.1-1 1.5-1.6 0.5-0.7 1-1.4 1-2.2 0-1-1.3-1.7-2.1-1-0.3 0.3-0.3 0.7-0.3 1.1 0.3 0.1 0.5 0.2 0.8 0.3-0.4 0.9-1.1 1.6-1.3 2.6-0.2 0.3-0.1 0.9 0.4 0.8z"/>
	<path class="st6" d="m240.1 171.4c-0.2-0.4-0.6-0.9-1.1-0.7-1 0.4-1.8 1.2-2.6 2-0.5 0.5-1.1 1-1.2 1.8 0.2 0.1 0.5 0.2 0.6 0.2 1.6-0.8 3.2-1.8 4.3-3.3z"/>
	<path class="st6" d="m289.2 185.9c0 0.4 0.5 0.4 0.7 0.2 0.4-0.3 0.6-0.8 0.8-1.2 2-4 4.2-7.9 6.1-11.9 0.2-0.5 0.5-1 0.2-1.4-0.2-0.5-0.8-0.4-1.3-0.4-0.6 0.2-1.2 0.7-1.4 1.4-1.5 3.6-3 7.4-4.6 11-0.1 0.7-0.6 1.4-0.5 2.3z"/>
	<path class="st6" d="m222.2 184.4c0.3 0.5 1 0.9 1.5 0.5 0.2-0.6 0-1.4-0.3-1.9-2.1-3.7-5-7-6.9-10.7-0.3-0.5-0.9-0.6-1.4-0.5-0.6 0.3-0.8 1.2-0.3 1.7 2.7 3.5 4.7 7.3 7.4 10.9z"/>
	<path class="st6" d="m265.4 173.7c-0.3-0.1-0.7-0.1-0.9 0.2-0.8 0.6-1.1 1.6-1.6 2.3-0.9 1.5-1.8 3-3.1 4.4-0.3 0.3-1 0.6-1.2 0.1-0.7-1.5-0.3-3.2-0.4-4.9-0.9-0.1-1.4 0.7-1.6 1.4-0.5 1.3-0.1 2.6 0.3 3.8 0.4 0.9 0.8 1.9 1.8 2.4 0.5 0.3 1.1-0.1 1.4-0.5 1-1.2 1.5-2.7 2.4-4 0.2-0.1 0.4-0.6 0.7-0.4 0.3 1.4-0.1 2.9 0.6 4.3 0.4 0.8 1.3 1.3 2.1 1.3 1.2-0.3 1.8-1.5 3-1.7 1.1 0.2 1.8 1.4 3 1.5 1.4 0 2.8-1.1 3.2-2.5 0.3-0.9 0.1-1.8 0.4-2.7 0.2-0.9 0.6-1.8 0.6-2.8 0-0.8-0.5-1.4-1.1-1.9-0.4-0.4-1-0.6-1.6-0.5-0.6 0.4-0.1 1.1 0.1 1.5 0.7 1.3 0.4 2.8 0 4.2-0.2 0.8-0.2 1.7-0.6 2.4-0.8 1-2.8 0.2-2.7-1.1-0.1-1.9 0.1-4 0.2-5.8 0-0.7 0.1-1.5-0.1-2.2-0.5-0.3-1.1 0-1.3 0.6-0.6 2.3 0.4 5-0.5 7.3-0.7 1.1-1.9 1.5-3 1.7-0.4-0.7-0.6-1.5-0.6-2.3-0.1-1.6 0-3.2 0.4-4.8 0.1-0.4 0.3-0.9 0.1-1.3z"/>
	<path class="st6" d="m286.6 174.7c0.5-0.1 1.1-0.5 1.1-1.1 0-0.5-0.2-1.3-0.9-1.3-0.5 0.2-0.6 1-1.2 1-0.4-0.3-0.6-1.1-1.3-0.9-0.6 0.5-0.5 1.5 0 2 0.6 0.7 1.5 0.5 2.3 0.3z"/>
	<path class="st6" d="m211.5 176.3c0.6-0.5 1.1-1.3 1.2-2-0.1-0.4-0.3-0.9-0.8-0.7-0.6 0.5-1.1 1.2-1.3 1.9-0.2 0.5 0.3 1.2 0.9 0.8z"/>
	<path class="st6" d="m276.3 169.3c1.6 1.4 2.7 3.3 3.8 5.2 0.3 0.5 0.1 1.1 0 1.6-0.6 2.4-1.3 4.8-2 7.2-0.2 0.6-0.1 1.3 0.1 1.9-0.2 0.3-0.6 0.6-0.4 1 0.3 0.6 0.9 0.8 1.5 0.9 2 0.4 4.3 0.2 6.1-0.8 0 0.9-0.2 1.8 0.3 2.6s1.5 1.3 2.4 1.4c1.8 0.1 3.6-0.5 5.1-1.6 0.4 1.4 0.2 2.9 0.7 4.3 0.2 0.4 0.5 0.9 0.9 1 0.7 0.2 1.5-0.1 2.1-0.5 1.4-0.8 2.5-2.1 3.3-3.4 1.2-1.7 2-3.7 3.1-5.5 0.3 1.1 0.6 2.2 0.7 3.4-0.4 1.1-1.2 2-1.7 3.1-0.4 0.9-1.1 1.7-0.9 2.7 0.1 0.5 0.8 0.7 1.1 0.3 0.6-1.2 0.9-2.5 1.8-3.5 0.3 1.2 0.2 2.4 0.3 3.7 0.1 0.1 0.3 0.2 0.4 0.2-1.2 1.7-3.7 1.9-5.6 1-0.5-0.2-1-0.8-1.6-0.5-0.5 0.2-0.9 1.1-0.3 1.4 1.2 0.7 2.7 1.1 4.3 1.3 1.8-0.1 3.5-0.9 4.9-2.2 2.6-2.6 3.7-6.4 6.4-9 1.1-1.1 1.3-3 0.3-4.4-0.2-0.4-0.7-0.6-1.1-0.3-0.6 0.4-0.7 1.1-0.9 1.7-0.9 3.4-2.5 6.6-4.8 9.3l-0.5 0.5c-0.1-1.5-0.4-3.1-0.5-4.7-0.1-0.4 0.2-0.7 0.4-1.1 1-1.6 2-3.2 3.4-4.7 0.9-1 0.8-2.6-0.1-3.5-0.2-0.1-0.6-0.2-0.7 0.1-0.6 1.3-1.2 2.5-1.9 3.7-0.5 0.8-0.9 1.7-1.5 2.5-0.2-1.2-0.5-2.4-0.5-3.6 0.4-1 1-1.8 1.6-2.7 0.3-0.5 0.7-1.1 0.5-1.7s-1.2-0.8-1.6-0.2-0.7 1.3-1.2 2c-0.5-1.6-1-3.3-2-4.7-0.2-0.3-0.7-0.6-1.1-0.4-0.8 0.5-1.5 1.9-0.7 2.7 1.2 1.2 1.8 2.8 2.3 4.5 0.2 0.4-0.1 0.9-0.3 1.2-1.2 2.5-2.4 5.1-4.2 7.3-0.7 0.8-1.5 1.7-2.6 1.8-0.6-0.3-0.5-1.1-0.5-1.7-0.1-0.9 0.3-2-0.4-2.8-0.5-0.6-1.4-0.7-2-0.2-1 0.7-2.2 1.3-3.5 1.3-0.6 0-1.4 0-1.7-0.6-0.3-0.7-0.6-1.7-1.5-1.9 0.9-0.7 1.6-1.6 1.9-2.7 0.7-2.2 1.3-4.5 2-6.7 0.3-0.9 0.6-1.9 1.2-2.7 0.5-0.6 1-1.2 0.8-2-0.2-0.9-0.3-1.9-1.2-2.3-0.3 0-0.6 0.1-0.8 0.2-0.1-0.1-0.1-0.4-0.2-0.5-1.3-0.1-2.6 0-4 0.4-0.2 0.5-0.2 1.1 0.3 1.4 1.2 0 2.4-0.4 3.5-0.8-0.8 3.4-1.7 6.8-2.8 10.1-0.3 0.9-0.6 1.8-1.2 2.6h-0.2c-0.8-2.8-2.1-5.5-3.4-8.1 0.5-2.1 1.1-4.2 1.7-6.2 0.2-0.7 0.3-1.5-0.3-2-0.4-0.4-1.1-0.1-1.3 0.4-0.7 1.7-0.3 3.7-1.1 5.5-1.9-2-2.5-5-4.5-7.1-0.3-0.4-0.9-0.3-1.2 0.1-0.6 0.6-1 1.7-0.5 2.4 0.6 0.6 1.3 0.9 1.8 1.4zm5.1 8.1c0.7 1.8 1.2 3.7 2.1 5.5 0.3 0.5 0.8 0.7 1.2 1-1.4 1.2-3.3 1.5-5.2 1.4 0.9-2.5 1.2-5.3 1.9-7.9z"/>
	<path class="st6" d="m234.3 177.9c-0.5 0.7 0 2.1 1 2.1 0.5-0.3 0.4-1 0.2-1.5-0.3-0.4-0.8-1-1.2-0.6z"/>
	<path class="st6" d="m206.7 180.3c-0.3-0.7-1.1-1-1.7-1.3 0.2 0.7 0.4 1.5 0.9 2.1 0.6 0.3 1-0.3 0.8-0.8z"/>
	<path class="st6" d="m205.6 184.5c0.7 0.6 1.7 0.7 2.5 0.4 0.5-0.2 0.4-0.9 0.4-1.3 0.7-0.2 1.4-0.2 2-0.6 0.6-0.3 0.5-1 0.4-1.5-0.4-1-1.2-1.6-2-2.1-0.5 0.2-1 0.5-1.2 0.9 0.6 0.5 1.4 0.8 1.9 1.5 0.1 0.2-0.1 0.4-0.2 0.6-0.6-0.3-1.2-0.5-1.8-0.5-0.1 0.5-0.2 1-0.2 1.4-0.3 0-0.7-0.1-1-0.1-0.5 0.4-1.1 0.8-0.8 1.3z"/>
	<path class="st6" d="m296.4 179.7c-0.6-0.1-1.1 0.3-1.1 0.9-0.1 0.8 0.7 1.4 1.4 1.3 0.4-0.2 0.6-0.5 0.8-0.8-0.2-0.2-0.5-0.4-0.7-0.6-0.2-0.3 0-0.8-0.4-0.8z"/>
	<path class="st6" d="m204.3 198.6c0.8 0.5 1.7 0.7 2.6 0.6 0.6-0.1 0.9-0.7 0.9-1.3 0.1-1.8-0.6-3.6-0.4-5.5 1.4 0.8 2.2 2.3 3.6 3.1 0.6 0.4 1.5 0.1 2-0.4 0.9-1 1.1-2.5 2.1-3.5 0.7-0.7 1.8-0.1 2.6-0.6 0.5-0.3 0.7-0.8 0.9-1.4 0.3-1.3 0.2-2.8-0.6-3.8-0.9-1.3-2.1-2.3-3.2-3.3-0.4-0.3-0.9-0.4-1.3-0.3-0.7 0.5-0.7 1.6-0.1 2.1 1.3 1.1 2.6 2.2 3.5 3.7 0.1 0.2 0.3 0.5 0.1 0.8-0.4 0.5-1 1-1.7 1-1.6-1.1-2.2-3.3-3.6-4.7-0.3-0.3-0.7-0.3-1 0-0.5 0.3-0.5 0.9-0.3 1.4 0.8 1.5 2.5 2.2 3.1 4 0 0.9-0.4 1.8-0.9 2.5-0.2 0.3-0.6 0.8-1.1 0.5-1.5-0.9-2.4-2.5-3.4-4-0.5-0.6-1.7-0.4-1.9 0.4-0.1 1.5 0 3 0.3 4.5 0.1 0.8 0.4 1.7 0.1 2.5-0.7 0.4-1.3-0.7-1.9-0.1-1 0.3-1 1.4-0.4 1.8z"/>
	<path class="st6" d="m202.3 186.5c-0.5 0.5-1 0.8-1.4 1.2-0.8 0.7 0.8 2 1.4 1.2 0.6-0.6 1.1-1.3 1.5-2.1 0.2-0.4 0.3-0.9-0.1-1.2-0.6-0.6-1.3-1-2.1-1.2-0.4-0.1-1.2-0.1-1.1 0.5-0.1 0.9 1.1 1.2 1.8 1.6z"/>
	<path class="st6" d="m293.9 184.6c-0.2 0.5-0.3 1.3 0.5 1.3 1.3 0 2.7-0.2 4.1-0.2 0.5 0 0.7-0.7 0.3-1-0.3-0.3-0.8-0.1-1.1-0.2-1.3 0.1-2.6-0.3-3.8 0.1z"/>
	<path class="st6" d="m192.6 201.9c0.2-3.4-0.3-7-0.8-10.3-0.7 3.2-1.2 6.6-1.3 9.9 0.1 1.4 0 3.1 1.1 4.3 0.7-1.3 0.9-2.6 1-3.9z"/>
	<path class="st6" d="m321 200.7c-0.4-2.6-1-5.3-1.5-8-0.3 2.7-0.7 5.5-0.8 8.2 0 1.7 0.1 3.7 1.4 5.1 1.3-1.5 1-3.6 0.9-5.3z"/>
	<path class="st6" d="m252.7 194.2c0.2-0.3 0-0.7 0-1-0.1-0.1-0.4-0.2-0.5-0.3-1.7 1-3.1 2.2-4.6 3.5-1 0.8-0.9 2.1-1.6 3.1-0.4-0.5-0.8-1.6-1.7-1.3-0.7 0.4-0.9 1.2-1.5 1.7-0.5 0.4-1.1 0.4-1.7 0.6 0 0.9 1 1.8 1.9 1.7 0.9-0.4 1-1.5 1.7-2.1 0.2 0.4 0.3 0.9 0.6 1.3 0.7 0.2 1.6-0.1 1.9-0.8 0.4-0.8 0.4-1.6 0.8-2.4 0.5-0.7 1.2-1.3 1.9-1.8 0 0.7 0.6 1 1.1 1.4-0.1 1.3-1 2.5-0.7 4 0.1 0.4 0.6 0.5 0.9 0.3 0.5-0.4 0.7-1.2 0.7-1.8 0-1 0.1-2 0.2-3 0.5-0.2 1.5-0.4 1.2-1.2-0.4-0.5-1.2-0.3-1.8-0.4 0.3-0.6 0.9-1 1.2-1.5z"/>
	<path class="st6" d="m262.8 196.5c0-0.7 0.1-1.5 0-2.3-0.1-0.5-0.6-0.6-1-0.5-0.3 0.9-0.3 1.8-0.2 2.7 0.2 0.5 0.8 0.2 1.2 0.1z"/>
	<path class="st6" d="m314.4 199.9c0.4 1.1 1.5 1.7 2.6 1.7 0.6-1 0.5-2.1 0-3.1-0.8-1.6-2.2-2.8-3.4-4.2 0.2 1.9 0 3.9 0.8 5.6z"/>
	<path class="st6" d="m196.5 200.5c1.3-1.8 1.4-4.2 1.4-6.3-1 0.7-1.9 1.7-2.7 2.7-1 1.3-1.8 3.1-1.2 4.8 1-0.1 2-0.4 2.5-1.2z"/>
	<path class="st6" d="m269.7 196.9c0.1-0.7 0.2-1.5-0.4-2-0.8 0.6-1.6 1.4-2.6 1.7 0 0.7 0.4 1.5 0.3 2.2 0 0.9-0.4 1.9 0 2.7 0.3 0.3 0.9 0.3 1-0.1 0.4-1.3-0.1-2.7 0.5-4.1 0.2-0.2 0.8-0.2 1.2-0.4z"/>
	<path class="st6" d="m189.1 211.5c1.1-1.9 0.7-4.4 0.5-6.5-0.3-2.6-0.8-5.3-1.3-7.8-0.6 3.7-1.2 7.5-0.8 11.2 0.2 1.2 0.4 2.7 1.6 3.1z"/>
	<path class="st6" d="m260.7 200.5c-0.1-0.4-0.1-0.9-0.3-1.3-0.4-0.4-1.1-0.5-1.6-0.4-0.6 0.2-1.1 0.6-1.6 0.9-0.8 0.5-0.7 2.2 0.4 2.1 0.6 0.1 1-0.5 1.4-1 0.2 0.6 0.3 1.4 0.9 1.7 0.7 0.2 1-0.6 1.7-0.7 1-0.2 2.1 0.2 3-0.3 0.7-0.6 1.3-1.5 1-2.5-0.1-0.4-0.2-1.1-0.8-1-0.7 0-0.8 0.8-0.8 1.3 0 0.6-0.5 1.2-1.2 1.1 0.1-0.8 0.3-1.6 0-2.4-0.1 0-0.4-0.2-0.5-0.2-0.1 0.1-0.4 0.2-0.5 0.2-0.2 0.7-0.1 1.4-0.2 2.1 0 0.5-0.6 0.3-0.9 0.4z"/>
	<path class="st6" d="m323.1 211.5c0.7-0.8 0.9-1.8 0.9-2.8 0.2-3.5-0.5-7-0.9-10.4-0.4 3.2-1.3 6.3-1.6 9.4-0.1 1.4-0.1 2.9 0.8 4.2 0.4 0.1 0.6-0.2 0.8-0.4z"/>
	<path class="st6" d="m315.3 202.7c-1.8-1.2-3.6-2.3-5.2-4 0.7 2.1 1.8 4.1 3.4 5.7 1.3 1.2 3 2.1 4.9 2-0.2-1.8-1.8-2.8-3.1-3.7z"/>
	<path class="st6" d="m197.1 205.5c2.1-1.6 3.3-4.2 4.1-6.7-1.3 1.4-2.9 2.6-4.7 3.5-1.2 0.7-2.5 1.3-3.3 2.4-0.3 0.4-0.4 1-0.4 1.5 1.4 0.7 3.1 0.4 4.3-0.7z"/>
	<path class="st6" d="m208.5 204.5c1.2-1.5 1.7-3.4 2-5.3-1.6 0.9-3.2 1.9-4.5 3.4-0.6 0.9-0.8 2-0.6 3.1 1.2 0.3 2.4-0.3 3.1-1.2z"/>
	<path class="st6" d="m306.1 205.6c0.1-1.1 0-2.3-0.7-3.1-1-1.3-2.5-1.8-4-2.5 0.3 1.7 0.5 3.6 1.7 5 0.8 0.7 2 0.7 3 0.6z"/>
	<path class="st6" d="m185.3 215.9c0.2 0.2 0.6 0.7 0.9 0.3 0.6-1 0.5-2.2 0.5-3.3-0.3-4-1.1-7.8-2.1-11.5-0.1 3.7-0.6 7.6-0.3 11.3 0.2 1 0.3 2.2 1 3.2z"/>
	<path class="st6" d="m201.4 210.5c1-0.9 1.6-2.1 1.7-3.4 0.1-1.9-0.2-4-0.2-5.9-1 1.6-1.9 3.4-2.3 5.3-0.3 1.4 0 2.8 0.8 4z"/>
	<path class="st6" d="m308.4 207.9c0.1 1 0.8 1.9 1.6 2.6 0.7-0.7 1.2-1.7 1.1-2.7-0.2-2.3-1.5-4.5-2.7-6.4 0.3 2-0.3 4.2 0 6.5z"/>
	<path class="st6" d="m326.1 215.5c0.6-1 0.7-2.1 0.9-3.2 0.4-3.5 0.1-7.2-0.2-10.8-0.6 3.6-1.6 7.2-2 10.7-0.1 1.3-0.2 2.7 0.4 3.8 0.3 0 0.7-0.1 0.9-0.5z"/>
	<path class="st6" d="m203.1 211.2c1.5 0.1 3.2-0.2 4.5-1.2 1.9-1.5 3.1-3.6 4.5-5.6-1.9 1.2-4.1 2.1-6.1 3.2-1.5 0.8-2.8 1.9-2.9 3.6z"/>
	<path class="st6" d="m304.6 210.6c1.2 0.7 2.6 0.9 4 0.5 0-1.4-0.9-2.7-2.1-3.3-2.3-1.2-5-1.9-7-3.5 1.1 2.6 2.7 5 5.1 6.3z"/>
	<path class="st6" d="m328.3 221.6c0.8-0.2 1-1 1.2-1.7 0.7-2.7 0.6-5.6 0.6-8.4 0-2.2-0.2-4.4-0.3-6.6-0.7 3.5-1.6 7.1-2.2 10.7-0.2 1.4-0.4 2.9-0.2 4.5 0.1 0.5 0.2 1.4 0.9 1.5z"/>
	<path class="st6" d="m182.1 220.8c0.2 0.5 0.6 0.7 1.1 0.9 1-1.2 1-2.7 0.8-4.2-0.4-4-1.5-7.8-2.3-11.7-0.1 3.7-0.4 7.5-0.2 11.1 0 1.5 0.1 2.7 0.6 3.9z"/>
	<path class="st6" d="m190.7 211.3c1.1 0 2.2-0.1 3.1-0.6 1.3-0.6 2.2-1.9 2.6-3.2-1.4 0.8-3 1-4.5 1.6-0.7 0.4-1.2 1.3-1.2 2.2z"/>
	<path class="st6" d="m199 216.2c0.3-0.5 0.7-1 0.7-1.6 0.1-1.2-0.3-2.4-0.5-3.6s-0.3-2.4-0.3-3.6c-1.1 2-2.1 4.4-1.8 6.8 0.1 0.9 0.9 1.8 1.9 2z"/>
	<path class="st6" d="m319.3 209.1c-1.3-0.8-2.9-1-4.3-1.7 0.3 1 0.8 2 1.6 2.7 1 0.9 2.4 1.2 3.7 1.2 0-0.9-0.2-1.8-1-2.2z"/>
	<path class="st6" d="m313.1 215.9c1-0.5 1.4-1.7 1.3-2.7-0.1-1.9-0.9-3.8-1.8-5.6 0.1 1.7-0.3 3.4-0.6 5.2-0.2 1-0.3 2.3 0.4 3.1 0.2 0.4 0.5 0.1 0.7 0z"/>
	<path class="st6" d="m331.4 221.1c0.1 0.8 0.1 1.6 0.7 2.2 0.7-0.4 0.4-1.2 0.4-1.8-0.3-1.9-0.5-3.8 0-5.7 0.5-1.8 0.4-3.6 0.3-5.4v-0.1c-0.1-0.7-0.2-1.5-0.5-2.1-0.1-0.3-0.5-0.4-0.7-0.1-0.3 0.3-0.1 0.8 0 1.1 0.7 2.1 0.7 4.4 0.1 6.6-0.5 1.6-0.5 3.5-0.3 5.3z"/>
	<path class="st6" d="m179.4 217.3c0.2 1.4 0 2.9-0.2 4.5-0.1 0.5-0.1 1.1 0.1 1.6 0.8-0.4 0.7-1.3 0.8-2.1 0.1-1.8 0.2-3.6-0.2-5.4-0.6-2.2-0.6-4.7 0.2-6.8 0.1-0.3 0.1-0.7-0.2-0.9-0.5-0.2-0.6 0.4-0.7 0.7-0.4 1.7-0.4 3.4-0.3 5.2-0.1 1.1 0.3 2.2 0.5 3.2z"/>
	<path class="st6" d="m204.4 215.5c1.4-0.9 2.2-2.5 2.8-4.1-1.7 0.8-3.5 1.4-5.2 2.4-0.8 0.5-1.5 1.3-1.6 2.3 1.3 0.2 2.8 0.1 4-0.6z"/>
	<path class="st6" d="m304.3 211.8c0.7 1.2 1.4 2.5 2.6 3.3s2.7 0.9 4.1 0.9c0-1-0.4-2.1-1.4-2.5-1.6-0.9-3.6-1-5.3-1.7z"/>
	<path class="st6" d="m187.9 216c2.6 0.6 5.7-0.9 6.3-3.6-1.4 0.7-3.1 0.7-4.7 1.3-0.9 0.4-1.4 1.3-1.6 2.3z"/>
	<path class="st6" d="m322.3 213.8c-1.5-0.8-3.2-0.8-4.9-1.3 0.9 2.3 3.5 3.7 6 3.4-0.1-0.8-0.4-1.7-1.1-2.1z"/>
	<path class="st6" d="m196.2 221.5c0.4-0.7 0.8-1.4 0.8-2.3 0-2.2-1.1-4.3-1.1-6.4-0.9 1.8-1.7 3.7-1.7 5.8 0 1.1 0.8 2.3 2 2.9z"/>
	<path class="st6" d="m315.4 221.4c0.8-0.2 1.5-0.8 1.6-1.6 0.4-2.3-0.4-4.8-1.2-7 0 1.9-0.7 3.6-1 5.6-0.2 0.9-0.1 2.1 0.6 3z"/>
	<path class="st6" d="m334.4 232.9c0 0.6 0 1.4 0.6 1.9 0.6-0.8 0.3-1.9 0.6-2.9 0.3-1.4 1-2.8 1.2-4.4 0.4-1.8 0.1-3.8-0.4-5.6-0.6-2.5-1.1-5.1-0.5-7.6 0.1-0.5 0.1-1-0.2-1.4-0.1-0.3-0.5-0.3-0.6 0-0.3 0.7-0.4 1.6-0.4 2.4-0.2 2.4-0.1 5 0.5 7.3 0.4 1.5 0.5 3 0.2 4.6-0.1 2-1 3.8-1 5.7z"/>
	<path class="st6" d="m176 233.1c0 0.7 0 1.4 0.6 1.8 0.3-0.4 0.5-0.9 0.5-1.4 0.1-1.7-0.5-3.3-0.9-5-0.4-1.5-0.5-3.1-0.3-4.7 0.1-1 0.5-1.9 0.7-2.9 0.3-1.8 0.3-3.7 0.2-5.6-0.1-0.9-0.1-1.8-0.7-2.5-0.2 0.2-0.6 0.4-0.6 0.8-0.2 0.7 0.2 1.4 0.3 2.2 0.2 2.4-0.3 4.8-0.9 7-0.5 2-0.5 4.1 0.1 6.1 0.2 1.4 0.9 2.7 1 4.2z"/>
	<path class="st6" d="m204.1 216.6c-1.4 1.1-2.9 1.8-4.6 2.5-0.9 0.4-1.9 1.1-2.2 2.1 0.7 0.7 1.7 1 2.6 0.5 2.3-0.9 3.5-3 4.2-5.1z"/>
	<path class="st6" d="m314.3 221.5c-0.3-0.7-0.7-1.3-1.3-1.8-0.9-0.6-1.9-0.9-2.8-1.3s-1.8-1-2.6-1.6c0.5 1.5 1.1 3.2 2.5 4.3 1 0.7 2.6 0.6 4.2 0.4z"/>
	<path class="st6" d="m184.8 221.4c2.8 0.8 5.7-1.3 6.7-3.8-1.5 0.6-3.2 0.6-4.9 1.1-1.1 0.2-1.6 1.5-1.8 2.7z"/>
	<path class="st6" d="m323.3 220.9c1 0.5 2.2 0.7 3.4 0.6-0.3-1-0.9-2.1-1.9-2.5-1.5-0.7-3.1-1-4.8-1.4 0.7 1.3 1.9 2.6 3.3 3.3z"/>
	<path class="st6" d="m172.5 227.3c0.1-1.1-0.4-2.1-0.3-3.2 0-0.9 0.5-1.7 0.6-2.6 0.1-1 0-2.1-0.3-3.1-0.1-0.4-0.6-0.8-0.9-0.4 0.3 0.8 0.7 1.6 0.6 2.5 0.2 1.2-0.7 2.3-0.7 3.5 0 0.9 0 1.8 0.3 2.7 0.1 0.5 0.4 0.5 0.7 0.6z"/>
	<path class="st6" d="m339 225.9c-0.1 0.4-0.3 1 0.1 1.4 0.3-0.1 0.6-0.4 0.6-0.8 0.3-1.4 0.4-2.8-0.1-4.3-0.5-1.3-0.4-2.9 0.3-4.2 0.3-0.4-0.4-0.6-0.6-0.4-0.4 0.4-0.4 1-0.5 1.5-0.1 1.1-0.1 2.3 0.3 3.4 0.2 1.3 0.1 2.4-0.1 3.4z"/>
	<path class="st6" d="m179.8 228.6c0.9 0.1 1.8-0.2 2.4-0.8 1.4-1.3 1.6-3.3 1.3-5.1-0.8 0.3-1.5 0.7-2.1 1.3-1.1 1.3-1.5 3-1.6 4.6z"/>
	<path class="st6" d="m311.7 226c2.1 1.7 4.4 3.1 6.5 5 2.3 2 4.1 4.6 5.3 7.3 0.2-0.3 0.4-0.6 0.3-1-0.5-3.3-1.4-6.8-0.9-10.2 0.1-0.8 0.6-1.6 0.8-2.4-0.1-0.4-0.4-1-0.9-0.7-0.9 1.3-1.2 2.8-2 4.3-0.2 0.2-0.4 0.5-0.7 0.5-0.3-0.1-0.4-0.3-0.5-0.5-0.5-1.5-0.4-3.1-1.2-4.6-0.3-0.6-0.9-0.9-1.5-0.9-0.3 0-0.8-0.1-0.9 0.3 0.1 1.3 0.9 2.5 0.7 3.8 0 0.6-0.7 0.9-1.2 0.5-1.2-0.8-2-2.1-3.2-2.9-0.4-0.3-1-0.1-1.1 0.4s0.2 0.8 0.5 1.1z"/>
	<path class="st6" d="m330.7 228.8c0.5-0.2 1-0.7 0.9-1.3-0.1-1.5-1-2.9-2-4-0.4-0.3-0.8-0.7-1.3-0.6-0.6 0.6-0.5 1.6-0.3 2.3 0.4 1.5 1.1 3.1 2.7 3.6z"/>
	<path class="st6" d="m188.2 238.5c0.8-1.7 1.8-3.5 3-5 2.1-2.7 5.2-4.6 7.9-6.7 0.4-0.4 1-0.7 1-1.4 0-0.6-0.8-0.9-1.2-0.5-1.2 0.8-2 2.1-3.2 2.9-0.4 0.3-1 0.1-1-0.4-0.2-1.4 0.7-2.6 0.7-4l-0.3-0.3c-0.8-0.1-1.8 0.2-2.2 1-0.7 1.4-0.7 2.8-1.1 4.4-0.1 0.2-0.1 0.6-0.4 0.6s-0.5-0.2-0.6-0.4c-0.8-1.4-1.1-3-2.1-4.4-0.6-0.1-1 0.7-0.8 1.2 0.5 1 0.7 2 0.8 3.1 0.2 3-0.5 6.1-1 9 0.1 0.3 0.3 0.6 0.5 0.9z"/>
	<path class="st6" d="m341.4 238c0.8-0.4 0.9-1.5 0.9-2.2 0-2.2-0.5-4.5-1-6.6-0.6 1.9-1.1 3.8-1.3 5.9-0.1 0.8-0.1 1.7 0.3 2.4 0.2 0.4 0.7 0.8 1.1 0.5z"/>
	<path class="st6" d="m170.6 238.2c0.5-0.8 0.9-1.7 0.8-2.6 0-2.1-0.7-4.2-1.3-6.2-0.5 2-1.2 4.3-0.9 6.4 0.1 0.8 0.6 1.8 1.4 2.4z"/>
	<path class="st6" d="m313.7 235.4c0.3 1 0.1 2.2 0.6 3.2 0.6 1.2 1.7 2.1 2.5 3.2 0.3 0.4 0.7 0.9 1.2 0.7 0.5 0 0.5-0.7 0.3-1.1-0.9-1.8-2.9-2.9-3.3-5-0.2-2.1-0.8-4.2-1.9-5.9-0.3-0.4-0.7-1.1-1.4-0.8-0.4 0.1-0.6 0.8-0.2 1 1.3 1.3 1.8 3.1 2.2 4.7z"/>
	<path class="st6" d="m315.5 230.4c-0.4-0.3-0.8-0.9-1.3-0.6-0.2 0.4 0 0.7 0.2 0.9 1.7 1.9 3.7 3.8 4.4 6.5 0.3 1.2 0.2 2.6 1 3.6 0.3 0.3 0.8 0.7 1.1 0.2 0.5-0.6 0.1-1.6-0.1-2.3-0.5-1.3-0.6-2.7-1.2-4-1.2-1.7-2.7-2.9-4.1-4.3z"/>
	<path class="st6" d="m191.7 240.8c0.8-1 0.7-2.3 1-3.4 0.5-2.7 2.7-4.7 4.6-6.7 0.2-0.2 0.2-0.5 0.3-0.8-0.7-0.1-1.1 0.5-1.6 0.9-1.2 1.1-2.5 2.2-3.5 3.6-0.8 1.3-0.9 2.8-1.4 4.2-0.3 0.7-0.7 1.7-0.3 2.4 0.1 0.4 0.6 0.1 0.9-0.2z"/>
	<path class="st6" d="m194.8 243.1c0.9-1.2 2-2.2 2.8-3.6 0.5-0.9 0.4-1.9 0.5-2.9 0.3-1.3 0.6-2.6 1.3-3.8 0.3-0.5 0.8-0.9 1.2-1.4 0.1-0.5-0.5-1-1-0.7-0.6 0.3-0.9 0.9-1.3 1.4-0.8 1.6-1.4 3.3-1.5 5.2-0.3 1.7-1.7 2.7-2.7 4.1-0.4 0.6-1.1 1.2-0.8 2 0.3 0.4 1.1 0.2 1.5-0.3z"/>
	<path class="st6" d="m181 243h0.4c0.4 1.8 1 3.6 1.3 5.5 0.2 1 1 1.8 1.5 2.6l1.2-2.1c0.1 0.1 0.2 0.1 0.3 0.1 0.1 1.3-0.2 2.7-0.1 4.2 0.5 1 1.2 1.9 1.7 3 1.5 2.7 3.2 5.7 3 8.9 0.1 0.1 0.2 0.3 0.2 0.4-0.7 1-1.3 2.2-1.3 3.5 0.7-0.1 1.7 0.3 2.3-0.3 1.5-1.4 2-3.6 2.2-5.7-1.1 0.4-2.1 1.2-2.9 2.1l-0.3-0.3c2.2-2.9 3.3-6.7 3.3-10.4 0-2.1-0.7-4.2-1.5-6.2-2.2-5.7-5.5-10.8-8.7-15.9-0.5-0.7-0.8-1.6-1.6-1.9-1.2 1.7-0.4 4.1-1.2 6-0.3 0.6-1.1 0.9-1.7 0.9-1.6 0.1-3.2-0.5-4.9-0.4-0.1 0.5-0.1 1-0.2 1.4 2.2 2.1 4.1 4.7 6.1 7.1 0.4-0.8 0.7-1.7 0.9-2.5z"/>
	<path class="st6" d="m336.7 237.3c-1.7-0.2-3.4 0.5-5.3 0.4-0.5-0.1-1.1-0.4-1.3-0.9-0.6-1.6-0.2-3.4-0.8-5.1-0.1-0.3-0.3-0.7-0.7-0.6-0.4 0.3-0.7 0.7-0.9 1.1-3.2 5.3-6.6 10.4-8.9 16.3-0.8 2.1-1.6 4.4-1.7 6.7-0.2 3.6 0.9 7.7 3.7 10.1 1-2.8 1.9-5.6 2.9-8.4 0.4-1 0.9-2 1.4-2.9 0.2-0.3 0.4-0.6 0.4-1 0-1.4-0.2-2.8 0-4.3l0.3-0.1c0.6 0.6 0.7 1.6 1.2 2.3 0.5-0.8 1.1-1.4 1.5-2.2 0.5-1.7 0.9-3.6 1.6-5.4 0.3 0.7 0.4 1.6 0.7 2.4 1.9-2.3 3.8-4.8 6.1-6.9-0.1-0.5-0.1-1-0.2-1.5z"/>
	<path class="st6" d="m341.7 243c1 0.1 1.7-0.8 2.2-1.5 1.5-2.4 2-5.3 2.1-8-0.7 1.6-1.8 3-2.8 4.5-0.9 1.2-1.8 2.5-1.9 4.1 0 0.4-0.1 0.9 0.4 0.9z"/>
	<path class="st6" d="m170.3 243c0.1-1.2-0.3-2.4-0.9-3.4-1.2-2-2.8-3.6-4-5.8 0.5 2.5 0.8 5.2 2.2 7.5 0.6 0.9 1.6 1.6 2.7 1.7z"/>
	<path class="st6" d="m339.9 242.8c0.1-0.8 0.1-1.7-0.2-2.5-0.5-1.3-1.6-2.3-2.3-3.4 0.1 1.1 0.3 2.1 0.6 3.2s0.7 2.3 1.9 2.7z"/>
	<path class="st6" d="m173.8 237.6c-0.7 0.8-1.4 1.6-1.9 2.5-0.4 0.8-0.3 1.7-0.3 2.6 1.7-1.1 2-3.3 2.2-5.1z"/>
	<path class="st6" d="m170.3 248.5c0-1.3-0.4-2.5-1-3.6-1.6-2.4-3.8-4.3-5.3-6.7 0.5 2.6 1.3 5.3 2.7 7.7 0.9 1.2 2 2.4 3.6 2.6z"/>
	<path class="st6" d="m341.5 246.3c-0.3 0.5-0.4 1.2-0.3 1.7 0 0.3 0.3 0.5 0.6 0.4 1.1-0.1 2-1.1 2.6-1.9 1.7-2.4 2.5-5.3 3-8.1-0.8 1.7-1.9 3.1-3.1 4.5-1 1-2.1 2.1-2.8 3.4z"/>
	<path class="st6" d="m171.6 248.2c1-0.2 2.1-0.8 2.5-1.8 0.6-1.4 0.2-2.9 0.1-4.4-0.6 1.1-1.3 2-2.1 3-0.6 0.9-0.6 2.1-0.5 3.2z"/>
	<path class="st6" d="m337.7 247c0.4 0.8 1.2 1.1 2.1 1.2 0.2-0.5 0.4-1.1 0.1-1.7-0.3-0.7-0.9-1.4-1.4-2-0.6-0.8-1-1.6-1.4-2.5-0.2 1.7-0.2 3.5 0.6 5z"/>
	<path class="st6" d="m341.2 254.1c1.6 0 2.7-1.4 3.5-2.6 1.4-2.5 2.4-5.3 3.4-8-1.7 2.2-3.7 4.3-5.5 6.5-0.9 1.1-1.6 2.6-1.4 4.1z"/>
	<path class="st6" d="m168.4 253.4c0.6 0.4 1.3 0.4 2 0.5 0.1-1.7-0.9-3.1-1.8-4.5-1.4-1.8-3-3.4-4.5-5.2 0.8 1.8 1.5 3.8 2.2 5.8 0.5 1.2 1 2.6 2.1 3.4z"/>
	<path class="st6" d="m182.5 249.8c-0.2-1.8-0.8-3.4-1.2-5.3-0.5 1.6-1.1 3.2-1.4 4.9-0.1 1.1-0.1 2.4 0.8 3.3 0.2 0.2 0.5 0.6 0.8 0.3 0.9-0.8 1.1-2.1 1-3.2z"/>
	<path class="st6" d="m331.3 252.2c0.4-0.9 0.2-1.9 0.1-2.8-0.3-1.4-0.7-2.7-1.1-4.2-0.6 1.8-1.3 3.8-1.2 5.8 0 1 0.5 1.8 1.1 2.4 0.4-0.3 0.9-0.6 1.1-1.2z"/>
	<path class="st6" d="m339.8 253.7c0-0.6 0.2-1.3-0.1-1.9-0.4-0.7-1-1.2-1.5-1.8-0.7-0.8-1.4-1.6-1.9-2.6 0.3 1.8 0.3 3.8 1.2 5.5 0.5 0.7 1.4 0.9 2.3 0.8z"/>
	<path class="st6" d="m173.8 252.5c1-1.5 1.2-3.3 1.3-5.1-1.1 1.2-2.3 2.3-3.1 3.8-0.4 0.7-0.4 1.6-0.2 2.4 0.7-0.1 1.5-0.4 2-1.1z"/>
	<path class="st6" d="m348.3 249.4c-0.2 0.1-0.4 0.4-0.6 0.6-1.6 2.4-4 4.1-5.7 6.4-0.6 0.9-1.2 2-0.7 3.1 1-0.4 1.8-1 2.5-1.8 1.6-1.8 2.8-4 3.6-6.2 0.5-0.7 0.6-1.4 0.9-2.1z"/>
	<path class="st6" d="m170.3 259.2c0.1-0.5 0.4-1 0.1-1.5-0.3-0.9-1.1-1.5-1.7-2.2-1.7-1.6-3.3-3.2-4.7-5.2 0.7 2.1 1.5 4.3 2.7 6.2 0.9 1.2 1.9 2.6 3.6 2.7z"/>
	<path class="st6" d="m329.1 257.9c0.1-0.7 0.3-1.5 0.2-2.2-0.2-1.1-0.9-2-1.6-3-0.6-0.8-1.1-1.7-1.5-2.5 0.1 2.1 0.1 4.5 0.9 6.5 0.3 0.7 1 1.4 2 1.2z"/>
	<path class="st6" d="m180.9 258.7c0.5-1.7-0.3-3.3-1.3-4.7-0.8-1-1.5-2.1-2.1-3.3 0.1 2.1 0 4.5 1.1 6.4 0.5 0.9 1.4 1.4 2.3 1.6z"/>
	<path class="st6" d="m184.5 256.3c0.8-1.7 0.7-3.6 0.8-5.6-0.8 1.2-1.6 2.3-2.4 3.6-0.7 1.1-0.9 2.4-0.7 3.7 1-0.1 1.9-0.7 2.3-1.7z"/>
	<path class="st6" d="m333.8 250.7c-0.7 1.8-2.1 3.2-3.1 4.9-0.6 1-0.5 2.2 0 3.1 1.1 0.1 1.8-0.9 2.3-1.7 1-1.9 1.3-4.1 0.8-6.3z"/>
	<path class="st6" d="m339 256.8c-0.3-0.8-0.9-1.4-1.4-2s-1-1.3-1.4-2c0.1 1.7 0 3.6 1 5.2 0.4 0.6 1.2 0.7 1.8 0.7 0.1-0.6 0.3-1.3 0-1.9z"/>
	<path class="st6" d="m174.7 257.5c0.9-1.4 0.7-3.1 0.6-4.8-0.8 1.3-1.9 2.3-2.9 3.3-0.5 0.6-0.8 1.4-0.6 2.1 1 0.3 2.2 0.3 2.9-0.6z"/>
	<path class="st6" d="m165.2 260.5c0.2-0.8-0.8-1.2-1-2-0.4-1.2-0.9-2.4-1.3-3.7-0.2-0.5-0.4-1.2-1-1.3-0.2 0.2-0.1 0.6 0 0.8 0.7 0.9 0.8 2.1 1.3 3.1 0.6 1.1 0.6 2.9 2 3.1z"/>
	<path class="st6" d="m348.8 254.1c-1.1 1.5-1.8 3.3-2.1 5.2 0.2 0.2 0.6 0.5 0.8 0.2 0.7-0.9 1.3-2 1.8-3 0.3-0.6 0.6-1.3 0.6-2-0.2-0.3-0.8-0.6-1.1-0.4z"/>
	<path class="st6" d="m343.2 263.3c1.5-2.1 2.3-4.7 3.2-7-1.4 1.8-3.2 3.2-4.9 4.9-1 1.1-2 2.3-2.1 4 1.6 0 3-0.7 3.8-1.9z"/>
	<path class="st6" d="m328.4 260.9c-0.9-1.4-2.1-2.5-2.8-4.1 0.1 1.8 0 3.8 0.7 5.6 0.3 0.7 1.1 0.9 1.8 0.9 0.3-0.7 0.7-1.6 0.3-2.4z"/>
	<path class="st6" d="m171.3 265c0.1-0.7 0.2-1.5-0.1-2.1-0.5-1-1.3-1.7-2.1-2.4-1.2-1-2.4-2.1-3.4-3.2 0.9 2 1.6 4.3 2.8 6.2 0.6 0.9 1.6 1.8 2.8 1.5z"/>
	<path class="st6" d="m185.1 262.1c0.7-1.4 0.5-3.1 0.4-4.7-0.7 1.2-1.8 2.1-2.4 3.3-0.4 0.7-0.3 1.6-0.2 2.3 0.9 0.1 1.8-0.1 2.2-0.9z"/>
	<path class="st6" d="m330.4 260.7c-0.7 0.7-0.6 1.8-0.4 2.7 2.5-0.6 4.3-3.3 4.1-6-1 1.4-2.6 2.1-3.7 3.3z"/>
	<path class="st6" d="m178.8 262.1c0.6 0.8 1.6 1.3 2.6 1.3-0.1-0.7 0-1.6-0.5-2.2-0.5-0.7-1.3-1.2-2-1.7s-1.3-1.1-1.9-1.8c0.4 1.5 0.8 3.2 1.8 4.4z"/>
	<path class="st6" d="m337 260c-0.6-0.6-1.1-1.4-1.6-2.2 0.1 1.8 0.1 3.7 0.9 5.4 0.4 0.9 1.6 1.4 2.5 0.9 0.3-0.6 0.4-1.3 0-1.9-0.4-0.7-1.1-1.4-1.8-2.2z"/>
	<path class="st6" d="m175.3 263.1c0.9-1.5 0.6-3.4 0.6-5.1-0.8 1.4-2 2.5-3.1 3.7-0.5 0.6-0.8 1.6-0.3 2.2 0.9 0.4 2.3 0.2 2.8-0.8z"/>
	<path class="st6" d="m167.9 273c1.2 1.2 2.7 1.7 4.3 2.2l0.9-3.3c0.5 1 1 2.1 1.4 3.1 0.2 0.4 0.3 1 0.8 1.3 0.1-0.5-0.2-1.1 0.4-1.3 0.1 0.5 0.3 1 0.5 1.5 0.6 0.2 1.2 0.4 1.8 0.5 5.1 1.3 10.2 2.4 15.4 3.5 0.3 0.1 0.7 0.1 1 0 0.7 0.6 1.7 0.8 2.5 1.2 1.6 0.8 2.9 1.9 4.2 3 0.2-0.8-0.2-1.5-0.3-2.2-0.6-2.1-1.3-4.3-2-6.4-1-2.3-2.7-4.3-4.9-5.6-1-0.6-2.2-0.9-3.4-0.9-4.3-0.2-8.6-0.5-12.8-1.2-2.9-0.5-6-1.3-8.7-2.7-2-1-3.7-2.5-5.1-4.3-0.3-0.3-0.5-0.6-0.8-0.7-0.5 0.2-0.6 0.7-0.5 1.1 0.3 1.7 0.9 3.3 1.5 4.9 0.8 2.3 1.9 4.6 3.8 6.3z"/>
	<path class="st6" d="m348.3 261c-0.3 0.1-0.5 0.4-0.7 0.7-1.8 2.3-4.3 4.2-7 5.2-6.4 2.5-13.4 2.9-20.2 3.1-2.6 0.2-4.9 2.1-6.4 4.1-1.2 1.5-1.7 3.3-2.3 5.2-0.4 1.4-0.9 2.9-1.3 4.4-0.1 0.4 0 0.8 0 1.3 1.5-1.4 3.2-2.6 5.3-3.4 0.3-0.6 0.5-1.2 0.6-1.8 0.2 0.5 0.4 0.9 0.6 1.4 1.7-0.5 3.5-0.7 5.3-1.2 0.4-0.3 0.7-0.8 1-1.3 0.1 0.3 0.1 0.7 0.2 1 4.5-1 8.9-2 13.3-3.3 0.5-1.7 1.4-3.2 2.5-4.6h0.4c-0.1 1.2-0.3 2.4-0.3 3.7 1.4-0.4 2.8-0.9 3.8-2 1.1-1.1 1.9-2.3 2.6-3.7 1.2-2.3 2.1-4.8 2.7-7.4 0.5-0.5 0.6-1.3-0.1-1.4z"/>
	<path class="st6" d="m181.7 268c0.3-0.9 0.2-2-0.5-2.8-1.1-1.1-2.6-1.9-4-2.9 0.4 1.8 0.9 3.5 2.1 5 0.6 0.6 1.5 1 2.4 0.7z"/>
	<path class="st6" d="m329.6 268.3c0.7 0 1.4-0.2 1.9-0.6 1.5-1.3 2.2-3.3 2.4-5.4-1.1 1-2.4 1.9-3.4 2.9-0.8 0.8-1.1 2-0.9 3.1z"/>
	<path class="st6" d="m185.9 267.3c0.9-1.4 0.7-3.1 0.6-4.8-0.8 1.6-2.4 2.5-3.3 4.1-0.3 0.5-0.3 1-0.2 1.6 1 0.2 2.3 0.2 2.9-0.9z"/>
	<path class="st6" d="m327 265.3c-0.9-0.8-1.7-1.7-2.4-2.7 0.1 1.8 0 3.6 0.8 5.3 0.4 0.8 1.4 1.1 2.2 1 0.6 0 0.5-0.6 0.6-1 0.3-1.2-0.6-2-1.2-2.6z"/>
	<path class="st6" d="m317.5 263.3c0.2 2.2 0.7 4.8 2.5 6.2 0.6 0.2 1.3 0 1.9 0 0-2.8-2-5.1-4.4-6.2z"/>
	<path class="st6" d="m339.6 280.1c1.6-0.1 3.1-1 4.4-2 2.1-1.7 4-4 4.8-6.5-2.3 2.3-5.5 3.7-7.9 6-0.8 0.6-1.5 1.4-1.3 2.5z"/>
	<path class="st6" d="m168.4 279c1 0.8 2.4 1.6 3.7 0.9-0.3-0.7-0.8-1.3-1.4-1.7-2.4-2.1-5.3-3.6-7.7-5.9 1.5 2.4 3.2 4.9 5.4 6.7z"/>
	<path class="st6" d="m337.4 278.1c0.1 0.7 0.7 1.1 1.3 1.4 0.6-2.1 0-4.3 0.4-6.4-1 1.4-2.1 3.1-1.7 5z"/>
	<path class="st6" d="m172.2 277.2c-0.1 0.9 0.6 1.7 1.2 2.2 0.6-0.7 1.2-1.5 1.1-2.4-0.1-1.3-0.7-2.5-1.3-3.6-0.4 1.2-0.9 2.5-1 3.8z"/>
	<path class="st6" d="m177.9 283.6c0.3-0.6 0.1-1.2-0.1-1.7-0.5-1.6-1.3-3.1-1.9-4.8 0 1.7-0.2 3.5-0.2 5.3 0 0.6 0.1 1.4 0.7 1.7 0.5 0 1.2-0.1 1.5-0.5z"/>
	<path class="st6" d="m334.9 284c0.5-0.3 0.7-0.8 0.8-1.3 0.3-1.4 0-3-0.8-4.3-0.3 1.1-0.5 2.2-0.9 3.2-0.2 0.6-0.4 1.2-0.3 1.8 0.2 0.5 0.8 0.5 1.2 0.6z"/>
	<path class="st6" d="m332.3 288c0.4 0 0.6-0.4 0.8-0.7 0.4-0.9 0.1-2-0.1-2.9-0.3-1.6-0.6-3.3-0.8-5-0.8 2-1.5 4.4-1.2 6.6 0.1 0.7 0.4 1.7 1.3 2z"/>
	<path class="st6" d="m336.8 283.7c-0.3 0.5-0.1 1.2 0.3 1.5 1.1 0.2 2.1-0.3 2.9-1 1.7-1.3 3.1-3 4.6-4.7-1.9 1-4.1 1.6-6.1 2.7-0.5 0.3-1.2 0.7-1.7 1.5z"/>
	<path class="st6" d="m174.9 285c0.3-0.4 0.1-0.8-0.1-1.2-0.4-0.7-1.1-1.1-1.7-1.4-2.1-1-4.5-1.5-6.5-2.6 1.7 1.8 3.5 3.6 5.8 4.9 0.7 0.3 1.6 0.7 2.5 0.3z"/>
	<path class="st6" d="m179 287.8c1 0 1.6-1.1 1.6-2 0.1-2.1-0.7-4.1-1.4-6 0.1 1.7-0.4 3.4-0.7 5.1-0.3 1-0.5 2.3 0.5 2.9z"/>
	<path class="st6" d="m319.6 285c1.6-1.1 2.9-2.9 3.3-4.9-1.2 1.5-2.8 2.6-4.5 3.8-0.3 0.3-0.9 0.8-0.5 1.3 0.6 0.5 1.3 0.1 1.7-0.2z"/>
	<path class="st6" d="m193.3 284.7c-0.3-0.6-0.9-1-1.3-1.5-1-0.8-1.9-1.7-2.9-2.5 0.3 1.8 1.4 3.6 3 4.7 0.4 0.3 1.3 0 1.2-0.7z"/>
	<path class="st6" d="m314.2 284.7c-0.7 0.8-1.6 1.4-1.7 2.5 0.6 0.3 1.3 0.5 1.9 0.3 2.2-1 2.9-4 2.2-6.2-0.7 1.2-1.5 2.5-2.4 3.4z"/>
	<path class="st6" d="m194.6 281.4c0 1.6 0 3.3 0.8 4.9 0.5 1 1.9 1.5 3 1.3 0.3-0.1 0.8-0.3 0.7-0.7-0.3-0.9-0.9-1.5-1.5-2.2l-3-3.3z"/>
	<path class="st6" d="m332.9 288.5c-0.1 0.5 0.1 1.3 0.7 1.2 1.2-0.1 2.3-0.7 3.4-1.3 2.3-1.4 4.6-3 6.4-5.2-2.6 1.6-5.5 2.8-8.3 3.8-0.7 0.5-1.6 0.8-2.2 1.5z"/>
	<path class="st6" d="m194.1 290.1c0.9 0.8 1.9 1.6 3.1 1.8 0.7 0.2 1.3-0.7 0.9-1.3-0.4-0.9-1.2-1.5-2-2.1-2.7-1.8-5.6-3.1-8.3-5.1 1.9 2.5 4 4.7 6.3 6.7z"/>
	<path class="st6" d="m313.7 290c-0.4 0.3-0.8 0.9-0.5 1.4 0.1 0.4 0.5 0.5 0.8 0.4 1.1-0.3 2.1-1.1 3-1.8 2.2-1.9 4.4-4.1 6.2-6.4-2.2 1.7-4.7 3.1-7 4.5-0.8 0.6-1.7 1.1-2.5 1.9z"/>
	<path class="st6" d="m168.6 284c2.1 2 4.5 4 7 5.3 0.8 0.3 1.7 0.8 2.5 0.3 0.3-0.5 0.2-1.2-0.2-1.6-0.6-0.7-1.6-1-2.4-1.3-2.4-0.9-4.8-1.5-6.9-2.7z"/>
	<path class="st6" d="m200.7 292c0.6-0.2 1-0.8 1.3-1.4 0.8-2.1 0.5-4.5-0.2-6.5-0.3 1.5-0.8 2.9-1.6 4.3-0.4 0.8-1 1.7-0.6 2.7 0.1 0.5 0.5 1 1.1 0.9z"/>
	<path class="st6" d="m310 285c-0.8 1.7-1 3.7-0.4 5.5 0.3 0.9 1.1 1.5 2 1.6 0.2-0.6 0.4-1.3 0.4-1.9-0.1-1-0.6-1.8-1-2.7-0.5-0.9-0.8-1.7-1-2.5z"/>
	<path class="st6" d="m180.7 294.2c0.5-0.5 0.7-1.3 0.9-2 0.5-2.1 0.4-4.3 0.1-6.4-0.3 1.6-0.9 3.1-1.7 4.7-0.4 0.9-0.9 1.8-1.1 2.8-0.2 0.9 1.2 1.7 1.8 0.9z"/>
	<path class="st6" d="m330.1 293.2c0.2 0.9 1.1 1.4 1.9 1 0.6-0.6 0.3-1.4 0.1-2.1-0.7-2-1.8-4-2.3-6 0 2.3-0.4 4.7 0.3 7.1z"/>
	<path class="st6" d="m171.1 289.7c1.1 1 2.3 2 3.7 2.6 0.5 0.2 1 0.4 1.6 0.3s0.9-0.9 0.5-1.3c-0.3-0.5-0.9-0.9-1.4-1.2-2.5-1.3-5.2-2.3-7.5-3.8 0.9 1.3 1.9 2.4 3.1 3.4z"/>
	<path class="st6" d="m191 299.1c-0.8-1.9-1.2-4.1-1.4-6.2-0.1-2.6-1.5-5.2-3.6-6.6 0.7 1.4 1.7 2.7 2.2 4.3 0.5 1.4 0.5 2.9 0.8 4.5 0.2 1.3 0.7 2.9 2 4z"/>
	<path class="st6" d="m334.7 291.5c-0.3 0.4-0.3 1.2 0.2 1.3 0.9 0.1 1.6-0.3 2.4-0.8 2.4-1.4 4.5-3.3 6.2-5.6-2 1.3-4.2 2.2-6.3 3.2-0.9 0.6-1.9 1-2.5 1.9z"/>
	<path class="st6" d="m321.4 289c-0.8 1.9-0.4 4.1-0.9 6-0.3 1.5-0.9 2.9-1.6 4.3 0.7-0.1 1.4-0.6 1.7-1.3 1.1-2.3 0.9-5 1.4-7.5 0.2-1.3 0.9-2.4 1.4-3.5-0.8 0.4-1.5 1.1-2 2z"/>
	<path class="st6" d="m198.7 294.2c-2.7-2.1-5.9-3.6-8.6-6 0.8 1.2 1.6 2.4 2.6 3.5 1.4 1.7 3.1 3.4 5.1 4.6 0.6 0.3 1.5 0.6 1.9-0.1 0.3-0.8-0.4-1.5-1-2z"/>
	<path class="st6" d="m182.4 296.3c0 1.2 0.2 2.5 1.1 3.3 0.3 0.4 1 0.3 1.2-0.1 0.5-0.8 0.4-1.7 0.4-2.6-0.1-2.5-0.9-4.9-1.8-7.2-0.2 2.2-0.8 4.4-0.9 6.6z"/>
	<path class="st6" d="m333.6 295.1c-0.4 0.4-0.2 1.2 0.3 1.5 1.1-0.2 2.2-1 3.2-1.6 2.2-1.5 4.4-3.1 6-5.4-2.1 1.8-4.9 2.8-7.4 4.1-0.8 0.4-1.6 0.8-2.1 1.4z"/>
	<path class="st6" d="m327.2 299.8c0.5 0.2 1.1-0.2 1.3-0.6 0.5-0.9 0.6-1.8 0.6-2.8 0-2.2-0.4-4.4-1.1-6.5-0.6 1.6-1 3.3-1.3 5.1-0.2 1.2-0.4 2.4-0.2 3.6 0 0.5 0.2 1 0.7 1.2z"/>
	<path class="st6" d="m177.2 296.6c0.6 0 1-0.8 0.6-1.3-0.4-0.6-1-1-1.6-1.3-2.5-1.3-5.2-2.3-7.5-3.8 1.6 2.1 3.6 4.1 5.9 5.5 0.7 0.3 1.6 0.9 2.6 0.9z"/>
	<path class="st6" d="m203.6 295.9c1-1.7 0.7-4 0.1-5.9-0.3 1.5-1 2.8-1.8 4.2-0.3 0.6-0.9 1.3-0.7 2 0.7 0.8 2 0.5 2.4-0.3z"/>
	<path class="st6" d="m311.5 296.4c0.3 0.7 1.3 0.2 1.7-0.1 2.3-1.6 4.3-4 6-6.2-2 1.5-4.4 2.7-6.6 4.3-0.5 0.4-1.4 1.1-1.1 2z"/>
	<path class="st6" d="m309 296.5c0.5 0.1 1.3 0 1.3-0.7-0.1-0.9-0.6-1.7-1-2.5-0.6-1-1.2-2-1.7-3-0.1 1.6-0.2 3.2 0.1 4.9 0.2 0.5 0.6 1.3 1.3 1.3z"/>
	<path class="st6" d="m316.2 302.2c0.7-1.2 0.7-2.7 1-4.1 0.6-2.5 2.6-4.5 3-7-1.3 1.7-2.9 3.2-4.1 5.1-0.7 1-0.6 2.4-0.8 3.6s-0.6 2.3-0.9 3.4c0.7-0.1 1.4-0.3 1.8-1z"/>
	<path class="st6" d="m193.8 302.5c0.3 0.6 1 0.9 1.6 1.1-0.2-1.2-0.7-2.3-0.8-3.5-0.2-1.1 0-2.4-0.7-3.4-0.9-1.4-2.3-2.6-3.2-4.2 0.4 2 1.7 3.7 2.2 5.8 0.3 1.4 0.3 2.9 0.9 4.2z"/>
	<path class="st6" d="m306.9 300.7c0.4 0 1.1-0.2 1-0.7-0.2-0.7-0.6-1.3-0.9-1.9-0.6-1.2-1.1-2.4-1.4-3.7-0.4 1.6-0.6 3.3-0.1 5 0 0.6 0.5 1.2 1.4 1.3z"/>
	<path class="st6" d="m205.4 300.5c0.5-0.4 0.7-1 0.8-1.5 0.3-1.5 0.1-3-0.4-4.4-0.2 1.4-0.7 2.7-1.6 4-0.3 0.5-0.7 0.9-0.7 1.6 0.3 0.5 1.3 0.8 1.9 0.3z"/>
	<path class="st6" d="m322.5 305.2c0.7-0.2 1.1-0.8 1.4-1.5 0.5-1.2 0.5-2.6 0.5-4v-4.9c-1.1 2.4-2.3 4.7-2.8 7.3-0.3 1.3-0.3 2.7 0.9 3.1z"/>
	<path class="st6" d="m182.4 301.4c0.6-0.4 0.5-1.3-0.1-1.7-1.1-0.9-2.5-1.2-3.7-1.6-2.2-0.7-4.5-1.4-6.5-2.6 2.2 2.2 4.8 4.4 7.6 5.7 0.7 0.2 1.7 0.6 2.7 0.2z"/>
	<path class="st6" d="m328.9 300c-0.4 0.4-0.1 1.4 0.5 1.3 1.1 0 2.1-0.5 3-0.9 2.5-1.2 4.9-2.8 6.7-5-2.4 1.4-5.3 2.1-7.9 3.1-0.7 0.4-1.6 0.8-2.3 1.5z"/>
	<path class="st6" d="m199.2 300.6c0.7 0.5 1.5 1.1 2.5 1.1 0.6 0.1 1-0.6 0.9-1.2 0-0.5-0.5-0.9-1-1.1-1.2-0.6-2.5-1-3.7-1.6-0.9-0.4-1.7-1-2.6-1.6 0.9 1.6 2.2 3.1 3.9 4.4z"/>
	<path class="st6" d="m187.3 299.9c0 1.2-0.1 2.5 0.2 3.7 0.2 0.6 0.6 1.1 1.3 1.2 0.5 0.1 1-0.2 1.1-0.7 0.3-0.8 0.1-1.7-0.1-2.5-0.5-1.9-1.4-3.7-2.4-5.5 0 1.2 0 2.5-0.1 3.8z"/>
	<path class="st6" d="m207.2 299.7c-0.3 0.6 0.4 1.4 1 1.3 0.4-0.2 0.6-0.7 0.8-1.1 0.3-1.2-0.1-2.4-0.6-3.4-0.3 1-0.8 2.1-1.2 3.2z"/>
	<path class="st6" d="m310.3 301.4c1.7-0.5 3.2-1.6 4.7-2.8 0.2-0.7 0.3-1.5 0.6-2.2-1.7 0.9-3.5 1.6-5.3 2.5-0.8 0.4-1.7 1.2-1.4 2.2 0.1 0.6 0.9 0.3 1.4 0.3z"/>
	<path class="st6" d="m302.7 297c-0.2 1.2-0.5 2.5 0 3.7 0.2 0.5 0.6 0.8 1.1 0.8 0.7-0.6 0.6-1.6 0.5-2.4-0.2-0.9-0.8-1.6-1.6-2.1z"/>
	<path class="st6" d="m324.7 304.7c-0.5 0.3-1.1 0.9-0.8 1.6 0.4 0.6 1.2 0.6 1.8 0.6 1.5-0.2 2.9-0.8 4.4-1.5 2-1.2 4.1-2.6 5.4-4.7-2.1 1.3-4.5 1.9-6.8 2.6-1.5 0.4-2.9 0.7-4 1.4z"/>
	<path class="st6" d="m186.2 307.2c0.9 0 1.6-1.1 1.3-2-0.3-0.6-1-0.8-1.6-1-1.7-0.5-3.4-0.8-5.2-1.3-1.5-0.4-2.9-1-4.4-1.7 1.9 1.9 4.1 3.6 6.4 5 1.2 0.5 2.3 1.1 3.5 1z"/>
	<path class="st6" d="m191 317.2c3.5-0.2 7-0.8 10.2-2 3.7-1.5 6.9-4.2 10.6-5.8l-0.6-2.4c1.5-0.2 3.1 0.4 4.3 1.5 0.6-0.1 1.2-0.1 1.7-0.1 0.1-0.9 0-1.7 0-2.7 0.8 0.7 1.4 1.7 1.9 2.7 1.5 0.1 2.9 0.8 4.4 1-0.9-1.3-2.1-2.3-3.2-3.5-2.2-2.2-5.2-3.3-8.2-3.7-3.5-0.5-7.1 0-10.4 1.2-4.4 1.6-8.3 4.1-12.8 5.3-3.7 0.9-7.7 0.7-11.4-0.1 0.5 0.8 1.1 1.5 1.7 2.2 1.6 1.9 3.1 3.8 5.3 5.2 1.9 1.1 4.2 1.3 6.5 1.2z"/>
	<path class="st6" d="m325.8 309.3v-0.2h-0.2c-0.8 0.3-1.7 0-2.6-0.2-6-1.4-11.1-5.3-17.2-6.5-3.6-0.7-7.5-0.3-10.8 1.2-1.6 0.7-3 1.7-4.2 2.9-1 1-2 1.9-2.8 3 1.6-0.2 3-0.9 4.7-1 0.3-0.6 0.4-1.3 0.9-1.8h0.2c0.1 0.6 0.1 1.1 0.2 1.7 0.6 0 1.2 0.1 1.7 0.1 1.2-1.3 2.8-1.9 4.6-2.2-0.1 1.1-0.3 2.1-0.6 3.2 2.1 0.9 4.2 2.3 6.2 3.5 2.3 1.4 4.8 2.5 7.3 3.2 0.5-0.8 0.8-1.7 1.2-2.5 0.4 0.9 0.3 1.9 0.3 2.9 2.8 0.5 5.8 1 8.7 0.6 2-0.2 4-1.3 5.5-2.7 1.8-1.8 3.4-3.8 5.1-5.9-2.7 0.7-5.5 1-8.2 0.7z"/>
	<path class="st6" d="m253.6 303.7c-0.1 0.5-0.2 1.2-0.8 1.2-1 0.1-1.5-0.9-2.1-1.4-0.3 0.7-0.5 1.4-0.7 2.2 0.2 0.6 0.7 1.1 1.1 1.8 0.7 1.4 1.3 2.9 1.2 4.6h0.7c0.3-1.5 0.3-3.1-0.1-4.7 0.5-0.2 1.1-0.4 1.3-1 0.4-0.9 0.2-1.8 0.2-2.7h-0.8z"/>
	<path class="st6" d="m247.3 312c0.1-0.6 0.2-1.2 0.3-1.9 0.2-2.3-0.5-4.8-2-6.6-0.3 0.8-0.7 1.5-1 2.4 0.1 0.3 0.3 0.5 0.5 0.7 1.2 1.5 1.6 3.4 1.6 5.4h0.6z"/>
	<path class="st6" d="m262.4 311.1c0.7-1.3 0.9-2.9 1.4-4.4 0.6 1.8 1.1 4.1 2.7 5.3 0.1-0.9 0.3-1.8 0.3-2.8-0.4-0.7-1-1.2-1.3-1.8-0.7-1.1-1-2.4-1.4-3.6-0.1-0.3-0.5-0.3-0.8-0.3-0.2 1.8-0.5 3.6-1.6 5.1-0.9 0.9-0.4 2.3-0.6 3.4 0.6-0.2 1.1-0.4 1.3-0.9z"/>
	<path class="st6" d="m328.1 308.4c2.3-0.5 4.2-2.2 5.9-3.8-1.1 0.5-2.1 1.1-3.2 1.7-1 0.6-2.1 1.1-2.7 2.1z"/>
	<path class="st6" d="m182.3 306.7c-1.4-0.9-3.1-1.3-4.8-1.8 1.3 0.9 2.5 1.9 3.8 2.8 0.4 0.2 1 0.6 1.5 0.3 0.4-0.5-0.2-1-0.5-1.3z"/>
	<path class="st6" d="m259.2 304.4c-0.3-0.8-1.3-1-1.9-0.6-0.9 0.6-1.4 1.6-1.5 2.6-0.1 0.6-0.1 1.2 0.4 1.6 0.6 0.6 1.5 0.5 2.2 0.4 0.1 1.2 0.1 2.9 1.4 3.5 0.2-0.8 0.5-1.6 0.4-2.4-0.2-0.4-0.6-0.7-0.7-1.2-0.3-1.1 0.1-2.6-0.3-3.9zm-2.2 1.8c0-0.1 0.2-0.7 0.7-0.6 0.3 0 0.4 0.5 0.5 0.6h-1.2z"/>
	<path class="st6" d="m298.3 311.2c1-1.1 1.3-2.7 1.5-4.2-1.4 0.4-2.9 0.9-3.6 2.2-0.5 0.8-0.3 1.8 0 2.6 0.7 0.1 1.5 0 2.1-0.6z"/>
	<path class="st6" d="m215.5 311.3c0.5-0.7 0.3-1.6-0.2-2.3-0.8-1.1-2.1-1.6-3.4-1.7 0.3 1.4 0.7 3 1.7 4.2 0.4 0.6 1.5 0.5 1.9-0.2z"/>
	<path class="st6" d="m219.6 313.5c0.3-2.1-0.6-4.3-1.7-6.1 0 1.7-0.2 3.4-0.2 5.2 0.1 0.4 0 0.9 0.3 1.3 0.3 0.6 1.5 0.5 1.6-0.4z"/>
	<path class="st6" d="m293.5 314.6c0.4-0.4 0.4-0.9 0.4-1.5 0-1.7-0.4-3.4-0.5-5.2-0.6 1.4-1.3 2.8-1.7 4.3-0.1 0.6-0.3 1.3 0 2 0.4 0.6 1.3 0.7 1.8 0.4z"/>
	<path class="st6" d="m232.8 310.2c-0.5-0.6-1.1-1.2-1.9-1.5 0.2 0.7 0.6 1.3 1 1.9 1.1 2 1.8 4.2 2.4 6.4 0.8 3.2 2.8 6.2 5.8 7.9 0-0.5-0.4-1-0.6-1.4-1.4-2.2-2.4-4.7-3-7.2-0.9-2.3-2.1-4.4-3.7-6.1z"/>
	<path class="st6" d="m243.9 325.3c-0.3-0.9-0.9-1.7-1.2-2.5-1-2-1.5-4.4-2.1-6.5-0.9-2.7-3-4.9-5.3-6.7-0.4-0.3-0.7-0.7-1.2-0.7 1.6 2.5 3.5 5 4.5 8 0.7 2.5 1.6 5.1 3.4 7 0.5 0.5 1.1 1.1 1.9 1.4z"/>
	<path class="st6" d="m273 317.2c0.8-3.1 2.9-5.7 4.7-8.4-0.6 0-0.9 0.5-1.4 0.8-2.2 1.9-4.5 4.1-5.4 7-0.6 2.1-1.1 4.4-2.2 6.4-0.4 0.8-0.9 1.5-1.1 2.3 3-1.5 4.5-5 5.4-8.1z"/>
	<path class="st6" d="m276.8 318.7c0.5-1.2 0.8-2.5 1.2-3.8 0.6-1.8 1.4-3.6 2.4-5.3 0.2-0.3 0.3-0.7 0.4-1-2.7 1.8-4.8 4.8-5.6 8-0.6 2.3-1.6 4.6-2.8 6.6-0.3 0.6-0.7 1.1-0.9 1.7 0.8-0.3 1.4-0.9 2-1.4 1.4-1.3 2.6-3 3.3-4.8z"/>
	<path class="st6" d="m220.9 317.9c0.1 0.6 0.9 0.9 1.4 0.6 0.6-0.5 0.7-1.2 0.8-1.9 0.1-2-0.4-4.1-1.5-5.8 0.2 1.6 0 3.1-0.3 4.7 0 0.8-0.4 1.6-0.4 2.4z"/>
	<path class="st6" d="m289.9 318.6c0.6-0.3 0.6-1.1 0.6-1.7 0-2.1-0.7-4.2-1.1-6.2-0.5 1.5-0.9 3-1.3 4.6-0.1 0.8-0.3 1.7 0 2.5 0.2 0.9 1.2 1.1 1.8 0.8z"/>
	<path class="st6" d="m295.2 315.5c0.7 0.5 1.8 0.2 2.5 0 1.6-0.6 3.2-1.7 4.1-3.3-1.9 0.9-4.1 0.8-6.1 1-1 0.1-1 1.6-0.5 2.3z"/>
	<path class="st6" d="m214.6 315.7c0.6 0.1 1.5 0.3 1.9-0.3 0.2-0.7 0.1-1.8-0.7-2-1-0.3-2-0.1-3-0.2-1.1-0.1-2.1-0.3-3.1-0.5 1.3 1.2 3 2.5 4.9 3z"/>
	<path class="st6" d="m245.9 318.9c0.7-0.4 1.6-0.4 2.5-0.7 0.3-0.1 0.4-0.5 0.4-0.9 0-0.8 0.1-1.6-0.1-2.5-0.2-0.7-1.1-0.9-1.8-0.7-0.9 0.3-1.8 0.6-2.6 0.9-0.5 0.2-0.8 0.6-0.8 1.1 0.1 1 0.1 2.1 0.8 2.8 0.5 0.5 1.2 0.2 1.6 0z"/>
	<path class="st6" d="m267.4 318.6c0.3-0.8 0.5-1.8 0.4-2.7-0.1-0.7-0.9-0.9-1.4-1.1-0.8-0.3-1.7-0.7-2.6-0.6-0.6 0-1.2 0.5-1.1 1.1-0.1 0.8-0.1 1.7 0 2.5 0.1 0.5 0.7 0.5 1.1 0.6 0.9 0.1 1.8 0.5 2.6 0.9 0.3-0.1 0.8-0.2 1-0.7z"/>
	<path class="st6" d="m250.9 314.5c-0.3 0-0.8 0.2-0.7 0.6-0.1 1-0.1 1.9 0 2.9 0.1 0.5 0.7 0.4 1.1 0.5 0.9 0.1 1.7 0.4 2.4 0.8 0.4-0.2 0.8-0.3 0.9-0.8 0.1-0.8 0.1-1.6 0.1-2.3 0.1-0.5-0.1-1.1-0.6-1.3-0.9-0.4-2-0.5-3.2-0.4z"/>
	<path class="st6" d="m258.6 314.7c-0.8 0.1-1.9 0.5-1.9 1.4 0.1 0.9 0.1 1.8 0.2 2.7 0.1 0.6 0.8 0.8 1.3 0.5 0.8-0.5 1.8-0.5 2.7-0.7 0.4-0.1 0.4-0.5 0.4-0.9 0-0.9 0.1-1.8 0-2.7-0.7-0.6-1.9-0.3-2.7-0.3z"/>
	<path class="st6" d="m285 322.5c0.2 0.6 1 1 1.6 0.6s0.6-1.2 0.6-1.8c-0.1-2.3-0.8-4.6-1.3-6.7-0.5 1.6-0.9 3.4-1.1 5.2-0.1 0.8-0.2 1.7 0.2 2.7z"/>
	<path class="st6" d="m224.5 322.4c0.1 0.7 1 0.8 1.4 0.4 0.6-0.5 0.7-1.5 0.8-2.2 0.1-1.9-0.4-3.8-1.4-5.6 0.2 1.6-0.1 3.1-0.4 4.7-0.2 0.8-0.5 1.7-0.4 2.7z"/>
	<path class="st6" d="m309.8 322.4c1 0.3 1.9-0.4 2.5-1.1 1.4-1.6 1.8-3.8 2-6-0.4 0.7-0.8 1.4-1.3 1.9-1.1 1.3-2.7 2-4 3.2-0.6 0.7 0 1.9 0.8 2z"/>
	<path class="st6" d="m216.5 317.2c-1.7 0-3.3 0-5-0.4 1.6 1.2 3.5 2.1 5.5 2.6 0.8 0.2 1.6 0.4 2.4 0s0.6-1.6-0.1-1.9c-0.9-0.4-1.9-0.3-2.8-0.3z"/>
	<path class="st6" d="m197.1 317.1c0.4 1.4 1.1 2.8 2 4.1 0.5 0.6 1 1.1 1.8 1.3 0.5 0.1 1.2-0.2 1.2-0.8 0-0.9-0.7-1.6-1.2-2.2-1-1.2-2.2-2-3.8-2.4z"/>
	<path class="st6" d="m291.4 319.7c0.5 0.6 1.5 0.4 2.2 0.3 2.1-0.6 4.2-1.7 6.1-2.8-1.9 0-4 0-5.9 0.1-0.8 0.1-1.8 0.1-2.4 0.7-0.4 0.4-0.3 1.2 0 1.7z"/>
	<path class="st6" d="m195.7 321.8c0.7-0.4 0.4-1.3-0.1-1.7-0.9-0.7-2-0.8-3.1-1-2.2-0.3-4.5-0.6-6.7-1.1 2 1.8 4.5 3 7.1 3.8 0.9 0.1 1.9 0.5 2.8 0z"/>
	<path class="st6" d="m315.3 320.7c-0.3 0.6 0 1.5 0.7 1.7 1 0.2 2-0.2 2.9-0.6 2.1-1 4-2.3 5.8-3.6-2.5 0.5-5.1 0.7-7.6 1.3-0.5 0.3-1.4 0.5-1.8 1.2z"/>
	<path class="st6" d="m219.4 328.3c-0.3-1.3-1.3-2.2-2.2-3.2-2.2-2.3-4.8-4.4-7.1-6.7 1.5 2.8 3.1 5.7 5.2 8.1 0.8 1 1.7 2 2.9 2.5 0.6 0.4 1.3-0.1 1.2-0.7z"/>
	<path class="st6" d="m227.6 319.5c-0.4 0.4-0.3 0.9-0.3 1.4 0.7 0.3 1.3 0.9 1.9 1.4 0.5-1.2 1-3-0.1-4-0.6 0.3-1.1 0.7-1.5 1.2z"/>
	<path class="st6" d="m282.5 318.4c-0.4 0-0.6 0.4-0.7 0.7-0.3 1.1 0 2.2 0.4 3.2 0.7-0.3 1.2-1 2-1.3 0-0.4 0.1-0.7 0-1.1-0.3-0.6-0.9-1.2-1.7-1.5z"/>
	<path class="st6" d="m293.4 328.8c1.2-0.5 2-1.5 2.9-2.4 2-2.4 3.6-5.1 5.1-7.8-2.5 2.5-5.6 4.6-8.1 7.2-0.5 0.5-1.1 1.2-1.3 1.9-0.2 0.8 0.7 1.4 1.4 1.1z"/>
	<path class="st6" d="m304.8 322.2c-0.5 0.5-1.2 1.2-1.2 2 0.1 0.7 0.6 1.5 1.4 1.4 0.7 0 1.2-0.7 1.6-1.3 1-1.7 1.4-3.7 1.9-5.7-1 1.3-2.5 2.3-3.7 3.6z"/>
	<path class="st6" d="m203 318.8c0.6 1.5 1.1 3 1.6 4.6 0.3 0.6 0.5 1.3 1.1 1.6 0.8 0.2 1.8-0.5 1.7-1.3-0.1-0.6-0.5-1.1-0.9-1.6-0.9-1.2-2.3-2.2-3.5-3.3z"/>
	<path class="st6" d="m209.2 324.2c0.4 0.8 0.8 1.6 1.4 2.3 0.3 0.3 0.7 0.7 1.2 0.5 0.6-0.2 1.1-0.9 0.9-1.5-0.3-0.9-0.9-1.6-1.5-2.3-1.4-1.5-2.8-2.8-4.4-4.3 0.8 1.8 1.5 3.6 2.4 5.3z"/>
	<path class="st6" d="m300.2 323.3c-0.7 0.7-1.4 1.3-1.7 2.2-0.3 0.7 0.2 1.7 1.1 1.8 1 0.1 1.6-0.8 2.1-1.5 1.4-2.1 2.2-4.6 3-6.9-1.3 1.6-3 2.9-4.5 4.4z"/>
	<path class="st6" d="m214.5 320.8c1.1 0.9 2.4 1.7 3.8 2.3 1.2 0.5 2.4 1 3.7 1.1 0.5 0.1 1.2 0 1.4-0.6s0-1.3-0.6-1.5c-1-0.5-2.1-0.4-3.2-0.6-1.7 0-3.4-0.3-5.1-0.7z"/>
	<path class="st6" d="m248.9 325.4c-0.2-1.4-1.6-2.2-2.6-3-0.6-0.4-1.1-1-1.9-1.3 0.5 1.3 1.1 2.5 2 3.5 0.6 0.8 1.6 1.2 2.5 0.8z"/>
	<path class="st6" d="m265.4 324.2c0.6-0.9 1.3-1.8 1.5-2.9-0.9 0.5-1.7 1.2-2.6 1.8-0.8 0.5-1.7 1.2-1.9 2.3 1.2 0.6 2.3-0.3 3-1.2z"/>
	<path class="st6" d="m288.5 324.6c0.8 0.2 1.6 0 2.3-0.2 1.9-0.7 3.8-1.7 5.7-2.7-2.2 0.2-4.5 0-6.7 0.2-0.7 0.1-1.4 0.2-1.8 0.8s-0.3 1.6 0.5 1.9z"/>
	<path class="st6" d="m255.5 325.7c-0.2-0.8-0.6-1.5-1.3-1.8-1.5-0.8-3.2-0.9-5-1.5-0.6-0.1-1.3-0.6-2-0.5 1 1 2 2 3.1 2.8 1.6 1 3.5 1.3 5.2 1z"/>
	<path class="st6" d="m258.8 325.6c1.4-0.3 2.5-1 3.6-1.9 0.6-0.5 1.3-1 1.7-1.7-1.1 0.2-2.1 0.6-3.2 0.8-1.2 0.3-2.5 0.5-3.6 1.1-0.7 0.3-1.1 1-1.3 1.8 0.9 0 1.9 0 2.8-0.1z"/>
	<path class="st6" d="m200.7 326c0.5-0.1 1.1-0.3 1.5-0.7 0.4-0.5 0-1.3-0.6-1.4-1.2-0.2-2.3 0.1-3.5 0.2-2.4 0.1-4.8 0.1-7.2-0.3 1.5 1 3.3 1.6 5.2 2.1 1.4 0.1 3.1 0.3 4.6 0.1z"/>
	<path class="st6" d="m310.6 323.9c-0.6 0.1-1.4 0-1.7 0.6 0 0.6 0.5 1.1 1 1.3 1.1 0.4 2.3 0.3 3.4 0.1 2.4-0.3 4.9-1 7-2.4-3.1 1-6.5 0.4-9.7 0.4z"/>
	<path class="st6" d="m224.1 325.6c-1.5 0-3.1 0-4.7-0.2 0.8 0.8 1.8 1.5 2.8 1.9 0.7-0.5 1.3-1.1 1.9-1.7z"/>
	<path class="st6" d="m288.1 325.8c0.4 0.4 0.8 0.9 1.3 1.3 0.8-0.4 1.7-1 2.5-1.4-1.3 0.1-2.6 0.1-3.8 0.1z"/>
	<path class="st6" d="m196.8 327.2c-0.2 0-0.2 0.2-0.3 0.3 0.7 0 1.5 0.3 2.3 0.4 2.1 0.4 4.3 0.5 6.4 0.3 0.7-0.1 1.6-0.3 1.9-1 0-0.9-1-1-1.7-1-1.9 0.1-3.8 0.6-5.9 0.8-0.8 0.1-1.7 0.4-2.7 0.2z"/>
	<path class="st6" d="m306.5 326.4c-0.8 0-1.6-0.2-2.3 0.2-0.3 0.4-0.1 0.9 0.3 1 0.9 0.4 2 0.4 2.9 0.4 2.3 0.1 4.6-0.3 6.8-0.7-2.6-0.2-5.2-0.7-7.7-0.9z"/>
	<path class="st6" d="m208.8 330.4c0.9-0.1 1.9-0.2 2.6-0.9 0.4-0.6-0.2-1.3-0.8-1.4-1-0.2-2 0.1-3 0.4-2.1 0.5-4.4 1.2-6.6 1.4 2.6 0.6 5.3 0.8 7.8 0.5z"/>
	<path class="st6" d="m311.2 329.6c-2.5 0.1-5.1-0.4-7.5-1-1.1-0.2-2.2-0.6-3.2-0.5-0.7 0.1-0.8 1.1-0.4 1.5 0.9 0.6 1.9 0.7 2.9 0.9 2.7 0.4 5.7 0.3 8.2-0.9z"/>
	<path class="st6" d="m215.1 332.3c1.2-0.1 2.4-0.5 3.1-1.5 0-0.6-0.5-1.2-1.1-1.2-1.1-0.1-2.1 0.3-3.1 0.6-1.8 0.7-3.6 1.3-5.6 1.7 2.1 0.6 4.4 0.7 6.7 0.4z"/>
	<path class="st6" d="m293.7 330.9c0.6 0.4 1.1 1.3 1.9 1.3 2.8 0.2 5.7 0 8.4-0.5-2.4-0.4-4.8-1.1-7.2-1.6-1.2-0.2-2.5-0.5-3.7 0-0.2 0.4 0.4 0.6 0.6 0.8z"/>
	<path class="st6" d="m212.7 335.3c-1.4-1-3.1-1.2-4.8-1.6-4.1-0.8-8.2-1.8-12.1-3.6 1.7 1.7 3.7 3 6 4.1 2.7 1.4 5.7 2.6 8.8 3.1 0.6-0.8 1.3-1.5 2.1-2z"/>
	<path class="st6" d="m299.1 335.5c0.6 0.4 1 1.1 1.5 1.4 1.7 0.1 3.4-0.5 5-1 3.4-1.3 6.8-3 9.6-5.6-4.2 1.8-8.8 2.1-13.2 3.4-1 0.4-2.2 0.8-2.9 1.8z"/>
	<path class="st6" d="m244.4 192.8c3-1.3 7.2-2.1 11.9-2.1s8.8 0.8 11.9 2.1h0.1l8.2-3.5-8.5 2.8 3.7-2.8-5.2 2.2 4.2-4.3-6.7 3.8 1.9-3.1-3.6 2.7 1.4-4.6-4.2 4.4 0.1-3.2-1.9 3.1-1.4-4.7-1.3 4.7-2-3.1v3.2l-4.2-4.3 1.4 4.6-3.7-2.7 1.9 3.1-6.6-3.7 4.2 4.4-5.3-2.3 3.7 2.7-8.6-2.8 8.6 3.4z"/>
	<path class="st6" d="m203.5 191.7c-0.2-0.3-1.8-0.3-1.9 0-0.2 0.5 0.5 1.8 1.1 1.9 0.7 0.1 1-1.4 0.8-1.9z"/>
	<path class="st6" d="m245.8 230c0.1 0 0.2 0.1 0.3 0.1 6 0 12 0 17.8-0.1 0.4 0 0.9 0.2 1.3-0.1 1.1-0.8 1.7-2 2.2-3.3 0.8-2.3 1-4.8 0.5-7.1-0.4-1.8-1.2-3.6-2.6-5-1.6-1.7-4-2.7-6.4-3-0.6-0.1-1.1 0-1.6-0.3-0.5-0.2-0.9-0.6-1.1-1-0.3-0.7-0.4-1.4-0.6-2.2 0-0.2-0.2-0.3-0.3-0.3-0.2 0.8-0.3 1.5-0.5 2.2-0.3 0.9-1.2 1.6-2.2 1.6-2.7 0.2-5.6 1.3-7.4 3.5-1.6 1.9-2.4 4.5-2.4 7 0 1.7 0.1 3.5 0.7 5.2 0.3 0.9 1.3 2 2.3 2.8z"/>
	<path class="st6" d="m236.2 216.7h-7.5v2.1h7.5v-2.1z"/>
	<path class="st6" d="m282.1 216.7h-7.4v2.1h7.5l-0.1-2.1z"/>
	<path class="st6" d="m228.8 233.7l7.5 0.1v-13.9h-7.5v13.8z"/>
	<path class="st6" d="m274.6 233.8h7.5c0.1-2.2 0-4.6 0.1-6.8v-7.1h-7.5c-0.1 4.6-0.1 9.3-0.1 13.9z"/>
	<path class="st6" d="m227.5 240.3c0.1 0.1 0.2 0.2 0.4 0.2h45.7c3.1 0.1 6.2 0 9.3 0 1.4-1.5 2.8-3 4.3-4.5-1.9-0.1-3.8-0.1-5.8-0.1-2.6 0-5.2-0.1-7.8-0.1-0.4 0-0.7-0.3-1-0.5-1.9-1.4-3.8-2.7-5.9-4.2-0.3-0.2-0.7-0.1-1-0.2-7.1 0-14.3 0-21.4-0.1-2.1 1.7-4.3 3.3-6.4 5h-14.3c1.3 1.7 2.6 3.1 3.9 4.5z"/>
	<path class="st6" d="m212 238.8c-0.6 0.1-1.2 0.5-1.4 1.1-0.4 0.9 0.2 2 1 2.2 0.9 0.3 2-0.3 2.2-1.3 0.4-1.1-0.7-2.2-1.8-2z"/>
	<path class="st6" d="m298.4 239.2c-0.5 0.2-0.9 0.6-1.1 1-0.4 1 0.2 2.2 1.3 2.5s2.2-0.7 2.2-1.8c0.1-1.2-1.1-2.1-2.4-1.7z"/>
	<path class="st6" d="m213.1 242.5c0.5 0.8 1 1.7 1.5 2.5 4.7 7.8 9.2 15.6 14 23.4v-1.2c-0.3-0.6-0.7-1.1-1-1.7-4.7-7.8-9.2-15.6-13.9-23.4-0.2 0.2-0.3 0.3-0.6 0.4z"/>
	<path class="st6" d="m269.1 282.7c0-1.2 0.1-2.5 0.1-3.7-0.7-0.5-1.6-0.9-2.3-1.4-0.1-1.2 0-2.5 0-3.7-1.2-0.6-2.5-1-3.7-1.6-0.1-1.2 0-2.4-0.1-3.5-1-0.3-2-0.6-3.1-0.9 0-1.2 0.1-2.4 0.1-3.6-1.3-0.4-2.5-0.8-3.8-1.2-0.5-0.1-0.9-0.4-1.3-0.7-0.5-0.3-0.9-0.5-1.3-0.8-0.1-0.8 0.1-1.5 0.1-2.3-4.7-0.1-9.3-0.1-14-0.1v-2.5c0-1.3 0.4-2.7 1-4 0.7-1.5 1.8-2.7 2.9-3.8 1.6-1.5 3.4-2.6 5.4-3.5 1.8-0.8 3.7-1.4 5.8-1.5 1.5 0 3 0.2 4.5 0.7 3.1 1 6 2.9 8.2 5.4 1.3 1.5 2.4 3.4 2.7 5.5 0.2 0.7 0.2 1.5 0.2 2.3v5.7h0.5v-6.4c-0.1-1.8-0.6-3.5-1.5-5.1-1.1-2-2.7-3.6-4.6-5.1-2.5-1.9-5.7-3.1-8.8-3.1v-0.5h25.5c0.3 0.1 0.2-0.3 0-0.2h-53.1v0.3h15.6c3.2 0.1 6.5 0 9.7 0v0.5c-2.2 0.1-4.5 0.9-6.5 1.9-2 1.1-4 2.5-5.5 4.3-1.2 1.4-2 3.1-2.3 5-0.2 1-0.1 2-0.1 2.9v22.7h5c-0.1-1.4-0.2-2.8-0.3-4.3h4.7c0.5 1.4 0.9 2.8 1.3 4.3h2.8c-0.5-1.2-1.1-2.4-1.6-3.7h2.6c0.2 0.2 0.4 0.5 0.6 0.7 0.8 1 1.6 2.1 2.3 3.1h3c0.3 0 0.6-0.1 0.9 0l0.6 0.6c1.2 1.2 2.4 2.5 3.7 3.7 0.2 0.2 0.4 0.1 0.6 0.1h6.2c-0.9-1.2-1.9-1.8-2.7-2.5z"/>
	<path class="st6" d="m282.3 270.5c5.3-9.2 10.5-18.3 15.8-27.6-0.2-0.1-0.3-0.2-0.5-0.3-5.1 8.8-10.1 17.6-15.2 26.3-0.2 0.6 0 1.2-0.1 1.6z"/>
	<path class="st6" d="m213.8 257.9c0.2-0.3 0.5-0.6 0.8-0.8 1.5-1.2 3.2-2 4.8-3.1-1.9-3.4-4.1-6.8-6.1-10.2-0.1-0.1-0.1-0.3-0.3-0.2s-0.3 0.3-0.5 0.4c-0.7 0.8-1.4 1.6-2.1 2.4-1 1.2-2.2 2.2-3.4 3.2-0.1 1 0 2 0.5 2.8s1.4 1.3 2.3 1.6c1.8 0.7 3.1 2.3 4 3.9z"/>
	<path class="st6" d="m301.2 255.2c0.9-0.4 1.8-0.7 2.5-1.5 0.8-0.8 1-2.1 0.7-3.2-1.6-1.2-3-2.7-4.4-4.4-0.6-0.7-1.1-1.5-1.9-2.1-2.1 3.6-4.2 7.3-6.3 10.8 0.9 0.7 2 1.3 2.9 1.9s1.9 1.2 2.6 2.1c0.9-1.5 2.2-2.9 3.9-3.6z"/>
	<path class="st6" d="m228.9 244.8v10.2h7.3v-10.3c-2.5 0.1-4.9 0.1-7.3 0.1z"/>
	<path class="st6" d="m274.6 255h5.3c-0.5-0.2-0.7-0.7-0.6-1.2 0-1.8-0.1-3.7-0.1-5.6-0.5-0.3-1.1-0.4-1.7-0.1-0.2 0.1-0.1 0.3-0.2 0.5 0.1 1.6 0.1 3.1 0.1 4.8 0 0.3 0 0.6-0.2 0.9-0.3 0.4-1 0.6-1.4 0.3-0.3-0.2-0.4-0.6-0.4-1v-6.5c-0.1-0.5 0.4-1.1 0.9-1.3 0.7-0.3 1.5-0.5 2.2-0.4 0.7 0 1.5 0.2 2.1 0.6 0.4 0.2 0.6 0.7 0.6 1.1 0 2.2-0.1 4.6 0 6.8 0 0.4-0.3 0.8-0.7 1h1.1v-10.3h-7.2c0.2 3.6 0.2 6.9 0.2 10.4z"/>
	<path class="st6" d="m272 245.5h-3.6c0.7 0.7 1.5 1.4 2.1 2.3 0.6 0.7 1 1.4 1.5 2.1v-4.4z"/>
	<path class="st6" d="m242.5 245.5h-3.6c0 1.5-0.1 2.9-0.1 4.5 1-1.8 2.3-3.2 3.7-4.5z"/>
	<path class="st6" d="m279.9 254.3c0.2 0.4 1 0.2 0.9-0.3 0-2.2 0-4.5 0.1-6.6 0-0.4-0.2-0.7-0.5-0.9-0.8-0.5-1.8-0.5-2.7-0.4-0.6 0.1-1.4 0.3-1.6 1-0.1 2.2 0 4.4 0 6.5 0 0.3 0 0.6 0.3 0.7 0.3 0 0.7-0.2 0.6-0.6v-5.4c0-0.3 0.2-0.6 0.5-0.7 0.6-0.2 1.2-0.2 1.8 0 0.2 0.1 0.5 0.3 0.6 0.6 0.1 1.8 0.1 3.7 0.1 5.6-0.1 0.2-0.1 0.4-0.1 0.5z"/>
	<path class="st6" d="m229.6 259.1h6.5c0.4-0.5 0.7-1.1 1-1.7h-8.4c0.2 0.6 0.6 1.1 0.9 1.7z"/>
	<path class="st6" d="m274.7 259.1h6.4c0.3-0.5 0.6-1.1 0.9-1.7h-8.3c0.4 0.6 0.7 1.1 1 1.7z"/>
	<path class="st6" d="m229.4 263.4h7v-1.7h-7v1.7z"/>
	<path class="st6" d="m281.6 263.4v-1.7h-6.9v1.7h6.9z"/>
	<path class="st6" d="m210.7 268.1c0-0.2 0.2-0.4 0-0.6-0.8-1.5-1.9-2.9-3.3-3.8-1.1-0.6-2.4-0.6-3.5-1.2-0.3-0.2-0.6-0.5-0.9-0.8 0 0.8 0 1.7-0.2 2.6s-0.6 1.8-0.7 2.8c0 0.3 0 0.6 0.2 0.8 1.9 1.5 3.5 3.5 5.2 5.5 0.4 0.4 0.7 0.8 1.1 1.2 0.3-0.2 0.4-0.5 0.6-0.8 0.6-1.9 1-3.8 1.5-5.7z"/>
	<path class="st6" d="m308.6 269.8c0.3-0.3 0.7-0.5 0.7-0.9 0.1-1.5-0.8-2.9-0.8-4.5v-1.6c-0.3 0.3-0.6 0.6-0.9 0.8-0.8 0.4-1.8 0.5-2.7 0.8-0.6 0.2-1.3 0.6-1.8 1-1.1 0.9-2 2.1-2.6 3.3 0.5 1.9 0.9 4 1.5 5.9 0.2 0.5 0.3 1 0.7 1.4 0.2 0 0.3-0.2 0.4-0.3 1.8-1.9 3.5-4.1 5.5-5.9z"/>
	<path class="st6" d="m236.3 273.6v-7.9h-7.2v7.9c2.5-0.1 4.8 0 7.2 0z"/>
	<path class="st6" d="m274.6 273.6h7c0.2 0.1 0.3-0.1 0.2-0.2v-7.7h-7.2v7.9z"/>
	<path class="st6" d="m270.8 273.4h0.5v-6.4h-0.5v6.4z"/>
	<path class="st6" d="m228.5 280h7.9v-4.3h-7.9v4.3z"/>
	<path class="st6" d="m274.5 280h7.8v-4.2h-7.8v4.2z"/>
	<path class="st6" d="m248.1 276.4h-3.7c0.2 1.3 0.1 2.5 0.3 3.7h4.6c-0.4-1.2-0.8-2.4-1.2-3.7z"/>
	<path class="st6" d="m253.7 277.1c-0.1-0.1-0.2-0.3-0.4-0.3h-1.5c0.5 1.1 0.9 2.2 1.5 3.3h2.6c-0.7-1-1.5-2-2.2-3z"/>
	<path class="st6" d="m250.2 284.6c-0.2-1.3-0.5-2.6-0.8-4h-4.9c0.1 1.3 0.1 2.6 0.1 4h5.6z"/>
	<path class="st6" d="m254.2 284.6c-0.4-1.3-0.9-2.6-1.3-4h-2.9c0.2 1.3 0.5 2.6 0.7 4h3.5z"/>
	<path class="st6" d="m256.2 280.6h-2.8c0.4 1.3 0.8 2.6 1.2 4h4.1c-0.8-1.4-1.6-2.7-2.5-4z"/>
	<path class="st6" d="m264.2 284.6c-1.3-1.4-2.6-2.6-4-4-1.1 0.1-2.3-0.1-3.4 0.1 0.8 1.3 1.6 2.6 2.4 3.8 1.8 0.1 3.4 0.1 5 0.1z"/>
	<path class="st6" d="m227.1 285.9c-0.9 1.6-2.1 3-3.5 4.3h20.7v-5.1c-1.7 0-3.4-0.1-5.2 0-0.6 0-1.3-0.1-1.7-0.5-0.6-0.6-0.7-1.6-0.8-2.4h-8.4c-0.2 1.3-0.5 2.6-1.1 3.7z"/>
	<path class="st6" d="m286.3 289.8c-2.2-1.9-3.7-4.8-3.8-7.8h-7.7c0 1.2-0.1 2.4-0.4 3.5-0.4 1.5-1.2 3-2.3 4.3h14.2z"/>
	<path class="st6" d="m256.2 289.8c-0.6-1.6-1.2-3.1-1.9-4.7-1.2 0-2.3 0-3.5-0.1 0.3 1.6 0.7 3.1 1.1 4.8h4.3z"/>
	<path class="st6" d="m269.1 289.8c-1.3-1.5-2.7-3-4.1-4.6-0.1-0.1-0.2-0.3-0.4-0.2h-5c1 1.6 2.1 3.2 3.1 4.8h6.4z"/>
	<polygon points="289.2 292.3 221.7 292.3 214 298.4 296.9 298.4" class="st6"/>
	<path class="st6" d="m228.3 215.5h8.2c0-2.7-2.4-5.8-4.1-5.8-1.5 0.1-4.2 3.1-4.1 5.8z"/>
	<path class="st6" d="m278.5 209.7c-1.6 0.1-4.2 3.1-4.2 5.8h8.2c0-2.7-2.4-5.8-4-5.8z"/>
<path class="st5" d="m274.3 215.7v-0.2h0.2-0.2v0.2h-0.2v-0.3c0-1.4 0.6-2.8 1.5-4 0.9-1.1 1.9-1.9 2.8-1.9s2 0.8 2.8 1.9 1.4 2.6 1.4 4.1v0.2h-8.3zm8-0.4c0-1.2-0.6-2.5-1.4-3.5-0.8-1.1-1.8-1.8-2.4-1.8-0.7 0-1.7 0.7-2.5 1.7s-1.4 2.3-1.4 3.5h7.8v0.1z"/>
	<path class="st1" d="m285 333.5c-1.6-1.8-3.5-3.4-5.5-5.2 0 0.8-0.1 1.7 0.3 2.4 0.7 0.7 1.5 1.3 2.2 1.9 1.3 1.3 2.8 2.6 3.6 4.4h0.7c-0.1-0.7-0.1-1.4-0.3-2-0.1-0.5-0.5-1-1-1.5z"/>
	<path class="st1" d="m276.8 328.7l-3-0.3c-0.1 0.6-0.3 1.3-0.3 2 1 0.1 2 0.1 3 0.2 0.1-0.5 0.1-1.3 0.3-1.9z"/>
	<path class="st1" d="m271.2 331.3c-1-0.1-2-0.3-3-0.4-0.2 0.6-0.4 1.3-0.5 1.9 1 0.1 2 0.2 3 0.4 0.2-0.7 0.4-1.3 0.5-1.9z"/>
	<path class="st1" d="m262.7 335.7c-0.2 0.6-0.4 1.2-0.6 1.9 0.6 0.3 1.2 0.8 1.5 1.4-1.3 0.1-2.6 0.1-4 0.2 0.1-0.7 0.1-1.5-0.3-2.2-0.5 0.4-1.1 0.7-1.5 1.1-0.1 0.4 0.2 0.8 0.3 1.1-0.6 0.2-1.3 0-1.9-0.2 0.2-0.6 0.3-1.2 0.3-1.8-0.3 0.1-0.7 0.2-1 0.5-0.2 0.5-0.3 1-0.8 1.3-0.9 0.3-2 0.2-2.9 0.1-0.7-0.1-1.4-0.1-1.8-0.7-0.1-0.5 0.1-1 0.2-1.5-0.2-0.1-0.5-0.1-0.7-0.2-0.2 0.5-0.3 1-0.7 1.3-0.6 0.5-1.4 0.6-2.2 0.7 0.5-1.1 0.9-2.5 0-3.5-0.5 0.5-1.1 1-1.7 1.5 0.4 0.5 0.7 1 0.6 1.7-1.8-0.3-3.5-0.7-5.3-1.1-0.5-0.1-1.4-0.3-1.1-1 0.4-1.6 1.7-2.8 2.3-4.4 0.2-0.6 0.1-1.3 0-1.9-0.8 0.3-1.6 0.9-2.3 1.3 0.1 0.4 0.4 0.8 0.2 1.2-0.7 1.5-1.9 2.8-2.4 4.5-0.2 0.5-0.1 1.2 0.4 1.5 0.6 0.4 1.4 0.6 2.1 0.8 1.5 0.3 3 0.6 4.7 0.9 0 0.1 0.1 0.3 0.2 0.3 0.8 0 1.6 0.2 2.5 0.1 0.8 0 1.5-0.4 2.2-0.8 0.4 0.7 0.9 1.2 1.7 1.2 1.6 0.1 3.2 0.5 4.9-0.1 1.2 0.5 2.4 0.7 3.7 0.8 0.1-0.1 0.1-0.3 0.2-0.4 1.8-0.1 3.7-0.2 5.7-0.2-0.1-1.1-0.3-2.2-0.6-3.3-0.4-1-1.1-1.6-1.9-2.1z"/>
	<path class="st1" d="m233.9 332.5l2.4-0.9c-0.3-0.5-0.7-1-1.1-1.4-0.2-0.2-0.4-0.4-0.6-0.3-0.7 0.2-1.5 0.5-2.2 0.8v0.1c0.4 0.6 0.9 1.1 1.5 1.7z"/>
	<path class="st1" d="m279.4 331.6c-0.8-0.4-1.8-0.9-2.8-0.6-0.6 0.1-0.8 0.8-0.8 1.4-0.1 1 0 2.1 0.8 2.8 1.3 1 3.6 0.7 4.2-1 0.5 0.4 1 0.9 1.3 1.4-2 0.6-4.1 1-6.1 1.5-0.5 0.2-1.1 0.1-1.6 0.1 0.2-0.6 0.7-1.4 0.2-2-0.6-0.9-1.8-0.9-2.8-0.9-1 0.1-2 0.2-2.8 0.8-0.7 0.6-0.4 1.6 0 2.3 0.4 0 0.7-0.4 1.1-0.4 0.4 0.1 0.8 0.3 1.2 0.5-0.1 0.5-0.6 0.5-1 0.7-0.9 0.2-1.9 0.5-2.9 0.2-1.6-1.5-1.3-4.2-2.7-5.7-0.3-0.4-0.7-0.6-1.1-0.9l-0.3 0.9c-0.7-0.2-1.4-0.4-2.1-0.6-0.4 0.6-0.7 1.2-1.1 1.8 0.9 0.2 1.9 0.5 2.8 0.8 0.1-0.2 0.3-0.4 0.4-0.7 0.4 0.3 0.8 0.6 1 1 0.7 1.6 0.8 3.5 2 4.9 0.7 0.7 1.7 0.9 2.7 0.7 1.6-0.2 3.3-0.4 4.5-1.7 1.6 0.9 3.6 0.4 5.3-0.1 1.9-0.5 3.8-1 5.8-1.4-0.6-1.1-1.3-2-1.9-3-1-1.3-2.1-2.2-3.3-2.8zm-2.3 2.1c0.1-0.3 0-0.6 0.3-0.8 0.5-0.4 1.1 0 1.6 0.2-0.4 0.7-1.2 0.9-1.9 0.6z"/>
	<path class="st1" d="m245.6 333.6c0.5 0.2 0.8 0.6 1.4 0.7 0.6-0.3 1.2-0.8 1.7-1.2-0.6-0.4-1.2-0.7-1.7-1.1-0.5 0.3-0.9 0.7-1.4 1-0.5-0.1-0.9-0.5-1.4-0.7-0.7 0.2-1.2 0.8-1.8 1.2 0.6 0.4 1.1 0.8 1.8 1.1 0.5-0.3 0.8-0.8 1.4-1z"/>
	<path class="st1" d="m234.9 334.9c-0.3 0.7-0.1 1.4-0.5 2.1-0.5 0.9-1.6 1-2.5 0.9-1.8-0.1-3.6-0.7-5.2-1.7-0.6-0.5-1.3-1-1.1-1.9 0.9-1.3 2.7-1.6 4.2-2.2l-0.3-0.6c-1.6 0.5-3.2 0.9-4.7 1.8-0.6 0.5-1.3 0.9-1.5 1.7-0.3 1.1 0.6 2 1.5 2.5 2.1 1.3 4.7 2.1 7.2 1.9 1.9-0.2 3.1-1.9 4.4-3.2 0.7-0.8 1-1.8 1-2.8-0.8 0.6-1.7 1-2.5 1.5z"/>
	<path class="st1" d="m210.7 255c-0.6-0.4-1.4-0.6-2.1-1s-1.4-1-1.8-1.7-0.4-1.5-0.4-2.3c-1.2 0.8-1.9 2.1-2.5 3.3-0.6 1.4-1.1 2.8-1.2 4.5 0 0.8-0.1 1.7 0 2.5 0 0.5 0.3 1 0.7 1.4 0.6 0.6 1.4 0.8 2.1 1 0.8 0.2 1.6 0.4 2.3 0.8 1.3 0.9 2.3 2.1 3.2 3.5h0.1c0.2-0.6 0.4-1.3 0.5-2 0.4-2 0.6-4.1 1.7-5.9 0.1-0.2 0.3-0.4 0.2-0.7-0.7-1.4-1.6-2.6-2.8-3.4z"/>
	<path class="st1" d="m308.6 259.3c0-1.6-0.5-3.2-1-4.8-0.6-1.4-1.4-2.7-2.5-3.7-0.1 0.7 0 1.3-0.2 1.9-0.3 0.9-1 1.6-1.8 2.1s-1.7 0.6-2.5 1.2c-1.1 0.9-2.1 2.1-2.6 3.4 0.1 0.3 0.4 0.5 0.5 0.9 0.6 1.3 1 2.7 1.2 4.3 0.2 1.2 0.3 2.5 0.8 3.6 0.4-0.8 0.9-1.4 1.5-2 0.9-1 2.1-1.9 3.5-2.2 1-0.2 2.2-0.4 2.8-1.3 0.5-1 0.3-2.2 0.3-3.4z"/>
	<path d="m233.4 269v-2.5h-1.1v2.5h1.1z"/>
	<path d="m278.9 269v-2.5h-1.1c0 0.8-0.1 1.6 0 2.4 0.4 0.1 0.7 0.1 1.1 0.1z"/>
	<path d="m230.4 270.1h1.5v-0.8h-1.5v0.8z"/>
	<path d="m233.7 269.3v0.8h1.6v-0.8c-0.5-0.1-1.1-0.1-1.6 0z"/>
	<path d="m275.9 270.1h1.5v-0.8h-1.5v0.8z"/>
	<path d="m279.2 269.2v0.8h1.6v-0.8h-1.6z"/>
	<path d="m232.2 272.8h1.1v-2.5h-1.1v2.5z"/>
	<path d="m277.8 270.3v2.5h1.1v-2.5h-1.1z"/>
</svg>
