<?xml version="1.0" encoding="utf-8"?>
<!-- Generator: Adobe Illustrator 21.1.0, SVG Export Plug-In . SVG Version: 6.00 Build 0)  -->
<svg version="1.1" id="Warstwa_1" xmlns="http://www.w3.org/2000/svg" xmlns:xlink="http://www.w3.org/1999/xlink" x="0px" y="0px"
	 viewBox="0 0 512 512" style="enable-background:new 0 0 512 512;" xml:space="preserve">
<style type="text/css">
	.st0{fill:#01AD68;}
	.st1{fill:#0092C7;}
	.st2{fill:#E90538;}
	.st3{fill:#FFFFFF;}
</style>
<g>
	<path class="st0" d="M256.3,512c103.2,0,192-61.1,232.3-149.1H23.9C64.3,450.9,153.1,512,256.3,512z"/>
	<path class="st1" d="M256.3,0.8C153.1,0.8,64.3,61.9,23.9,150h464.7C448.3,61.9,359.4,0.8,256.3,0.8z"/>
	<path class="st2" d="M0.7,256.4c0,38,8.3,74.1,23.2,106.5h464.7c14.9-32.4,23.3-68.5,23.3-106.5s-8.4-74.1-23.3-106.5H23.9
		C9,182.3,0.7,218.4,0.7,256.4z"/>
	<g>
		<path class="st3" d="M222.2,168.7c26.5-4.2,53.4,6.1,72.6,24c-16-6.3-33.5-13.1-51-8.8c-32.4,5.1-59.2,34.4-61.1,67.2
			c-3.6,36.4,24.8,72.6,61.1,78c17.5,4.5,35-2.5,51-8.9c-25.4,24.5-66.3,32.3-98.6,16.8c-37.5-16.4-59.5-61.5-49.1-101
			C155.4,201,186.3,172.2,222.2,168.7L222.2,168.7z"/>
		<path class="st3" d="M322.3,211.4c0.3,0,0.9,0,1.2,0c3.6,7,5.7,14.6,8.1,22c8.3-2.9,16.4-6.8,24.6-10.1
			c-3.4,8.2-7.6,16.2-10.4,24.5c7.6,2.3,15.2,4.5,22.2,8.1c0,0.3,0,0.9,0,1.2c-6.9,3.6-14.6,5.7-22,8c3,8.4,6.8,16.5,10.1,24.7
			c-8.2-3.4-16.1-7.6-24.5-10.4c-2.3,7.6-4.5,15.2-8.1,22.1c-0.3,0-0.9,0-1.2,0c-3.6-6.9-5.7-14.6-8.1-22c-8.4,3-16.4,6.8-24.6,10.1
			c3.4-8.2,7.6-16.1,10.4-24.5c-7.6-2.3-15.2-4.5-22.2-8c0-0.3,0-0.9,0-1.2c6.9-3.6,14.6-5.7,22-8.1c-3-8.4-6.8-16.4-10-24.7
			c8.2,3.5,16.1,7.6,24.5,10.4C316.5,226,318.5,218.4,322.3,211.4L322.3,211.4z"/>
	</g>
</g>
</svg>
