<?xml version="1.0" encoding="utf-8"?>
<!-- Generator: Adobe Illustrator 21.1.0, SVG Export Plug-In . SVG Version: 6.00 Build 0)  -->
<svg version="1.1" id="Warstwa_1" xmlns="http://www.w3.org/2000/svg" xmlns:xlink="http://www.w3.org/1999/xlink" x="0px" y="0px"
	 viewBox="0 0 512 512" style="enable-background:new 0 0 512 512;" xml:space="preserve">
<style type="text/css">
	.st0{fill:#00ABC9;}
	.st1{fill:#FAE042;}
</style>
<g>
	<path class="st0" d="M50.4,407.1C96.9,470.6,171.8,512,256.5,512c110.8,0,204.8-70.6,240.3-169.3H134.5L50.4,407.1z"/>
	<path class="st1" d="M247.3,256.4l-112.8,86.3h362.3c9.7-27,15.3-55.9,15.3-86.3c0-30.3-5.6-59.3-15.3-86.3H134.5L247.3,256.4z"/>
	<path class="st0" d="M496.8,170.1C461.3,71.4,367.3,0.8,256.5,0.8C171.8,0.9,96.9,42.3,50.4,105.7l84.1,64.4H496.8z"/>
	<path d="M134.5,170.1l-84.1-64.4c-14.3,19.6-25.8,41.1-34.2,64.4C6.5,197,0.9,226,0.9,256.4c0,30.3,5.6,59.3,15.3,86.3
		c8.3,23.2,19.9,44.8,34.2,64.4l84.1-64.4l112.8-86.3L134.5,170.1z"/>
</g>
</svg>
