<?xml version="1.0" encoding="utf-8"?>
<!-- Generator: Adobe Illustrator 21.1.0, SVG Export Plug-In . SVG Version: 6.00 Build 0)  -->
<svg version="1.1" id="Warstwa_1" xmlns="http://www.w3.org/2000/svg" xmlns:xlink="http://www.w3.org/1999/xlink" x="0px" y="0px"
	 viewBox="0 0 512 512" style="enable-background:new 0 0 512 512;" xml:space="preserve">
<style type="text/css">
	.st0{fill:#171796;}
	.st1{fill:#F7D117;}
	.st2{fill:#FFFFFF;}
</style>
<g>
	<g>
		<path class="st0" d="M55.3,97.3h23.1l-30.5,22.2l11.7,35.9l-28.9-21C11.1,170.5,0,211.9,0,256c0,141.4,114.6,256,256,256
			c44.6,0,86.3-11.5,122.9-31.4l-8.4-6.1L340,496.7l11.7-35.9l-30.5-22.2h37.7l11.7-35.9l11.7,35.9h37.7l-30.5,22.2l3.6,11.2
			c17.5-11.1,33.5-24.2,47.8-39.2L79.2,71.1C70.6,79.4,62.7,88.1,55.3,97.3z M302.2,334.5l11.7,35.9h37.7l-30.5,22.2l11.7,35.9
			l-30.5-22.2l-30.5,22.2l11.7-35.9l-30.5-22.2h37.7L302.2,334.5z M234,266.2l11.7,35.9h37.7l-30.5,22.2l11.7,35.9L234,338
			l-30.5,22.2l11.7-35.9l-30.5-22.2h37.7L234,266.2z M165.7,197.9l11.7,35.9h37.7L184.6,256l11.7,35.9l-30.5-22.2l-30.5,22.2
			l11.7-35.9l-30.5-22.2H154L165.7,197.9z M97.4,129.7l11.7,35.9h37.7l-30.5,22.2l11.7,35.9l-30.5-22.2l-30.5,22.1l11.7-35.9
			L48,165.5h37.7L97.4,129.7z"/>
		<path class="st1" d="M512,256C512,114.6,397.4,0,256,0C187.3,0,125.2,27.2,79.2,71.1l361.7,361.7C484.8,386.8,512,324.7,512,256z"
			/>
	</g>
	<g>
		<path class="st2" d="M47.9,119.5l30.5-22.2H55.3c-9.2,11.6-17.5,23.9-24.6,37l28.9,21L47.9,119.5z"/>
		<polygon class="st2" points="78.5,187.7 66.9,223.6 97.4,201.4 127.9,223.6 116.2,187.7 146.7,165.5 109,165.5 97.4,129.7 
			85.7,165.5 48,165.5 		"/>
		<polygon class="st2" points="146.7,256 135.2,291.9 165.7,269.7 196.1,291.9 184.6,256 215.1,233.8 177.4,233.8 165.7,197.9 
			154,233.8 116.3,233.8 		"/>
		<polygon class="st2" points="215.2,324.3 203.5,360.1 234,338 264.4,360.1 252.9,324.3 283.3,302.1 245.6,302.1 234,266.2 
			222.4,302.1 184.6,302.1 		"/>
		<polygon class="st2" points="283.4,392.5 271.7,428.4 302.2,406.2 332.7,428.4 321.1,392.5 351.6,370.4 313.9,370.4 302.2,334.5 
			290.6,370.4 252.9,370.4 		"/>
		<path class="st2" d="M419.8,438.6h-37.7l-11.6-35.9l-11.7,35.9h-37.7l30.5,22.2L340,496.7l30.5-22.2l8.4,6.1
			c4.9-2.6,9.4-5.6,14.1-8.6l-3.6-11.2L419.8,438.6z"/>
	</g>
</g>
</svg>
