<?xml version="1.0" encoding="utf-8"?>
<!-- Generator: Adobe Illustrator 21.1.0, SVG Export Plug-In . SVG Version: 6.00 Build 0)  -->
<svg version="1.1" id="Warstwa_1" xmlns="http://www.w3.org/2000/svg" xmlns:xlink="http://www.w3.org/1999/xlink" x="0px" y="0px"
	 viewBox="0 0 512 512" style="enable-background:new 0 0 512 512;" xml:space="preserve">
<style type="text/css">
	.st0{fill:#F7E017;}
	.st1{fill:#FFFFFF;}
	.st2{fill:#040102;}
	.st3{fill:#CE1125;}
	.st4{fill:#FBD014;}
</style>
<g>
	<g>
		<path class="st0" d="M256,512c76.7,0,145.3-33.8,192.3-87.4L4.3,301.4C25.6,421.1,130.1,512,256,512z"/>
		<path class="st0" d="M256,0C179.3,0,110.7,33.8,63.7,87.4l444,123.3C486.4,90.9,381.9,0,256,0z"/>
		<path class="st1" d="M500.8,331.2C508,307.4,512,282.1,512,256c0-15.5-1.6-30.6-4.3-45.4L63.7,87.3c-26.6,30.2-46,66.7-55.9,106.9
			L500.8,331.2z"/>
		<path d="M0,256c0,15.5,1.6,30.6,4.3,45.4l444,123.3c23.6-26.9,41.8-58.5,52.5-93.5L7.8,194.3C2.8,214,0,234.6,0,256z"/>
	</g>
	<g>
		<path class="st2" d="M254.9,98h1.5c2.4,0.2,4.9,1.4,6.4,3.4c1.8,2.3,2.2,5.7,0.9,8.3c-0.7,1.5-1.7,2.6-3,3.5
			c-0.8,0.4-0.5,1.5-0.6,2.2c2.7,0.3,5.3,0.9,7.6,2.1c2.8,1.3,5.2,3.3,7.4,5.4c1.5,1.3,3.4,2,5.4,2.6c2.2,0.8,4.8,0.5,7,0.6
			c1.1,0,2,1,1.7,2c-0.3,1.1-1.1,1.9-1.9,2.6c-2.3,2.1-4.9,3.9-7.4,5.6c1.7,3.2,3.5,6.5,5.4,9.7c-2.2,0.5-4.6,0.5-6.8-0.2
			c-4.7-1.2-8.9-3.2-13-5.8c-1.5-0.9-3.4-1.1-5.2-1.2c0,1.9,0,3.9,0,5.8c4.5,0.1,9.2,0.2,13.2,2.3c2.2,1.1,4.1,3,5.1,5.4
			c3,5.9,4.8,12.7,3.9,19.3c-0.3,1.5-0.7,3.2-2.1,4.2c-1.6,0.8-3.4-0.3-4.4-1.6c-1.7-2.5-2.3-5.6-3.3-8.4c-0.6,2.3-1,4.7-2.1,6.8
			c-0.6,1.2-1.7,2.3-3.1,2.3c-1.2,0.1-2.2-0.6-2.7-1.5c-1.3-2-1.9-4.5-2.7-6.7c-0.4,1.4-1.3,2.7-1.3,4.3c0,3.9,0,7.7,0,11.5
			c3.4-1.9,7.4-2.7,11.4-2.2c3.7,0.5,7.3,1.8,10.7,3.1c8.8,3.2,17.6,6.8,26.8,9.5c7.5,2.2,15.3,3.9,23.2,3.3c5.3,0,10.6-0.7,16-0.1
			c1.5,0.2,3.2,0.5,4.1,1.9c0.7,1.1,0.3,2.5-0.5,3.4c-1.6,2.1-4.2,3.5-6.6,4.7c0.1,1.3-0.3,2.8-1.4,3.6c-2.8,2.5-6.7,3.1-10.2,3.9
			c0.2,1.4-0.5,2.6-1.5,3.5c10.6,11.9,17.2,27,19.9,42.7c4.2,23.8-0.3,49.1-12.4,70c-8.3,14.8-20.7,27.4-35.7,35.5
			c-18.2,10-39.8,13.2-60.4,10.9c-12.9-1.4-25.6-5.2-37-11.7c-10.9-6.2-20.5-14.6-28-24.6c-16.8-22.5-23.5-52-19.1-79.6
			c2.6-15.7,8.9-31,19.7-42.9c-1.1-0.9-2.1-2.2-2.1-3.7c-3.3-0.6-7-1.3-9.7-3.5c-1.3-0.9-1.8-2.5-1.6-4.1c-2.5-1.1-5.2-2.6-6.8-4.9
			c-0.9-1.1-0.9-2.9,0.2-3.9c1.7-1.4,4.1-1.3,6.2-1.5c8.3-0.2,16.6,1.2,24.8-0.2c9.7-1.6,18.9-5,28.1-8.3c6.1-2.2,12.2-4.8,18.3-6.5
			c4.9-1.4,10.1-0.5,14.6,1.6c0-3.4,0-7,0-10.4c0.1-1.9-1.1-3.5-1.6-5.4c-0.8,2.2-1.4,4.5-2.6,6.5c-0.6,0.9-1.4,1.6-2.5,1.8
			c-1.5,0.1-2.7-0.9-3.3-2.1c-1.2-2.1-1.6-4.6-2.3-6.9c-1,2.9-1.4,6.3-3.3,8.8c-1,1.3-3.2,2-4.6,0.7c-1.4-1.4-1.5-3.4-1.8-5.3
			c-0.4-5.3,0.5-10.5,2.7-15.4c0.8-2,1.7-4.2,3.3-5.7c1.7-1.7,4.1-2.8,6.3-3.4c3.2-0.8,6.6-0.8,9.9-0.9c0-10.3,0.1-20.7,0-31
			c-1.9-1.1-3.4-2.9-4.1-5.1c-0.7-2.3-0.2-5,1.1-7C249.9,99.6,252.4,98.3,254.9,98L254.9,98z"/>
		<path class="st3" d="M253.7,100.8c3-1.2,6.8,0.6,7.9,3.7c0.8,2.2,0,5-1.9,6.4c-1.6,1.3-4,1.6-5.9,1c-2.3-0.7-4.3-3-4.3-5.6
			C249.4,103.9,251.3,101.7,253.7,100.8L253.7,100.8z"/>
		<path class="st3" d="M254,114.7c1.2,0.1,2.5,0.1,3.7,0c0,0.2-0.1,0.6-0.3,0.7c-0.9,0.1-1.8,0.2-2.7,0.3c0.1,7.7,0.3,15.5,0.3,23.2
			c0.8,0.1,1.7,0.3,2.7,0.3c0,2.3,0,4.8,0,7c0,0.5,0.1,0.9-0.1,1.4c-0.9,0.5-2.3,0.6-3.3,0.1c-0.5-0.3-0.3-1-0.4-1.5
			C254,135.8,253.9,125.3,254,114.7L254,114.7z"/>
		<path class="st3" d="M257.3,118.2c4.6-0.1,9.2,1.2,12.9,4.1c1.6,1.1,2.9,2.6,4.7,3.7c3.1,2,7,3.1,10.8,2.9c-2.4,2.2-5.3,4.1-7.9,6
			c-0.6,0.4-1.2,1.1-0.7,1.8c1.2,2.4,2.7,4.8,3.9,7.2c-4-0.6-7.8-2.4-11.5-4.3c-1.6-0.9-3.1-2.1-4.9-2.6c-2.2-0.8-4.8-0.6-7.1-0.5
			C257.3,130.5,257.3,124.4,257.3,118.2L257.3,118.2z"/>
		<path class="st3" d="M241.1,148.5c3.2-1,6.8-1,10.1-1.2c0.2,1.4,1.2,2.8,2.7,3.2c1.7,0.5,4,0.4,5.4-0.9c0.6-0.5,0.7-1.4,1-2.1
			c4.1-0.1,8.5,0,12.2,2.1c-3.7,1.5-7.8,1.7-11.8,2c-4.3,0.3-8.5,0-12.9-0.2c-2.9-0.3-6-0.5-8.8-1.8
			C239.6,149,240.4,148.7,241.1,148.5L241.1,148.5z"/>
		<path class="st3" d="M236.6,151.3c0.4-0.1,0.7,0.2,1.2,0.4c2.1,1.1,4.6,1.4,7,1.7c4,0.5,8,0.6,12.1,0.6c4.4,0,8.8-0.2,13.1-1.1
			c1.7-0.3,3.3-1,5-1.8c2.6,3.9,4.3,8.4,5.1,13c0.4,3.2,0.6,6.6-0.8,9.6c-0.5-0.4-1.1-0.9-1.4-1.5c-1.3-2.3-1.8-5.1-2.7-7.5
			c-0.4-0.9-0.8-1.8-1.7-2.2c-1-0.3-2,0.3-2.3,1.3c-1.4,2.8-1.2,6.5-3.5,8.9c-2.3-2.6-2.5-6.3-4.1-9.3c-0.2-0.8-1.2-1.2-2-0.9
			c-0.7,0.3-1,1.2-1.3,1.9c-0.9,2.4-1.5,5.2-3.1,7.2c-0.5,0.7-1.5,0.7-2,0c-1.9-2.4-2.4-5.6-3.7-8.3c-0.4-1.1-2.2-1.2-2.7,0
			c-1.5,3-1.8,6.8-4.1,9.4c-2.5-2.6-1.9-6.6-4-9.4c-0.7-1.1-2.5-0.9-3.1,0.3c-1.6,2.8-1.6,6.3-3.2,9.2c-0.3,0.5-0.8,0.8-1.3,1.1
			c-1.5-4-1.1-8.4-0.3-12.5c0.5-2.2,1.3-4.4,2.2-6.4C235,153.7,235.6,152.3,236.6,151.3L236.6,151.3z"/>
		<path class="st3" d="M253.7,174.2c1.3,0.7,2.9,0.5,4.3-0.1c0,3.1,0,6.5,0,9.6c-1.4,0.3-2.8,0.2-4.3-0.1
			C253.7,180.5,253.8,177.4,253.7,174.2L253.7,174.2z"/>
		<path class="st3" d="M230.9,185.4c3-1,6.2-2.2,9.3-2.6c3.1-0.2,6.1,0.4,8.9,1.6c2.2,1,4.6,2.2,7.1,2c2.3,0,4.4-1,6.4-2
			c3.6-1.8,7.9-2.2,11.8-1c6,1.6,11.6,4.1,17.3,6.2c9.5,3.5,19.1,7,29.1,8.6c8.2,1.3,16.5,0.1,24.8,0.2c1.7,0,3.4,0.1,5,0.9
			c-2.4,3-6.2,5-10.1,5.5c-7.3,0.9-14.7,0-21.9-0.9c-0.9-0.3-1.8,0.5-1.6,1.5c0.1,0.9,1.2,1,1.9,1.1c7.4,0.9,15,1.8,22.5,0.7
			c0.5-0.1,1.1-0.1,1.7-0.2c-1.2,1.7-3.2,2.5-5.2,3.1c-5.6,1.6-11.4,1.9-17,1.6c-7.2-0.5-14.4-2-21.3-4.3c-0.8-0.3-1.8,0.2-1.8,1.1
			c-0.1,0.9,0.8,1.2,1.5,1.4c7.5,2.3,15.1,3.9,22.9,4.3c3,0.2,6.2-0.1,9.2-0.3c-0.4,1.3-2,1.3-3.1,1.5c-2.9,0.5-5.9,1.1-8.8,1.5
			c-7.1,0-14.2-0.2-21.2-1.7c-3.1-0.7-6.5-1.8-9.2-3.6c-0.6-0.5-1.6-0.1-1.8,0.5c-0.6,0.9,0.6,1.7,1.2,2.1c5,2.9,10.6,4,16.3,4.6
			c3.5,0.4,7.2,0.5,10.7,0.6c-2.8,2.3-6.7,2.1-10.1,1.9c-6.8-0.5-13.6-1.6-20.1-3.6c-3.9-1.3-7.7-2.7-10.7-5.6
			c-0.5-0.6-1.7-0.6-2,0.2c-0.5,0.7,0.1,1.4,0.7,1.8c1.1,1.1,2.4,1.9,3.7,2.7c1.4,0.8,3,1,4.6,1.3c4.5,1,8.9,2,13.5,3
			c-0.1,1.5-1.4,2.6-2.7,2.8c-4.4,0.6-8.7-0.3-12.8-1.5c-5.3-1.7-10.3-4.5-14.2-8.6c-0.4-0.3-0.7-0.9-1.3-0.9c-1-0.1-1.8,1.2-1.1,2
			c2.8,3.3,6.6,5.9,10.5,7.9c-5-0.8-10-2.7-13.9-6c-1.5-1.3-2.6-2.9-3.6-4.7c-0.9,1.3-1.7,2.6-2.9,3.5c-3.1,2.3-6.9,4.1-10.7,5.2
			c-1.5,0.4-3.1,0.9-4.9,0.6c-0.6-0.1-1.1-0.8-0.9-1.4c0.6-1.6,1.9-2.8,3.2-3.9c5-3.6,10.9-5.9,16.9-7.2c0.7-0.1,1.3-0.7,1.2-1.4
			c0-0.9-1.1-1.3-1.9-1c-6.1,1.3-12.1,3.4-17.1,7.1c0.1-0.6,0.5-1.2,0-1.7c-0.5-0.7-1.6-0.5-2.1,0.1c-2.3,2.3-5.5,3.5-8.5,4.8
			c-4.3,1.5-8.6,2.5-13,3.1c-4.2,0.7-8.2,1.2-12.5,1.2c-2.3-0.1-5-0.4-6.9-2c6.5-0.2,13.1-0.5,19.5-2.1c2.9-0.7,5.8-1.7,8.2-3.4
			c0.6-0.4,0.9-0.8,0.8-1.5c0-0.7-0.8-0.9-1.2-1.2c-2.6,1.8-5.7,3-8.8,3.7c-6.6,1.5-13.3,1.9-20,1.9c-3.4,0.3-6.7-0.7-10.1-1.2
			c-1.5-0.3-3.3-0.4-4.3-1.8c1.5,0,3,0.2,4.6,0.3c9.1,0.3,18.1-1.4,26.9-4c0.6-0.2,1.3-0.4,1.9-0.7c0.7-0.5,0.6-1.6-0.1-2
			c-0.4-0.3-0.9-0.1-1.4,0c-9.3,2.9-19.3,4.9-29.2,4.2c-3.3-0.3-6.7-0.7-9.7-1.8c-1.6-0.6-3.4-1.3-4.5-2.8c3.1,0.3,6.4,0.7,9.5,0.7
			c5.3-0.1,10.5-0.5,15.7-1.4c1.4-0.1,1.1-2.6-0.3-2.4c-6.6,0.8-13.2,1.6-19.9,1.1c-2.6-0.2-5.3-0.6-7.6-1.8c-1.8-1-3.9-2.1-4.9-4.1
			c2.9-1.1,6.1-0.7,9.2-0.7c4.1,0.2,8.2,0.4,12.4,0.4c5.4,0.1,10.7-1,16-2.2C209.5,193.7,220.1,189.2,230.9,185.4L230.9,185.4z"/>
		<path class="st3" d="M216.6,223c6.9-1.5,14-3,19.9-7.1c-0.9,1-1.9,2.1-2.4,3.4c-0.4,0.9-0.2,1.9-0.2,2.9c-4.4,1.6-9,2.7-13.6,2.3
			C218.8,224.5,217.4,224,216.6,223L216.6,223z"/>
		<path class="st3" d="M252.7,219.4c0.9-0.9,2-1.5,2.9-2.4c1.1,1,2.1,2.1,3.3,3.1c0,3.5,0,7.2,0,10.7c-1-1.1-1.9-2.4-3.2-3.3
			c-1.2,0.7-2.1,2.1-3.1,3.1C252.7,227,252.6,223.2,252.7,219.4L252.7,219.4z"/>
		<path class="st3" d="M323,219.1c2.1-0.4,4.3-0.8,6.4-1.2c8.7,9.2,14.7,20.8,18.1,32.8c6.5,23.2,4.1,48.6-6.1,70.4
			c-7.2,15.5-18.4,29.1-32.8,38.4c-8.8,5.8-18.6,9.8-28.9,12.1c-11.1,2.5-22.9,3.2-34.4,2c-11.9-1.2-23.5-4.4-34.2-9.7
			c-11.2-5.8-21.2-14-29-23.9c-16-20.4-23.2-47.2-20.8-73c1.4-14.8,6.2-29.5,14.8-41.7c1.7-2.5,3.9-5,5.9-7.2
			c2.2,0.3,4.6,0.8,6.7,1.1c-7.8,14.2-9.7,31-7.2,46.8c2,12.9,7.1,25.3,14.8,35.8c6.8,9.2,15.8,16.9,26.1,21.9
			c12.2,6,25.9,8.2,39.2,7.2c12.9-0.8,25.5-4.8,36.1-12c9-6,16.3-14.1,21.8-23.3c6.7-11.2,10.5-24.1,11.4-37.1
			C332,245.1,329.6,231.2,323,219.1L323,219.1z"/>
		<path class="st3" d="M191.1,220.4c0.3-0.5,0.7-1,1.3-0.7c0.7,0.8,1.2,1.9,2.2,2.4c2.7,1.8,6.1,2.1,9.2,2.1c3.3,0,6.8-0.5,10.1-1
			c0.8,2.3,3.2,3.6,5.6,3.7c5.4,0.4,10.7-0.8,15.7-2.7c0.6-0.2,1,0,1.5,0c1.9,0.4,3.7-0.1,5.6-0.5c2.7-0.7,5.2-1.8,7.7-2.9
			c0,4.5,0,8.9,0,13.3c0.1,0.8-0.3,1.5-0.6,2.2c-0.6,1.2-0.9,2.4-1.4,3.6c-2.1-3.2-4.8-6.4-8.5-7.8c-1.9-0.7-4.2-0.4-6.1-0.1
			c1.2,1.6,2.6,3,4,4.6c1.9,2.2,2.4,5.3,2.7,8.1c0.7,7.6,0.8,15.2,0.8,22.9c-3-1.2-6.3-0.9-9.5-0.4c1.6,2.3,4.2,3.9,5.6,6.2
			c1.6,3.1,1.9,6.8,2,10.2c0.5,5.9,0.2,11.8,0.5,17.6c-0.1,2.9-0.1,5.8-0.1,8.7c-3.6-1.1-7.6-0.6-11.4,0c1.8,2.7,4.2,5.1,5.4,8.1
			c0.9,2.4,1,5.1,1.3,7.6c-11-3.1-21.2-9.2-29.4-17.4c-17.4-17.6-25.3-44-21.1-68.4C185.6,233.2,187.8,226.5,191.1,220.4
			L191.1,220.4z"/>
		<path class="st3" d="M310.6,224.1c3.1-0.3,6.6-1.4,8.1-4.5c0.5,0,1.1,0,1.7,0.1c6.5,11.6,9,25,8.2,38.2
			c-0.8,13.3-4.9,26.3-11.8,37.6c-5.6,9.2-13.4,17.1-22.5,22.8c-5.3,3.3-11.1,5.9-17.2,7.5c0-2.4,0.3-5,1-7.4
			c1.1-3.2,3.5-5.7,5.4-8.4c-4-0.7-8.2-1.2-12.1,0.3c0.1-8.9,0.3-17.8,0.9-26.7c0.3-3.3,0.5-6.8,1.8-9.9c1.1-2.7,3.9-4.3,5.7-6.5
			c-3-0.5-6.3-0.7-9.3,0.3c0.2-7.8,0.3-15.6,1-23.4c0.3-2.8,0.9-5.8,2.8-7.9c1.3-1.4,2.8-2.7,4.1-4.3c-2.2-0.4-4.8-0.6-7,0.4
			c-3.4,1.4-6.1,4.3-8.1,7.3c-0.4-0.2-0.5-0.9-0.7-1.3c-0.4-1.3-1.2-2.5-1.2-4c0-4.2,0-8.4,0-12.6c4.5,2.3,9.3,4.1,14.4,4.1
			c1.3,0.1,2.6-0.6,4-0.2c4,1.1,8.2,1.8,12.4,1.3c2.1-0.3,4.2-1.6,4.9-3.7C301.7,223.9,306.2,224.5,310.6,224.1L310.6,224.1z"/>
		<path class="st3" d="M251.3,238.4c1-2.6,2.4-5.3,4.4-7.4c2.5,2.8,4.2,6.3,5.3,9.9c0.7,2.1,1,4.4,1.6,6.6c1-1.9,1.5-4.1,2.6-6
			c1.6-2.7,3.9-5.4,6.9-6.7c-0.9,1.7-1.9,3.4-2.3,5.4c-0.9,4.5-1,9-1.3,13.5c-0.3,5.1-0.1,10.1-0.5,15.2c-0.7,0.9-1.7,1.7-2.4,2.6
			c-0.7,0.8-1,1.8-1.7,2.5c-1-2.7-2.1-5.6-3.7-8c-1.3-1.9-2.7-3.5-4.5-5.2c-4,3.4-6.7,8.3-8.2,13.3c-1.3-1.8-2.3-3.7-4.1-5.2
			c0.1-8.5,0-16.9-0.9-25.3c-0.3-3.1-1.2-6.3-3.1-8.8c4.9,2.4,7.2,7.8,9.5,12.5C249.7,244.4,250.2,241.3,251.3,238.4L251.3,238.4z"
			/>
		<path class="st3" d="M255.7,264.7c3.1,3.2,5.1,7.6,6.2,12c0.6,2.2,0.9,4.6,1.5,6.8c1.4-3.7,2.2-7.9,5-10.9
			c1.4-1.6,3.4-2.6,5.7-2.9c-0.8,1.2-1.7,2.3-2.2,3.7c-1.3,3.4-1.5,7.2-1.9,10.8c-0.7,9.2-0.8,18.4-0.9,27.8
			c-1.6,1.1-2.6,2.7-3.7,4.3c-1.8-5.4-4.9-10.4-9.4-13.8c-2.5,1.8-4.7,4.3-6.2,7c-1.3,2.1-2.1,4.5-3,6.8c-1.2-1.9-2.7-3.6-4.6-5
			c0-9.8,0.2-19.7-0.5-29.4c-0.2-3-0.5-6.2-1.9-8.9c-0.5-1.3-1.5-2.4-2.4-3.5c2.4,0.1,4.8,1.4,6.3,3.3c2.4,3,3.4,6.9,4.9,10.4
			c0.6-1.7,0.8-3.6,1.2-5.5C250.4,272.9,252.4,268.4,255.7,264.7L255.7,264.7z"/>
		<path class="st4" d="M331.3,274.3c1.8-0.5,3.6-0.2,5.5-0.2c2.5,0,5.1,0.7,7.5,1.5c1.2,0.6,2.6,1,3.4,2.2c-2.5-0.1-4.6-1.6-7-2.3
			c-3-0.8-6.3-0.2-9.4-0.8C331.4,274.6,331.3,274.4,331.3,274.3L331.3,274.3z"/>
		<path class="st4" d="M168.8,275.8c1.9-0.5,4,0,5.7,0.9c0.5,0.2,0.6,0.8,0.7,1.3c-0.9-0.3-1.7-0.8-2.6-1c-1.6-0.1-3,1.1-4,2.5
			c-1.2,2.1-1.3,4.8-1.4,7.2c-0.1,2.7,0.5,5.7,2.6,7.6c0.7,0.6,2,0.8,2.7-0.1c1.1-1.7,0.6-4.2,2-5.8c1.8-1.4,4.4-1,6.3-0.1
			c1.9,1,3.7,2.8,3.5,5.2c0.1,2.5-2,5.3-4.8,4.8c0-1.7,1.7-2.7,1.8-4.5c0.1-1.5-0.2-3.2-1.5-4.3c-0.7-0.4-1.8-0.8-2.3,0
			c-1,1.4-0.1,3.2-1.2,4.6c-0.6,0.7-1.2,1.5-2,1.8c-4.1,0.6-8.2-1.5-9.8-5.2s-1.3-8,0.5-11.7C165.9,277.7,167.1,276.3,168.8,275.8
			L168.8,275.8z"/>
		<path class="st4" d="M329.3,278.2c0.2-1,1.5-0.9,2.3-0.8c2.7,0.6,5.4,1.7,8.1,1.9c2.1,0.2,4.3,1,5.8,2.6c1.3,1.2,2,2.7,2.5,4.5
			c-0.9,1.1-1.9,2-2.8,3.1c-0.7,0.8-0.8,2-1.2,3c-0.8-0.5-1-1.5-1.5-2.1c-1-0.7-2.6-0.7-2.8-2.1c1.6-0.3,3.3-0.1,4.9-0.9
			c1.4-0.8,1.4-2.8,0.5-4c-1.5-1.9-4.2-2.8-6.6-3c-2.5-0.1-5.1-0.4-7.4-1.2C330.3,279,329.7,278.7,329.3,278.2L329.3,278.2z"/>
		<path class="st4" d="M325.7,288.3l0.1-0.2c2.4,0.5,4.5,1.8,6.8,2.6c2.7,1.1,5.6,2.2,8.2,3.7c0.7,0.4,1.6,0.8,1.8,1.7
			c-0.8,0.2-1.6-0.2-2.4-0.6c-1.5-0.8-2.9-1.8-4.6-2.4c-3-1-6.4-1.9-9.1-3.7C326.3,289,325.7,288.8,325.7,288.3L325.7,288.3z"/>
		<path class="st4" d="M345.4,292.6c0.9,1.5,1.3,3.2,1,4.9c0,0.7-0.8,0.9-1.4,1C344.4,296.5,344.4,294.4,345.4,292.6L345.4,292.6z"
			/>
		<path class="st4" d="M325.8,294.2c1.7,0,3.3,0.6,4.9,1.2c-0.8,0.7-1.6,1.4-2.3,2.3c0.6,0.9,1.3,1.8,1.7,2.8
			c-1.1,0.1-1.8-0.9-2.4-1.8C326.7,297.3,326,295.9,325.8,294.2L325.8,294.2z"/>
		<path class="st4" d="M334.4,297c1,0,1.7,0.9,2.4,1.7c0.9,1.1,1.9,2.4,2.1,4c0.2,2.1-1.2,3.9-1.6,5.9c0,1.3,1.6,2.2,1.3,3.5
			c-0.2,1.5-0.9,2.9-2.2,3.7c-1.5,0.1-2.8-1.4-4.4-0.9c-0.6,0.5-0.4,1.4-0.5,2c-0.1,2.2-1.3,4.2-1.9,6.2c-1,3.1-2.2,6.3-3.5,9.3
			c-0.4,0.8-0.9,1.9-2,1.7c-0.7-0.3-0.6-1.4-0.5-2.1c1-2.4,3-4.2,4.1-6.6c0.3-0.8-0.3-1.8-1.1-2.1c-0.8-0.3-1.7-0.2-2.5-0.5
			c-1-0.7-1.4-1.9-1.9-3c-0.8-1.5-1.2-3.3-0.7-5c0.3-1,1.4-1.5,2.4-1.2c1.3,0.4,2.1,1.5,3,2.5c0.6,0.7,1.4,1.6,2.4,1.3
			c0.5-0.4,0.7-1,0.8-1.6c0.3-1.8,0.3-3.6,0.3-5.5c0.1-0.9,0-1.9,0.6-2.5c1.7-1.9,4.6-2.3,6-4.5c0.8-1.1,0-2.5-0.8-3.3
			C335.4,299.2,334.2,298.3,334.4,297L334.4,297z"/>
		<path class="st4" d="M167.3,298.3c0.9-0.3,1.8-0.6,2.7-0.2c0.4,0.8,0.4,1.7,0.7,2.5c0.8,0.7,1.8,1,2.3,1.9c0.4,1-1.1,0.9-1.7,0.6
			C169.6,302,168.1,300.3,167.3,298.3L167.3,298.3z"/>
		<path class="st4" d="M176.1,303.3c0.2-0.9,1.2-1.1,2-1.1c0.8,0,1.8,0.1,2.6,0.5c-0.3,1.2-1.1,2.2-0.9,3.5c0.1,0.6,0.2,1.4,0.9,1.5
			c2.7,0.6,5.5-0.3,8.2,0c0.9,1.1,0.5,2.6,0.1,3.9c-1,1.6-3.4,0.9-4.9,2c-0.4,1.2,0.3,2.4,0.9,3.5c0.8,1.3,1.8,2.8,3.4,3.2
			c0.8,0.1,1.6-0.3,2.3-0.7c2.4-1.3,4.4-3.3,6.3-5.2c1.2-1,2.9-1.1,4.4-0.5c-3.1,2-6,4.7-9.2,6.7c-2.6,1.6-6.5,1.6-8.5-0.8
			c-1.1-1-1.2-3.1-2.9-3.6c-2.3-0.5-4.9,0.4-7.2-0.2c-1.7-0.6-1.2-2.9-0.6-4.2c1.3-0.8,3-0.3,4.3-1.2c0.9-0.6,0.7-1.9,0.4-2.7
			C177.1,306.4,176.2,305,176.1,303.3L176.1,303.3z"/>
		<path class="st3" d="M247.1,324c1.7-6.6,3.5-13.6,8.8-18.3c3.6,3.2,5.9,7.6,7.3,12.3c0.7,2,1.1,4.1,1.7,6.1c1-2.3,1.6-4.9,2.9-7
			c1.2-1.9,2.8-3.5,4.9-4.3c2-0.8,4.2-0.9,6.3-0.7c-1.3,1.9-2.7,4-3.3,6.3c-0.7,2.6-0.9,5.5-1.1,8.2c-12.2,2.9-25,2.8-37.2-0.1
			c-0.3-2.9-0.4-5.9-1.3-8.6c-0.7-2.1-2.1-4-3.4-5.8c2.4-0.1,4.9-0.1,7.2,0.9c2.1,1,3.7,2.9,4.9,5.1
			C245.6,319.9,246.1,322.1,247.1,324L247.1,324z"/>
		<path class="st3" d="M183.7,309.3c1-0.6,2.6,0.3,2.3,1.6c-0.4,1.2-2,1.4-3,0.9C182.1,311.1,182.9,309.7,183.7,309.3L183.7,309.3z"
			/>
		<path class="st3" d="M333.9,309.7c1.8-0.8,3.3,1.9,2.2,3.2c-1.3,0.3-2.6-0.3-3.1-1.4C332.7,310.7,333.1,309.9,333.9,309.7
			L333.9,309.7z"/>
		<path class="st3" d="M175.6,313.7c0.6-1.1,1.7-1.9,3-1.7c0.9,0.5,0.7,1.8,0,2.3c-0.7,0.7-1.7,0.6-2.5,0.4
			C175.9,314.4,175.7,314,175.6,313.7L175.6,313.7z"/>
		<path class="st4" d="M197,320.4c1.9-1.9,4.3-3.3,6.8-4.3c-0.1,0.9-0.8,1.5-1.4,2.1c-2.2,1.9-4.6,3.7-6.6,5.9c-1,1-1.8,2.3-1.6,3.7
			c0,1.4,1.3,2.7,2.8,2.7c1.8-0.8,1.9-3.4,3.6-4.4c0.7-0.4,1.5-0.1,2.2,0c-1.1,3.9-5.7,6.6-9.5,5.4c-1.7-0.7-2.5-2.5-3-4.2
			C191.5,324.3,194.8,322.6,197,320.4L197,320.4z"/>
		<path class="st3" d="M323.8,316.4c0.5-0.5,1.2,0.1,1.7,0.4c0.8,0.7,1.7,1.6,1.5,2.8c-0.7,0.7-1.8,1-2.6,0.5
			C323.1,319.6,322.7,317.4,323.8,316.4L323.8,316.4z"/>
		<path class="st4" d="M315.4,320.5c1.8-0.3,3.5,0.8,4.8,2.1s2,3,1.7,4.9c-0.6,3.3-2.9,6.4-6.1,7.8c-1.6,0.7-3.6,0.7-5.2-0.2
			c-2-1.2-2.9-3.7-2.6-6c0.6,0.7,0.9,1.7,1.6,2.4c1.3,0.9,3,0.8,4.7,0.5c2.6-0.5,5-2.3,6.1-4.8c0.3-0.7,0.5-1.7-0.2-2.3
			c-0.6-0.2-1.3-0.3-2-0.5C316.5,323.8,315.1,322.3,315.4,320.5L315.4,320.5z"/>
		<path class="st4" d="M310,321.1c1.2,0.8,1.8,2.1,2.2,3.4C310.5,324.5,310,322.5,310,321.1L310,321.1z"/>
		<path class="st4" d="M296.2,325.3c3.2,2,5.1,5.6,6.8,8.8c1.1,2.1,2.3,4.2,2.8,6.5c-1.4-0.8-2.2-2.3-3-3.6
			c-1.4-2.4-2.7-4.8-4.2-7.2C297.9,328.2,296.8,326.8,296.2,325.3L296.2,325.3z"/>
		<path class="st4" d="M292,327.6c0.1-0.8,1.1-1.1,1.6-0.5c1.4,1.3,2.3,3.1,3.2,4.9c1.3,2.7,2.9,5.6,3.3,8.7
			c0.2,1.7,0.5,3.5,0.1,5.2c-0.8,1.6-2.8,1.3-4.2,2c-1.1,1-1.6,2.5-2.6,3.6c-0.9,1.3-2.7,2-4.4,1.4c-1.2-0.5-1.9-1.7-2.9-2.4
			c-0.5-0.4-1-0.1-1.4,0.2c-1.9,1.3-3.3,3.2-5.5,4.2c-2.3,0.5-3.6-2.4-5.9-2.3c-1.8,0.7-1.5,3.4-3.4,4c-2,0.8-4.2,0.9-6.4,1.1
			c-1.2,0.1-2.7,0-3.7-0.9c-0.7-0.8-1.3-1.6-2.1-2.3c-1.1,0.6-2,1.6-3,2.5c-0.9,0.8-2.5,1.2-3.5,0.3c-0.8-0.8-1.1-1.9-1.9-2.8
			c-0.9-0.2-1.4,0.8-2.1,1.3c-1.2,1.4-3.3,2.1-5.1,1.2c-1-0.4-1.2-1.5-1.5-2.4c-0.2-0.6-0.6-1.4-1.4-1.2c-1.6,0.3-2.2,2.1-3.9,2.4
			c-1.3,0.2-2.7,0.1-3.7-0.6c-0.9-0.5-0.8-1.7-1.1-2.5c-0.3-1.2-1-2.2-1.2-3.4c0.4-0.7,1.2-1.3,1.6-2c0.3-0.7,0.4-1.5,0.7-2.2
			c0.3-0.1,0.7-0.2,1-0.3c0.1,2.1-0.1,4.3,0.2,6.4c0.2,1.2,1.5,1.7,2.6,1.8c0.7,0,1.5,0.2,2.1-0.1c1.6-1.6,2.1-4.1,3.9-5.7
			c0.4-0.4,1.3-0.4,1.4,0.3c0.3,1.5-0.5,3-0.1,4.6c0.7,1.6,2.6,2.9,4.5,2.2c1.8-1.4,2-4.1,3.6-5.7l0.4,0.1c0.6,1.1-0.2,2.5,0.3,3.7
			c0.6,1.5,2.4,2.1,4,2.1c0.9,0.1,1.5-0.7,1.9-1.5c0.6-1.3,0.9-2.9,1.7-4.3c1,1.6,0.1,4,1.7,5.3c1.7,0.8,3.9,0.6,5.8,0.5
			c1.4-0.2,3.2-0.2,4.4-1.3c0.8-1.9-1.8-3.4-1.1-5.4c1.2-1.7,3.5-2.2,5.5-2.7c1-0.2,2.5-0.6,3.1,0.5c0.6,1.5-0.6,2.8-0.8,4.3
			c0.4,1.6,2.7,2.3,4.1,1.2c1.9-1.5,3-3.6,4.5-5.6c1.2-1.5,2.6-3.3,4.7-3.6c2.3-0.1,4.5,1.2,6.6,1.6c0.6,0.1,1.2,0.1,1.8-0.2
			c0.8-0.9,0.3-2.2-0.1-3.2c-1.5-3.2-3.6-6.1-5.7-8.9C292.5,330,291.9,328.8,292,327.6L292,327.6z"/>
		<path class="st4" d="M203.6,333c0.8-0.6,1.5-1.3,2.5-1.2c0.1,0.1,0.1,0.4,0.1,0.5c-0.9,1.1-2.7,2.1-2.1,4c1.4,3.7,5.2,6.6,9.3,6.6
			c0.9,0,0.9-1,1-1.7c0.1-1-0.2-2.2,0.4-3c0.6-0.7,1.5-0.6,2.3-0.4c0.2,1.8-0.4,3.7-1.7,4.9c-2,1.6-4.8,2-7.2,1.6
			c-2.2-0.7-4.5-1.9-5.8-4c-0.9-1.2-2.2-2.7-1.6-4.5C201.5,334.7,202.6,333.9,203.6,333L203.6,333z"/>
		<path class="st4" d="M211.7,334.7c0-1.6,1.6-2.4,2.9-3C214.8,333.3,213.2,334.6,211.7,334.7L211.7,334.7z"/>
		<path class="st4" d="M188.8,334c1.1-1.2,2.8-0.8,4.2-0.3C192.1,335.2,190,335,188.8,334L188.8,334z"/>
		<path class="st4" d="M218,343.1c1-1.9,2.9-3.5,5.2-4c1.6,0.2,2.2,2,2.4,3.3c0,1.2-0.7,2.9-2.1,3.1c-1.3-0.8,0.3-2.8-0.8-3.9
			c-0.8-0.7-2.3-0.6-2.6,0.5c-0.5,1.2-0.3,2.7-0.1,4.1c0.5,1.7,1.9,3.2,3.6,3.9c1.7,0.2,3.4-0.1,5.1,0.2c-0.1,0.6-0.2,1.5-1,1.7
			c-2,0.8-4.7,1.3-6.2-0.4c-1.1-1.1-2.7-1.6-4.3-1.6c-2.9,0.2-6,0.4-8.8-0.5c-0.3-0.2-0.9-0.2-0.9-0.7c-0.2-1.4,1.4-2.2,2.5-2
			c2,0.4,3.5,2,5.6,2.4c0.7,0.1,1.5-0.3,1.8-1C217.6,346.5,217.1,344.7,218,343.1L218,343.1z"/>
		<path class="st4" d="M231.2,340.4c0.4-0.5,1.2-0.2,1.8-0.2c-0.2,1.2-0.9,2.3-2,2.9C230.5,342.3,230.5,341.1,231.2,340.4
			L231.2,340.4z"/>
		<path class="st3" d="M290.3,344.1c1.6-0.8,3.2,0.7,3.9,2c0.6,2.2-1.4,4.3-3.3,4.9c-1.1,0.4-2.3-0.6-2.5-1.6
			C287.9,347.4,288.4,345,290.3,344.1L290.3,344.1z"/>
		<g>
			<g>
				<path class="st2" d="M87.3,221.5c0-1.5,0.7-3.2,2.2-3.7c2-0.6,3.6,0.9,4.9,2.3c0.9-0.7,1.9-1.5,3-1.4c1.5,0.1,2.7,1.2,3.5,2.3
					c0.7-0.3,1.4-0.8,2.2-0.7c1.5,0.1,2.6,1.2,3.6,2.2c0.8-0.6,1.8-1.5,2.9-1.3c1.6,0.2,2.7,1.6,3.4,2.9c1.9,3.9,2.4,8.2,2.8,12.5
					c1.9,0.8,3.6,2.1,5,3.6c2.5,3.6,5.7,6.9,8.8,10.1c2,1.8,4.5,3.3,6.6,5.2c2.2,1.9,4.6,4.2,5.8,6.9c0.7,1.6,0.4,3.5,0.5,5.3
					c0,9.5,0.2,19,0.2,28.4c0.3,8.1,0.2,16.1,0.4,24.2c1.7,0.3,3.4,1.4,3.4,3.2c0.3,1.5-0.7,2.7-1.5,3.9c0.9,1.1,1.5,2.5,1.5,4
					c0,1.4-0.8,2.6-1.7,3.6c1,1,1.9,2.4,1.8,3.9c0.2,2.2-1.6,3.9-3.2,5c-0.1,1.5,0,3-0.1,4.6c0,1.4-1.2,2.3-2.3,3
					c-3,1.6-6.5,1.9-9.8,2c-4.2,0.3-8.3,0-12.4-0.7c-2.3-0.5-5-1.1-6.7-3c-0.6-1.8,0-3.9-0.2-5.8c-1.5-1.3-3-2.9-3.1-5.2
					c-0.1-1.5,0.6-3,1.6-4.2c-0.6-1-1.2-2.1-1.4-3.3c-0.2-1.6,0.5-3.2,1.5-4.5c-1.6-1.9-1.4-5.1,0.5-6.7c0.7-0.7,1.8-1,2.7-1.3
					c0.1-6.7,0.2-13.5,0.1-20.2c-0.1-6.3,0-12.7-0.7-19c-0.2-2-1.5-3.6-2.9-5.1c-4.9-5.2-10.8-9.3-14.9-15.2
					c-1.8-2.7-2.8-6.1-3.7-9.3c-2.2-8.3-3.6-16.8-4.4-25.3v-3.2H87.3z"/>
				<path class="st3" d="M90,220.5c0.2-0.7,1,0,1.4,0.3c2.3,2.3,3.3,5.7,3.6,8.8c0.2,1.7-0.2,3.5-0.2,5.3c0.4,0.7,1,1.3,1.5,2
					c2.5,3.1,4.6,6.8,5.5,10.7c0.5,1.7,0.3,4.1,2,5.3c3.3,2.5,7.2,4.3,10.8,6.6c1.2,0.9,2.6,1.8,3.2,3.3c0.4,0.8,0.8,2.1,2,2.1
					c1,0.1,1.5-1,1.4-1.8c-0.3-2.4-0.8-4.8-1.5-7.2c-0.7-2.2-1.3-4.6-2.6-6.5c-1.6-2.5-3.4-5.2-4.3-8.2c-0.1-0.8-0.4-2.3,0.8-2.2
					c2.1,0.1,4.1,1.6,5.5,3.2c1.7,2.5,3.9,4.8,6,7.1c1.6,1.7,3.2,3.6,5.3,5c2.9,2.2,6.1,4.5,8.3,7.5c0.9,1.1,1.6,2.4,1.5,4
					c0,16.8,0.4,33.7,0.5,50.6c0,1.4,0.1,2.8,0.2,4.4c-2.4,1-5,2.3-7.6,2.7c-3,0.5-6.2,0.7-9.2-0.1c-2.7-0.8-5.3-2-7.8-3.3
					c0.1-12.5,0.3-24.8-0.4-37.2c-0.2-2-0.2-4.2-1.2-6c-1.5-2.6-3.7-4.6-5.9-6.6c-4.1-3.7-8.4-7.3-11.5-12
					c-2.2-3.4-3.1-7.6-4.3-11.6c-1.4-6.1-2.5-12.3-3.1-18.4C90,225.5,89.4,223,90,220.5L90,220.5z"/>
				<path class="st3" d="M96.4,221.7c0.4-0.8,1.4-0.5,1.9,0.1c1.3,1.2,1.7,3,2.1,4.7c0.6,3,0.6,6.2,0.6,9.2c2.9,2,4.7,5.2,6.1,8.2
					c0.9,2.1,1.9,4.2,2,6.5c2.8,0.6,5.2,2.3,7.1,4.4c0.9,1,1.5,2.3,1.7,3.6c-4.1-2.9-8.8-5-12.8-7.9c-0.4-1.8-0.7-3.5-1.2-5.3
					c-1.3-4.2-3.6-7.8-6.4-11.1c0.3-3.1,0.3-6.4-0.9-9.4C96.3,223.8,95.6,222.7,96.4,221.7L96.4,221.7z"/>
				<path class="st3" d="M102.5,224.8c-0.3-0.7-0.1-1.4,0.3-2c2.2,1,3.3,3.3,4.2,5.5c0.6,1.8,0.7,3.7,0.6,5.7
					c-0.1,2.2,0.7,4.6,2,6.5c0.5,0.6,0.9,1.3,1.1,2.1c0.8,2.8,2.4,5.3,4,7.8c-1-0.5-2.1-1-3.1-1.6c-1.4-4.5-3.3-8.7-6.4-12.4
					c-0.6-0.8-1.7-1.4-1.6-2.6C103.5,230.5,103.4,227.5,102.5,224.8L102.5,224.8z"/>
				<path class="st3" d="M107.9,225.3c0.4-0.5,0.9-1.1,1.5-1.5c1.2,0.5,1.6,1.9,2.1,3c1.1,2.9,1.7,6.2,1.7,9.3
					c-0.9,0.2-1.7,0.7-2.5,1.2c-1.4-2.7-0.1-5.9-1.1-8.8C109.3,227.5,108.4,226.5,107.9,225.3L107.9,225.3z"/>
				<path class="st3" d="M113.4,321.7c0.9-0.2,1.6,0.2,2.4,0.6c3.3,1.7,6.6,3.3,10.3,3.6c4.4,0.4,8.9-0.2,12.9-2
					c1.5-0.7,3.1-1.5,4.8-0.8c0.7,0.2,0.5,1.2,0.2,1.7c-1,1.4-2.5,2.3-4.1,3.1c-3.3,1.6-7.2,2.3-10.9,2.3
					c-5.1,0.1-10.2-0.9-14.6-3.5c-0.9-0.7-2.1-1.3-2.4-2.5C111.9,323.2,112.5,322.1,113.4,321.7L113.4,321.7z"/>
				<path class="st3" d="M111.8,331.9c-0.4-1.1-0.1-2.4,0.7-3.2c4.8,3.1,10.5,4.3,16.1,4.3c4.2,0,8.4-0.6,12.2-2.4
					c0.9-0.4,1.7-1.1,2.6-1.2c0.8,0.6,0.9,1.8,0.7,2.8c-0.9,1.7-2.8,2.7-4.6,3.4c-7.5,3-16.1,2.8-23.6-0.2
					C114.4,334.5,112.4,333.7,111.8,331.9L111.8,331.9z"/>
				<path class="st3" d="M113.1,341.5c-1.7-1-2.2-3.9-0.5-5.1c5.8,3.1,12.4,4.2,19,3.6c4-0.4,7.8-1.3,11.4-3.3
					c0.7,0.4,1.6,0.9,1.5,1.8c0.4,1.9-1.7,3-3.1,3.7c-6.1,2.6-13,3.1-19.5,2C118.7,343.9,115.6,343.2,113.1,341.5L113.1,341.5z"/>
				<path class="st3" d="M114.6,345.1c8.4,3,17.9,3.1,26.5,0.1c0,1,0,2.2-0.2,3.2c-1.3,1.3-3.2,1.7-5.1,2c-4.8,0.7-9.8,0.7-14.7,0.1
					c-2.3-0.3-4.8-0.7-6.8-2.1C114.5,347.4,114.5,346.3,114.6,345.1L114.6,345.1z"/>
			</g>
			<g>
				<path class="st2" d="M424.7,221.5c0-1.5-0.7-3.2-2.2-3.7c-2-0.6-3.6,0.9-4.9,2.3c-0.9-0.7-1.9-1.5-3-1.4
					c-1.5,0.1-2.7,1.2-3.6,2.3c-0.7-0.3-1.4-0.8-2.2-0.7c-1.5,0.1-2.5,1.2-3.5,2.2c-0.9-0.6-1.8-1.5-2.9-1.3
					c-1.6,0.2-2.7,1.6-3.4,2.9c-1.9,3.9-2.4,8.2-2.8,12.5c-1.9,0.8-3.6,2.1-5,3.6c-2.5,3.6-5.7,6.9-8.8,10.1c-2,1.8-4.5,3.3-6.6,5.2
					c-2.2,1.9-4.6,4.2-5.9,6.9c-0.7,1.6-0.3,3.5-0.5,5.3c-0.1,9.5-0.2,19-0.2,28.4c-0.3,8.1-0.2,16.1-0.4,24.2
					c-1.7,0.3-3.4,1.4-3.5,3.2c-0.3,1.5,0.7,2.7,1.5,3.9c-0.9,1.1-1.5,2.5-1.5,4c0,1.4,0.8,2.6,1.7,3.6c-1,1-1.8,2.4-1.7,3.9
					c-0.2,2.2,1.5,3.9,3.2,5c0.1,1.5,0,3,0.1,4.6c-0.1,1.4,1.2,2.3,2.3,3c3,1.6,6.5,1.9,9.8,2c4.2,0.3,8.3,0,12.4-0.7
					c2.3-0.5,5.1-1.1,6.8-3c0.6-1.8,0-3.9,0.2-5.8c1.5-1.3,3.1-2.9,3.1-5.2c0.2-1.5-0.5-3-1.5-4.2c0.6-1,1.3-2.1,1.4-3.3
					c0.3-1.6-0.4-3.2-1.4-4.5c1.6-1.9,1.3-5.1-0.5-6.7c-0.7-0.7-1.8-1-2.8-1.3c-0.1-6.7-0.2-13.5-0.1-20.2c0-6.3,0-12.7,0.7-19
					c0.1-2,1.5-3.6,2.9-5.1c4.9-5.2,10.9-9.3,14.9-15.2c1.9-2.7,2.8-6.1,3.9-9.3c2.2-8.3,3.7-16.8,4.4-25.3v-3.2H424.7z"/>
				<path class="st3" d="M422,220.5c-0.2-0.7-1.1,0-1.4,0.3c-2.3,2.3-3.3,5.7-3.7,8.8c-0.2,1.7,0.1,3.5,0.2,5.3
					c-0.4,0.7-1,1.3-1.5,2c-2.5,3.1-4.6,6.8-5.5,10.7c-0.5,1.7-0.4,4.1-2,5.3c-3.3,2.5-7.3,4.3-10.8,6.6c-1.3,0.9-2.6,1.8-3.2,3.3
					c-0.4,0.8-0.8,2.1-2,2.1c-1,0.1-1.6-1-1.4-1.8c0.2-2.4,0.8-4.8,1.5-7.2c0.7-2.2,1.3-4.6,2.6-6.5c1.7-2.5,3.4-5.2,4.4-8.2
					c0.1-0.8,0.4-2.3-0.9-2.2c-2.1,0.1-4.1,1.6-5.5,3.2c-1.8,2.5-4,4.8-6,7.1c-1.6,1.7-3.2,3.6-5.3,5c-2.9,2.2-6.1,4.5-8.3,7.5
					c-0.9,1.1-1.6,2.4-1.4,4c-0.1,16.8-0.4,33.7-0.5,50.6c0,1.4-0.1,2.8-0.2,4.4c2.5,1,5,2.3,7.6,2.7c3,0.5,6.3,0.7,9.2-0.1
					c2.7-0.8,5.2-2,7.8-3.3c-0.2-12.5-0.3-24.8,0.3-37.2c0.2-2,0.1-4.2,1.2-6c1.5-2.6,3.7-4.6,5.9-6.6c4.1-3.7,8.4-7.3,11.6-12
					c2.2-3.4,3-7.6,4.2-11.6c1.5-6.1,2.5-12.3,3.1-18.4C422.1,225.5,422.6,223,422,220.5L422,220.5z"/>
				<path class="st3" d="M415.6,221.7c-0.4-0.8-1.4-0.5-1.9,0.1c-1.2,1.2-1.7,3-2.1,4.7c-0.6,3-0.7,6.2-0.6,9.2
					c-2.9,2-4.7,5.2-6.2,8.2c-0.9,2.1-1.8,4.2-1.9,6.5c-2.7,0.6-5.1,2.3-7.1,4.4c-1,1-1.5,2.3-1.7,3.6c4.1-2.9,8.8-5,12.8-7.9
					c0.4-1.8,0.7-3.5,1.2-5.3c1.3-4.2,3.6-7.8,6.5-11.1c-0.3-3.1-0.3-6.4,0.8-9.4C415.7,223.8,416.4,222.7,415.6,221.7L415.6,221.7z
					"/>
				<path class="st3" d="M409.5,224.8c0.2-0.7,0.1-1.4-0.3-2c-2.2,1-3.3,3.3-4.2,5.5c-0.6,1.8-0.7,3.7-0.5,5.7
					c0.1,2.2-0.7,4.6-2,6.5c-0.5,0.6-0.8,1.3-1.1,2.1c-0.9,2.8-2.4,5.3-4.1,7.8c1.1-0.5,2.1-1,3.1-1.6c1.4-4.5,3.3-8.7,6.3-12.4
					c0.6-0.8,1.8-1.4,1.7-2.6C408.5,230.5,408.7,227.5,409.5,224.8L409.5,224.8z"/>
				<path class="st3" d="M404.1,225.3c-0.4-0.5-0.8-1.1-1.4-1.5c-1.2,0.5-1.6,1.9-2.1,3c-1.1,2.9-1.6,6.2-1.7,9.3
					c0.9,0.2,1.7,0.7,2.5,1.2c1.4-2.7,0.1-5.9,1-8.8C402.9,227.5,403.5,226.5,404.1,225.3L404.1,225.3z"/>
				<path class="st3" d="M398.6,321.7c-0.8-0.2-1.7,0.2-2.4,0.6c-3.2,1.7-6.6,3.3-10.2,3.6c-4.5,0.4-8.9-0.2-12.9-2
					c-1.5-0.7-3.1-1.5-4.8-0.8c-0.7,0.2-0.6,1.2-0.2,1.7c1,1.4,2.5,2.3,4.1,3.1c3.3,1.6,7.2,2.3,10.9,2.3c5.1,0.1,10.2-0.9,14.6-3.5
					c0.9-0.7,2.1-1.3,2.4-2.5C400.2,323.2,399.6,322.1,398.6,321.7L398.6,321.7z"/>
				<path class="st3" d="M400.2,331.9c0.5-1.1,0.1-2.4-0.8-3.2c-4.7,3.1-10.4,4.3-16.1,4.3c-4.2,0-8.4-0.6-12.2-2.4
					c-0.9-0.4-1.7-1.1-2.6-1.2c-0.8,0.6-1,1.8-0.7,2.8c0.9,1.7,2.8,2.7,4.6,3.4c7.5,3,16.1,2.8,23.6-0.2
					C397.7,334.5,399.6,333.7,400.2,331.9L400.2,331.9z"/>
				<path class="st3" d="M399,341.5c1.7-1,2.2-3.9,0.5-5.1c-5.7,3.1-12.4,4.2-19,3.6c-4-0.4-7.8-1.3-11.4-3.3
					c-0.7,0.4-1.6,0.9-1.5,1.8c-0.4,1.9,1.7,3,3.1,3.7c6.1,2.6,13.1,3.1,19.5,2C393.3,343.9,396.4,343.2,399,341.5L399,341.5z"/>
				<path class="st3" d="M397.4,345.1c-8.4,3-18,3.1-26.3,0.1c0,1-0.1,2.2,0.2,3.2c1.3,1.3,3.2,1.7,5,2c4.9,0.7,9.8,0.7,14.7,0.1
					c2.2-0.3,4.7-0.7,6.7-2.1C397.5,347.4,397.5,346.3,397.4,345.1L397.4,345.1z"/>
			</g>
		</g>
		<path class="st2" d="M328.1,347.2c1-0.8,2-1.8,3.4-1.7c1.8,0.1,3.3,1.6,4.5,3c2.6,3.4,3.4,7.7,3.7,11.9c0.2,3.7,2.4,7.1,5.3,9.4
			c3.3-2.1,6.3-5.2,7.9-8.8c0.7-0.1,1.5-0.1,2.2-0.1c0.8,1.2,1.2,2.5,1.4,3.9c0.5,3.3,0.1,6.7-0.6,9.9c5.5,0.5,10.8,2.9,14.7,7
			c1.6,1.8,3.2,3.9,4.3,6.2c-0.4,0.6-1,1.2-1.4,1.7c-3.5-1.1-7.1-1.8-10.7-2.2c-4.6-0.6-9.3-0.2-13.6,1.4c-8,3-13.5,10.1-21.3,13.4
			c-4.3,1.9-9,2.6-13.6,3.1c-4.9,0.5-9.7,0.7-14.5-0.7c-12.3,6.4-26,8.9-39.8,9.3h-9.6c-13.2-0.4-26.5-3-38.1-9.2
			c-1.7,0.5-3.5,0.9-5.3,0.9c-5.3,0.2-10.5-0.4-15.7-1.4c-5.4-1-10.4-3.7-14.8-7.1c-4.7-3.4-9.1-7.4-14.8-9c-6.7-2-13.9-1-20.6,0.7
			c-1,0.2-2.3,1-3.1-0.1c0.1-1-0.2-2.2,0.5-3.1c1.2-2,2.8-3.9,4.6-5.5c3.6-3.1,8.4-5,13.2-5.5c-1.1-4.6-1.7-9.7,0.7-14
			c0.8,0.1,1.5,0.1,2.2,0.2c1.6,3.5,4.4,6.8,7.8,8.6c2-1.5,3.5-3.6,4.5-6c0.9-2.1,0.7-4.6,1.1-6.8c0.6-3.5,1.9-7.1,4.4-9.5
			c1.2-1.1,2.8-2.2,4.5-1.6c1.3,0.8,2.3,2,3.4,3.1c6.6,7,13.9,13.6,22.1,18.7c10.2,6.7,21.8,11.1,33.7,13.1
			c19.5,3.2,40.1-0.1,57.5-9.4c7.3-3.9,14.1-8.8,20.2-14.4C321.6,353.7,324.7,350.4,328.1,347.2L328.1,347.2z"/>
		<path class="st3" d="M177.4,350.5c0.7-1,1.5-2,2.7-2.4c0.9,0.5,1.5,1.4,2.2,2c7.3,7.6,15.2,14.7,24.1,20.3
			c11,6.8,23.4,11.5,36.4,13.1c19.3,2.5,39.4-0.9,56.6-10.2c7.9-4.3,15.2-9.6,21.8-15.7c3.5-3.1,6.6-6.7,10.2-9.6
			c3,1.4,4.5,4.7,5.2,7.7c0.8,2.8,0.4,6,1.5,8.8c0.8,2,2,4,3.4,5.6c-4.2,1.3-8,3.5-11.6,6c-3.9,2.6-6.9,6.2-10.1,9.4
			c-4.3,4.6-8.8,8.9-14.1,12.5c-6.3,4.5-13.4,7.7-20.8,9.8c-8.6,2.5-17.7,3.5-26.8,3.7c-11.6,0.2-23.2-0.8-34.3-4.5
			c-9.1-2.9-17.6-7.9-24.7-14.4c-4.3-3.6-7.8-7.9-11.7-11.8c-4-4.1-8.8-7.3-14-9.7c-1-0.6-2.2-0.6-3.1-1.4c2-2.4,3.6-5.3,4-8.4
			C174.6,357.5,175.1,353.6,177.4,350.5L177.4,350.5z"/>
		<path class="st4" d="M321.9,357.7c0.1-0.9,0.9-1.1,1.5-1.3c0.6,1.8,1,3.9,0.8,5.8c-0.5,1.7-1.9,3-2.6,4.8
			c-0.4,0.8,0.1,1.8,0.4,2.6c0.9,2.1,1.6,4.6,1.3,7c-0.4,2.1-1,4.5-2.5,6.1c0-3.1,2-6.1,0.9-9.2c-0.7-2.4-2.9-4.6-2.3-7.2
			c0.7-2,2.8-3.2,3.9-5.1c0.2-0.6,0.2-1.5-0.4-1.8C322.3,358.7,321.9,357.7,321.9,357.7z"/>
		<path class="st4" d="M174.6,362.3c0.4-0.4,0.6-0.8,1.2-1.1c2.2,1.2,2.3,4.2,4.3,5.6c2.5,1.8,5.6,3.1,8.7,2.6
			c2-0.2,4.4-0.4,6.2,0.8c1.1,0.7,1.2,2.3,0.6,3.4c-1.6,2.6-5.4,3.6-8,2c-1.1-0.8-0.8-2.4-0.9-3.6c-0.1-0.9-1.1-1.4-1.8-1.7
			c-2.1-0.6-4.6-0.9-6.2-2.4C176.7,366.4,175.1,364.9,174.6,362.3L174.6,362.3z"/>
		<path class="st4" d="M326.9,366.9c-1.1-0.8-1-2.6-0.6-3.7c0.3-0.9,0.9,0.3,1,0.7C327.9,364.8,327.3,366,326.9,366.9L326.9,366.9z"
			/>
		<path class="st3" d="M157.8,364.5c1,1.2,1.9,2.6,3,3.7c1.3,1.3,2.8,2.3,4.3,3.4c0.1,1.8,1.1,3.4,2.3,4.9c2.8,3.3,6.3,6.1,9.8,8.5
			c5,3.4,10.3,6.6,16.2,8.1c1.3,0.5,2.9,0.2,4,1.3c3.3,3.1,7.2,5.8,11,8.4c-5.6,0.6-11.1-0.1-16.7-1.1c-4.8-0.8-9.2-3-13.1-5.8
			c-4.8-3.4-9.2-7.5-14.7-9.6s-11.6-2.3-17.2-1.4c-2.1,0.3-4.1,0.8-6.2,1.1c2.5-3.6,6.1-6.5,10.3-7.9c2-0.7,4.3-0.9,6.4-1.2
			c0.6-0.3,0.9-1,1.4-1.5C157.6,372,157,368.3,157.8,364.5L157.8,364.5z"/>
		<path class="st3" d="M352.7,366c0.4-0.4,0.6-1,1.2-1.2c0.8,3.6-0.1,7.3-0.9,10.7c0.3,0.6,0.6,1.1,1,1.7c6.7,0,13.3,3.3,16.8,9
			c-2.9-0.5-6-1.3-9-1.5c-5.4-0.5-11,0.2-15.9,2.5c-7,3.2-12.2,9.5-19.3,12.6c-4.7,2.1-9.7,2.6-14.7,3.1c-2.9,0.1-6,0.3-8.9-0.2
			c1.3-1.2,2.9-1.9,4.3-2.9c2.6-1.7,5-3.9,7.4-5.9c6.5-0.9,12.4-4.2,17.8-7.7c3.3-2.2,6.6-4.7,9.4-7.5c1.9-1.9,4.2-4.2,4.5-7.1
			C348.8,370.1,351.1,368.4,352.7,366L352.7,366z"/>
		<path class="st4" d="M310.3,370.6c0.6-1.3,1.9-2.1,3.2-2.4c1.1-0.2,2,0.5,2.8,1.3c1.8,2.1,2.4,5,2.3,7.7c-0.1,2.4-0.1,5.1-1.2,7.3
			c-0.9,1.8-1.8,3.6-3,5.3c-0.3,0.5-0.9,0.7-1.5,0.9c-0.1-2.1,1.5-3.6,2.4-5.3c1.6-2.2,2-5.2,2.2-7.9c0.1-1.4,0.3-2.9-0.4-4.2
			c-0.4-0.1-0.7,0-0.9,0.3c-1,1.4-1.4,3.2-3,4.1c-1.8,0.2-3.4-2.2-2.6-3.9c1-0.3,1.3,1.3,2.3,1c1.4-0.8,2.2-2.8,1.5-4.5
			c-0.4-0.1-0.9-0.1-1.1,0.2c-1,0.8-1.9,1.8-2.8,2.6C310.1,372.4,309.9,371.4,310.3,370.6L310.3,370.6z"/>
		<path class="st4" d="M202,369.6c0.6,0,1.3-0.2,1.9-0.1c0.7,0.7,0.7,1.7,0.7,2.6c0,2.2-0.6,4.6-1.8,6.5c-0.8,1.4-2,2.3-2.8,3.7
			c-0.2,0.3-0.3,0.7-0.2,1.1c1.2,0.5,2.6,0.1,3.5-0.8c1.8-1.6,3.5-3.5,5.3-5.2c1-0.9,2-2,3.3-2.5c0,0.7-0.1,1.4-0.5,2
			c-1.7,2.7-4,5.5-3.7,8.8c0,2,1.7,3.4,3.4,4.4c2,1.1,4.3,1.8,6.6,1.9c2.1-0.1,2.9-2.3,4.1-3.9c0.5-0.7,1.1,0,1.4,0.5
			c-0.4,1.1-1.2,2.1-1.3,3.2c0,1,0.9,1.6,1.8,2c0.8,0.3,1.7,0.8,2.6,0.5c1.2-0.8,1.4-2.5,2.6-3.3c0.8,0.2,0.6,1.1,0.6,1.8
			c0,1-0.4,2.2,0.4,3c0.8,0.7,2.3,1,3.1,0.1c0.7-0.9,0.9-2.3,1.6-3.2c0.5-0.1,1,0.1,1.2,0.6c0.6,1.6,0.6,3.5,1.7,4.9
			c0.8,1,2.2,1.1,3.4,0.9c0.6-0.2,0.6-1.1,0.8-1.7c0.1-3.4-0.8-6.9-0.3-10.3c0-1.6,2.8-1.3,2.7,0.2c0.1,1.7-0.2,3.4-0.2,5.3
			c0,2.3-0.2,5-1.7,6.9c-1.3,1.6-3.6,2.7-5.7,2c-1.2-0.4-1.5-1.9-2.7-2.5c-1.5-0.5-3.2-0.1-4.7,0c-1.2,0.1-2-1.2-3.1-1.5
			c-1.3-0.4-2.5-0.1-3.9-0.3c-1.1-0.9-1.5-2.5-2.9-3.2c-2.2-1.5-5,0.1-7.5-0.6c-2.4-0.6-5-1.6-6.3-3.9c-0.9-1.3-0.6-2.9-0.7-4.5
			c0.1-0.5-0.4-0.8-0.8-1.1c-1.6,0.5-3.2,1.1-5.1,1.1c-1.7,0.1-3.3-1-5-1.8c-1.6-1.1-3.5-2.1-4.5-4.2c2-0.6,4.1,0.6,5.8,1.6
			c1.1,0.7,2.6,0.5,3.6-0.2c1.6-1,2.7-2.7,3.2-4.6C202.7,374,202.2,371.8,202,369.6L202,369.6z"/>
		<path class="st3" d="M190.6,371c1.2-0.1,2.9,1,2.3,2.4c-0.4,0.9-1.5,1.2-2.4,1C189.9,373.5,189.6,371.6,190.6,371L190.6,371z"/>
		<path class="st3" d="M170.7,376.4c-1.1-1.3-2.5-2.6-2.9-4.4c2.5,0.3,5,1.5,7.2,2.7c3.9,2.2,7.6,4.7,10.7,7.9
			c2.5,2.5,5,5.3,7.5,7.8c-4.7-1.3-9.1-4-13.2-6.6C176.6,381.7,173.5,379.2,170.7,376.4L170.7,376.4z"/>
		<path class="st3" d="M336.5,375c2.3-1.2,4.8-2.6,7.5-2.6c-1.4,2.9-3.9,5-6.2,7.1c-5.1,4.2-10.6,7.7-16.6,10.2
			c-0.9,0.4-1.8,0.6-2.8,0.9c2.6-2.7,5.4-5.6,8.1-8.3C329.4,379.2,332.9,376.9,336.5,375L336.5,375z"/>
		<path class="st4" d="M302.3,374c0.5-0.1,0.7,0.5,1,0.8c0.4,0.6,1.3,0.7,1.5,1.4c0.1,0.7,0.1,1.9-0.9,1.9c-0.3-0.5-0.5-1-0.7-1.5
			C302,376.2,301.9,375,302.3,374L302.3,374z"/>
		<path class="st4" d="M299.7,375c0.1,0,0.5,0.1,0.7,0.2c0.1,0.8,0.2,1.6-0.1,2.4c-0.2,0.2-0.5,0.2-0.8,0
			C299.1,376.7,299.4,375.8,299.7,375L299.7,375z"/>
		<path class="st4" d="M305.3,377.8c-0.1-0.7,0.5-1.2,0.8-1.6c0.7,1.3,0.9,2.7,1.5,4.1c0.6,1.3,2.5,0.6,3.2,1.8
			c0.1,0.6-0.4,1-0.8,1.3c-0.8,0.7-1.9,0.3-2.9,0.4c-1.6,0.1-2.7,1.5-4.3,1.5c-0.5-0.6,0.4-1.1,0.8-1.5c0.9-0.8,2.3-1.4,2.6-2.7
			C306.3,379.8,305.4,378.9,305.3,377.8L305.3,377.8z"/>
		<path class="st4" d="M305.7,389.8c1.5-1.6,1.8-3.9,3-5.7c0.5-0.3,0.8,0.3,1,0.8c0.4,1.3,0,2.8-0.8,4c-1.6,2.4-4.1,4.2-6.3,5.9
			c-2.9,2.2-6.6,3.2-10.2,2.8c-1.7-0.4-2.7-2.1-2.9-3.7c-0.3-1.6-0.4-3.3,0.4-4.8c0.4,1.6,0.2,3.6,1.7,4.9c1.8,1.2,4.3,1,6.3,0.5
			C300.9,393.7,303.6,392.1,305.7,389.8L305.7,389.8z"/>
		<path class="st4" d="M250.8,389.5c0.2-1,1-1.6,1.8-2.1c0.4,2.4,0,4.9,0.2,7.4c0.1,2.2,0.3,4.5-0.5,6.6c-0.1,0.6-0.7,0.8-1.1,1.1
			c-0.4-2.2,0.4-4.5,0-6.7C251,393.7,250.1,391.5,250.8,389.5L250.8,389.5z"/>
		<path class="st4" d="M262.8,388.4c0.7-0.3,1,0.6,1.2,1c1,2.7,1.3,5.7,1.5,8.6c0.1,1.7,0.2,3.5-0.4,5.2c-0.1,0.4-0.6,0.6-0.8,0.8
			c-0.3-2-0.2-4.1-0.4-6.1c-0.3-2.8-1.5-5.7-1.7-8.5C262.3,389.2,262.4,388.5,262.8,388.4L262.8,388.4z"/>
		<path class="st4" d="M272.2,392.7c-1.2-0.5-1.2-2.4-0.1-3c3.4,0.3,6.7,3.9,5.6,7.4c-0.9,3.1-4.4,5-7.4,5c-0.7,0.1-1.2-0.6-1.6-1
			c1.4-2.1,4.3-2,6.4-2.5c1-0.2,2.3-1.2,1.6-2.3C275.8,394.3,273.8,393.6,272.2,392.7L272.2,392.7z"/>
		<path class="st4" d="M306.9,393.5c0.6-0.3,1.6-0.3,2.1,0.3c0.5,1.8-3.5,1.9-2.7,0.1C306.4,393.8,306.7,393.6,306.9,393.5
			L306.9,393.5z"/>
		<path class="st4" d="M258.5,394.8c0.8,0.6,1.4,1.4,1.4,2.4c0.2,2.8-1.8,5.4-4.2,6.8c-4.1,2.4-9,2.2-13.4,0.7l-0.3-0.4
			c3.7-0.4,7.7,0.5,11.5-0.6c1.8-0.5,3.4-1.8,4.2-3.5C258.5,398.5,258.2,396.7,258.5,394.8L258.5,394.8z"/>
		<path class="st4" d="M303.6,395.1c1.4-1.1,2.1,1.8,0.9,2.3C303.2,397.7,302.8,395.9,303.6,395.1L303.6,395.1z"/>
	</g>
</g>
</svg>
