<?xml version="1.0" encoding="utf-8"?>
<!-- Generator: Adobe Illustrator 21.1.0, SVG Export Plug-In . SVG Version: 6.00 Build 0)  -->
<svg version="1.1" id="Warstwa_1" xmlns="http://www.w3.org/2000/svg" xmlns:xlink="http://www.w3.org/1999/xlink" x="0px" y="0px"
	 viewBox="0 0 512 512" style="enable-background:new 0 0 512 512;" xml:space="preserve">
<style type="text/css">
	.st0{fill:#000099;}
	.st1{fill:#CC0000;}
	.st2{fill:#FFFFFF;}
</style>
<g>
	<g>
		<path class="st0" d="M256,0C172.3,0,97.9,40.2,51.2,102.5h409.6C414.1,40.2,339.7,0,256,0z"/>
		<path class="st0" d="M256,512c83.7,0,158.1-40.2,204.8-102.5H51.2C97.9,471.9,172.2,512,256,512z"/>
		<path class="st1" d="M460.8,102.4H51.2C19.1,145.1,0,198.3,0,256s19.1,110.8,51.2,153.6h409.6c32.1-42.8,51.2-96,51.2-153.6
			S492.9,145.1,460.8,102.4z"/>
	</g>
	<g>
		<path class="st2" d="M253.2,143.3c0.6-1.7,2-2.8,3.5-3.6c1.4,0.9,2.8,1.9,3.4,3.5c0.4,1.3,0.2,2.8-0.3,4.3c-2.1,0-4.4,0-6.6-0.1
			C253,146.1,252.7,144.6,253.2,143.3L253.2,143.3z"/>
		<path class="st2" d="M252.4,152.3c0-1.2,0-2.3,0-3.5c2.8,0,5.8,0,8.6,0c0,1.2,0,2.3,0,3.5C258.1,152.3,255.2,152.3,252.4,152.3
			L252.4,152.3z"/>
		<path class="st2" d="M250.5,153.7c4.1,0,8.1,0,12.1,0c0,1.2,0,2.5,0,3.9c-4,0-8.1,0-12.1,0C250.5,156.3,250.5,155,250.5,153.7
			L250.5,153.7z"/>
		<path class="st2" d="M249,158.7c5.1,0.1,10.1,0.1,15.2,0c-0.1,1.3-0.1,2.7-0.1,4.1c-5.1,0.1-10.1,0.1-15.2,0.1
			C249,161.4,249,160.1,249,158.7L249,158.7z"/>
		<path class="st2" d="M245.4,161.5c1.3,0.6,2.3,1.6,3.3,2.5c5.3,0.1,10.5,0.1,15.8,0c1-0.9,2-1.9,3.3-2.6c-0.3,1.4-1.7,2.1-2.8,2.8
			c0,1.4,0,2.7,0,4.2c-1.7-0.1-3.4,0.1-5.2-0.1c-1.1-0.5-2.1-1.5-3.4-1.6c-1.1,0.3-2,1.1-3,1.6c-1.7,0.2-3.4,0-5.2,0.1
			c0-1.4,0-2.7,0-4.2C247.1,163.7,245.7,163,245.4,161.5L245.4,161.5z"/>
		<path class="st2" d="M242.8,167.2c1.8,0.1,3,1.5,4.5,2.4c1.6,0,3.1,0,4.8,0c-0.6,0.8-1.2,1.7-1.7,2.6c-1.1-0.4-2.9-0.9-3.6,0.4
			c-0.5-0.9-0.3-2-0.3-2.9C245,169.3,243.6,168.5,242.8,167.2L242.8,167.2z"/>
		<path class="st2" d="M265.9,169.8c1.3-1.1,2.6-2,4.3-2.7c-0.1,0.3-0.2,0.7-0.2,0.9c-0.9,0.8-1.9,1.4-2.9,1.9
			c-0.1,1.9-0.3,3.9-0.2,5.8c-0.9,0-1.7,0-2.6,0c0.7-0.8,1.5-1.7,2.3-2.5c0.2-1-0.8-1.1-1.6-1.4c-0.6,0.2-1.3,0.4-2,0.6
			c-0.5-0.9-1-1.8-1.7-2.7C262.7,169.8,264.4,169.8,265.9,169.8L265.9,169.8z"/>
		<path class="st2" d="M251.1,174.6c0.6-2.8,2.7-5.3,5.4-6.4c2.8,0.8,5.1,3.5,5.7,6.5c0.8-0.5,1.5-1,2.4-1.4c-0.7,0.8-1.4,1.7-2,2.4
			c-1.7-1.1-3.5-2.2-5.7-2.6c-2.2,0.2-4.2,1.5-6,2.6c-0.7-0.8-1.4-1.5-2-2.4C249.5,173.6,250.3,174.1,251.1,174.6L251.1,174.6z"/>
		<path class="st2" d="M127.9,170.9c0.1-0.2,0.3-0.5,0.3-0.6c1.9,4,3.9,8,4.6,12.4c0.2,1.8,0.3,3.9-0.7,5.5
			c-1.3-0.4-2.6-0.8-4.1-0.9c-1.4,0.2-2.7,0.6-4.2,1c-0.7-1.7-0.6-3.7-0.3-5.7C124.4,178.6,126.1,174.6,127.9,170.9L127.9,170.9z"/>
		<path class="st2" d="M379.6,181.3c0.9-3.9,2.6-7.5,4.4-11.1c0.4,0.8,0.8,1.6,1.2,2.4c1.9,4.2,3.9,8.7,3.5,13.4
			c-0.2,0.7-0.5,1.4-0.7,2.1c-1.3-0.3-2.6-0.8-4.1-0.9c-1.4,0.1-2.8,0.7-4.3,1C378.6,186.1,379.1,183.5,379.6,181.3L379.6,181.3z"/>
		<path class="st2" d="M246.3,173.2c0.2,0,0.5-0.1,0.6-0.1c0.7,0.9,1.5,1.8,2.3,2.5c-1,0-1.9,0-2.8,0
			C246.4,174.9,246.4,174.1,246.3,173.2L246.3,173.2z"/>
		<path class="st2" d="M240.5,173.5c1.7,0.5,3.1,1.6,4.5,2.6c0.1,0.4,0.2,0.6,0.3,0.9c1.4,0,2.7,0,4.1,0c-0.4,0.6-0.9,1.2-1.3,1.8
			c-1.1-0.4-2.3-0.7-3.4-0.7c-0.1-0.4-0.2-0.7-0.3-1.1C242.8,176.1,240.7,175.4,240.5,173.5L240.5,173.5z"/>
		<path class="st2" d="M268.1,176.2c1.4-1,2.8-2.5,4.9-2.6c-0.7,1.8-2.5,2.5-4.1,3.3c0,0.4-0.1,0.8-0.1,1.1c-1.2,0-2.4,0.3-3.5,0.7
			c-0.4-0.6-0.9-1.2-1.3-1.8c1.4,0,2.7,0,4.2,0C268.1,176.8,268.1,176.4,268.1,176.2L268.1,176.2z"/>
		<path class="st2" d="M248.7,180.6c1.1-3.1,4.2-5.2,7.2-6.1c0.9-0.3,1.8,0.1,2.6,0.4c2.6,1.1,5.1,3,6.1,5.7c1.1-0.6,2.2-1,3.3-1.2
			c-0.9,0.8-1.9,1.6-2.9,2.4c-0.3,0.3-0.7,0.4-1.1,0.4c-1.1,0-2.3,0.1-3.5-0.1c-1.3-0.4-2.4-1.3-3.9-1.4c-1.3,0.2-2.4,1.1-3.7,1.4
			c-1.3,0.1-2.7,0-4.1,0c-1.1-1-2.2-1.8-3.4-2.7C246.5,179.6,247.6,180.1,248.7,180.6L248.7,180.6z"/>
		<path class="st2" d="M244.5,180.4c0.7,0.6,1.5,1.2,2.2,1.8c-0.8,0-1.5,0-2.2,0C244.4,181.7,244.4,181.1,244.5,180.4L244.5,180.4z"
			/>
		<path class="st2" d="M237,180.4c2.4,0.2,4.4,1.9,6.5,3c2.4,0.2,5,0.1,7.5,0.1c-1.8,1.2-3.1,3-4.2,5c-1.5-0.7-3.2-1.4-4.9-0.7
			c0-1.3,0-2.6,0-4C240.2,183,237.7,182.5,237,180.4L237,180.4z"/>
		<path class="st2" d="M269.7,183.5c2-1.2,4-2.8,6.5-3.1c-0.6,2.1-3,2.6-4.8,3.4c0,1.3,0,2.6,0,4c-1.7-0.6-3.4,0-5,0.8
			c-1-1.9-2.3-3.7-4.3-5C264.7,183.5,267.2,183.7,269.7,183.5L269.7,183.5z"/>
		<path class="st2" d="M266.4,182.2c0.8-0.5,1.6-1.1,2.3-1.7c0,0.5,0,1.4,0,1.8C268,182.2,267.1,182.2,266.4,182.2L266.4,182.2z"/>
		<path class="st2" d="M255,182.5c0.7-0.3,1.4-0.7,2.1-0.4c3.9,1.3,7.4,4.4,8.6,8.3c1.3-0.9,2.7-1.6,4.3-1.7
			c-1.4,1.4-2.8,2.9-4.6,4.2c-1.3,0.1-2.7,0.1-4.1,0c-1.5-0.7-3-1.6-4.8-2c-1.9,0.2-3.5,1.4-5.3,2c-1.3,0-2.6,0.2-4-0.1
			c-1.5-1.3-2.9-2.6-4.3-4.1c1.5,0.1,2.9,0.8,4.3,1.7C248.6,186.9,251.6,184,255,182.5L255,182.5z"/>
		<path class="st2" d="M231.9,188.2c-0.6-0.5-0.4-1.4-0.4-2c2.3,0.4,4.4,1.8,6.2,3.2c0.9,0.6,1.7,1.5,2.8,1.7c0,0.4,0,0.9,0,1.4
			c1.3,0,2.5,0,3.9,0c1.2-0.1,1.7,1.1,2.6,1.8c0.8,0,1.6,0,2.4,0c-0.1,0.1-0.2,0.3-0.2,0.4c-1.7,1.4-3.1,3.2-4.4,5.1
			c-2.4,0.2-4.9-0.7-7.3,0c-0.1-2.7,0-5.6-0.1-8.4C235.5,190.5,233.4,189.8,231.9,188.2L231.9,188.2z"/>
		<path class="st2" d="M274,190.4c1.8-1.4,3.7-2.9,6-3.9c0.6-0.2,1.2-0.5,1.8-0.2c-0.1,0.6,0,1.3-0.5,1.7c-1.5,1.6-3.5,2.4-5.6,3.1
			c0,2.8,0,5.7-0.1,8.5c-1.2-0.2-2.3-0.5-3.5-0.3c-1.1,0.2-2.2,0.3-3.3,0.2c-0.6,0.1-0.8-0.6-1.1-0.9c-1.1-1.7-2.6-3.2-4.2-4.6
			c0.8,0,1.7,0.1,2.6,0c0.7-0.5,1.2-1.2,1.9-1.6c1.5-0.2,3,0,4.6-0.1c0-0.5,0-1,0-1.4C273.1,190.9,273.6,190.7,274,190.4L274,190.4z
			"/>
		<path class="st2" d="M125.7,189.1c1.1-0.3,2.3-0.8,3.5-0.4c3.4,0.9,7.3,2.1,9.3,5.3c1.3-0.4,2.6-0.8,4.1-0.9
			c-1.4,0.6-2.7,1.5-4.2,2.1c-1.4,0.1-2.8,0.1-4.3,0c-1.1-2.5-3.3-4.7-6.1-5.4c-2.5,0.8-4.8,2.8-5.8,5.3c-1.4,0.1-2.8,0.1-4.3,0
			c-1.4-0.5-2.7-1.4-4.2-2.1c1.3,0,2.6,0.6,4,0.8C119.6,191.3,122.6,189.9,125.7,189.1L125.7,189.1z"/>
		<path class="st2" d="M373.6,194c2-3,5.7-4.4,9-5.3c1.5-0.5,3,0.1,4.5,0.5c2.7,0.9,5.7,2.1,7.3,4.8c1.3-0.4,2.6-0.8,4-0.9
			c-1.3,0.6-2.6,1.4-4,2c-1.4,0.2-2.9,0.1-4.5,0.1c-1.1-2.5-3.3-4.5-6-5.5c-2.6,0.9-4.9,2.8-6,5.5c-1.5,0-2.9,0.1-4.4,0
			c-1.4-0.6-2.6-1.4-4.1-2.1C370.9,193.2,372.2,193.6,373.6,194L373.6,194z"/>
		<path class="st2" d="M241.9,191.1c0-0.6,0-1.2,0-1.7c0.6,0.5,1.2,1.1,1.9,1.7C243.2,191.1,242.5,191.1,241.9,191.1L241.9,191.1z"
			/>
		<path class="st2" d="M269.5,191.1c0.6-0.6,1.2-1.1,1.8-1.7c0,0.5,0,1.1,0,1.7C270.7,191.1,270.1,191.1,269.5,191.1L269.5,191.1z"
			/>
		<path class="st2" d="M127.3,191.6c1.1-0.6,2.2,0.3,3.1,1c1.2,1.1,2.5,2.5,2.5,4.4c-1.6-0.6-3.2-1.4-5-1.5
			c-1.6,0.2-3.1,0.9-4.7,1.5C123.3,194.5,125.4,192.7,127.3,191.6L127.3,191.6z"/>
		<path class="st2" d="M383.2,191.6c1-0.5,2,0.3,2.7,0.8c1.4,1.1,2.8,2.6,2.8,4.6c-1.6-0.6-3.1-1.4-4.9-1.5
			c-1.7,0.1-3.3,0.9-4.9,1.5C379.1,194.5,381.2,192.7,383.2,191.6L383.2,191.6z"/>
		<path class="st2" d="M255,192.8c0.7-0.2,1.4-0.7,2.2-0.4c4.9,1.7,9.3,5.4,10.9,10.4c1.7-1.1,3.5-2.1,5.6-2
			c-1.8,1.9-3.9,3.6-5.8,5.5c-0.9-0.1-2,0.2-2.8-0.5c-2.3-1.7-5.1-3-7.9-3.9c-0.7-0.2-1.4,0.1-2,0.3c-2.7,0.9-5.3,2.2-7.5,4.1
			c-0.8,0-1.5,0-2.2,0c-1.9-1.9-4-3.6-5.9-5.5c2-0.2,4,0.9,5.7,1.9C246.7,198.1,250.5,194.6,255,192.8L255,192.8z"/>
		<path class="st2" d="M226.3,196.5c2.1-0.5,4.2,0.9,6.1,1.9c1.9,0.9,3.5,2.6,5.8,2.7c2.2,2.1,4.5,4.3,6.7,6.3
			c0.4,0,0.8,0.1,1.3,0.1c-1.6,1.5-2.9,3.2-4,5.2c-2.6-0.9-5.7-2.2-8.2-0.5c-0.1,0.2-0.2,0.5-0.2,0.6c-0.1-4.2-0.1-8.2-0.1-12.4
			c-2-0.5-4.2-0.9-6-2C226.8,198.1,226,197.5,226.3,196.5L226.3,196.5z"/>
		<path class="st2" d="M284.3,196.8c0.8-0.3,1.8-0.5,2.6-0.2c0.3,1-0.6,1.6-1.2,2c-1.8,1.1-4,1.5-6,1.9c0,4.2,0,8.3-0.2,12.5
			c-0.1-0.2-0.2-0.5-0.3-0.6c-0.8-0.5-1.8-0.9-2.8-0.9c-1.9,0-3.6,0.8-5.4,1.5c-1.1-1.9-2.3-3.7-4-5.3c0.4,0,0.8-0.1,1.2-0.1
			c2.2-2.1,4.5-4.3,6.7-6.3c0.8-0.2,1.6-0.2,2.2-0.6C279.6,199.1,281.8,197.7,284.3,196.8L284.3,196.8z"/>
		<path class="st2" d="M373.8,203.1c2.2-3.5,6.3-5.4,10.2-6.5c3.6,1,7.4,2.7,9.7,5.8c0.9,1,0.3,2.4,0.4,3.7c-2.7-2.7-6.3-4.7-10-5.4
			c-3.9,0.7-7.5,2.5-10.1,5.4C373.8,205.1,373.6,204.1,373.8,203.1L373.8,203.1z"/>
		<path class="st2" d="M117.8,203.3c2.1-3.3,5.8-5.5,9.5-6.5c1.4-0.3,2.7,0.4,4.1,0.8c2.8,1.2,5.6,2.9,7.1,5.7
			c0,0.9-0.2,1.7-0.3,2.7c-2.6-2.7-6.4-4.7-10.1-5.3c-3.7,0.8-7.3,2.5-9.9,5.4C118,205.1,117.9,204.2,117.8,203.3L117.8,203.3z"/>
		<path class="st2" d="M117.9,208.7c2.1-3.3,5.8-5.4,9.5-6.4c1.1-0.4,2.2,0.1,3.3,0.5c2.9,1.1,6,2.7,7.6,5.6c0.2,1.1,0,2.1,0,3.1
			c-1.1,0-2.1,0-3.2,0c-1.6-2-3.6-3.9-6-5.1c-0.3-0.2-0.7-0.4-1.1-0.2c-2.5,1.2-4.7,3.1-6.5,5.4c-1,0-2.1,0-3.2,0
			C118,210.6,117.9,209.6,117.9,208.7L117.9,208.7z"/>
		<path class="st2" d="M374.3,207.8c2.1-2.8,5.5-4.5,8.7-5.5c1.2-0.4,2.4,0.2,3.5,0.6c2.9,1.1,5.8,2.8,7.5,5.6c0.3,1,0,2,0,3.1
			c-1.1,0-2.2,0-3.3,0c-1.6-2-3.6-3.9-5.9-5.1c-0.4-0.1-0.7-0.4-1.1-0.3c-2.5,1.1-4.7,3.1-6.5,5.3c-1,0.3-2.2,0-3.3,0.1
			C373.8,210.3,373.3,208.8,374.3,207.8L374.3,207.8z"/>
		<path class="st2" d="M242.7,214.9c2.1-6,7.8-9.9,13.7-11.7c2.7,0.5,5.4,1.9,7.7,3.5c2.8,2,5.2,4.8,6.3,8.1
			c2.1-1.1,4.4-2.3,6.8-2.1c-2.2,2.2-4.7,4.2-7.1,6.3c-2.1,0-4.3,0.1-6.4-0.1c-2.3-1.3-4.7-2.9-7.4-3.4c-2.5,0.7-4.9,2-7.1,3.4
			c-2.1,0.1-4.4,0.1-6.5,0c-2.2-1.9-4.5-4-6.8-5.9c0-0.1,0-0.4-0.1-0.5C238.6,212.6,240.7,213.7,242.7,214.9L242.7,214.9z"/>
		<path class="st2" d="M117.9,222.4c1.2-6,4.7-11.8,10.1-14.7c0.9,0.1,1.6,0.8,2.4,1.3c4.2,3.2,7,8.2,7.8,13.4c0.1,0,0.3,0,0.4,0
			c1.3-1.4,2.9-3,5.1-2.7c-1.8,2.8-3.7,5.7-5.7,8.3c-0.1-0.2-0.2-0.6-0.3-0.8c-2-4.2-5.2-8-9.4-10h-0.4c-4.5,2.1-7.8,6.2-9.7,10.6
			c-0.2-0.2-0.4-0.3-0.6-0.5c-1.6-2.6-3.5-5-5.2-7.7c1.7-0.2,3.1,0.9,4.3,2C117.3,221.8,117.5,222.3,117.9,222.4L117.9,222.4z"/>
		<path class="st2" d="M139.7,207.7c0.1,0.3,0.2,0.5,0.3,0.8c0.9,0.9,1.5,2,1.9,3.2c2-0.9,4.3-2.1,6.6-1.9c-2.2,1.9-4.5,3.6-6.7,5.5
			c-0.8,0-1.7,0.2-2.5,0c-1.2-0.7-2.3-1.5-3.4-2.3c1.2-0.1,2.4-0.1,3.7-0.1C139.6,211.1,139.7,209.4,139.7,207.7L139.7,207.7z"/>
		<path class="st2" d="M373.7,222.5c1.2-6.1,4.7-12.1,10.2-15c5.6,2.9,9,8.9,10.2,15c1.4-1.4,3-3.3,5.4-2.9
			c-1.9,2.7-3.9,5.5-5.7,8.2c-2-4.6-5.4-8.8-10-10.9c-4.7,2.1-8,6.4-10,10.9c-1.8-2.7-3.7-5.5-5.6-8.3
			C370.5,219.2,372.1,221,373.7,222.5L373.7,222.5z"/>
		<path class="st2" d="M220.8,208.4c0.6-0.7,1.6-0.4,2.3-0.2c3.3,1,6.2,3,9,4.9c0,0.2,0,0.7,0,1c1.3,0.3,3-0.3,4.1,0.8
			c2,1.8,4.2,3.6,6.3,5.5c0.6,0,1.3,0,2,0c0.4,0.5,0.9,1.1,1.3,1.7c-0.8,0.8-1.6,1.7-2.3,2.6c-4.8,0-9.5,0.1-14.3,0
			c-0.1-3.5-0.1-7-0.1-10.5c-2.3-0.6-4.7-1.5-6.7-2.8C221.5,210.6,220.4,209.6,220.8,208.4L220.8,208.4z"/>
		<path class="st2" d="M290.3,208.1c0.7-0.1,1.6-0.4,2.1,0.3c0.4,1.3-0.8,2.2-1.7,2.9c-2,1.3-4.4,2.1-6.7,2.8
			c-0.1,3.5,0.1,7.1-0.2,10.6c-4.7,0-9.4,0.1-14.2,0c-0.7-1-1.5-1.9-2.4-2.9c0.5-0.4,0.9-1,1.5-1.4c0.8-0.1,1.8,0.2,2.4-0.5
			c2.1-1.9,4.4-3.6,6.4-5.6c1.1-0.1,2.2-0.1,3.3-0.1c0-0.4,0-0.7,0.1-1.1C284,211.1,286.9,209.1,290.3,208.1L290.3,208.1z"/>
		<path class="st2" d="M114.8,211.7c0.4-1.1,1-2.1,1.6-3c0.3,1.3,0.3,2.8,0.4,4.2c1.1,0,2.2,0,3.4,0c0,0.2-0.1,0.5-0.2,0.6
			c-0.9,0.6-1.7,1.2-2.6,1.7c-0.8,0.2-1.7,0-2.5,0c-2.2-1.9-4.5-3.6-6.7-5.5C110.6,209.6,112.8,210.8,114.8,211.7L114.8,211.7z"/>
		<path class="st2" d="M211.9,233.9c0-7.9-0.2-15.8-0.1-23.7c0.8,2.6,2.5,5.7,5.4,6.1c3.6,0.1,7.2,0,10.7,0.1c0,2.6,0.1,5.2,0,7.8
			c-3.3-1.8-6.7-3.6-10.3-4.8c-1.4-0.3-3-0.8-4.5-0.1c-1,0.5-1.3,1.7-0.9,2.7c0.6,1.2,1.7,1.9,2.9,2.4c2.3,1,4.8,1.6,7.3,2.1
			c0,5.1,0.1,10.1,0.1,15.2c7.2,0.1,14.3,0,21.5,0.1c-1.3,1.5-2.3,3.3-3.1,5.3c-1.9-1-4-2.1-6.2-1.9c-1.1,0-2,0.7-2.8,1.2
			c0.5,0.5,1.1,1,1.6,1.5c-7.1,0.1-14.2,0.1-21.3,0.1c0-4.7-0.1-9.3-0.1-14L211.9,233.9L211.9,233.9z"/>
		<path class="st2" d="M301.5,210.2c0.1,4.6-0.1,9,0,13.6c-0.1,2.9,0,5.8-0.2,8.7c0,5.3-0.1,10.4-0.1,15.6c-7.1,0-14.2,0.1-21.3-0.1
			c0.4-0.4,0.9-0.8,1.3-1.3c0.2-0.7-0.8-0.9-1.2-1.2c-2.6-0.9-5.2,0.5-7.5,1.6c-0.8-1.9-1.8-3.6-3-5.3c7.2-0.1,14.3,0,21.4-0.1
			c0.1-5.1,0.1-10.1,0.2-15.2c2.6-0.6,5.3-1.1,7.7-2.3c0.9-0.5,1.8-1.1,2.3-2c0.7-1.1,0-2.8-1.3-3.1c-1.2-0.4-2.5-0.1-3.6,0.2
			c-3.9,1-7.3,3-10.7,4.8c-0.1-2.6,0.2-5.2,0.1-7.8c3.5-0.1,7.2,0,10.7-0.1C299.1,215.8,300.7,212.8,301.5,210.2L301.5,210.2z"/>
		<path class="st2" d="M370.2,214c0.5-1.4,1.3-2.5,2.1-3.9c0.1,0.9,0.3,1.7,0.4,2.6c1.1,0,2.3,0,3.4,0c-1.2,1.4-1.5,3.6-3.2,4.7
			c-0.8,0.1-1.7,0.2-2.5,0c-2.4-1.7-4.5-3.6-6.8-5.4C366,211.9,368.1,213,370.2,214L370.2,214z"/>
		<path class="st2" d="M395.6,210.7c0.6,1.1,1.3,2.2,1.7,3.3c2-1.1,4.3-2.1,6.6-1.8c-2.3,1.7-4.5,3.6-6.8,5.4
			c-0.8,0.2-1.7,0.1-2.6,0.1c-1.2-1.4-1.7-3.3-2.8-4.8c1.1,0,2.3,0,3.4,0C395.2,212.1,395.4,211.4,395.6,210.7L395.6,210.7z"/>
		<path class="st2" d="M137.6,215.8c1.2,0.8,2.2,1.7,3.3,2.7c0,0.1,0,0.3,0,0.4c-0.5,0.3-0.9,0.6-1.4,0.9c-0.1,0.1-0.2,0.3-0.2,0.4
			C138.7,218.6,138.2,217.1,137.6,215.8L137.6,215.8z"/>
		<path class="st2" d="M115.4,218.8c1-0.9,2-1.7,3.1-2.6c-0.5,1.3-1,2.6-1.5,4c0-0.1-0.2-0.3-0.2-0.4
			C116.2,219.4,115.8,219.1,115.4,218.8L115.4,218.8z"/>
		<path class="st2" d="M241.5,231.5c2.1-6.9,8-12.3,14.7-14.6c0.8-0.3,1.7,0.3,2.4,0.6c5.9,2.5,11,7.5,13,13.8
			c0.4,0.1,0.6-0.3,1-0.4c2-1.2,4.4-2.6,6.8-1.9c-2.6,2.6-5.4,5.4-8,8c-2.1,0-4.4,0-6.5,0c-0.6,0.1-1-0.3-1.5-0.6
			c-1.8-1.2-3.9-2.2-6-2.9c-0.5-0.3-1.1-0.2-1.6,0c-2.3,0.9-4.7,2-6.7,3.5c-2.3,0-4.8,0-7.2,0c-2.5-2.6-5.3-5.2-7.7-7.8
			c0-0.1,0-0.3,0-0.4C236.8,228.5,239.5,230,241.5,231.5L241.5,231.5z"/>
		<path class="st2" d="M127.4,218.8c0.7-0.6,1.6-0.1,2.2,0.4c4.8,3.1,7.8,8.5,8.8,14.1c1.6-1.3,3.1-3.2,5.4-2.9
			c-1.8,2.7-3.7,5.6-5.7,8.3c-0.2,0-0.5,0-0.8,0c-1.7-4-4.5-7.8-8.1-10.2c-0.5-0.3-1.1-0.7-1.6-0.3c-4.1,2.4-6.7,6.5-8.7,10.5
			c-0.8,0.3-1.2-0.5-1.6-1.1c-1.6-2.4-3.3-4.7-4.8-7.1c1.8-0.2,3.3,1.1,4.7,2.3c0.2,0.2,0.4,0.6,0.7,0.4
			C119.1,227.3,122.3,221.8,127.4,218.8L127.4,218.8z"/>
		<path class="st2" d="M380.5,220.7c1-0.8,2.1-1.8,3.4-2.2c2.6,1,4.6,3.2,6.3,5.5c1.8,2.7,3.3,5.8,3.7,9c0.2,0,0.4,0,0.6,0
			c1.3-1.4,2.9-2.9,5-2.6c-1.8,2.7-3.7,5.5-5.6,8.2c-0.3,0-0.7,0-1,0c-0.1-0.2-0.2-0.6-0.2-0.8c-1.6-3.2-3.6-6.3-6.6-8.5
			c-0.7-0.5-1.3-1.2-2.2-1.4c-1.1,0.3-1.9,1.1-2.8,1.8c-2.9,2.4-4.9,5.7-6.5,8.9c-0.3,0-0.5,0-0.8,0c-1.8-2.7-3.7-5.5-5.6-8.2
			c2.2-0.4,4,1.5,5.4,3c0.1-0.5,0.2-1,0.3-1.5C375.1,227.6,377.2,223.7,380.5,220.7L380.5,220.7z"/>
		<path class="st2" d="M213.4,220.6c1.6-0.8,3.4-0.1,5,0.4c3.4,1.3,6.8,3,9.9,4.9c4.8,0.1,9.5,0,14.3,0c-0.7,1.1-1.3,2.3-1.8,3.4
			c-1.8-1-3.7-1.9-5.8-1.9c-1.2,0-2.2,0.6-3.2,1.3c3.2,3.1,6.3,6.4,9.5,9.5c0.7,0,1.4,0,2.1,0c0.5,0.7,1,1.5,1.6,2.3
			c-7.1,0-14.2,0-21.3,0c0.1-5.1-0.2-10-0.2-15c-3.1-0.6-6.4-1.1-9.1-2.9C213.6,222.3,213.3,221.5,213.4,220.6L213.4,220.6z"/>
		<path class="st2" d="M294.7,221c1.6-0.5,3.4-1.2,5.1-0.4c0.2,1.4-1.2,2.1-2.2,2.7c-2.4,1.1-5.3,1.7-7.9,2.1
			c-0.3,5.1-0.2,10.1-0.3,15.1c-7.1,0-14.3,0-21.5,0c0.5-0.8,1.1-1.5,1.6-2.2c0.8,0,1.5,0,2.3,0c3.1-3.2,6.3-6.4,9.4-9.5
			c-0.8-0.7-1.9-1.3-3-1.3c-2.1,0-4.1,0.9-5.8,1.9c-0.6-1.1-1.2-2.3-1.8-3.4c4.8,0,9.5,0,14.3,0C288,224.1,291.4,222.4,294.7,221
			L294.7,221z"/>
		<path class="st2" d="M143.8,221.8c0.9,1.3,1.7,2.7,2.2,4.3c2.7-1.5,5.7-3,8.9-2.4c-1.9,1.7-3.7,3.3-5.7,5c-1.3,0.7-2.9,0.7-4.5,1
			c-1.9-1.4-3.9,0.3-5.8,0.8c-0.1-0.4-0.2-0.8-0.2-1.2C140.5,226.8,142.1,224.3,143.8,221.8L143.8,221.8z"/>
		<path class="st2" d="M110.7,226.1c0.5-1.4,1.2-2.7,2-4c1.6,2.2,3.1,4.7,4.9,6.9c0,0.2,0.1,0.4,0.1,0.6c-4.3-0.7-8.4-1.6-12.4-3.4
			c-1.4-0.6-2.4-1.6-3.5-2.6C104.9,223.1,107.9,224.6,110.7,226.1L110.7,226.1z"/>
		<path class="st2" d="M366,228.4c0.7-1.9,1.7-3.9,3.1-5.3c1.2,1.9,2.6,3.7,3.9,5.7c0.4,0.6,0,1.3,0,2c-1.2-0.8-2.5-1.8-4.2-1.8
			c-0.9,0-1.6,0.7-2.2,1.3c0.8,1.2,1.6,2.4,2.5,3.6c-0.9-0.1-2,0.2-2.9-0.2c-3.1-2.5-6.1-5.3-9.2-7.9
			C360.2,225.4,363.3,226.8,366,228.4L366,228.4z"/>
		<path class="st2" d="M398.5,223.6c0.4,0,0.5,0.4,0.8,0.6c0.9,1.3,1.6,2.7,2.1,4.3c2.7-1.5,5.9-3.2,9.2-2.4
			c-3.3,2.4-6.3,5.4-9.5,7.9c-0.8,0.2-1.6,0.1-2.4,0.1c0.8-1.2,1.6-2.4,2.5-3.6c-0.6-0.6-1.3-1.3-2.2-1.3c-1.6-0.1-2.8,0.8-4.1,1.7
			c-0.2-0.5-0.3-1-0.5-1.5C396,227.4,397.1,225.4,398.5,223.6L398.5,223.6z"/>
		<path class="st2" d="M101.4,225.5c2.8,2.2,6.4,3.3,9.8,4.3c-0.1,0.2-0.2,0.6-0.3,0.8c2,2.9,4.1,5.9,6,8.8c0.3,0.5,0.9,0.7,1.4,0.8
			c-0.7,1.4-1,2.9-1.5,4.5c-0.4,1.3-0.5,2.7-0.4,4.2c-1.3-0.6-2.8-1.3-4.4-0.8c-0.5,0.2-1,0.6-1.5,1c2,2.1,4.1,4.4,6.1,6.6
			c-5.2,0-10.4,0-15.6,0c0-1.9-0.1-3.9,0.1-5.9C101.3,241.5,101.3,233.5,101.4,225.5L101.4,225.5z"/>
		<path class="st2" d="M354.6,225.5c3.6,3.3,7.5,6.5,11.2,9.8c1.4,0.1,2.8,0,4.3,0.1c1,1.5,2,3,3.1,4.6c0.2,0,0.7,0,1,0
			c-0.1,0.2-0.2,0.5-0.2,0.6c-0.9,2.6-1.9,5.3-1.6,8.1c-1.2-0.5-2.4-1.1-3.9-0.9c-0.8,0-1.4,0.6-1.9,1.1c2,2.1,4,4.5,6.1,6.6
			c-6.1,0-12.2,0-18.2,0c0-3.2,0-6.6,0-9.8C354.7,238.9,354.6,232.2,354.6,225.5L354.6,225.5z"/>
		<path class="st2" d="M145,231c4.5-0.8,9.3-1.6,12.9-4.7c0,0.9,0,1.9-0.1,2.9c-0.3,3.5-0.1,7.1-0.3,10.6c-0.3,3.6-0.2,7.4-0.3,11
			c-0.2,1.5-0.2,3-0.2,4.6c-5.9,0-11.7,0-17.5,0c1.9-2.1,3.9-4.3,5.8-6.3c0.1-0.2,0.1-0.4,0.2-0.6c-1.7-1.4-4-0.7-5.8,0
			c0.5-2.9-0.7-5.9-1.7-8.5c0.2,0,0.7,0,1-0.1C140.9,236.9,143,233.9,145,231L145,231z"/>
		<path class="st2" d="M401.5,235.3c3.2-2.7,6.3-5.5,9.5-8.2c-0.1,4.8-0.1,9.3-0.4,14c0,4.8-0.3,9.5-0.4,14.3c-5,0-10,0-15-0.1
			c2-2.1,4.1-4.5,6.1-6.6c-1.5-1.8-4.1-1.1-5.9-0.2c0.3-3-0.8-5.9-1.8-8.6c0.2,0,0.7-0.1,0.9-0.2c1.2-1.4,2-3,3.1-4.5
			C399,235.3,400.2,235.3,401.5,235.3L401.5,235.3z"/>
		<path class="st2" d="M375,241.6c1.7-4.9,4.6-9.5,9-12.4c4.2,2.7,6.9,7.1,8.6,11.7c0.7,2.1,1.6,4.3,1.6,6.5c-2.1-4-5.7-7.1-9.9-8.6
			c-0.6-0.2-1,0.1-1.5,0.3c-3.9,1.6-7.1,4.7-9,8.3C373.7,245.4,374.4,243.4,375,241.6L375,241.6z"/>
		<path class="st2" d="M119.1,242.1c1.7-5,4.5-9.8,8.9-12.8h0.4c4.5,2.9,7.2,7.8,8.9,12.7c0.6,1.7,1.1,3.5,1.3,5.5
			c-2.2-4-5.8-7.2-10-8.7c-0.7-0.2-1.4,0.3-2.1,0.5c-3.6,1.7-6.7,4.7-8.6,8.1C117.9,245.6,118.5,243.8,119.1,242.1L119.1,242.1z"/>
		<path class="st2" d="M253.9,235.7c0.9-0.4,1.8-1,2.8-1.1c4.5,1.4,8.5,4.4,11.5,8c1.5,2,2.8,4.2,3.4,6.6c2.3-1.3,4.9-3.1,7.7-2.4
			c-2.5,2.7-5.4,5.3-7.9,8.1c-9.9,0.1-19.8,0.1-29.7,0c-2.5-2.7-5.4-5.4-7.9-8.1c2.6-0.5,5.2,0.8,7.2,2.3c0.1,0.1,0.4,0.1,0.5,0.1
			C243.4,243.1,248.2,238.4,253.9,235.7L253.9,235.7z"/>
		<path class="st2" d="M245.1,238.4c0.8,0,1.5,0,2.3,0c-0.5,0.4-0.9,0.8-1.3,1.2C245.8,239.2,245.4,238.8,245.1,238.4L245.1,238.4z"
			/>
		<path class="st2" d="M265.8,238.4c0.7,0,1.4,0,2.1,0c-0.3,0.4-0.6,0.7-0.8,1.1C266.7,239.1,266.2,238.7,265.8,238.4L265.8,238.4z"
			/>
		<path class="st2" d="M126.7,240.5c0.6-0.2,1.3-0.7,2-0.4c4.7,1.9,8.5,6.1,9.7,11c1.5-1,3.1-2.3,5.2-2.2c-1.7,2-3.5,3.9-5.3,5.8
			c-6.8,0.1-13.6,0.1-20.4,0c-1.7-2-3.5-3.9-5.2-5.9c1.9-0.1,3.5,1,5,2.2C119.1,246.6,122.3,242.6,126.7,240.5L126.7,240.5z"/>
		<path class="st2" d="M373.6,251.1c1.3-5.2,5.4-9.4,10.3-11.1c5,1.8,8.9,6.1,10.2,11.1c1.5-1.2,3.1-2.3,5.2-2.2
			c-1.3,1.6-2.9,3-4.3,4.7c-0.5,0.5-0.9,1.3-1.7,1.1c-6.6,0-13.1,0.1-19.6,0c-1.7-2-3.5-3.9-5.3-5.9
			C370.4,248.8,372.1,250,373.6,251.1L373.6,251.1z"/>
		<path class="st2" d="M89.3,243.7c3.5,0,7.2,0,10.7,0c0,3.6,0,7.4,0,11c-3.5,0.1-7.1,0-10.7,0C89.3,251.1,89.3,247.5,89.3,243.7
			L89.3,243.7z"/>
		<path class="st2" d="M158.6,243.7c17.4,0,34.8,0,52.2,0c0,1.9,0.1,3.7,0.1,5.7c0.5,0,0.9,0.1,1.5,0.1c0.8,2.6,3,5,5.9,5.4
			c-20,0.1-39.9,0-59.9,0C158.3,251.1,158.6,247.5,158.6,243.7L158.6,243.7z"/>
		<path class="st2" d="M302.4,243.7c16.9,0,33.7,0,50.7,0c0.1,0.6,0.1,1.2,0.2,1.8c-0.3,3-0.1,6.2-0.2,9.2c-19.4,0-38.7,0.1-58.1,0
			c2.8-0.4,5.2-2.6,5.9-5.3c0.5-0.1,1-0.1,1.4-0.1C302.4,247.5,302.4,245.7,302.4,243.7L302.4,243.7z"/>
		<path class="st2" d="M411.6,254.8c0-3.6,0.3-7.4,0.3-11c4.1,0,8.1,0,12.2,0c0,3.6,0,7.4,0,11C419.8,254.9,415.6,254.9,411.6,254.8
			L411.6,254.8z"/>
		<path class="st2" d="M213.6,249.5c7-0.1,14.1-0.1,21.1,0c1.3,1.3,2.7,2.7,4.2,4.2c-6.5,0.1-13,0.1-19.6,0
			C216.8,253.7,214.5,251.8,213.6,249.5L213.6,249.5z"/>
		<path class="st2" d="M278.5,249.5c7,0,14.1-0.1,21.1,0c-0.8,2.3-3.1,4.2-5.7,4.2c-6.5,0.1-13.1,0-19.6,0
			C275.8,252.3,277.2,250.8,278.5,249.5L278.5,249.5z"/>
		<path class="st2" d="M161.6,256.1c19.9,0,39.7,0,59.6,0c0,3.4,0.1,6.9,0,10.3c-19.9,0-39.7,0-59.6,0
			C161.6,263,161.6,259.5,161.6,256.1L161.6,256.1z"/>
		<path class="st2" d="M245.1,256.1c1.2,0,2.3,0,3.5,0c0,1.7,0,3.4,0,5.2C247.5,259.5,246.3,257.8,245.1,256.1L245.1,256.1z"/>
		<path class="st2" d="M249.9,256.1c2.1,0.1,4.3-0.2,6.3,0.2c2.3-0.4,4.8-0.1,7.1-0.2c0.1,38.7,0,77.4,0.1,116.1
			c-2.2,0.2-4.4,0.1-6.6,0.1c-2.3,0-4.6,0.1-6.9-0.1C249.9,333.5,249.9,294.8,249.9,256.1L249.9,256.1z"/>
		<path class="st2" d="M264.6,256.1c1.1,0,2.2,0,3.3,0c-1,1.6-2.2,3-3.3,4.7C264.6,259.2,264.6,257.7,264.6,256.1L264.6,256.1z"/>
		<path class="st2" d="M269.6,256.1c0.9,0,1.9,0,2.8,0c0.1,17.1,0,34.2,0,51.3c-0.4,0-0.9,0-1.3,0c0-9.3,0-18.5,0-27.9
			c-2.1,0-4.3,0-6.4,0c0-5.5-0.1-10.9,0-16.5C266.1,260.7,268.1,258.5,269.6,256.1L269.6,256.1z"/>
		<path class="st2" d="M290.5,256.1c19.5,0,39,0,58.5,0c0,3.4,0,6.9,0,10.3c-19.5,0-39,0-58.5,0C290.5,263,290.5,259.5,290.5,256.1
			L290.5,256.1z"/>
		<path class="st2" d="M350.3,256.2c0.8,0.1,1.7,0.1,2.6,0.1c0.1,0.1,0.3,0.3,0.4,0.4c7,0,14.1,0,21.2,0c0,16.8,0,33.7,0,50.6
			c-0.2,0-0.6,0-0.8,0c0-9.3,0-18.5,0-27.9c-2.5,0-5.2,0-7.7,0c-0.3,1.9,0.1,4-0.1,5.9c-0.1,2.2-0.1,4.5,0.1,6.7c0,0.7,0,1.5,0,2.3
			c-0.2,3.7,0.2,7.4-0.1,11c0,0.6,0.1,1.3,0.1,1.9c-5.3,0-10.4,0-15.7,0C350.3,290.3,350.3,273.2,350.3,256.2L350.3,256.2z"/>
		<path class="st2" d="M411.7,256.3c0.4,0,0.8,0,1.3-0.1c0.1,0.1,0.3,0.2,0.4,0.2c-0.1,16.9-0.1,33.8,0,50.9c-3.5,0-7.1,0-10.7,0
			c0-9.3,0-18.5,0-27.8c-2.6,0-5.2,0-7.8,0c0,9.2,0,18.5,0,27.8c-0.2,0-0.7,0-0.9,0.1c0-16.8,0-33.7,0-50.6c5.4,0,10.6,0,15.9,0
			C410.6,256.8,411.3,256.9,411.7,256.3L411.7,256.3z"/>
		<path class="st2" d="M92.3,256.1c1.4,0,2.7,0,4.2,0c0,3.4,0,6.9,0,10.3c-1.4,0-2.7,0-4.2,0C92.3,263,92.3,259.5,92.3,256.1
			L92.3,256.1z"/>
		<path class="st2" d="M97.7,307.4c0-17,0-34.2,0-51.3c0.7,0,1.3,0,2,0c0.1,0.2,0.2,0.4,0.4,0.6c6.1,0,12.3,0,18.3,0.1
			c0,16.8,0,33.7,0,50.6c-0.2,0-0.7,0-1,0c0-9.3,0.1-18.5,0-27.9c-2.5,0-5.2,0-7.7,0c0,9.3,0,18.5,0,27.9
			C105.7,307.4,101.8,307.4,97.7,307.4L97.7,307.4z"/>
		<path class="st2" d="M158.3,256.1c0.7,0,1.3,0,2,0c0,17.1,0,34.2,0,51.3c-4.6,0-9.2,0-13.8,0c0-9.3,0-18.5,0-27.9
			c-2.6,0-5.2,0-7.8,0c0,9.3,0,18.5,0,27.9c-0.3,0-0.6,0-0.9,0c0-16.9,0-33.7,0-50.6c6.8,0,13.6,0,20.4,0
			C158.3,256.6,158.3,256.3,158.3,256.1L158.3,256.1z"/>
		<path class="st2" d="M222.6,307.4c0-17,0-34.2,0-51.3c5.7,0,11.4,0,17,0c0,17.1,0,34.2,0,51.3c-0.4,0-0.8,0-1.2,0
			c0-9.3,0-18.5,0-27.9c-2.6,0-5.2,0-7.7,0c0,9.3,0,18.5,0,27.9C227.9,307.4,225.2,307.4,222.6,307.4L222.6,307.4z"/>
		<path class="st2" d="M240.9,307.4c0-17,0-34.2,0-51.3c0.9,0,1.8,0,2.6,0c1.7,2.4,3.4,5,5.2,7.4c0,5.3,0,10.6,0,16
			c-2.1,0-4.3,0-6.4,0c-0.1,9.2-0.1,18.5,0,27.9C241.7,307.4,241.3,307.4,240.9,307.4L240.9,307.4z"/>
		<path class="st2" d="M273.7,307.4c0-17.1,0-34.3,0-51.3c5.2,0,10.3,0,15.5,0c0,17.1,0,34.2,0,51.3c-2-0.1-4.1,0-6.1-0.1
			c0-9.3,0-18.5,0-27.9c-2.5,0-5.2,0-7.8,0c0.1,9.3,0,18.5,0.1,27.9C274.9,307.4,274.2,307.4,273.7,307.4L273.7,307.4z"/>
		<path class="st2" d="M414.8,256.1c1.6,0,3.3,0,5.1,0c0,3.4,0,6.9,0,10.3c-1.7,0-3.3,0-5.1,0C414.8,263,414.7,259.5,414.8,256.1
			L414.8,256.1z"/>
		<path class="st2" d="M119.7,256.7c0.6,0,1.1,0,1.7,0c0,20,0,39.9,0,59.9c-0.6,0-1.1,0-1.7,0.1
			C119.7,296.7,119.7,276.7,119.7,256.7L119.7,256.7z"/>
		<path class="st2" d="M122.7,256.7c3.6,0,7.2,0,10.8,0c0,20,0,39.9,0,59.9c-3.5,0.1-7.2,0-10.8,0.1
			C122.7,296.7,122.7,276.7,122.7,256.7L122.7,256.7z"/>
		<path class="st2" d="M375.8,256.7c0.5,0,1.1,0,1.7,0c0,20,0,39.9,0,60c-0.6-0.1-1.1-0.1-1.7-0.1
			C375.8,296.7,375.8,276.7,375.8,256.7L375.8,256.7z"/>
		<path class="st2" d="M378.8,316.6c0-20,0-39.9,0-59.9c3.6,0,7.3,0,10.9,0c0,20,0,39.9,0,59.9C386,316.7,382.5,316.7,378.8,316.6
			L378.8,316.6z"/>
		<path class="st2" d="M134.9,316.6c0-20,0-39.9,0-59.9c0.6,0,1.1,0,1.7,0c0,20,0,39.9,0,60C136,316.6,135.5,316.6,134.9,316.6
			L134.9,316.6z"/>
		<path class="st2" d="M391.1,316.7c0-20,0-40,0-60c0.6,0,1.2,0,1.7,0c0,20,0,39.9,0,59.9C392.2,316.6,391.6,316.6,391.1,316.7
			L391.1,316.7z"/>
		<path class="st2" d="M94,267.8c0.8,0,1.6,0,2.4,0c0,13.2,0,26.5,0,39.6c-0.8,0-1.5,0-2.3,0C94,294.1,94,280.9,94,267.8L94,267.8z"
			/>
		<path class="st2" d="M161.6,267.8c19.9-0.1,39.7,0,59.6,0c0,13.2,0,26.5,0.1,39.6c-1.2,0-2.5,0-3.7,0c0-9.3,0-18.5,0-27.9
			c-2.6,0-5.2,0-7.7,0c0,9.3,0,18.5,0,27.9c-1.3,0-2.6,0-3.9,0c0-9.2,0-18.5,0-27.9c-2.6,0-5.2,0-7.7,0c0,9.3,0,18.6,0,27.9
			c-0.8,0-1.7,0-2.5,0c0-9.2,0-18.5,0-27.9c-2.6,0-5.3,0-7.8,0c0,9.2,0,18.5,0,27.9c-0.8,0-1.7,0-2.5,0c0-9.3,0-18.5,0-27.9
			c-2.5,0-5.2,0-7.7,0c0,9.2,0,18.5,0,27.9c-1.3,0.1-2.5,0-3.9,0c0-9.3,0-18.5,0-27.9c-2.5,0-5.2,0-7.7,0c0,9.3,0,18.5,0,27.9
			c-1.4,0-2.8,0-4.4,0C161.6,294.1,161.6,280.9,161.6,267.8L161.6,267.8z"/>
		<path class="st2" d="M290.5,267.8c19.5-0.1,39,0,58.5,0c0,13.2,0,26.5,0,39.6c-0.9,0-1.7,0-2.6,0c0-9.3,0-18.5,0-27.9
			c-2.5,0-5.2,0-7.7,0c0,9.2,0,18.5,0,27.9c-1.3,0-2.6,0-4,0c0-9.3,0-18.6,0-27.9c-2.5,0-5.2,0-7.7,0c0,9.3,0,18.5,0,27.9
			c-0.9,0-1.7,0-2.6,0c0-9.3,0-18.5,0-27.9c-2.5,0-5.2,0-7.7,0c0,9.3,0,18.5,0,27.9c-0.8,0-1.6,0-2.4,0c0-0.8,0-1.7,0-2.6
			c0-2.2,0-4.5,0-6.7c0-6.2,0-12.4,0-18.5c-2.6,0-5.3,0-7.9,0c0,9.3,0.1,18.6,0,27.9c-1.2-0.1-2.5-0.1-3.7-0.1c0-9.2,0-18.5,0-27.9
			c-2.5,0-5.2,0-7.7,0c0,8.6,0,17.2,0,25.9c0,0.7-0.1,1.3-0.2,2c-1.3-0.1-2.7-0.1-4.1-0.1C290.5,294.1,290.5,280.9,290.5,267.8
			L290.5,267.8z"/>
		<path class="st2" d="M414.6,267.8c1.1,0,2.2,0,3.3,0c0,13.2,0,26.5,0,39.6c-1.1,0-2.2,0-3.3,0c0-2.4,0-4.9,0-7.3
			C414.6,289.3,414.6,278.5,414.6,267.8L414.6,267.8z"/>
		<path class="st2" d="M111.1,280.8c1.7,0,3.4,0,5.1,0c0,8.8,0,17.6,0,26.5c-1.7,0-3.3,0-5.1,0C111.1,298.5,111.1,289.6,111.1,280.8
			L111.1,280.8z"/>
		<path class="st2" d="M140.2,280.8c1.7,0,3.4-0.1,5.2,0c-0.1,8.8,0,17.6-0.1,26.5c-1.7,0-3.4,0-5.1,0
			C140.2,298.5,140.2,289.6,140.2,280.8L140.2,280.8z"/>
		<path class="st2" d="M178.9,280.8c1.7,0,3.4,0,5.2,0c0,8.8-0.1,17.6,0,26.5c-1.7,0-3.4,0-5.2,0
			C178.9,298.5,178.9,289.6,178.9,280.8L178.9,280.8z"/>
		<path class="st2" d="M189.1,280.8c1.7,0,3.4,0,5.3,0c0,8.8,0,17.6,0,26.5c-1.7,0-3.4,0-5.3,0C189.2,298.5,189.1,289.6,189.1,280.8
			L189.1,280.8z"/>
		<path class="st2" d="M199.4,307.3c0-8.8,0-17.7,0-26.5c1.7-0.1,3.3,0,5.1,0c0,8.8,0,17.6,0,26.5
			C202.9,307.4,201.2,307.4,199.4,307.3L199.4,307.3z"/>
		<path class="st2" d="M211.1,280.8c1.7,0,3.4,0,5.2,0c0,8.8,0,17.6,0,26.6c-1.7,0-3.4,0-5.2,0C211.1,298.5,211.1,289.6,211.1,280.8
			L211.1,280.8z"/>
		<path class="st2" d="M231.9,280.8c1.7,0,3.4,0,5.2,0c0,8.8,0,17.6,0,26.6c-1.7,0-3.4,0-5.2,0C231.9,298.5,231.9,289.6,231.9,280.8
			L231.9,280.8z"/>
		<path class="st2" d="M243.5,280.8c1.7,0,3.4-0.1,5.2,0c0,8.8,0,17.6,0,26.5c-1.7,0-3.4,0-5.2,0
			C243.5,298.5,243.5,289.6,243.5,280.8L243.5,280.8z"/>
		<path class="st2" d="M264.6,280.8c1.7,0,3.4,0,5.1,0c0,8.8,0,17.6,0,26.5c-1.7,0-3.3,0-5.2,0C264.6,298.5,264.6,289.6,264.6,280.8
			L264.6,280.8z"/>
		<path class="st2" d="M276.7,280.8c1.7-0.1,3.4,0,5.2,0c0,8.8,0,17.6,0,26.5c-1.7,0-3.4,0-5.2,0
			C276.7,298.5,276.7,289.6,276.7,280.8L276.7,280.8z"/>
		<path class="st2" d="M296,280.8c1.7,0,3.4,0,5.1,0c0,8.8,0,17.6,0,26.5c-1.7,0-3.3,0-5.1,0c0-0.2-0.1-0.6-0.1-0.9
			c0.1-2,0-4.1,0.1-6.1c0-1.2,0-2.4,0-3.6c0-5,0-9.8,0-14.7C296,281.6,296,281.1,296,280.8L296,280.8z"/>
		<path class="st2" d="M307.5,280.8c1.7,0,3.4-0.1,5.3,0c0,8.8,0,17.6,0,26.5c-1.7,0-3.5,0-5.3,0
			C307.5,298.5,307.5,289.6,307.5,280.8L307.5,280.8z"/>
		<path class="st2" d="M317.8,280.8c1.7,0,3.4,0,5.1,0c0,8.8,0,17.6,0,26.5c-1.7,0-3.4,0-5.1,0C317.8,298.5,317.8,289.6,317.8,280.8
			L317.8,280.8z"/>
		<path class="st2" d="M339.8,280.8c1.7,0,3.4-0.1,5.1,0c0,8.8,0,17.6,0,26.5c-1.6,0-3.3,0-5.1,0c-0.3-3.3,0.1-6.6-0.1-9.9
			c0-2.4,0-5,0.1-7.4C339.5,286.9,339.7,283.9,339.8,280.8L339.8,280.8z"/>
		<path class="st2" d="M367.2,280.8c1.7-0.1,3.4-0.1,5.2,0c0,8.8,0,17.6,0,26.5c-1.7,0-3.5,0-5.2,0
			C367.2,298.5,367.2,289.6,367.2,280.8L367.2,280.8z"/>
		<path class="st2" d="M396.4,280.8c1.7,0,3.4-0.1,5.2,0c0,8.8,0,17.6,0,26.5c-1.6,0-3.3,0-5.1,0c0-8.2,0-16.4,0-24.6
			C396.4,282,396.4,281.4,396.4,280.8L396.4,280.8z"/>
		<path class="st2" d="M167.3,307.3c0-8.8,0-17.7,0-26.5c1.7,0,3.4,0,5.2,0c0,8.8-0.1,17.6,0,26.5
			C170.7,307.4,168.9,307.4,167.3,307.3L167.3,307.3z"/>
		<path class="st2" d="M328.2,280.8c1.7,0,3.4,0,5.2,0c0,8.8,0,17.6,0,26.5c-1.7,0-3.4,0-5.2,0C328.2,298.5,328.2,289.6,328.2,280.8
			L328.2,280.8z"/>
		<path class="st2" d="M113.5,308.7c1.1,0,2.3,0,3.4,0c-0.3,2.6-0.9,5.3-1.2,7.9c-1.4,0.1-2.8,0.1-4.3,0
			C112.2,314.1,112.7,311.3,113.5,308.7L113.5,308.7z"/>
		<path class="st2" d="M139.2,308.7c1,0,2,0,3,0c0.8,2.6,1.3,5.4,2,8c-1.2,0.1-2.4,0.1-3.6,0C140.2,314.1,139.8,311.3,139.2,308.7
			L139.2,308.7z"/>
		<path class="st2" d="M93.6,308.9c0.7-0.5,1.9-0.1,2.8-0.2c-1.3,2.6-2.7,5.3-4.1,7.9c-0.7,0-1.4,0-2.1,0
			C91.4,314.1,92.3,311.4,93.6,308.9L93.6,308.9z"/>
		<path class="st2" d="M93.8,316.6c1.3-2.6,2.7-5.4,4.2-8c4.7,0,9.3,0,14,0c-0.4,2.6-1.2,5.4-1.8,7.9
			C104.7,316.6,99.2,316.7,93.8,316.6L93.8,316.6z"/>
		<path class="st2" d="M118.1,310.8c0.1-0.7,0.2-1.5,0.3-2.2c0.2,2.6,0.1,5.4,0.1,8.1c-0.5,0-0.9,0-1.4,0.1
			C117.3,314.8,117.6,312.8,118.1,310.8L118.1,310.8z"/>
		<path class="st2" d="M143.7,308.7c5.7,0,11.5,0,17.1,0c1.4,2.7,2.7,5.4,4.2,8c-6.5,0.1-12.9,0-19.5,0
			C145,314.1,144.2,311.3,143.7,308.7L143.7,308.7z"/>
		<path class="st2" d="M162.4,308.7c19.7,0,39.3,0,59,0c-1.3,2.6-2.8,5.4-4.4,7.9c-16.8,0-33.7,0.1-50.7,0
			C165.2,314,163.7,311.3,162.4,308.7L162.4,308.7z"/>
		<path class="st2" d="M218.6,316.6c1.4-2.7,2.9-5.3,4.4-8c5.2,0,10.2,0,15.4,0c-0.7,2.6-1.4,5.4-2.2,7.9
			C230.3,316.6,224.5,316.7,218.6,316.6L218.6,316.6z"/>
		<path class="st2" d="M238.2,314.6c0.5-1.9,1-3.9,1.5-5.9c1.7,0,3.5-0.1,5.3,0.1c-0.5,2.6-0.9,5.3-1.4,7.8c-2,0.1-4.1,0.1-6.1,0
			C237.7,316,237.9,315.2,238.2,314.6L238.2,314.6z"/>
		<path class="st2" d="M246.3,308.7c0.8,0,1.6,0,2.3,0c0,2.7,0,5.4,0,8c-1.2,0-2.5,0-3.7-0.1C245.4,314.1,245.8,311.3,246.3,308.7
			L246.3,308.7z"/>
		<path class="st2" d="M264.6,316.7c0-2.6,0-5.4,0-8c0.5,0,1,0,1.6,0.1c0.5,2.6,1,5.3,1.3,7.9C266.5,316.6,265.5,316.6,264.6,316.7
			L264.6,316.7z"/>
		<path class="st2" d="M267.6,308.7c1.5,0,3.1,0,4.8,0c0.7,2.6,1.4,5.3,2.1,7.9c-1.9,0.1-3.7,0.1-5.7,0
			C268.6,314,268,311.3,267.6,308.7L267.6,308.7z"/>
		<path class="st2" d="M273.6,308.7c5.2,0,10.2,0,15.4,0c1.5,2.6,2.8,5.4,4.4,8c-5.9,0.1-11.8,0.1-17.6,0
			C275.2,314,274.4,311.3,273.6,308.7L273.6,308.7z"/>
		<path class="st2" d="M290.7,308.7c19.5,0,38.9,0,58.3,0c-1.2,2.7-2.6,5.4-4.1,7.9c-16.7,0-33.3,0.1-50,0
			C293.5,314,292,311.3,290.7,308.7L290.7,308.7z"/>
		<path class="st2" d="M350.5,308.7c5.7,0,11.2,0,16.9,0c0.1,0.1,0.2,0.3,0.3,0.4c-0.8,2.5-1.4,5.2-2,7.6c-6.4,0.1-12.8,0.1-19.2,0
			C347.7,314,349.1,311.3,350.5,308.7L350.5,308.7z"/>
		<path class="st2" d="M369,308.7c1.4,0,2.7,0,4.2,0c-0.4,2.6-0.9,5.4-1.3,8c-1.6-0.1-3.2,0-4.9-0.1
			C367.7,314.1,368.3,311.3,369,308.7L369,308.7z"/>
		<path class="st2" d="M373.3,316.7c0.2-2.7,0.9-5.4,1.1-8.1c0.1,2.7,0.1,5.4,0.1,8.1C374.1,316.7,373.7,316.7,373.3,316.7
			L373.3,316.7z"/>
		<path class="st2" d="M395.5,308.7c1.5,0,3.1,0,4.7,0c0.7,2.6,1.3,5.4,2.1,7.9c-1.8,0.1-3.6,0-5.5,0
			C396.3,314.1,395.9,311.3,395.5,308.7L395.5,308.7z"/>
		<path class="st2" d="M401.4,308.7c4.1,0,8,0,12,0c1.4,2.6,2.7,5.3,4.2,7.9c-4.7,0.1-9.3,0.1-14,0
			C402.9,314.1,402.1,311.3,401.4,308.7L401.4,308.7z"/>
		<path class="st2" d="M414.9,308.7c1.2,0,2.3,0,3.5,0c1.1,2.6,2.2,5.3,3.3,7.9c-0.9,0.1-1.8,0-2.7,0
			C417.6,314.1,416.2,311.4,414.9,308.7L414.9,308.7z"/>
		<path class="st2" d="M394.1,316.7c0-2.6,0-5.3,0.1-7.9c0.3,2.6,0.8,5.2,1.3,7.8C395,316.6,394.5,316.6,394.1,316.7L394.1,316.7z"
			/>
		<path class="st2" d="M138,309.2c0.4,2.4,0.8,5,1.3,7.5c-0.4,0-0.9,0-1.4,0C137.9,314.2,137.8,311.6,138,309.2L138,309.2z"/>
		<path class="st2" d="M375.4,318c0.6,0,1.1,0,1.7,0c0,18.1,0,36.2,0,54.3c-0.6,0-1.1,0-1.7,0C375.4,354.2,375.4,336.1,375.4,318
			L375.4,318z"/>
		<path class="st2" d="M390.7,317.9c0.5,0.2,1.8-0.4,1.7,0.5c0,17.9,0,35.9,0,53.8c-0.6,0-1.1,0-1.7,0
			C390.7,354.2,390.7,336.1,390.7,317.9L390.7,317.9z"/>
		<path class="st2" d="M79.3,318c13.1,0,26,0,39.1,0c0,0.7,0,1.3,0,2c-13.1,0.1-26.1,0-39.1,0C79.3,319.4,79.3,318.6,79.3,318
			L79.3,318z"/>
		<path class="st2" d="M119.7,372.2c0.1-18.1,0-36.2,0-54.3c0.6,0,1.1,0,1.7,0c0,18.1,0,36.2,0,54.2
			C120.9,372.2,120.3,372.2,119.7,372.2L119.7,372.2z"/>
		<path class="st2" d="M122.7,372.2c0-18.1,0-36.2,0-54.3c3.6,0,7.2,0,10.8,0c0,18.1,0,36.2,0,54.3
			C130,372.4,126.4,372.4,122.7,372.2L122.7,372.2z"/>
		<path class="st2" d="M134.9,318c0.6,0,1.1,0,1.7,0c0,18.1,0,36.3,0,54.4c-0.6,0-1.1,0-1.6,0C134.9,354.2,134.9,336.2,134.9,318
			L134.9,318z"/>
		<path class="st2" d="M137.9,318c36.9,0,73.8,0,110.7,0c0,0.7,0,1.4,0,2c-36.9,0-73.8,0-110.8,0C137.9,319.4,137.9,318.6,137.9,318
			L137.9,318z"/>
		<path class="st2" d="M264.6,320.1c0-0.6,0-1.3,0-2c36.5,0,73,0,109.5,0c0,0.7,0,1.4,0,2C337.6,320.1,301.1,320.1,264.6,320.1
			L264.6,320.1z"/>
		<path class="st2" d="M378.4,318c3.6,0,7.3,0,10.9,0c0,18.1,0,36.2,0,54.2c-1.9,0.3-3.9-0.1-5.7,0.1c-1.7,0-3.4,0-5.2-0.1
			C378.5,354.2,378.4,336.1,378.4,318L378.4,318z"/>
		<path class="st2" d="M393.7,320.1c0-0.6,0-1.3,0-2c12.6,0,25.1,0,37.6,0c0,0.7,0,1.3,0,2C418.8,320.1,406.3,320.1,393.7,320.1
			L393.7,320.1z"/>
		<path class="st2" d="M264.6,321.4c36.5,0,73,0,109.5,0c0,2.5,0,5.2,0,7.7c-3.2,0.1-6.6,0-9.9,0.1c-16-0.1-31.9-0.1-47.8-0.1
			c-17.2,0-34.5,0.1-51.7,0C264.6,326.5,264.6,323.9,264.6,321.4L264.6,321.4z"/>
		<path class="st2" d="M73.9,321.4c14.8,0,29.7,0,44.5,0c0,2.5,0,5.2,0,7.7c-5,0.1-9.8,0-14.8,0c-9.9,0-19.8,0.1-29.7,0
			C73.9,326.5,73.9,323.9,73.9,321.4L73.9,321.4z"/>
		<path class="st2" d="M137.9,321.4c36.9,0,73.8,0,110.7,0c0,2.5,0,5.2,0,7.7c-13.7,0.1-27.4,0-41,0c-7.5,0-15,0-22.4,0
			c-10.1,0-20.3,0-30.5,0c-4.1,0.1-8.3,0-12.4,0c-1.5,0-2.9,0-4.5,0C137.9,326.5,137.9,323.9,137.9,321.4L137.9,321.4z"/>
		<path class="st2" d="M393.7,321.4c14.4,0,28.7,0,43.1,0c0.2,2.5,0,5.2,0.1,7.7c-4.6,0.1-9,0-13.5,0c-4.1,0-8,0-12.1,0.1
			c-4.1-0.1-8-0.1-12.1-0.1c-1.9,0.1-3.7,0-5.7,0C393.7,326.5,393.7,323.9,393.7,321.4L393.7,321.4z"/>
		<path class="st2" d="M64.6,330.5c17.3,0,34.8,0,52.1,0c0.6,0,1.2,0.1,1.7,0.1c0,1,0,2,0,2.9c0,2.3,0,4.7,0,7c-17.9,0-36,0-53.9,0
			c0-1.2,0-2.4,0-3.5c0-1,0-2,0-3C64.6,332.7,64.6,331.6,64.6,330.5L64.6,330.5z"/>
		<path class="st2" d="M137.9,330.5c16.6-0.2,33.1,0,49.7-0.1c20.4,0,40.7,0,61.1,0c0,3.3,0,6.7,0,10c-36.9,0-73.8,0-110.8,0
			C137.9,337.2,137.9,333.8,137.9,330.5L137.9,330.5z"/>
		<path class="st2" d="M264.6,330.5c36.5,0,73,0,109.5,0c0,3.3,0,6.7,0,10c-36.5,0-73,0-109.5,0
			C264.6,337.2,264.6,333.7,264.6,330.5L264.6,330.5z"/>
		<path class="st2" d="M393.7,340.5c0-3.3,0-6.7,0-10c17.9,0,36,0,53.9,0c0,3.3,0,6.7,0,10C429.6,340.5,411.7,340.5,393.7,340.5
			L393.7,340.5z"/>
		<path class="st2" d="M51,341.8c22.5,0.1,45,0,67.4,0.1c0,4.9,0,9.7,0,14.6c-22.5,0.1-45,0-67.5,0C51,351.6,51,346.7,51,341.8
			L51,341.8z"/>
		<path class="st2" d="M137.9,341.8c36.9,0,73.8,0.1,110.7,0c0,4.9,0,9.7,0,14.6c-36.9,0-73.8,0-110.8,0
			C137.9,351.6,137.9,346.7,137.9,341.8L137.9,341.8z"/>
		<path class="st2" d="M264.6,341.8c36.5,0,73,0,109.5,0c0,4.9,0,9.7,0,14.6c-36.5,0-73,0-109.5,0
			C264.6,351.6,264.6,346.7,264.6,341.8L264.6,341.8z"/>
		<path class="st2" d="M393.7,341.8c22.4,0.1,44.9,0,67.4,0c0,4.9,0,9.7,0,14.6c-22.5,0-44.9,0-67.4,0
			C393.7,351.6,393.7,346.7,393.7,341.8L393.7,341.8z"/>
		<path class="st2" d="M37.6,357.9c27,0,53.9,0,80.9,0c0,4.8,0,9.6,0,14.4c-27,0.1-53.9,0.1-80.9,0.1
			C37.6,367.5,37.5,362.6,37.6,357.9L37.6,357.9z"/>
		<path class="st2" d="M137.9,357.9c36.9,0,73.8,0,110.7,0c0,4.8,0,9.6,0,14.4c-36.9,0-73.8,0-110.8,0
			C137.9,367.5,137.9,362.6,137.9,357.9L137.9,357.9z"/>
		<path class="st2" d="M264.6,357.9c36.5,0,73,0,109.5,0c0,4.8,0,9.6,0,14.4c-36.5,0-73,0-109.5,0
			C264.6,367.5,264.6,362.6,264.6,357.9L264.6,357.9z"/>
		<path class="st2" d="M393.7,357.9c26.9,0,53.8,0,80.8,0c0,4.8,0,9.6,0,14.4c-27,0-53.9,0-80.8,0
			C393.7,367.5,393.7,362.6,393.7,357.9L393.7,357.9z"/>
	</g>
</g>
</svg>
