<?xml version="1.0" encoding="utf-8"?>
<!-- Generator: Adobe Illustrator 21.1.0, SVG Export Plug-In . SVG Version: 6.00 Build 0)  -->
<svg version="1.1" id="Warstwa_1" xmlns="http://www.w3.org/2000/svg" xmlns:xlink="http://www.w3.org/1999/xlink" x="0px" y="0px"
	 viewBox="0 0 512 512" style="enable-background:new 0 0 512 512;" xml:space="preserve">
<style type="text/css">
	.st0{fill:#FFFFFF;}
	.st1{fill:#002B7F;}
	.st2{fill:#CE1126;}
</style>
<g>
	<path class="st0" d="M498.8,340.7H13.2c11,31.8,28.1,60.8,49.8,85.6h385.8C470.7,401.6,487.8,372.6,498.8,340.7z"/>
	<path class="st1" d="M448.9,426.4H63c41,46.6,98.5,78.2,163.5,85.6h59C350.3,504.6,407.9,473,448.9,426.4z"/>
	<path class="st1" d="M256,0C180.8,0,113.1,32.3,66.1,83.9h379.7C398.8,32.3,331.2,0,256,0z"/>
	<path class="st0" d="M445.8,83.9H66.1c-22.5,24.6-40.2,53.7-51.7,85.6h483.1C486.1,137.6,468.3,108.5,445.8,83.9z"/>
	<path class="st2" d="M512.8,256.8c0-30.7-5.4-60.1-15.3-87.3H14.4c-9.9,27.2-15.3,56.6-15.3,87.3c0,29.4,5,57.5,14,83.9h485.6
		C507.8,314.5,512.8,286.2,512.8,256.8z"/>
</g>
</svg>
