<?xml version="1.0" encoding="utf-8"?>
<!-- Generator: Adobe Illustrator 21.1.0, SVG Export Plug-In . SVG Version: 6.00 Build 0)  -->
<svg version="1.1" id="Warstwa_1" xmlns="http://www.w3.org/2000/svg" xmlns:xlink="http://www.w3.org/1999/xlink" x="0px" y="0px"
	 viewBox="0 0 512 512" style="enable-background:new 0 0 512 512;" xml:space="preserve">
<style type="text/css">
	.st0{fill:#009543;}
	.st1{fill:#FFCE00;}
	.st2{fill:#FFFFFF;}
	.st3{fill:#EA0437;}
	.st4{fill:#000100;}
	.st5{fill:#96239A;}
	.st6{fill:#EA0337;}
	.st7{fill:#FECE00;}
	.st8{fill:#AA5600;}
</style>
<g>
	<path class="st0" d="M187.7,9.4C101.3,33.3,33.3,101.2,9.4,187.7h178.3L187.7,9.4L187.7,9.4z"/>
	<path class="st0" d="M324.3,502.6c86.4-23.9,154.3-91.8,178.3-178.3H324.3V502.6z"/>
	<path class="st0" d="M9.4,324.3c23.9,86.4,91.8,154.3,178.3,178.3V324.3H9.4z"/>
	<path class="st0" d="M502.6,187.7C478.7,101.2,410.8,33.3,324.3,9.4v178.3H502.6z"/>
	<path class="st1" d="M187.7,324.3v178.3c14.7,4.1,29.9,7,45.5,8.3V324.3H187.7z"/>
	<path d="M233.2,324.3v186.6c7.5,0.6,15.1,1.1,22.8,1.1s15.3-0.5,22.8-1.1V324.3H233.2z"/>
	<path d="M278.8,187.7V1.1C271.3,0.5,263.7,0,256,0s-15.3,0.5-22.8,1.1v186.6H278.8z"/>
	<path class="st2" d="M278.8,187.7h45.5V9.4c-14.7-4.1-29.9-7-45.5-8.3V187.7z"/>
	<path class="st1" d="M502.6,187.7H233.2V1.1c-15.6,1.4-30.8,4.3-45.5,8.3v178.3H9.4c-4.1,14.7-7,29.9-8.4,45.5h509.8
		C509.6,217.6,506.6,202.4,502.6,187.7z"/>
	<path d="M510.9,233.2H1.1C0.4,240.7,0,248.3,0,256s0.5,15.3,1.1,22.8h509.8c0.7-7.5,1.1-15.1,1.1-22.8S511.6,240.7,510.9,233.2z"/>
	<path class="st2" d="M1.1,278.8c1.4,15.6,4.3,30.8,8.4,45.5h269.3v186.6c15.6-1.4,30.8-4.3,45.5-8.3V324.3h178.3
		c4.1-14.7,7-29.9,8.4-45.5H1.1z"/>
	<g>
		<g>
			<path class="st3" d="M398,256c0,78.4-63.6,142.1-142,142.1c-78.4,0-142-63.5-142-142.1c0-78.4,63.5-142.1,142-142.1
				S398,177.6,398,256z"/>
			<g>
				<g>
					<polygon class="st0" points="256,130.9 260.4,144.2 274.2,144.2 263,152.4 267.4,165.8 256,157.5 244.6,165.8 249,152.4 
						237.8,144.2 251.6,144.2 					"/>
					<path d="M256,158.1l-12.3,8.9l4.7-14.4l-12.2-8.8h15.1l4.3-13l0.4-1.4l4.7,14.3h15.1l-12.3,8.8l4.7,14.4L256,158.1L256,158.1z
						 M266.3,164.5l-4-12.3l10.4-7.6H260l-4-12.2l-4,12.2h-12.9l10.4,7.6l-4,12.3l10.4-7.6L266.3,164.5L266.3,164.5z"/>
				</g>
				<g>
					<polygon class="st0" points="182.5,154.9 193.8,163.1 205.1,154.9 200.8,168.1 212,176.3 198.1,176.3 193.8,189.6 189.5,176.3 
						175.5,176.3 186.9,168.1 					"/>
					<path d="M189.1,176.8H174l12.2-8.9l-4.2-12.9l0.4-0.2l-0.4,0.2l-0.4-1.4l12.2,8.9l12.3-8.9l-4.7,14.3l12.3,8.9h-15.1l-4.7,14.4
						L189.1,176.8L189.1,176.8z M187.4,168.3l-10.3,7.5h12.8l4,12.3l4-12.3h12.9l-10.4-7.5l4-12.3l-10.4,7.6l-10.3-7.6L187.4,168.3
						L187.4,168.3z"/>
				</g>
				<g>
					<polygon class="st0" points="137.1,217.4 151.1,217.4 155.4,204.1 159.7,217.4 173.7,217.4 162.4,225.6 166.7,238.9 
						155.4,230.7 144.1,238.9 148.4,225.6 					"/>
					<path d="M155.4,231.3l-12.2,8.9l4.7-14.4l-11-8l0.3-0.4l-0.3,0.4l-1.2-0.9h15.1l4.7-14.3l4.7,14.3h15.1l-12.3,8.9l4.7,14.4
						L155.4,231.3L155.4,231.3z M165.8,237.7l-4.1-12.3l10.4-7.5h-12.9l-4-12.3l-4,12.3h-12.9l10.4,7.5l-4,12.3l10.4-7.6
						L165.8,237.7L165.8,237.7z"/>
				</g>
				<g>
					<polygon class="st0" points="137.1,294.6 148.4,286.4 144.1,273.1 155.4,281.3 166.7,273.1 162.4,286.4 173.7,294.6 
						159.7,294.6 155.4,307.9 151.1,294.6 					"/>
					<path d="M150.7,295.1H137v-0.5l0.3,0.3l-0.3-0.3v0.5h-1.4l12.2-8.8l-4.7-14.4l12.2,8.8l12.2-8.9l-4.7,14.4l12.3,8.9h-15.1
						l-4.7,14.3L150.7,295.1L150.7,295.1z M151.4,294.1l4,12.3l4-12.3h12.9l-10.4-7.5l4.1-12.3l-10.4,7.6l-10.4-7.6l4,12.3
						l-10.4,7.5H151.4L151.4,294.1z"/>
				</g>
				<g>
					<polygon class="st0" points="182.5,357.1 186.9,343.9 175.5,335.7 189.5,335.7 193.8,322.4 198.1,335.7 212,335.7 200.8,343.9 
						205.1,357.1 193.8,348.9 					"/>
					<path d="M193.8,349.4l-11,8l-1.1,0.8l4.6-14.3L174,335h15.1l4.7-14.4l4.7,14.4h15.1l-12.3,8.9l4.7,14.3L193.8,349.4
						L193.8,349.4z M182.9,357.2l-0.4-0.1L182.9,357.2L182.9,357.2z M187.4,343.7l-4,12.3l10.3-7.6l10.4,7.6l-4-12.3l10.4-7.5h-12.9
						l-4-12.2l-4,12.2h-13L187.4,343.7L187.4,343.7z"/>
				</g>
				<g>
					<polygon class="st0" points="256,381.1 251.6,367.7 237.8,367.7 249,359.6 244.6,346.2 256,354.5 267.4,346.2 263,359.6 
						274.2,367.7 260.4,367.7 					"/>
					<path d="M251.3,368.2h-15.1l12.2-8.8l-4.6-14.4l12.2,8.8l12.2-8.8l-4.7,14.4l12.3,8.8h-15.1l-4.3,12.9l-0.4,1.4L251.3,368.2
						L251.3,368.2z M256,381.1l0.4-0.2L256,381.1L256,381.1z M249.5,359.7l-10.4,7.6h12.9l4,12.2l4-12.2h12.9l-10.4-7.6l4-12.2
						l-10.3,7.5l-10.4-7.5L249.5,359.7L249.5,359.7z"/>
				</g>
				<g>
					<polygon class="st0" points="329.5,357.1 318.2,348.9 306.9,357.1 311.2,343.9 299.9,335.7 313.9,335.7 318.2,322.4 
						322.5,335.7 336.5,335.7 325.1,343.9 					"/>
					<path d="M318.2,349.4l-12.3,8.8l4.8-14.3l-12.3-8.9h15.1l4.7-14.4L323,335h15.1l-12.3,8.9l4.3,12.9l-0.5,0.2l0.3-0.4l-0.3,0.4
						l0.5-0.2l0.5,1.4L318.2,349.4L318.2,349.4z M311.7,343.7l-4,12.3l10.3-7.6l10.4,7.5l-4-12.3l10.4-7.5h-12.9l-4-12.2l-3.9,12.2
						h-12.9L311.7,343.7L311.7,343.7z"/>
				</g>
				<g>
					<polygon class="st0" points="374.9,294.6 360.9,294.6 356.6,307.9 352.4,294.6 338.4,294.6 349.6,286.4 345.3,273.1 
						356.6,281.3 367.9,273.1 363.6,286.4 					"/>
					<path d="M352,295.1h-15.1l12.2-8.9l-4.7-14.4l12.2,8.8l12.2-8.9l-4.7,14.4l11,8l-0.3,0.4V294v0.5l0.3-0.4l1.2,0.8h-15.1
						l-4.7,14.4L352,295.1L352,295.1z M350.3,286.6l-10.4,7.5h12.9l4,12.3l4-12.3h12.9l-10.4-7.5l4-12.3l-10.3,7.6l-10.4-7.6
						L350.3,286.6L350.3,286.6z"/>
				</g>
				<g>
					<polygon class="st0" points="374.9,217.4 363.6,225.6 367.9,238.9 356.6,230.7 345.3,238.9 349.6,225.6 338.4,217.4 
						352.4,217.4 356.6,204.1 360.9,217.4 					"/>
					<path d="M356.6,231.3l-12.2,8.9l4.7-14.4l-12.2-8.9h15.1l4.7-14.3l4.7,14.3h13.7v0.5v-0.5h1.4l-12.2,8.9l4.7,14.4L356.6,231.3
						L356.6,231.3z M367,237.7l-4-12.3l10.4-7.5h-12.9l-4-12.3l-4,12.3h-12.9l10.4,7.5l-4.1,12.3l10.4-7.6L367,237.7L367,237.7z"/>
				</g>
				<g>
					<polygon class="st0" points="329.5,154.9 325.1,168.1 336.5,176.3 322.5,176.3 318.2,189.6 313.9,176.3 299.9,176.3 
						311.2,168.1 306.9,154.9 318.2,163.1 					"/>
					<path d="M313.6,176.8h-15.1l12.3-8.9l-4.8-14.3l12.3,8.9l10.9-8l1.2-0.9l-4.7,14.3l12.3,8.9h-15.1l-4.7,14.4L313.6,176.8
						L313.6,176.8z M311.7,168.3l-10.4,7.5h12.9l4.1,12.3l4-12.3H335l-10.3-7.5l4-12.3l-10.3,7.6l-10.4-7.6L311.7,168.3L311.7,168.3
						z"/>
				</g>
			</g>
		</g>
		<g>
			<path class="st4" d="M249.3,177.8h1.4c3.5,0.1,7,1,10,2.9c2.6,1.7,5,3.9,7.3,6c2,1.8,4,3.5,5.9,5.2c2.3,1.9,4.8,3.6,7.5,4.7
				c0.3,0.1,0.7,0.2,0.9,0.4c-1.3,0.2-2.6,0.5-4.2,0.5c-1.1,0.1-2.1,0-3.2,0c1.7,1.1,3.4,2.1,5.4,2.7c0.7,0.2,1.4,0.1,2.1,0.2
				c-0.6,0.7-1.1,1.4-1.7,2c-0.6,0.7-1.4,1.3-2.2,1.9c1.8,1.2,3.7,2.5,6,3.2c0.7,0.2,1.6,0.2,2.4,0.2c-1.2,1.7-2.6,3.1-4.5,4.2
				c1.4,0.9,3,1.8,4.7,2.1c0.6,0.1,1.2,0.1,1.8,0.2c-1.3,1.7-2.9,3.4-5,4.4c1.4,0.8,2.8,1.6,4.4,2.1c0.7,0.1,1.5,0.1,2.2,0.1
				c-1.1,1.5-2.5,3-4.2,4c-1.8,1.2-4.2,1.7-6.3,1.5c-1.5-0.1-3-0.6-4.4-1.1c5.5,7.2,9.6,15.3,13.1,23.7c2.8,7,5.1,14.3,6.2,21.9
				c0.5,3.1,0.7,6.4,0.5,9.5c-0.1,1.3-0.3,2.7-0.7,4.1c-0.1,0.3-0.1,0.6,0.1,0.9c0.7,2.7,1,5.6,0.9,8.4c0,0.6-0.1,1.2,0,1.8
				c0.5,1.9,0.8,4,0.8,6v1.4c-0.1,2.8-0.5,5.6-0.8,8.3c-1.3-2.7-2.4-5.5-3.7-8.2c0,1.8-0.1,3.6-0.2,5.5c1,0.7,1.7,1.7,2,2.9
				c0.3,1.7-0.2,3.5-1.4,4.8c-0.5,0.5-1,0.8-1.7,1.1c-0.4,2.4-0.9,4.9-1.9,7.1c-0.5,1-1,2.1-1.9,2.7c-0.4,0.3-1,0.5-1.5,0.6
				c-0.4,1.5-0.7,3-1.3,4.4c-0.4,0.7-0.8,1.4-1.5,1.8c-0.5,0.3-1.3,0.3-1.7-0.1c-0.6-0.4-1.1-1.1-1.5-1.8c-0.8-1.3-1.3-2.7-1.8-4.3
				c-0.9,0.1-1.8-0.4-2.3-1c-0.9-1-1.5-2.1-2.1-3.2c-1.2,0.2-2.4,0-3.6-0.4c-1.4,0.7-3,0.4-4.6,0c-0.9,0.7-2.1,0.7-3.1,0.6
				c-0.5-0.1-1-0.2-1.5-0.3c-0.3-0.1-0.6,0.1-0.9,0.2c-1.2,0.3-2.4,0.1-3.5-0.3c-2.6-0.8-5-2.4-6.7-4.6c-1.8,0-3.5,0-5.4,0
				c-0.9,0-1.7-0.1-2.6,0c-3,0-6.1-0.1-9.2-0.2c-3.1-0.2-6.3-0.2-9.3-0.6c-0.6-0.1-1.2-0.1-1.6-0.5c-0.7-0.5-1.2-1.2-1.7-1.9
				c-1.2-1.6-2.2-3.5-3.1-5.4c-0.3-0.6-0.6-1.3-0.8-2v-0.4c1.4,0,2.8,0,4.2-0.2c0.5-0.1,1.2-0.3,1.3-0.8c0.2-0.5,0.3-1.1,0.5-1.7
				c0.4-1.3,1-2.5,1.8-3.4c1-1.1,2.3-1.9,3.9-1.9c2.8,0.1,5.3,1.8,6.7,4.2c0.5,0.9,0.8,2,0.9,3c0.1,0.5,0.1,1,0.3,1.4
				c0.2,0.3,0.6,0.2,0.9,0.2c4.5-0.1,8.8-0.3,13.2-0.5c1.2-1.5,2.7-2.8,4.4-3.7c-1.3-1.9-1.9-4.4-2.2-6.7c-1-0.1-1.9-0.9-2.5-1.8
				c-1-1.4-1.5-3.1-1.9-4.9c-0.4-2.1-0.6-4.4-0.2-6.6c0-0.3-0.1-0.4-0.2-0.6c-0.2-0.8-0.5-1.5-0.8-2.2c-0.1-0.2-0.2-0.4-0.3-0.6
				c-5.3-5.8-9.5-12.5-12.1-20c-1.9-5.3-2.8-10.9-2.9-16.5c-0.2-3.7,0-7.5,0.3-11.2c0.8-7.7,2.5-15.3,6-22.2
				c0.2-0.5,0.6-0.9,0.6-1.4c0-1.2,0.6-2.4,1.5-3.3c0.1-0.8,0.3-1.6,0.7-2.2c0.3-0.5,0.7-0.8,1.2-1.3c0-0.8,0.3-1.6,0.7-2.3
				c-0.2-0.1-0.3-0.2-0.5-0.2c-1.4,1-3,1.6-4.7,1.7c-1.2,0.1-2.6-0.1-3.7-0.8c-0.9,1.6-1.4,3.4-1.9,5.3c-1.3-2.8-2.4-5.8-2.7-8.9
				c-0.1-1.8,0-3.9,1.1-5.5c0.9-1.3,2.4-2.3,4.1-2.7c0.8-0.2,1.6-0.5,2.4-0.6c0.5-2.9,1.8-5.8,4.3-7.5
				C242.2,178.8,245.8,177.9,249.3,177.8L249.3,177.8z"/>
			<path class="st5" d="M242.6,180c3.2-1.3,6.9-1.6,10.4-1.2c2.5,0.3,5,1.2,7.1,2.6c2.3,1.5,4.5,3.4,6.6,5.4c3.3,2.9,6.6,6,10.3,8.5
				c0.6,0.4,1.2,0.7,1.9,1.1c-2.3,0.3-4.8,0.1-7-0.7c-0.8-0.3-1.6-0.6-2.3-1c-2.2,1.5-4.5,3.1-7,4.3c-1.6,0.7-3.3,1.1-5.2,1.4
				c-2.6,0.4-5.3,0.8-7.9,0.7c-2.7-0.1-5.6-0.5-8-1.7c-0.1,0-0.2-0.1-0.1-0.3c0.7-0.8,1.3-1.8,1.2-2.9c-0.1-1.3-1.1-2.1-2.2-2.5
				c0.2-0.8,0.5-1.6,0.2-2.4c-0.1-1-0.6-2.1-1.5-2.7c-0.9-0.6-2.1-0.7-3.2-0.5c0.4-2,1.2-4.1,2.6-5.6
				C239.8,181.4,241.2,180.7,242.6,180L242.6,180z"/>
			<path class="st4" d="M248.4,185.6c1.3-0.1,2.8,0.1,4.1,0.9c0.6,0.4,1.1,1.2,1.1,2c-0.1,0.8-0.7,1.5-1.3,1.9
				c-1.1,0.6-2.5,0.8-3.7,0.7c-1-0.1-2.1-0.4-2.9-1.1c-0.5-0.4-0.9-1.1-0.9-1.7c0-0.7,0.4-1.2,0.9-1.7
				C246.4,185.9,247.4,185.6,248.4,185.6L248.4,185.6z"/>
			<path class="st6" d="M248,186.5c1.3-0.2,2.5-0.1,3.6,0.5c0.4,0.2,0.8,0.6,1,1.1c0.2,0.4-0.2,0.9-0.6,1.2
				c-0.8,0.6-1.8,0.7-2.7,0.8c-1.1-0.1-2.1-0.2-3-0.8c-0.3-0.3-0.7-0.6-0.6-1.1c0-0.4,0.3-0.7,0.6-1
				C246.8,186.8,247.4,186.6,248,186.5L248,186.5z"/>
			<path class="st4" d="M248.5,186.9c0.8-0.3,1.9,0.3,1.8,1.2c0,0.9-1.2,1.4-1.9,1.1c-0.6-0.2-1-0.8-0.8-1.4
				C247.6,187.3,248.1,187,248.5,186.9L248.5,186.9z"/>
			<path class="st7" d="M233.1,189.7c1.3-0.4,2.6-0.8,4.2-0.8c0.8,0,1.7,0.4,2.1,1.1c0.5,0.8,0.7,1.7,0.5,2.6
				c-0.3,1.1-1.2,2.2-2.2,2.7c-0.7,0.4-1.4,0.5-2.1,0.9c-2.6,1.4-4.5,4.3-5.4,7.1c-0.9-2.1-1.5-4.3-1.7-6.5
				c-0.1-1.6,0.1-3.4,1.1-4.9C230.4,190.8,231.8,190,233.1,189.7L233.1,189.7z"/>
			<path class="st4" d="M235.8,191c0.4-0.1,0.7,0,1,0.3c0.5,0.5,0.3,1.4-0.3,1.7c-0.6,0.3-1.3-0.1-1.4-0.7
				C234.9,191.7,235.3,191.1,235.8,191L235.8,191z"/>
			<path class="st7" d="M240,194.5c0.7,0.1,1.5,0.6,1.7,1.3c0.3,0.8,0,1.6-0.5,2.2c-0.9,1.3-2.4,2.1-4,2.5c-1.5,0.4-3.2,0.4-4.5-0.4
				c1-1.6,2.5-2.8,4.4-3.4C238.3,196.3,239.4,195.5,240,194.5L240,194.5z"/>
			<path class="st5" d="M269.7,195.9c0.2-0.1,0.4,0,0.5,0c0.6,0.3,1.3,0.5,2,0.8c0.3,0.1,0.6,0.1,0.8,0.4c1.3,0.9,2.7,1.9,4.2,2.6
				c1.1,0.6,2.3,1.1,3.5,1.3c-1.4,1.6-3.1,2.8-5.3,3.3c-1.9,0.5-4.1,0.3-6-0.3c-2.7-0.8-5.1-2.3-7.3-4
				C264.9,199.1,267.4,197.6,269.7,195.9L269.7,195.9z"/>
			<path class="st5" d="M260,200.9c0.4-0.1,0.8-0.2,1.2-0.3c0.1,0,0.2,0,0.3,0.1c2.4,1.9,5.2,3.5,8.1,4.5c2.6,0.8,5.7,0.8,8.2-0.5
				c2.3,1.5,4.7,3.1,7.4,3.9c0,0.1-0.1,0.2-0.1,0.2c-1.1,1.3-2.4,2.2-3.9,2.8c-1.7,0.7-3.7,0.8-5.6,0.5c-2.1-0.5-4.2-1.4-6.1-2.5
				c-2.6-1.6-5-3.7-7.2-5.9C261.3,202.9,260.6,202,260,200.9L260,200.9z"/>
			<path class="st0" d="M241.5,204c-0.5-1.1-0.2-2.4,0.5-3.3c2.2,0.9,4.7,1.3,7.1,1.4c0.1,0.8,0.1,1.6-0.3,2.3
				c-0.6,1.3-2,2.1-3.5,2.1C243.7,206.6,242.1,205.5,241.5,204L241.5,204z"/>
			<path class="st0" d="M255.9,201.7c1.1-0.2,2.1-0.4,3.1-0.5c0.4,0.8,0.9,1.6,1.5,2.3c-0.2,0.4-0.2,0.8-0.2,1.2
				c-1.3,1.1-3.3,1.4-5,0.6C256.1,204.2,256.3,202.8,255.9,201.7L255.9,201.7z"/>
			<path class="st0" d="M250.1,202.1c1.6,0,3.2-0.1,5-0.3c0.5,1.6-0.2,3.4-1.6,4.4c-1.3,0.9-3.2,0.8-4.6-0.1
				C249.8,204.9,250.2,203.4,250.1,202.1L250.1,202.1z"/>
			<path class="st0" d="M240.2,204c0.1-0.1,0.2-0.2,0.3-0.2c0.3,1.2,1,2.3,2.2,2.9c1.4,0.8,3,0.8,4.6,0.2c-0.3,1.2-1.1,2.2-2.2,2.7
				c-1.6,0.7-3.6,0.2-4.8-1.1C239.2,207.4,239.2,205.3,240.2,204L240.2,204z"/>
			<path class="st5" d="M261.4,204.1c2.8,2.8,6,5.6,9.7,7.4c2,1,4.4,1.6,6.7,1.6c1.2,0,2.4-0.2,3.5-0.7c0.2-0.2,0.5,0.1,0.8,0.3
				c1.5,1,3.2,1.9,5.1,2.2c-1.4,1.7-3.3,3-5.5,3.5s-4.5,0.2-6.5-0.6c-3.2-1.2-6.2-3.3-8.7-5.6c-0.8-0.7-1.6-1.5-2.4-2.2
				c-1.2-0.8-2-2.1-2.5-3.5C261.4,205.7,261.2,204.9,261.4,204.1L261.4,204.1z"/>
			<path class="st0" d="M259.4,206.2c0.3-0.1,0.7-0.3,0.9-0.5c0.3,1.4,1,2.7,1.9,3.7c-0.3,0.8-0.4,1.6-0.4,2.5
				c-0.8,0.2-1.6,0.2-2.4,0c0.6-0.9,1-1.9,1-3C260.6,208.1,260.1,207,259.4,206.2L259.4,206.2z"/>
			<path class="st0" d="M253.2,207.3c0.6-0.3,1.1-0.7,1.6-1.2c1.1,0.6,2.4,0.7,3.6,0.5c0.8,0.9,1.3,2.1,0.9,3.3
				c-0.3,1.5-1.7,2.7-3.2,2.9c-1.2,0.2-2.4-0.2-3.3-0.9c0.2-0.5,0.5-0.9,0.6-1.3C253.9,209.6,253.8,208.3,253.2,207.3L253.2,207.3z"
				/>
			<path class="st0" d="M248.3,206.6c1.2,0.9,2.6,1.1,4.1,0.9c0.4,0.7,0.6,1.5,0.5,2.4c-0.2,1.1-1,2-1.9,2.6
				c-1.5,0.9-3.5,0.9-5.1-0.1c0.5-0.7,0.9-1.4,0.9-2.4c0-0.2,0.3-0.5,0.4-0.7C247.9,208.7,248.2,207.7,248.3,206.6L248.3,206.6z"/>
			<path class="st0" d="M238.7,211.8c-1-1.2-1-3.1-0.1-4.6c0.3,1.3,1.2,2.4,2.4,3c1.4,0.8,3.2,0.8,4.7,0c-0.4,1.3-1.3,2.3-2.5,2.7
				C241.6,213.7,239.7,213.2,238.7,211.8L238.7,211.8z"/>
			<path class="st5" d="M263,210.4c0.3,0,0.5,0.2,0.6,0.4c2.9,2.7,6.1,5.5,9.7,7.2c2.6,1.3,5.5,1.9,8.2,1.4c0.5-0.1,1-0.3,1.5-0.4
				c1.7,1.1,3.6,2.2,5.7,2.6c-1.2,1.4-2.7,2.5-4.5,3.2c-1.7,0.6-3.7,0.6-5.6,0.2c-2.3-0.4-4.5-1.5-6.4-2.8c-2.3-1.5-4.5-3.4-6.5-5.4
				c-1.3-0.9-2.2-2.4-2.7-4C262.8,212.2,262.9,211.3,263,210.4L263,210.4z"/>
			<path class="st5" d="M234.5,218c0.8-2.2,1.6-4.6,2.7-6.7c0.6,1.4,1.8,2.5,3.3,2.9s3.2,0,4.6-1.1c0.7,0.5,1.6,0.8,2.4,0.9
				c0.6,0,1.2,0,1.8-0.1c-0.2,1.4,0.2,2.8,1.1,3.9c0.7,0.8,1.6,1.2,2.5,1.5c-1,4.5-0.6,9.1,0,13.7c-0.1,5.2,0.9,10.3,2.2,15.3
				c1.8,6.6,4.4,13,7.5,19.1c-1.5,0.9-2.3,2.6-2.8,4.3c-1.1,3.4-1.3,7.1-0.6,10.5c0,0.3-0.1,0.6-0.2,0.8c-0.7,2.5-0.9,5.3-0.6,7.8
				c-6-3.9-11.2-8.6-15.6-14.2c-5.2-6.6-9-14.3-10.7-22.5c-0.7-3-1-6.1-1.1-9.2c0-2.4,0-4.9,0-7.4
				C231.4,231.1,232.3,224.4,234.5,218L234.5,218z"/>
			<path class="st0" d="M250.4,213.7c0.6-0.3,1.3-0.6,1.8-1.1c1.1,1,2.7,1.4,4.3,1.2c-1.6,1.1-2.5,2.9-3.1,4.7
				c-1-0.2-1.9-0.9-2.5-1.7C250.3,215.9,250.2,214.8,250.4,213.7L250.4,213.7z"/>
			<path class="st0" d="M258.8,212.7c0.2,0,0.4,0.1,0.6,0.1c-0.2,0-0.4,0-0.5,0.1C258.8,212.9,258.8,212.8,258.8,212.7L258.8,212.7z
				"/>
			<path class="st0" d="M261.3,213.1c0.3,0,0.6-0.2,0.9-0.2c0.1,0.2,0.1,0.3,0.2,0.5C261.9,213.2,261.6,213.1,261.3,213.1
				L261.3,213.1z"/>
			<path class="st0" d="M258.8,213.9c1.3-0.2,2.7,0.1,4,0.6c0.5,0.9,1,1.7,1.7,2.3c1.5,1.3,2.9,2.7,4.5,4c0.5,0.5,1.1,0.8,1.6,1.3
				c-0.1,0.1-0.2,0.2-0.4,0.3c1.2,2,2.3,4.2,3.3,6.2c0.8,1.9,1.7,3.7,2.2,5.7c0.3,1,0.5,2.1,0.4,3.1c0,0.2-0.1,0.5-0.2,0.7
				c-0.7,0.1-1.4-0.4-1.9-0.8c-1.7-1.3-3.1-3.1-4.6-4.9c-0.3-0.4-0.8-0.8-0.9-1.3c0.2-1.6-0.2-3.2-0.8-4.8c-0.9-2.9-2.2-5.7-3.6-8.4
				c-0.3,0.1-0.6,0.3-0.8,0.4c1.1,2.1,2.1,4.3,3,6.6c0.5,1.4,1,2.8,1.3,4.5c0,0.4,0.2,0.9,0,1.4c-0.1,0.2-0.3,0.1-0.5,0
				c-0.7-0.4-1.3-1.1-1.9-1.6c-2-2.4-3.6-5.2-5.1-7.8c-0.3,0.1-0.6,0.3-0.8,0.5c0.9,1.6,1.9,3.2,2.9,4.9c0.2,0.4,0.6,0.8,0.8,1.3
				c0.4,1.2,0.9,2.5,1.1,4c0.1,0.3,0,0.6-0.1,0.9c-0.6,0-1-0.4-1.4-0.7c-1.2-1.1-2.1-2.3-3.1-3.5c-1-1.4-1.9-2.8-2.9-4.4
				c-0.2,0.1-0.5,0.3-0.8,0.4c1.1,1.9,2.4,3.9,3.9,5.6c0.3,0.5,0.8,0.9,1.1,1.4c0.4,1,0.8,2,0.9,3c0.1,0.7,0.2,1.3,0,1.9
				c-0.8-0.2-1.3-0.7-1.8-1.2c-2.2-2.2-4-4.9-5.6-7.5c-0.2,0.1-0.3,0.2-0.5,0.3c-0.2-2.5-0.2-5.2,0.3-7.7c0.3-1.8,0.8-3.5,1.9-5
				C256.6,214.9,257.6,214.1,258.8,213.9L258.8,213.9z"/>
			<path class="st0" d="M271.4,222.8c0.8,0.5,1.5,1,2.3,1.4c0.2,0.1,0.5,0.3,0.6,0.5c5.1,6.5,9.2,13.9,12.6,21.5
				c3.1,7.2,5.7,14.7,7.1,22.4c0.6,3.2,1,6.6,0.9,10c-0.4-4.6-2-9-4.4-13c0.5-1.6,0.1-3.3-0.3-5.1c-0.8-3.1-2.2-6.1-4.3-8.7
				c-0.6-3.4-1.8-6.8-3.4-9.9c-1.5-3.1-3.3-6.2-5.8-8.8c-0.3-0.3-0.6-0.5-0.7-1C274.7,228.8,273.1,225.7,271.4,222.8L271.4,222.8z"
				/>
			<path class="st0" d="M253.7,229.1c0.7,1.2,1.6,2.4,2.4,3.5c0.1,0.1,0.2,0.3,0.2,0.5c0.6,2.1,1.4,4.2,2.5,6c0.8,1.5,1.9,3,3.3,4.4
				c0.6,0.6,1.5,1.1,2.5,0.9c0.5,0,0.9-0.3,1.2-0.6c0.6,2.2,1.1,4.4,1.4,6.8c0,0.7,0.1,1.5-0.2,2.3c-0.1,0.2-0.3,0.5-0.6,0.3
				c-0.7-0.3-1.2-0.8-1.7-1.3c-1.1-1.2-1.9-2.6-2.7-4c-1.5-2.6-2.8-5.4-3.9-8c-0.3,0.1-0.6,0.2-0.9,0.3c1.1,2.6,2.3,5.4,3.7,7.9
				c-0.1,0.6-0.2,1.2-0.2,1.8c0,2.4,0.6,5,1.3,7.2c1.1,3.3,2.7,6.6,4.8,9.3c1.1,1.3,2.3,2.6,3.9,3.4c0.4,1.2,0.9,2.6,1.4,3.7
				c1.4,3,3.3,5.8,5.6,8.3c0.8,1,1.7,2,2.5,3c-1.9-1.6-3.6-3.5-5.3-5.6c-2.4-2.9-4.6-6.1-6.6-9.4c-2.4-3.9-4.5-7.9-6.4-12.1
				c-2-4.7-3.9-9.3-5.3-14.2c-1.3-4.6-2.4-9.2-2.9-13.9C253.7,229.8,253.7,229.4,253.7,229.1L253.7,229.1z"/>
			<path class="st0" d="M264.5,230c0.6,0.6,1.3,1.3,2.1,1.7c0.3,0.2,0.7,0.1,1.1,0.1c1,1.4,2,2.7,3.1,4c0.2,0.2,0.4,0.4,0.4,0.6
				c0.2,1,0.2,1.9,0.1,2.9c-0.1,0.5-0.3,1-0.7,1.3c-0.5,0.3-1.1,0-1.6-0.2c-1.2-0.7-2.1-1.9-2.9-3c-0.4-0.4-0.4-1-0.6-1.5
				c-0.3-0.8-0.6-1.5-0.9-2.3c0-0.3,0.1-0.5,0.1-0.8C265,231.8,264.7,230.9,264.5,230L264.5,230z"/>
			<path class="st0" d="M262.1,233.1c0.5,0.4,1.2,0.8,2,0.9c0.8,2,1.4,4.2,1.6,6.4c0.1,0.9,0.1,1.9-0.4,2.7c-0.2,0.5-1,0.6-1.4,0.3
				c-1.2-0.5-2.1-1.5-2.8-2.5c-1.3-1.7-2.3-3.7-3.1-5.9c0.8,0.9,1.6,1.8,2.6,2.3c0.4,0.3,1,0.4,1.4,0.3c0.5-0.2,0.7-0.6,0.7-1.1
				C262.7,235.4,262.4,234.2,262.1,233.1L262.1,233.1z"/>
			<path class="st0" d="M276.7,234.5c2.5,2.9,4.5,6.5,6,10c1.2,3,2.2,6.2,2.5,9.5c0,1.3,0.1,2.7-0.6,3.9c-0.4,0.5-1.2,0.6-1.9,0.4
				c-1.2-0.5-2.2-1.4-3.1-2.3c-0.2-0.1-0.2-0.4-0.4-0.5c-0.7-2.7-1.8-5.3-3.1-7.6c0.4-0.1,0.9-0.2,1.2-0.5c0.5-0.5,0.7-1.3,0.8-2
				c0.1-2.1-0.6-4.3-1.3-6.2c-0.2-0.4,0.2-0.6,0.2-1C277.3,236.8,277,235.6,276.7,234.5L276.7,234.5z"/>
			<path class="st0" d="M272.5,237.3c0.9,0.8,2,1.8,3.3,1.8c0.7,1.6,1.2,3.2,1.4,5c0,0.8,0.1,1.6-0.4,2.3c-0.2,0.4-0.8,0.4-1.2,0.3
				c-0.9-0.3-1.6-0.9-2.3-1.5c-0.3-0.3-0.7-0.6-0.8-1.1c-0.2-0.9-0.6-1.9-1-2.8C272.6,240.3,272.5,238.7,272.5,237.3L272.5,237.3z"
				/>
			<path class="st0" d="M266.4,239.1c0.8,0.8,1.6,1.7,2.6,2.3c0.4,0.2,1,0.3,1.4,0.2c0.8,1.8,1.4,3.9,1.5,5.9c0,0.9,0.1,1.9-0.4,2.7
				c-0.2,0.4-0.7,0.6-1.2,0.4c-1-0.2-1.7-1-2.4-1.7c-0.2-0.2-0.2-0.5-0.2-0.7c-0.3-1.9-0.9-3.7-1.4-5.6
				C266.6,241.4,266.6,240.3,266.4,239.1L266.4,239.1z"/>
			<path class="st6" d="M254.6,239.7c0.2,0.8,0.4,1.6,0.6,2.3c1.4,5,3.1,9.7,5.2,14.4c3.2,7.6,7.2,15.1,12.3,21.7
				c2.6,3.4,5.5,6.6,8.9,9.2c0.5,0.4,1.1,0.7,1.5,1.2c-1.4,0-2.6-0.6-3.7-1.2c-2.4-1.5-4.5-3.6-6.4-5.9c-2-2.4-3.9-5.1-5.6-7.8
				c-2.4-4-4.6-8.2-6.4-12.5c-2-4.8-3.7-9.6-5.1-14.7C255.4,244.2,254.8,242,254.6,239.7L254.6,239.7z"/>
			<path class="st0" d="M272.9,246.2c0.5,0.4,0.9,0.8,1.4,1.1c0.2,0.1,0.5,0.2,0.7,0.5c1,1.7,1.9,3.6,2.6,5.7c0.8,2,1.4,4.3,1.5,6.5
				c0,1,0,2.1-0.4,3.1c-0.1,0.5-0.6,0.8-1.1,0.8c-0.7,0-1.4-0.5-2-0.9c-0.5-0.5-1.1-1-1.5-1.5c-0.1-0.1-0.2-0.3-0.3-0.5
				c-0.9-3.4-2.3-6.8-4.4-9.8c0.6,0.2,1.3,0.5,2,0.3c0.6-0.2,1.1-0.7,1.3-1.4C273.2,248.8,273.1,247.5,272.9,246.2L272.9,246.2z"/>
			<path class="st0" d="M261.8,249.3c0.8,1.4,1.7,2.7,2.9,3.9c0.5,0.5,1.2,1,1.9,1c0.5,0,1-0.4,1.2-0.8c0.3-0.8,0.3-1.6,0.3-2.4
				c2.2,3.3,3.9,7.1,4.9,10.9c0.4,1.9,0.8,4,0.4,5.9c-0.2,0.6-0.5,1.3-1.1,1.5s-1.3-0.1-1.8-0.4c-1.3-0.8-2.2-2-3.1-3.2
				c-1.2-1.7-2.2-3.5-3.1-5.5c-0.8-2-1.6-4.2-2-6.3C261.8,252.4,261.6,250.8,261.8,249.3L261.8,249.3z"/>
			<path class="st0" d="M286.1,253.8c1.2,1.9,2.2,4,2.9,6.2c0.4,1.5,0.8,2.9,0.7,4.6c-1.3-2.1-2.8-4.2-4.5-6.1
				C286.3,257,286.2,255.3,286.1,253.8L286.1,253.8z"/>
			<path class="st0" d="M279.8,257.5c0.9,0.8,1.9,1.5,3,1.8c0.6,0.1,1.3,0,1.8-0.2c2,2.5,4,5.2,5.5,8.1c1.5,2.7,2.6,5.7,3.2,8.7
				c0.5,2,0.6,4.2,0.5,6.3c-1.2-2.9-2.6-5.7-4.5-8.2c-1.3-2.1-2.8-4.1-4.5-5.9c-1.7-2.2-3.2-4.4-4.8-6.7c-0.1-0.2-0.1-0.5-0.1-0.8
				C280.1,259.5,279.9,258.5,279.8,257.5L279.8,257.5z"/>
			<path class="st0" d="M279.9,262.7c0.9,1.3,1.7,2.5,2.7,3.9c1.7,2.4,3.7,4.7,5.5,7.2c2.9,4.2,5.4,8.7,6.4,13.7
				c0.3,1.7,0.5,3.4,0.5,5.2c-1.4-3.9-3.6-7.5-6.1-10.7c-1.5-2.1-3.3-4-4.9-6c-2.7-3.4-5.2-7.1-7.1-10.9c0.6,0,1.2,0,1.7-0.3
				C279.4,264.2,279.7,263.4,279.9,262.7L279.9,262.7z"/>
			<path class="st0" d="M274.2,263c0.4,0.5,1,0.9,1.5,1.3c2.5,5.5,6.1,10.4,10,15c2.9,3.3,5.5,7,7.4,11c1.7,3.5,2.7,7.6,2.7,11.5
				c0,2-0.2,4.2-0.4,6.1c-1.7-4-3.5-7.8-5.8-11.5c-3.4-5.7-7.7-10.8-12-15.9c-2.5-3-4.8-6.4-5.9-10.2c0.6,0,1.1-0.1,1.4-0.4
				c0.8-0.6,1.1-1.5,1.2-2.5C274.6,265.9,274.3,264.4,274.2,263L274.2,263z"/>
			<path class="st0" d="M261.9,269.8c0.3-0.6,0.8-1.1,1.4-1.4c0.9,1.8,2,3.6,3,5.5c0.2,0.3,0.4,0.5,0.4,0.9c0.1,2-0.1,4.1-0.7,6
				c-0.4,1.4-0.9,2.7-1.9,3.9c-0.5,0.5-1.1,0.9-1.8,0.7c-0.8-0.4-1.3-1.4-1.6-2.2c-0.9-2.5-0.9-5.4-0.5-8.1
				C260.5,273.2,261,271.4,261.9,269.8L261.9,269.8z"/>
			<path class="st0" d="M267.8,276c1.3,2,2.7,4,4.4,5.9c-0.3,1.8-0.7,3.7-1.7,5.4c-0.4,0.7-1,1.5-1.8,1.8c-0.6,0.3-1.2-0.2-1.6-0.6
				c-0.8-1-1.1-2.2-1.3-3.4c0-0.3-0.2-0.5,0-0.8C267,281.6,267.6,278.7,267.8,276L267.8,276z"/>
			<path class="st0" d="M246.8,282.6c1.3,1.2,2.4,2.4,3.7,3.5c-0.6,0.3-1.4,0-1.9-0.5C247.9,284.8,247.3,283.7,246.8,282.6
				L246.8,282.6z"/>
			<path class="st0" d="M272.8,282.8c1.5,1.7,2.9,3.2,4.9,4.6c-0.3,1.9-0.8,4.1-1.9,5.7c-0.5,0.7-1,1.4-1.8,1.6
				c-0.6,0.1-1.3-0.5-1.6-1c-0.7-1-1-2.4-1.1-3.7c-0.1-0.6-0.2-1.2-0.2-1.8c0.1-0.2,0.3-0.5,0.4-0.7
				C272.1,285.9,272.5,284.3,272.8,282.8L272.8,282.8z"/>
			<path class="st0" d="M260.1,283.9c0.4,1,1.1,2,2.2,2.2c1,0.2,1.9-0.3,2.5-0.9c0.1,0.7,0.3,1.4,0.6,2c0.1,0.2,0.1,0.5,0.1,0.7
				c-0.1,1.2-0.1,2.6,0,3.9c0.1,0.4-0.1,0.8-0.3,1.1c-0.5,0.9-1,1.9-1.9,2.4c-0.5,0.3-1.1,0.4-1.6,0.1c-0.7-0.4-1.1-1.2-1.4-1.9
				c-0.6-1.5-0.8-3.2-0.8-4.8C259.4,287.1,259.5,285.5,260.1,283.9L260.1,283.9z"/>
			<path class="st0" d="M247.2,285.4c0.6,0.8,1.3,1.6,2.3,1.8c0.6,0.1,1.2-0.1,1.8-0.5c0.5,0.5,1.1,0.9,1.7,1.4
				c0.2,0.2,0.1,0.4,0.2,0.6c0.1,1.1,0.3,2.2,0.6,3.2c0,0.3,0.1,0.6,0.1,0.9c-0.3,1.1-0.6,2.1-1.3,2.9c-0.4,0.5-1,0.9-1.6,0.7
				c-0.9-0.3-1.5-1-1.9-1.7c-0.9-1.4-1.4-3-1.6-4.8C247.2,288.5,247,286.9,247.2,285.4L247.2,285.4z"/>
			<path class="st0" d="M278.4,287.9c1.3,0.7,2.4,1.3,3.9,1.5c0,1.2-0.2,2.5-0.5,3.7c-0.4,1.5-0.8,3-1.7,4.3
				c-0.4,0.5-0.9,1.1-1.7,1.2c-0.5,0-1.1-0.4-1.4-0.8c-0.6-0.8-0.9-1.7-1.1-2.6c0-0.2-0.1-0.5,0.1-0.7c0.9-1,1.5-2.4,1.9-3.9
				C278.1,289.6,278.4,288.8,278.4,287.9L278.4,287.9z"/>
			<path class="st0" d="M266.2,289c0.5,0.4,1.2,1,1.9,0.9c0.7,0.1,1.3-0.5,1.9-0.8c0.2,1.7,0.5,3.5,1.5,5.1c0.2,0.1,0,0.4,0,0.6
				c-0.4,0.9-1,1.8-1.8,2.3c-0.4,0.3-1,0.3-1.4,0c-0.8-0.6-1.2-1.5-1.5-2.4C266.2,292.9,266.1,291,266.2,289L266.2,289z"/>
			<path class="st0" d="M254.3,289.2c0.5,0.3,0.9,0.5,1.3,0.8c1.1,0.7,2.1,1.4,3.2,2c0.2,1.1,0.6,2.2,1.3,3.1
				c-0.2,0.7-0.6,1.3-1.2,1.7c-0.6,0.3-1.2,0-1.6-0.4c-0.8-0.7-1.3-1.7-1.7-2.7C254.9,292.4,254.5,290.9,254.3,289.2L254.3,289.2z"
				/>
			<path class="st0" d="M283.2,289.5c0.2,0,0.3,0,0.5,0c0.6,0.8,1.3,1.6,1.9,2.5c0.2,0.8,0,1.6,0.2,2.4c0.2,4.4,0.3,8.6,0.3,12.9
				c-3.9-0.1-7.6-0.1-11.4-0.1c0.3-0.4,0.6-0.9,0.7-1.4c0-0.3-0.1-0.7,0.2-1c0.9-1.8,1.3-3.7,1.5-5.8c0.6,0.3,1.2,0.5,1.8,0.3
				c1.1-0.2,1.8-1.1,2.4-2c1-1.7,1.5-3.6,1.8-5.6C283.2,291,283.2,290.4,283.2,289.5L283.2,289.5z"/>
			<path class="st0" d="M286.6,293.5c1.7,2.5,3.3,5.1,4.8,7.8c0,1.1,0,2.2,0,3.2c-0.2,1.1-0.2,2.3-0.2,3.5c-1.3-0.5-2.7-0.5-4.2-0.6
				C287,302.7,286.8,298.1,286.6,293.5L286.6,293.5z"/>
			<path class="st0" d="M262.6,296.6c1.5-0.2,2.4-1.5,3.1-2.7c0.2,1.3,0.7,2.7,1.7,3.7c0.5,0.5,1.2,0.7,2,0.7
				c-0.4,1.9-0.9,4-2.2,5.6c-0.5,0.6-1.3,1.2-2.1,1c-0.8-0.3-1.3-1-1.6-1.7C262.6,301.1,262.5,298.9,262.6,296.6L262.6,296.6z"/>
			<path class="st0" d="M254.6,294.2c0.5,1.2,1.2,2.5,2.4,3.3c0.6,0.4,1.4,0.5,2.1,0.3c0,1.7-0.1,3.4-0.7,5.1
				c-0.3,0.8-0.8,1.6-1.6,2c-0.6,0.3-1.3,0-1.7-0.4c-0.9-0.8-1.5-2-2-3.1c-0.5-1.3-0.8-2.6-1-4.1
				C253.5,296.9,254.1,295.5,254.6,294.2L254.6,294.2z"/>
			<path class="st0" d="M272.4,295.1c0.5,0.1,0.8,0.4,1.3,0.4c0.5,0.1,0.9-0.1,1.3-0.3c0.2,1,0.6,2.1,1.2,2.9
				c-0.1,2-0.5,4.1-1.4,5.9c-0.4,0.9-0.9,1.7-1.8,2.3c-0.4,0.3-1.1,0.4-1.6,0.1c-0.8-0.5-1.2-1.3-1.5-2.1c-0.3-0.7-0.5-1.3-0.5-1.9
				c0.6-1.4,0.9-2.8,1.1-4.4c0-0.2,0.2-0.3,0.3-0.5C271.5,296.9,272,296,272.4,295.1L272.4,295.1z"/>
			<path class="st0" d="M260.8,296c0.3,0.2,0.7,0.3,0.9,0.5c-0.1,1.5,0,3.1,0.3,4.7c0.3,1.5,0.8,3,1.9,4.2c-0.4,0.3-0.9,0.5-1.4,0.3
				c-1.1-0.4-1.8-1.6-2.3-2.6c-0.1-0.4-0.5-0.8-0.3-1.3c0.3-1.4,0.3-2.8,0.3-4.4C260.4,296.8,260.6,296.4,260.8,296L260.8,296z"/>
			<path class="st8" d="M223.9,302c1-1.1,2.5-1.6,4-1.4c1.9,0.4,3.6,1.6,4.8,3.2c0.6,0.8,0.9,1.9,1,2.9c0.1,0.7,0.1,1.5,0.5,2
				c0.4,0.5,1,0.6,1.6,0.6c4.2-0.2,8.4-0.4,12.6-0.5c-0.5,0.9-0.9,1.9-1.2,2.9c-0.5,2.1,0.2,4.3,1.2,6.1c-3,0-6-0.1-8.9-0.2
				c-1.3,0-2.7,0.1-4.1,0c-2.9,0-5.8-0.1-8.7-0.3c-1.6-0.1-3.1-0.2-4.8-0.4c-0.5-0.1-0.9-0.7-1.2-1c-1.3-1.6-2.4-3.4-3.3-5.3
				c-0.4-0.6-0.8-1.4-1-2.1c1.1,0,2.2,0,3.3-0.2c0.5-0.1,1.2-0.3,1.5-0.8c0.4-0.5,0.5-1.1,0.6-1.6C222.2,304.4,223,303,223.9,302
				L223.9,302z"/>
			<path class="st7" d="M258.3,305.1c0.5-0.2,1-0.5,1.5-0.6c0.2,0.4,0.5,0.8,0.9,1.1c-2.2,1.8-4,4.4-4.2,7.4
				c-0.1,2.5,1.1,5.1,2.8,6.8c1.2,1.3,2.7,2.4,4.4,3c-1.1,0.4-2.3,0.1-3.4-0.2c-2.1-0.7-4.1-1.9-5.5-3.5c-1.4-1.6-2.3-3.6-2.3-5.7
				c0.1-2.4,1.4-4.6,3.1-6.2c0.6-0.4,1-0.9,1.6-1.2C257.7,305.7,258,305.3,258.3,305.1L258.3,305.1z"/>
			<path class="st7" d="M265.1,307c1.1-1.1,2.4-1.9,3.7-2.5c0.3,1,0.8,1.9,1.6,2.6c0.7,0.5,1.5,0.7,2.1,0.5c-1.2,0.6-2.6,1-3.9,1.8
				c-0.7,0.4-1.4,1-1.8,1.8c-0.8,1.6-0.6,4,0.8,5.2c1.5,1.4,3.6,1.8,5.4,2.9c0.6,0.4,1.1,1,1.2,1.7c0.1,0.5-0.1,1.1-0.6,1.4
				c-0.8,0.5-1.6,0.4-2.4,0.3c-2-0.4-3.9-1.3-5.5-2.6c-1.6-1.3-2.9-3-3.4-5.1c-0.2-0.8-0.4-1.6-0.2-2.4
				C262.4,310.4,263.6,308.4,265.1,307L265.1,307z"/>
			<path class="st7" d="M250.8,307.3c0.9-0.9,2-1.6,3.1-2.2c0.4,0.4,0.9,0.8,1.5,1c-1.7,1.5-3.1,3.6-3.6,5.9c-0.5,1.9,0,3.9,0.8,5.5
				c1.3,2.5,3.5,4.3,6,5.5c-1.3,0.1-2.6-0.2-3.7-0.7c-1.9-0.8-3.6-2-5-3.7c-1.1-1.5-1.9-3.3-1.9-5.2
				C248.1,310.9,249.2,308.8,250.8,307.3L250.8,307.3z"/>
			<path class="st7" d="M264.5,306c0.2-0.1,0.3-0.1,0.5-0.1c-1.3,1.2-2.5,2.6-3.1,4.3c-0.5,1.3-0.8,2.7-0.6,4.2
				c0.3,2.2,1.4,4.2,2.9,5.7c1.1,1.1,2.4,2,3.9,2.7c-0.5,0.2-1.1,0-1.6,0c-1.9-0.4-3.7-1.3-5.3-2.5c-1.7-1.4-3.2-3.3-3.6-5.7
				c-0.5-1.9,0.2-4,1.2-5.6c0.7-1.1,1.5-1.9,2.5-2.7c0.6,0.4,1.3,0.6,2,0.4C263.8,306.5,264.2,306.3,264.5,306L264.5,306z"/>
			<path class="st8" d="M273.6,308.2c4.4,0,8.8-0.1,13.2,0.2c-1.1,0.6-1.9,1.7-2.3,2.9c-0.5,1.7,0,3.5,1.2,4.9
				c0.3,0.3,0.7,0.6,1.1,0.9c-4.1,0.3-8.1,0.5-12.2,0.5c-0.8,0-1.6,0.1-2.5,0c-0.6-0.3-1.2-0.5-1.8-0.8c-0.8-0.3-1.6-0.8-2.2-1.6
				c-0.7-0.9-0.7-2.1-0.4-3.2c0.2-0.8,0.8-1.4,1.6-1.9c1-0.7,2.3-1.1,3.4-1.5C273,308.4,273.3,308.2,273.6,308.2L273.6,308.2z"/>
			<path class="st8" d="M288.5,308.8c1.8-0.3,3.7,0.7,4.4,2.4c0.7,1.8,0,4.1-1.7,5.1c-1.4,0.9-3.4,0.6-4.7-0.5
				c-1.3-1.1-1.6-3.1-0.9-4.7C286.1,309.9,287.2,309,288.5,308.8L288.5,308.8z"/>
			<path class="st0" d="M286.6,318c1.1-0.1,2.2-0.2,3.3-0.3c-0.5,2.4-1,5-2.1,7.2c-0.5,0.8-1.1,1.8-2.1,2
				C286.2,324,286.4,321.1,286.6,318L286.6,318z"/>
			<path class="st0" d="M276.2,318.5c3.2-0.1,6.4-0.2,9.6-0.3c-0.2,2.9-0.5,5.8-1,8.7c-0.3,1.4-0.6,2.8-1.1,4.2
				c-0.3,0.7-0.6,1.5-1.2,2c-0.2,0.2-0.7,0.3-0.9,0.2c-0.6-0.4-1-1-1.4-1.5c-0.8-1.6-1.4-3.2-2-5
				C277.4,323.9,276.7,321.4,276.2,318.5L276.2,318.5z"/>
			<path class="st0" d="M273.7,318.6c0.5,0,1-0.1,1.4-0.1c0.5,2.8,1.2,5.7,2,8.5c-0.8-0.1-1.4-0.8-1.9-1.4c-0.5-0.8-0.9-1.4-1.2-2.2
				c0.6-0.4,1-0.9,1.1-1.6C275.4,320.6,274.7,319.3,273.7,318.6L273.7,318.6z"/>
		</g>
	</g>
</g>
</svg>
