<?xml version="1.0" encoding="utf-8"?>
<!-- Generator: Adobe Illustrator 21.1.0, SVG Export Plug-In . SVG Version: 6.00 Build 0)  -->
<svg version="1.1" id="Warstwa_1" xmlns="http://www.w3.org/2000/svg" xmlns:xlink="http://www.w3.org/1999/xlink" x="0px" y="0px"
	 viewBox="0 0 512 512" style="enable-background:new 0 0 512 512;" xml:space="preserve">
<style type="text/css">
	.st0{fill:#5B97B1;}
	.st1{fill:#01247D;}
	.st2{fill:#FFFFFF;}
	.st3{fill:#E31937;}
	.st4{fill:#D21034;stroke:#000000;stroke-width:3.286100e-02;}
	.st5{fill:#FFFFFF;stroke:#000000;stroke-width:3.286100e-02;}
	.st6{fill:#FED101;}
	.st7{fill:#00AA39;}
	.st8{fill:#C1510E;}
</style>
<g>
	<g>
		<path class="st0" d="M512,256c0,141.4-114.6,256-256,256S0,397.4,0,256S114.6,0,256,0S512,114.6,512,256z"/>
		<g>
			<path class="st1" d="M302.2,4.4C287.2,1.6,271.8,0,256,0C114.6,0,0,114.6,0,256h302.2V4.4z"/>
			<polygon class="st2" points="132.7,172.5 132.7,256 148.6,256 148.6,183.2 			"/>
			<polygon class="st2" points="211.9,166.4 302.2,166.4 302.2,150.4 187.9,150.4 			"/>
			<polygon class="st2" points="71.8,183.2 71.8,256 87.8,256 87.8,172.5 			"/>
			<path class="st2" d="M148.6,73V23.6c-5.4,2.5-10.7,5.2-16,8.1v52L148.6,73z"/>
			<path class="st2" d="M22.8,150.4c-1.3,3-2.7,6.1-4,9.1l13.6-9.1H22.8z"/>
			<polygon class="st2" points="302.2,89.6 212.2,89.6 188.2,105.6 302.2,105.6 			"/>
			<path class="st2" d="M87.8,63c-4.5,3.9-8.7,7.8-13,12l13,8.6V63z"/>
			<polygon class="st2" points="187.9,150.4 132.7,150.4 132.7,172.5 148.6,183.2 257.8,256 302.2,256 302.2,255.3 168.6,166.4 
				199,166.4 302.2,235 302.2,226.6 211.9,166.4 			"/>
			<path class="st2" d="M87.8,83.6l-13-8.6c-9.4,9.4-18.1,19.7-26,30.5h39V83.6z"/>
			<path class="st2" d="M132.7,83.6v22h55.6l24-16l90-60V4.2c-1.6-0.3-3.3-0.6-5-0.9L167.6,89.5h-19.1v-7.6L271.1,0.4
				C266.7,0.1,262.5,0,258,0L148.6,73L132.7,83.6z"/>
			<path class="st2" d="M87.8,172.5v-22.2H32.4l-13.6,9.1c-4.9,11.9-8.7,24-11.8,36.7l44.8-29.8h20v7l-69.2,46
				c-0.5,3.5-1,7.2-1.3,10.8l70.5-47L87.8,172.5z"/>
			<path class="st3" d="M87.8,150.4v22.2V256h44.8v-83.5v-22.2h55.3h114.3v-44.8h-114h-55.6V83.6v-52c-16.1,8.9-31.1,19.5-44.8,31.4
				v20.6v22H48.8c-10.1,14-18.9,29-26,44.8h9.6L87.8,150.4L87.8,150.4z"/>
			<polygon class="st3" points="168.6,166.4 302.2,255.3 302.2,235 199,166.4 			"/>
			<path class="st3" d="M148.6,89.6h19L297.2,3.3c-8.6-1.4-17.3-2.3-26.1-2.8L148.6,82V89.6z"/>
			<path class="st3" d="M71.8,166.4H51.9L7.1,196.2c-1.8,7.6-3.3,15.3-4.5,23.2l69.2-46v-7H71.8z"/>
		</g>
	</g>
	<g>
		<g>
			<path id="_x3C_Path_x3E__96_" class="st4" d="M466,206.9c0,0,0,79.5,0,102c0,22.5-29.2,45.1-61.3,58.5
				c-32.1-13.4-61.3-36-61.3-58.5c0-22.5,0-102,0-102H466L466,206.9z"/>
			<path id="_x3C_Path_x3E__95_" class="st5" d="M393.2,362c-27.3-13.6-49.8-33.4-49.8-53.2h49.8V362z"/>
			<path id="_x3C_Path_x3E__19_" class="st5" d="M343.5,285.9c0-12,0-25.3,0-37.3h49.8v37.3H343.5L343.5,285.9z"/>
			<path id="_x3C_Path_x3E__18_" class="st5" d="M416.2,362c27.3-13.6,49.8-33.4,49.8-53.2h-49.8V362z"/>
			<path id="_x3C_Path_x3E__17_" class="st5" d="M466,285.9c0-12,0-25.3,0-37.3h-49.8v37.3H466L466,285.9z"/>
		</g>
		<g>
			<path d="M461.1,235.8c-1.1-1.1-1.8-2.6-2.2-4.2c-0.3-0.9-0.4-1.8-1-2.5c-0.7-0.8-1.8-1.1-2.8-1c-2.7,0.1-5.3,1.2-7.9,1.4
				c-1.7,0.1-3.5-0.2-4.9-1.4c-1.4-1.1-2.2-2.8-3.5-4.1c1.7,0.2,3.5-0.4,4.9-1.5c1.6-1.3,2.6-3.2,3.6-5.1c0.3-0.6,1-1.1,1.7-1.1
				c1.5,0,3.2,1.2,3.3,2.9c0.6-0.7,0.9-1.6,0.7-2.5c-0.1-0.9-0.7-1.7-1.5-2.2c-1-0.6-2.3-0.7-3.3-0.3c0-0.7-0.3-1.3-0.8-1.6
				c-0.4-0.3-1-0.4-1.1-1c-0.2-0.7,0.3-1.5,0.5-2.1c-0.9,0.1-1.8,0.5-2.3,1.3c-0.4,0.6-0.3,1.4-0.2,2.2c-1.2-0.9-2.6-1.6-4.1-1.9
				c-2.2-0.5-4.6-0.2-6.8,0.2c-5.8,1.2-11.2,3.7-17.2,4.2c-2.3,0.2-4.8-0.1-6.9-1.1c-0.1-0.7-0.3-1.4-0.8-1.9
				c-0.7-0.8-1.9-0.8-2.8-0.7c-2.6,0.3-5.2,1.5-7.8,1.9c-0.8,0.1-1.7,0.1-2.2-0.6c-0.4-0.8-0.2-1.8-0.1-2.6c-1.1,0.6-2,1.9-1.6,3.2
				c0.4,1.4,1.7,2.3,2.9,2.9c-0.4,0.4-0.8,0.8-1,1.4c-0.3,0.8,0,1.7,0.5,2.3c0.6,0.8,1.6,1.3,2.6,1.6c-0.3-0.6-0.6-1.1-0.7-1.7
				c-0.1-0.8,0-1.7,0.7-2.2c0.6-0.5,1.4-0.6,2-0.5c1.8,0.3,3.6,0.7,5.5,0.9c0.6,0,1.3,0,1.8-0.3c0.4-0.3,0.5-0.7,0.6-1.2
				c3.7,0.9,7.8,0.7,11.6,0.1c3-0.6,6-1.4,8.9-2.2c2.6-0.7,5.3-1.4,7.9-1.6c1.7-0.1,3.5,0.3,4.9,1.4c0.9,0.7,1.7,1.8,1.7,2.9
				c0,1.2-0.8,2.3-1.7,3.1c-1.6,1.2-3.7,1.7-5.8,1.6c-0.4,0-0.6-0.2-0.9-0.5c-2.4-1.5-5.5-2.3-8.3-2.1c-3.2,0.1-6.3,1.2-9.2,2.2
				c-4.7,1.7-9.2,3.6-14.1,4.7c-3.7,0.7-7.6,0.9-11.4,0.2c0.4-0.4,0.6-0.9,0.7-1.4c-1.5,0.1-3,0.1-4.5-0.4c-1.9-0.6-3.7-1.9-4.6-3.9
				c0.9-0.5,1.3-1.9,0.6-2.8c1.1-1,2.3-1.7,3.7-2.2c0.3-0.1,0.6-0.2,0.8-0.4c0.1-0.2,0.1-0.5-0.1-0.6c-0.5-0.3-1.2-0.2-1.8-0.1
				c-0.1-0.6-0.7-1-1.3-0.8c-0.5,0.2-0.6,0.8-0.6,1.3c-0.9-0.2-1.5-0.9-1.6-1.8c0.4,0.1,0.9,0.2,1.3-0.2c0.4-0.4,0.3-1.2-0.2-1.5
				c0.1-0.3,0.3-0.5,0.2-0.8c-0.1-0.6-0.8-1-1.4-0.7c-0.2,0.1-0.4,0.3-0.5,0.5c-0.5-0.3-1.2,0-1.4,0.6c-0.2,0.5,0.1,0.9,0.4,1.2
				c-0.8,0.4-1.8,0.1-2.4-0.6c0.5-0.1,1-0.5,0.9-1.1s-0.7-1-1.3-0.8c-0.1-0.7-0.4-1.3-0.9-1.6h-0.5c-0.3,0.4-0.1,0.9-0.1,1.3
				c0.2,1.3,0.1,2.7-0.2,4.1c-1.2-0.3-2.4,1-2.1,2.1c0.1,0.3,0.2,0.5,0.4,0.8c-0.4,0.3-0.7,1-1.3,1c-0.7,0.1-1.2,0.5-1.8,0.6
				c-0.5,0.1-0.9-0.4-1.3-0.6c-0.1,0.9,0.3,1.9,1.1,2.4c-0.7,0.3-1.3,0.8-2.1,0.9c-0.5,0.1-1,0.1-1.4-0.1c-1.4-0.5-2.7-1.2-4.1-2
				c-1.3-0.8-2.8-1.4-4.3-1.6c-0.8-0.1-1.6-0.1-2.3,0.3c-0.8,0.5-1.6,1.1-2.4,1.6c-0.3,0.2-0.7,0.5-1.2,0.4
				c-0.8-0.2-1.7-0.6-2.5-0.2c-1.1,0.5-2.2,1.3-2.5,2.5c-0.2,0.7-0.1,1.4,0.3,2c-1.4,2.1-2.4,4.6-2.4,7.2c0,1.7,0.5,3.4,1.2,5
				c0.3,0.5,0.6,1,0.9,1.5c-0.5-0.2-0.7-0.8-0.9-1.3c-0.5,0.8-0.1,1.7,0,2.5c0.3,1.1,1.5,1.7,2.5,1.9c0.5,0.1,1.1-0.1,1.6-0.1
				c0.4,0.1,0.7,0.5,1,0.7c0.8,0.5,1.8,0.6,2.7,0.5c1.3,0,2.5,0.7,3.9,1.1c1.3,0.4,2.7,0.7,4.2,0.4c0.8-0.1,1.5-0.6,2.2-1
				c1.4-0.9,2.7-1.8,4.1-2.7c0,0.2,0,0.4,0.1,0.6c0.5,0,0.6-0.6,1-0.8c1.4-0.8,3.1-1.5,3.9-3.1c0.3,1.4,1.4,2.4,2.3,3.6
				c0-0.5,0-1.1,0.2-1.6c0.4-1.1,1.2-2,1.7-3c0.8,1.4,2.4,2.1,3.6,3c0.9,0.5,1.6,1.2,2.2,2.1c0.1-0.7,0.1-1.4,0-2.1
				c2.8,1,6,0.4,8.8-0.3c5-1.5,9.5-4,14.1-6.4c2.5-1.3,5-2.6,7.5-3.9c1.7-0.8,3.5-1.6,5.4-2.1c1-0.3,2.1-0.4,3,0.1
				c0.8,0.5,1.6,1.1,1.9,2c0.1,0.2-0.1,0.4-0.3,0.6c-0.7,0.5-1.5,0.4-2.3,0.5c-0.8,0-1.6,0.1-2.2,0.7c-0.5,0.4-0.6,1-0.9,1.5
				c-0.4,0.6-0.9,1.2-1.6,1.5c0,0.1,0,0.3,0,0.4c0.9,0.2,1.9,0.1,2.7-0.3c-0.4,1.1-0.5,2.3,0,3.4c0.3,0.8,1,1.5,1.6,2.1
				c-1.3,0.7-2.7,1.2-4.3,1.2c-0.8-0.1-1.7-0.2-2.4-0.7c-0.7-0.5-1-1.3-1.7-1.7c-1-0.7-2.4-1.1-3.5-0.4c-0.5,0.4-1.2,0.2-1.7,0.6
				c-0.2,0.1-0.3,0.3-0.4,0.4c0.2,0,0.4,0.1,0.7,0.1c-0.5,0.2-1,0.5-1.3,1c-0.9,0.4-1.5,1.3-1.6,2.3c0.6-0.4,1.1-0.8,1.9-1
				c0.1,0.4,0.3,0.8,0.6,1c-0.1,0.3-0.1,0.5-0.2,0.8c-0.4,0.2-0.9,0.5-1.2,1c-0.3,0.6-0.2,1.3-0.2,1.9c0.5-0.7,1.2-1.4,2.1-1.5
				c0.5,0.4,1.1,0.9,1.8,0.9c1,0,1.7-0.8,2.3-1.4c0.7-0.6,1.6-0.4,2.4-0.1c2.1,0.5,4.4,0.2,6.4-0.4c2.4-0.7,4.8-1.9,6.7-3.7
				c-1-0.7-1.9-1.6-2.1-2.8c-0.1-1.2,0.6-2.3,1.6-2.7c1.1-0.4,2.3-0.7,3.2-1.5c0.3-0.2,0.4-0.5,0.7-0.7c1.1,1,1.4,2.4,1.4,4
				c0.9-0.8,1.5-1.9,1.9-3.1c0.7,0.9,1.7,1.5,2.8,1.7c0.8,0.2,1.9,0.1,2.5,0.8c0.1-0.5,0.1-1.1,0.1-1.6c0.9,0.5,2,0.9,3.1,1
				c1.6,0.2,3.2-0.2,4.8-0.5c0.9-0.2,2-0.4,2.8,0c1.1,0.6,2.1,1.3,2.8,2.4c0.4,0.7,0.8,1.3,0.9,2.1c0,0.7-0.4,1.3-1,1.7
				c-0.7,0.5-1.7,0-2.5,0.5c-0.3-0.4-0.8-0.9-1.5-0.9c-0.6-0.1-1.1,0.3-1.5,0.7c-0.5-0.6-1.2-1.2-2-0.9c-1.6,0.4-2.2,2.9-0.9,4
				c-0.2,0.4-0.4,0.8-0.3,1.2c0,0.9,0.7,1.6,1.5,1.9c-0.1-0.8-0.1-1.8,0.4-2.4c0.3,0.1,0.5,0.3,0.7,0.4c-0.2,1.3,0.8,2.6,2.1,3
				c-0.2-0.9-0.2-1.8,0.1-2.8c0.4,0.1,0.8,0.2,1.3,0.2c0.2,1.4,1.5,2.5,2.9,2.6c-0.2-0.3-0.5-0.5-0.7-0.9c-0.2-0.6-0.2-1.3-0.2-2
				c0.4,0.1,0.9,0.2,1.3-0.1c0.8-0.6,0.5-1.9,1.3-2.5c0.9-0.8,2.1-1.1,3-1.9c0.5-0.4,0.9-1,1-1.7V237
				C461.8,236.5,461.4,236.2,461.1,235.8z M368.3,237c-1.1,0.8-2.2,1.8-3.5,2.4c-0.8,0.3-1.6,0.5-2.4,0.6c-0.6,0.1-1.3,0.1-1.9-0.3
				c-0.5-0.4-1.1-0.8-1.6-1.2c0.2-0.8,0.2-1.7-0.4-2.3c0.9-2,1.4-4.3,1-6.4c-0.3-2-1.2-4-2.3-5.7c0.2-0.2,0.4-0.4,0.5-0.7
				c0.2-0.7-0.2-1.4-0.1-2c0.1-0.3,0.4-0.5,0.7-0.5c0.5,0,1.1,0,1.6,0.1c0.8,0.2,1.6,0.3,2.3,0.8c1.3,0.9,2.5,2,3.9,2.8
				c-1,0.5-2.2,0.7-3.4,0.6c1,1.7,3,2.7,5.1,2.7c-1,0.8-2.2,1.4-3.4,1.3c1,1.4,3,2,4.8,1.5c-1,1.3-1.3,3-2.3,4.4
				c-0.4,0.5-0.9,0.8-1.5,1C366.1,237,367.3,237.3,368.3,237z"/>
			<path class="st6" d="M378.3,208.9c0.7,0.4,0.7,1.2,0.7,1.9c0.2-0.1,0.4-0.2,0.6-0.3c0.3-0.1,0.7,0.1,0.7,0.4
				c0.1,0.4-0.3,0.6-0.6,0.6c-0.2,0-0.4-0.1-0.6-0.2c0.3,0.9,1.2,1.7,2.2,1.7c0.8,0.1,1.5-0.4,2-0.9c-0.4,0-0.8,0.1-1-0.3
				c-0.2-0.4,0-0.8,0.4-0.8c0.3-0.1,0.5,0.2,0.6,0.3c0.4-0.1,0.3-0.6,0.6-0.8c0.3-0.3,0.8,0,0.8,0.4c0,0.3-0.3,0.5-0.5,0.7
				c0,0.1,0,0.2,0,0.3c0.2,0.1,0.6,0.2,0.6,0.5c0.1,0.3-0.1,0.7-0.5,0.7c-0.5,0.1-0.6-0.5-0.8-0.8c-0.2,0.7-0.3,1.4,0.1,2
				c0.4,1,1.6,1.5,2.7,1.4c-0.3-0.2-0.6-0.5-0.5-0.9c0-0.4,0.5-0.5,0.7-0.3c0.4,0.2,0.2,0.7,0.3,1c0.6-0.3,1.4-0.6,2.1-0.3
				c-0.5,0.3-0.9,0.4-1.4,0.6c-1.3,0.5-2.5,1.4-3.5,2.3c-0.1,0.1-0.2,0.3-0.4,0.2c-0.5-0.6-1-1.2-1.6-1.6c-1.2-0.9-2.6-1.5-4.2-1.8
				c0.5-1.5,0.7-3.2,0.6-4.8C378.4,209.8,378.3,209.4,378.3,208.9L378.3,208.9z"/>
			<path class="st6" d="M444.7,211.1c0.2-0.5,0.7-0.8,1.2-1c-0.1,0.6-0.4,1.4,0,2c0.3,0.5,0.9,0.6,1.2,1c0.4,0.3,0.6,0.8,0.4,1.3
				c-0.2,0.2,0.1,0.5,0.3,0.4c1-0.5,2.3-0.5,3.4,0.1c1,0.6,1.7,1.9,1.3,3c0,0.3-0.2,0-0.3-0.1c-0.5-0.9-1.4-1.4-2.3-1.7
				c-0.8-0.2-1.7-0.2-2.4,0.4c-0.5,0.4-0.8,1-1.1,1.6c-0.9,1.7-2,3.4-3.6,4.6c-1.3,0.9-3,1.2-4.8,0.9c-0.3-0.1-0.7,0-0.4,0.3
				c0.4,0.2,0.7,0.4,1,0.7c1.1,1,1.8,2.3,2.9,3.3c1.2,1.2,2.8,1.9,4.6,1.9c3,0.1,5.9-1.3,9-1.4c0.8,0,1.7,0.1,2.3,0.7
				c0.6,0.7,0.7,1.6,1,2.4c0.5,1.6,1.2,3.2,2.4,4.5c0.3,0.3,0.7,0.7,0.7,1.1c0,0.6-0.1,1.2-0.6,1.6c-1,1-2.6,1.3-3.5,2.4
				c-0.6,0.6-0.5,1.6-1.1,2.3c-0.4,0.3-0.8-0.1-1.2-0.2c-0.1,0.2-0.1,0.5-0.2,0.7c0-0.2,0-0.4,0-0.5c-0.1,0.8-0.1,1.6,0,2.4
				c-0.1-0.1-0.3-0.2-0.5-0.3c-0.4-0.4-0.7-0.8-0.7-1.3c0-0.3,0.1-0.5,0.1-0.8c-0.3,0.1-0.5,0.4-0.9,0.4c-0.4,0-0.7-0.2-0.9-0.4
				c-0.7,0.7-0.6,1.8-0.6,2.7c-0.5-0.3-0.9-0.8-1-1.4c-0.1-0.4,0-0.9,0-1.3c-0.5,0-0.9-0.2-1.2-0.5c-0.8,0.4-1,1.4-1,2.3
				c-0.5-0.4-0.8-1.1-0.5-1.8c0.1-0.3,0.5-0.5,0.4-0.7c-0.2-0.2-0.5-0.3-0.6-0.5c-0.6-1-0.1-2.6,1-2.9c0.7-0.2,1.4,0.4,1.7,0.9
				c-0.1,0.6-0.3,1.3,0,1.9c0.1,0,0.2-0.1,0.4-0.1c-0.1-0.7-0.1-1.6,0.5-2.2c0.7-0.6,1.9-0.2,2.1,0.7c-0.1,0.5-0.2,1.1,0.2,1.5
				c0.1,0.2,0.4,0,0.3-0.2c-0.2-0.5-0.3-1.1,0.1-1.5c0.4-0.3,0.9-0.1,1.3-0.2c1.1,0,1.9-0.9,2.1-1.9c0.1-0.9-0.4-1.7-0.8-2.5
				c-0.7-1.3-1.9-2.3-3.3-2.9c-1.1-0.4-2.3-0.1-3.4,0.2c-1.7,0.4-3.5,0.6-5.3,0.2c-1.3-0.4-2.4-1-3.3-2c-0.1,0.1-0.2,0.2-0.3,0.4
				c0.3,0.3,0.6,0.5,0.9,0.8c0.4,0.3,0.3,0.9,0.4,1.3c-0.8-0.3-1.6-0.3-2.4-0.4c-1-0.2-1.9-1-2.5-1.8c-0.2-0.6-0.4-1.3-0.8-1.7
				c-0.1-0.2-0.4-0.2-0.5,0.1c0.5,0.5,0.9,1.1,0.8,1.8c0,0.9-0.5,1.8-1,2.5c-0.1-1-0.5-2.1-1.3-2.8c-0.8-0.8-1.8-1.3-2.8-1.8
				c0-0.5,0.1-1.2-0.3-1.5c0,0-0.2,0.1-0.2,0.2c0.2,0.8,0.2,1.7-0.4,2.3c-1,1.2-2.7,1.5-4.2,1.3c0.6-0.7,1.2-1.5,1.1-2.5
				c0-1.3-1-2.3-2.1-3c-1-0.7-2.3-0.6-3.5-0.3c-2.5,0.6-4.8,1.7-7.1,2.9c-4.8,2.4-9.4,5.2-14.3,7.3c-2.6,1.1-5.3,2.2-8.1,2.7
				c-2.1,0.4-4.4,0.5-6.4-0.3c-0.1-0.6-0.1-1.2-0.1-1.7c1,0.6,2.3,0.9,3.5,1c1.4,0.1,2.7,0,4.2-0.3c-0.8-1.6-2-2.9-3.3-4.2
				c1,0.3,2.2,0.3,3.2,0c1.3-0.3,2.4-1.3,2.9-2.5c-0.9,0.1-1.9,0.2-2.7-0.5c-0.9-0.9-1.8-1.8-3-2.2c0.4-0.2,0.9-0.4,1.3-0.7
				c2.9,0.5,6,0.6,8.9,0.2c5.7-0.6,11-2.7,16.3-4.8c3.1-1.2,6.3-2.3,9.5-2.5c2.5-0.2,5.1,0.3,7.3,1.5c0.6,0.3,1.1,0.7,1.7,1
				c1.7,0.3,3.5,0,5.2-0.8c1.2-0.6,2.3-1.5,2.9-2.7c0.5-1.1,0.4-2.4-0.2-3.4c-0.9-1.4-2.4-2.3-4.2-2.7c-2-0.4-4.1-0.1-6.1,0.3
				c-2.7,0.6-5.4,1.4-8.1,2.1c-3,0.8-6.2,1.5-9.3,1.7c-2.5,0.2-5.2-0.1-7.6-0.7c0,0.4,0,1-0.4,1.3c-0.5,0.3-1.1,0.3-1.7,0.3
				c-1.7-0.1-3.4-0.5-5.1-0.8c-1-0.2-2.1-0.1-2.8,0.7c-0.8,0.9-0.8,2.2-0.4,3.3c-0.8-0.4-1.6-1.1-1.8-2.1c-0.1-0.8,0.2-1.5,0.8-2
				c0.2-0.2,0.5-0.3,0.6-0.6c-1.3-0.5-2.5-1.3-3.2-2.5c-0.4-0.8-0.1-1.8,0.5-2.5c0,0.8,0,1.7,0.7,2.2c0.7,0.6,1.7,0.5,2.6,0.4
				c2.6-0.4,5-1.6,7.6-1.9c0.8-0.1,1.8,0,2.4,0.6c0.5,0.5,0.6,1.3,0.7,1.9c2.7,1.2,5.9,1.4,8.8,1.1c5.3-0.6,10.1-2.7,15.3-4
				c2.6-0.6,5.4-0.9,8-0.1c1.3,0.4,2.5,1.2,3.5,2c0.2,0,0.4-0.1,0.3-0.4C444.6,212.6,444.3,211.8,444.7,211.1L444.7,211.1z"/>
			<path d="M378.4,213.9c0.9,0.1,1.7,0.5,2.6,0.9c1.3,0.6,2.4,1.5,3.3,2.6v0.1c-0.1,0.1-0.2,0.2-0.2,0.2c-0.7-0.6-1.3-1.3-2-1.8
				c-1.1-0.8-2.3-1.3-3.6-1.6C378.3,214.3,378.3,214,378.4,213.9L378.4,213.9z"/>
			<path class="st6" d="M376,215.9c-0.1-0.8,0.7-1.7,1.6-1.5c-0.1,0.3-0.2,0.7-0.1,1c1.2,0.3,2.3,0.6,3.4,1.2c1,0.6,1.8,1.5,2.6,2.3
				c0.3,0.3,0.6-0.2,0.9-0.4c0.6,0.6,0.2,1.5-0.3,2c-0.4,0.4-1,0.2-1.4,0.1c-0.3,1.2-0.8,2.6-1.9,3.3c-0.8,0.5-1.9,0.7-2.6,1.5
				c-0.4,0.4-0.5,1-1.1,1.2c-0.4,0.1-0.7,0-1-0.2c0.7-0.7,1.1-1.6,1.5-2.4c0.4,0.3,0.9,0.5,1.3,0.3c0-0.1,0-0.2,0-0.3
				c-0.4-0.1-0.8-0.1-1-0.4c-0.4-0.6,0-1.2,0.2-1.8c0.4,0.1,1,0.2,1.3-0.2c0.1-0.2-0.1-0.3-0.2-0.4c-0.4,0.6-1.2,0.2-1.6-0.2
				c-0.1-0.3,0.2-0.7-0.2-0.8c-0.5,0.5-0.2,1.1,0.2,1.5c-0.3,0.5-0.8,1.1-1.5,1c-0.3,0-0.5-0.3-0.7-0.6c-0.1,0-0.3,0-0.4,0
				c0,0.5,0.5,0.8,0.9,1c-0.5,0.8-1.2,1.5-1.4,2.4c-0.5-0.1-0.9-0.8-0.7-1.3c0.2-0.5,0.6-0.9,0.6-1.5c0.3-1-0.1-2,0.1-3
				c0.3-1.1,1.1-2,2-2.8C376.4,216.6,376,216.3,376,215.9L376,215.9z"/>
			<path d="M377.1,217.5c0.1-0.1,0.2-0.2,0.3-0.3c0.6,0.3,1.5,0.2,2,0.7c0.1,0.2-0.1,0.3-0.3,0.4c-0.2,0.2-0.4,0.6-0.7,0.5
				c-0.2-0.3,0.3-0.5,0.3-0.8c-0.2,0-0.5-0.1-0.7-0.1c-0.1,0.2-0.1,0.6-0.4,0.6l-0.1-0.2c0.1-0.2,0.1-0.6-0.2-0.7L377.1,217.5
				L377.1,217.5z"/>
			<path class="st6" d="M358.8,218.2c0.7-0.3,1.5-0.2,2.2-0.1c1.3,0.2,2.5,0.7,3.6,1.4c1.2,0.7,2.5,1.5,4,2c0.2,0,0.2,0.2,0.2,0.3
				c0.1,0.3,0.3,0.6,0.5,0.9c-0.8,0.7-1.7,1.4-2.7,1.8c-1.4-0.8-2.6-1.8-3.9-2.7c-1-0.8-2.4-1.1-3.6-1.2c-0.5,0-1.2-0.1-1.6,0.3
				c-0.5,0.5-0.3,1.2-0.2,1.8c0.1,0.4,0.1,0.8-0.2,1.1c-0.3,0.3-0.8,0.2-1.2,0.2c-0.1,0.4-0.2,0.7-0.5,1c-0.1-0.4-0.1-0.7-0.3-1
				c-0.3-0.1-0.6,0-0.9,0c-0.2-0.4-0.3-0.8-0.2-1.2c0.1-0.3,0.4-0.5,0.7-0.6c-0.1-0.1-0.1-0.3-0.1-0.4c-1,0.2-1.3,1.5-0.7,2.3
				c-0.2,0.1-0.3,0.1-0.4,0.3c-0.1,0.1-0.3,0.2-0.4,0.3c0-0.1-0.1-0.3-0.1-0.4c0,0-0.1-0.1-0.2-0.1c-0.9-0.5-0.9-1.9-0.3-2.6
				c0.2-0.2,0.2-0.4,0-0.5c-1,0.6-1,1.9-0.6,2.9c-0.2,0.1-0.4,0.3-0.7,0.5c-0.4,0-0.8-0.3-0.9-0.7c-0.4-1,0-2.1,0.8-2.7
				c0.7-0.5,1.5-1.1,2.3-0.9c0.8,0.1,1.6,0.6,2.3,0.2C356.7,219.6,357.7,218.8,358.8,218.2L358.8,218.2z"/>
			<path class="st6" d="M371.9,218.7c0.9,0.4,1.9-0.2,2.8-0.4c-0.4,0.5-0.6,1.2-0.6,1.8c-0.1,0.9,0.1,1.8-0.1,2.6
				c-0.1,0.7-0.7,1.2-0.6,1.9c0,0.6,0.5,1,1.1,1.3c0.1,0.2,0.2,0.4,0.4,0.5c0.2,0.2,0.6,0.1,0.9,0.3c0.4,0.3,1,0.5,1.4,0.3
				c0.7-0.2,0.8-0.9,1.3-1.3c0.8-0.8,2-0.9,2.8-1.6s1.3-1.7,1.5-2.7c0-0.2,0.2-0.2,0.4-0.1c0,2,0.6,4,1.8,5.6
				c0.1,0.1,0.1,0.2,0.2,0.3c-0.5,0-1-0.1-1.4-0.3c-0.3-0.2-0.6-0.6-0.9-0.8c-0.2,1-0.4,2-0.2,3c0.1,0.4,0.1,0.8,0.2,1.2
				c-0.8-0.9-2.2-0.9-2.8-2c-0.1,0-0.3,0.1-0.3,0.1c-0.1,1.4-1,2.7-0.8,4.2c-0.8-0.2-1.5-0.7-2-1.3c-0.5-0.8-0.7-1.7-0.7-2.6
				c-0.1,0-0.3,0-0.4-0.1c-0.8,1.4-2.3,2.5-4,2.5c0.4-1.1,0.2-2.3,0.5-3.5c0.2-0.3,0.3-0.5,0.5-0.8c-0.6,0.2-1.2,0.4-1.7,0.3
				c-0.8-0.1-1.7-0.4-2.3-1.1c0.8-0.2,1.4-0.9,2-1.5c0.4-0.3,0.7-0.6,1.2-0.9c0-0.1,0-0.3,0-0.3c-0.5,0-1,0.1-1.4-0.1
				c-0.6-0.2-1.1-0.8-1.3-1.4c0.8,0,1.7,0,2.5-0.5c0.5-0.3,1-0.6,1.6-0.7c0-0.1,0-0.2,0-0.3C372.6,220,372,219.5,371.9,218.7
				L371.9,218.7z"/>
			<path d="M380.5,218.6c0.7,0.1,1.1,0.9,1.5,1.3c0.1,0.1,0.1,0.2,0.1,0.3c-0.1,0.1-0.2,0.1-0.4,0c-0.2,0.1-0.7,0.4-0.6-0.1
				c0.1-0.1,0.2-0.2,0.4-0.3c-0.1-0.2-0.3-0.4-0.5-0.6c-0.2,0.3-0.2,0.7-0.7,0.6C380.3,219.4,380.5,219,380.5,218.6L380.5,218.6z"/>
			<path class="st6" d="M386.2,227.4c-1.5-1.7-2.5-4-2.4-6.2c0.9,2.1,2.9,3.5,5.2,4.2c1.2,0.4,2.4,0.4,3.7,0.4
				c-0.6,1.1-1.9,1.7-3.1,1.9c0,0.1,0,0.3,0,0.4c0.7,0.2,1.5,0.4,2.1,0.8c0.9,0.6,1.4,1.6,2.4,2c0.5,0.2,1,0.2,1.4,0.3
				c-0.8,1.3-2.4,1.8-4,1.7c-1,0-2-0.4-2.9-0.7c-0.1,0.1-0.1,0.3-0.1,0.4c1.8,0.9,3.2,2.6,4.4,4.3c0,0.1,0,0.1,0,0.1
				c-1.9,0.3-4.2,0.4-6-0.4c-0.6-0.2-1.1-0.7-1.6-1.2c0.2,1.4,0.5,2.9,0.4,4.4c-1.2-1.2-2.7-1.9-4.2-2.9c-0.6-0.5-1.1-1.1-1.2-1.8
				c-0.1,0-0.3,0-0.4,0c-0.5,1.5-1.7,2.7-2.1,4.3c-0.5-0.6-0.9-1.2-1.3-1.8c-0.3-0.6-0.3-1.3-0.3-2c-0.1,0-0.3,0-0.4,0
				c-0.1,1-0.6,1.9-1.4,2.5c-0.9,0.7-2,1.2-3,1.8c0-1.5,0-3.1,0.5-4.7c-1,0.5-1.8,1.1-2.9,1.4c-0.9,0.3-1.9,0.3-2.8,0
				c0.4-0.2,0.7-0.5,1-0.9c1-1.2,1.2-2.9,2.1-4.2c0.3-0.5,0.8-0.8,1.3-1c-0.1-0.1-0.1-0.2-0.2-0.3c-0.9,0.4-1.9,0.8-2.9,0.7
				c-0.8-0.1-1.7-0.4-2.3-0.9c0.9-0.2,1.8-0.6,2.6-1.2c0.4-0.3,0.7-0.6,1-1c-1.4,0.2-2.8,0-4.1-0.8c-0.4-0.3-0.8-0.5-1.1-0.9
				c2.2-0.1,4.3-1.4,6-2.8c0.4,0.3,0.8,0.5,1.3,0.6c-0.6,0.5-1.1,1.1-1.7,1.6c-0.3,0.3-0.8,0.2-1.2,0.2c0.2,0.7,0.8,1.1,1.4,1.4
				c0.8,0.4,1.7,0.6,2.6,0.5c-0.4,1-0.1,2.2-0.5,3.2c-0.1,0.4-0.5,0.5-0.8,0.7c2,0.5,4.1-0.5,5.2-2.1c0.1,0.9,0.4,1.9,1.1,2.5
				c0.6,0.7,1.6,1.1,2.5,1.3c-0.1-0.4-0.2-0.9-0.1-1.3c0.1-0.9,0.5-1.7,0.7-2.6c0.1-0.1,0.2,0.1,0.4,0.1c0.6,0.4,1.4,0.6,2,1.1
				c0.3,0.2,0.5,0.6,0.8,0.9c0.2-0.6,0.2-1.2,0.1-1.8c-0.3-0.8-0.2-1.7-0.1-2.6C384.1,227.4,385.2,227.7,386.2,227.4L386.2,227.4z"
				/>
			<path class="st6" d="M376.4,223.3c0.2-0.3,0.6-0.3,0.8-0.5c0,0.3,0.1,0.7-0.1,1c-0.4,0.8-0.7,1.7-1.5,2.4
				c-0.2,0.2-0.5,0.1-0.7-0.1c-0.1-0.3,0-0.6,0.1-0.8C375.5,224.5,375.9,223.9,376.4,223.3L376.4,223.3z"/>
			<path class="st2" d="M352,224.6c0-0.4,0.3-0.1,0.4,0c0.2,0.8,0.8,1.3,1.5,1.4c-0.1-0.4-0.4-0.9-0.2-1.3c0.3-0.2,0.6-0.2,1-0.2
				c0.1,0.5,0.1,0.9,0,1.4c0.3-0.1,0.5-0.3,0.7-0.3c0.9,3.3,1.1,6.9,0.3,10.3c-0.1,0.3-0.4,0.5-0.5,0.8c-0.3-0.2-0.7-0.5-1.1-0.6
				c0-0.3-0.1-0.6-0.1-0.9c0-0.2,0.2-0.5,0.3-0.7c-0.4,0.1-0.8,0.2-1.1,0.5c-0.3,0.3-0.5,0.7-0.6,1.1c-0.2-0.2-0.5-0.5-0.8-0.6
				c-0.1-0.4-0.2-0.9-0.1-1.3c-0.1,0-0.2-0.1-0.3-0.2c-0.1,0.1-0.2,0.3-0.4,0.4c-0.4-2.9-0.2-6,0.7-8.8c0.2,0,0.4,0,0.6-0.1
				C352.2,225.2,351.8,224.9,352,224.6L352,224.6z"/>
			<path class="st2" d="M347.8,231.5c0-2.4,0.9-4.9,2.3-6.9c0.2,0.1,0.3,0.1,0.5,0.2c0.2,0.2,0.4,0.4,0.6,0.6
				c-0.9,3-1.1,6.3-0.6,9.4c0.1,0.4,0.1,0.9-0.2,1.2c-0.5,0.5-0.4,1.3-0.2,1.9c-0.1-0.1-0.3-0.1-0.3-0.2
				C348.6,235.9,347.9,233.7,347.8,231.5L347.8,231.5z"/>
			<path class="st2" d="M355.7,225.4c-0.1-0.3,0.2-0.6,0.3-0.9c0.2,0,0.5-0.1,0.7-0.1c1.5,2.1,2.5,4.8,2.4,7.4
				c0,1.5-0.5,2.8-1.1,4.2c-0.1,0-0.3,0-0.3-0.2c-0.2-0.8-0.5-1.6-1.3-1.9C356.8,231.1,356.5,228.1,355.7,225.4L355.7,225.4z"/>
			<path class="st6" d="M425.6,229.8c0.6,0,1-0.3,1.5-0.5c-0.1,1.1-0.9,1.9-1.7,2.5c1.5,0.3,3.1,0.2,4.5-0.5
				c0.7-0.4,1.3-0.9,1.5-1.7c0.7,0.3,1.4,0.7,2,1.2c-0.7,1.2-2.2,1.6-3.4,2c-1.3,0.4-2.3,1.7-2.1,3c0.1,1.3,0.9,2.2,1.9,3
				c-0.1,0.2-0.2,0.2-0.3,0.3c-2.1,1.7-4.6,2.8-7.2,3.3c-1.5,0.3-3.1,0.4-4.7,0c-0.7-0.2-1.3-0.4-2-0.1c-1,0.3-1.4,1.4-2.4,1.6
				c-0.7,0.2-1.4-0.3-1.9-0.8c-0.7-0.1-1.4,0.3-2,0.8c0.1-0.3,0.2-0.6,0.3-0.8c0.3-0.4,0.7-0.5,1-0.7c0.1-0.6,0.2-1.2,0.8-1.5
				c0.7-0.5,1.6-0.4,2.4-0.2c0-0.1,0-0.3,0.1-0.4c-0.9-0.3-2.1-0.3-2.9,0.4c-0.1,0.1-0.3,0.3-0.5,0.2c-0.2-0.3-0.3-0.7-0.4-1
				c-0.4,0-0.8,0.2-1.2,0.3c0.2-0.5,0.7-0.6,1.1-0.8c0.2-0.6,0.7-0.9,1.3-1c0.6-0.1,1.2,0,1.7,0.1c0.2,0.1,0.5-0.3,0.2-0.4
				c-0.7-0.2-1.4-0.2-2-0.6c0.4-0.1,0.8-0.1,1.2-0.3c0.9-0.8,2.2-0.5,3.1,0.2c0.8,0.5,1.1,1.4,1.8,1.8c0.9,0.6,1.9,0.8,3,0.8
				c1.5-0.1,3-0.6,4.4-1.4c0.1,0,0.3-0.2,0.1-0.3c-1-0.7-1.8-1.6-2.1-2.7c-0.1-0.9-0.1-1.9,0.3-2.7c0.1-0.2,0.3-0.4,0.2-0.6
				c-0.2-0.2-0.4,0-0.6,0.1c-0.6,0.4-1.3,0.5-2,0.5c0.5-0.3,0.9-0.8,1.2-1.2c0.3-0.5,0.4-1.1,0.9-1.5
				C423.3,229.7,424.5,229.9,425.6,229.8L425.6,229.8z"/>
			<path class="st6" d="M351.3,234.8c0,0.3,0.1,0.6,0.2,0.9c0.2,0.1,0.6,0.2,0.7,0.5c-0.1,0.3-0.3,0.6-0.3,0.9c0,0.6,0.4,1.3,1,1.5
				c0.4-0.1,0.1-0.4-0.1-0.5c-0.5-0.4-0.6-1.2-0.1-1.7c0.1,0,0.3,0,0.4-0.1c0-0.4,0.2-0.8,0.5-1.2c0.1,0.4,0.2,0.8,0.2,1.2
				c0.5,0.1,1,0.4,1.4,0.8c0.1,0.2,0.3,0.4,0.5,0.2c0-0.3-0.1-0.6,0.1-0.9s0.4-0.4,0.6-0.5c0.2-0.4,0.2-0.8,0.3-1.2
				c0.6,0.2,0.6,1,0.7,1.6c0-0.1,0-0.2,0-0.2l0.1,0.2c0.3,0.1,0.7,0.1,0.9,0.4c0.4,0.6,0.2,1.3,0.1,2c0.4,0.4,0.8,0.7,1.3,1
				c0.4,0.3,0.8,0.7,1.4,0.8c1,0.2,1.9-0.1,2.9-0.3c1.6-0.4,2.9-1.5,4.3-2.5c0.4-0.3,0.8-0.8,1.3-0.9c0.4-0.1,0.7-0.3,1.1-0.5
				c0.1-0.1,0.4-0.1,0.5-0.2c0,0.6-0.1,1.2-0.1,1.8c0,0.6,0.1,1.1-0.1,1.7c-1.4,0.9-2.9,1.8-4.4,2.7c-0.9,0.7-2.1,1.1-3.4,1
				c-1.4-0.1-2.7-0.5-4.1-1.1c-0.8-0.4-1.7-0.6-2.6-0.5c-0.9,0.1-2-0.1-2.7-0.8c-0.3-0.3-0.8-0.6-1.2-0.5c-1.2,0.3-2.6-0.1-3.2-1.1
				c-0.3-0.4-0.2-0.9-0.3-1.4c0.4,0.4,1,0.1,1.6,0.3c0.3,0.4,0.8,0.8,1.3,1c0.2-0.1,0.2-0.2,0.2-0.4c-0.7-0.3-1.3-0.9-1.4-1.6
				c-0.2-0.6,0.1-1.2,0.6-1.6C351.2,235.5,351.2,235.1,351.3,234.8L351.3,234.8z"/>
		</g>
		<g>
			<path d="M425.2,250.3c1.3,0.3,2.4,1.1,3.3,1.9c0-0.7,0-1.4-0.2-2c1,0.5,2,1.3,2.6,2.2c-0.1-0.7-0.3-1.3-0.5-1.9
				c1,0.5,1.9,1.4,2.5,2.4c0-0.7-0.1-1.4-0.4-2.1c1.2,0.8,2.1,1.9,2.8,3c0,0.2,0.2,0.7,0.3,0.4c-0.2-0.7-0.2-1.4-0.5-2.1
				c1.1,0.4,1.6,1.5,2.2,2.4c0.4,0.1,0.9,0.2,1.3,0.4c-0.4-0.8-0.7-1.6-1.3-2.2c0.1-0.1,0.1-0.2,0.2-0.3c0.7,0.3,1.3,0.7,1.8,1.1
				c0.1-0.9,0.1-1.8-0.2-2.6c0.8,0.4,1.5,1.1,1.9,1.9c0.5-1,1-2,2.1-2.5c-0.2,1.1-0.5,2.1-0.4,3.2c0.8-0.4,1.7-0.7,2.6-0.7
				c-1,0.9-1.6,2-2.1,3.2c1.5-1.5,3.4-2.4,5.3-3.4c0.7-0.4,1.5-0.8,2.1-1.4c0.3-0.3,0.4-0.7,0.6-1c0.1,0.5,0.1,1,0.1,1.5
				c0.8-0.6,2-1.3,3-0.9c-0.4,0.4-0.8,1-1,1.5c1.4-0.8,3.2-1.3,5-1c-0.5,0.5-1.1,0.9-1.5,1.4c1.3-0.5,2.8-0.4,4.1,0.2
				c-0.8,0.2-1.6,0.5-2.2,1.1c1.5,0,2.8,1,3.6,2.3c-1.2-0.1-2.3-0.3-3.4-0.2c0.8,0.8,1.1,2,1.1,3.1c-1-0.7-2.1-1.4-3.3-1.8
				c0.3,0.6,0.6,1.2,0.6,1.9c0,0.1,0.1,0.1,0.1,0.1c-0.1,0-0.2,0-0.3,0c-0.9-1.2-2.3-1.8-3.7-2.2c-0.1-0.2-0.2-0.2-0.4-0.1
				c0.7,0.4,1,1.2,1.2,1.9c-1.5-0.7-3-1.6-4.9-1.4c0.5,0.3,1,0.7,1.3,1.2c-0.2,0.1-0.5,0.1-0.8,0.1c-0.7,0-1.4,0.2-2.1,0.3v0.1
				c1,0.2,2,0.6,2.9,1c2,0.9,4.1,2.3,5,4.4c0.9,1.8,0.7,4.1,0.1,6c-0.1,0-0.4,0-0.5,0c-0.2-1.3-0.4-2.6-0.8-3.9
				c-0.1,1-0.5,2.3-1.7,2.6c0.1-1,0.1-2-0.1-2.9c-0.2,0.6-0.6,1.3-1.2,1.6c-0.1-0.9-0.3-1.8-0.7-2.6c-0.1-0.2-0.2-0.5-0.5-0.5
				c0,0.9-0.2,2.1-1.3,2.5c-0.1-0.9-0.1-2-0.9-2.7c-0.2,0.6-0.5,1.2-0.9,1.6c1.3,1.4,2.5,3.1,2.8,5.1c0.2,1.4,0.2,2.9-0.1,4.5
				c-0.2,1-0.7,2-1.6,2.6c0.1-0.9,0-1.8-0.1-2.7c-0.5,0.7-1.1,1.4-2,1.7c0.1-0.4,0.3-0.8,0.5-1.3c0.2-0.4,0.2-0.9,0.4-1.2
				c0.1-0.1,0.1-0.4-0.1-0.3c-0.3,0.9-1,1.4-1.7,1.9c0.2-1.3,0.5-2.7,0.6-4.1c0-0.2,0.1-0.4,0.1-0.6c-0.5,0.7-1.1,1.4-1.9,1.7
				c0.3-1.3,0.7-2.6,0.5-4.1c-0.3,0.7-0.7,1.3-1.4,1.6c0.2-1.3,0.1-2.8-0.7-4.1c-0.1,0.3-0.2,0.6-0.2,0.9c0,3.1,0.1,6.4,0.4,9.5
				c0.3,1.9,0.5,3.9,1.4,5.7v0.1c-1-0.2-1.9-0.7-2.5-1.4c-0.3,0.7-0.8,1.4-1.4,1.9c-0.3-0.5-0.4-1.2-0.5-1.8
				c-0.8,0.4-1.6,0.9-2.6,0.9c1.3-2.5,2.1-5.4,2.3-8.2c0.2-1.8,0.1-3.6,0-5.6c-0.2,0.5-0.2,1-0.4,1.5c0,0-0.2,0.1-0.3,0.1
				c-0.3-0.7-0.5-1.3-0.8-2c-0.1,0.6-0.2,1.3-0.4,1.9c-0.2,0.8-0.5,1.6-1,2.2c-0.2-0.6-0.5-1.2-0.6-1.8c-0.2,1.4-0.5,2.6-0.9,4.1
				c-0.2,0.5-0.1,0.9,0,1.4c-0.7-0.7-1.2-1.7-1.6-2.6c-0.4,1.3-0.8,2.5-1,4c-0.4-0.5-0.7-1.2-1-1.8c-0.4,0.7-0.7,1.4-1.1,2.1
				c-0.1-0.1-0.2-0.1-0.3-0.1c-0.3-2.5-0.1-5.1,0.8-7.5c1.2-3.2,3.9-5.9,6.9-7.4c-0.8-0.1-1.6,0.2-2.2,0.7c-0.3,0.3-0.5,0.7-0.8,0.9
				c-0.1-0.6-0.2-1.2-0.3-1.8c-0.5,0.7-1,1.6-1.4,2.4c-0.1,0-0.3,0-0.4,0c-0.1-0.6-0.3-1.2-0.3-1.9c0.1-0.1-0.1-0.1-0.2-0.2l0.1,0.2
				c-0.6,0.9-1,1.9-1.3,2.9c-0.1,0-0.2,0-0.4,0c-0.2-0.7-0.4-1.4-0.5-2.2c-0.4,0.9-0.6,1.8-0.6,2.8c-0.7-0.5-0.9-1.4-1.2-2.1
				c-0.3,1.2-0.8,2.3-0.8,3.6c-1-0.5-1.3-1.7-1.4-2.7c-0.7,0.8-1.4,1.7-1.9,2.7c-0.2,0.3-0.2,0.6-0.5,0.8c-0.3-1.4-0.4-3,0.2-4.5
				c0.3-1,0.9-2,1.7-2.7c0.3-0.3,0.7-0.5,1-0.9c0.1,0,0.2,0,0.2,0c0.1-0.2,0.3-0.3,0.5-0.4c0.7-0.4,1.5-0.8,2.3-1
				c-0.2-0.7-0.2-1.4-0.1-2.1c-1.1,0.9-2.3,2-2.7,3.4c-0.1,0-0.3,0-0.4,0c-0.1-0.9-0.2-1.8-0.1-2.7c-0.9,0.7-1.8,1.6-2.2,2.7
				c-0.3-1.4-0.2-2.9,0.5-4.3c-1.6,1.1-3,2.7-3.5,4.8c-0.5-1.4-0.2-2.9,0.1-4.4c0.2-0.5,0.4-1,0.7-1.5c-0.8,0.1-1.5,0.1-2.2,0.6
				c-0.5-0.1-0.1-0.6,0-0.8c1-1.2,2.5-2.1,4.2-2.2c-0.4-0.6-0.9-1.3-1.6-1.6c0-0.1,0-0.3,0-0.4c1.3,0,2.6,0.6,3.7,1.5
				C426.1,252.1,425.9,251.1,425.2,250.3L425.2,250.3z"/>
			<path class="st7" d="M426.3,251.2c1.1,0.4,2,1.2,2.6,2.2c0.3-0.7,0.1-1.5,0.2-2.2c0.8,0.6,1.5,1.3,2,2.1c0.1,0.2,0.3,0.4,0.5,0.2
				c0-0.6-0.2-1.2-0.3-1.8c0.7,0.6,1.3,1.5,1.7,2.3c0.1-0.1,0.3-0.2,0.3-0.2c0-0.5,0-1.1,0-1.7c1.1,1,2,2.3,2.5,3.7
				c0.2-0.4,0.2-0.8,0.2-1.2c0.1-0.4-0.1-0.8,0-1.3c1.1,1.3,1.8,2.8,2.6,4.4c0.3,0.4,0.2,0.8,0.3,1.2c-1.7-1.3-3.7-2.4-5.9-3.1
				c-2.1-0.7-4.5-1.1-6.7-0.9c0,0.1,0,0.3,0,0.4c2.4-0.3,4.9,0.2,7.1,1c2.1,0.8,4.2,1.9,5.8,3.5c-0.6-0.1-1.2-0.5-1.7-0.7
				c-1.1-0.5-2.2-1.1-3.5-0.9c-0.6,0-1.1,0.4-1.5,0.7c0-0.4,0-0.8,0-1.1c0.1-0.2,0.3-0.4,0.4-0.7c-1.2,0.1-1.9,1.3-2.9,1.9
				c-0.1-0.6,0.1-1.2,0.1-1.8c-0.3-0.3-0.6,0.1-0.8,0.3c-1,0.8-1.9,1.8-2.7,2.9c0-0.7-0.1-1.3,0.1-1.9c0.1-0.3,0.1-0.5,0.2-0.8
				c-0.8,0.4-1.5,0.9-2.1,1.6c-0.1,0.1-0.3,0.3-0.4,0.4c-0.1-0.8,0.1-1.5,0.4-2.2c0.2-0.5,0.5-0.8,0.7-1.2c-1.8,0.5-3,2-4.2,3.4
				h-0.2c-0.1-1.1,0.2-2.2,0.7-3.3c0.2-0.4,0.4-0.6,0.7-1c-0.8-0.1-1.7,0.1-2.5,0.2c0.8-1,2-1.6,3.2-1.8c0.4-0.1,0.8,0,1.2,0.1
				c-0.3-0.7-0.8-1.3-1.3-1.9c1,0.1,1.9,0.8,2.6,1.5c0,0,0.2,0.1,0.3,0.2C426.5,253,426.5,252,426.3,251.2L426.3,251.2z"/>
			<path class="st7" d="M451.8,252.5c0.6-0.5,1.3-1.1,2.2-1.1c-0.3,0.6-0.8,1.2-0.7,2c0.4-0.2,0.8-0.5,1.2-0.7
				c1-0.5,2.1-0.8,3.2-0.7c-0.6,0.6-1.3,1.2-1.6,2.1c0.6-0.3,1.1-0.7,1.8-0.8c0.6-0.1,1.3-0.2,2,0.1c-0.7,0.3-1.3,0.8-1.7,1.4
				c1.3-0.1,2.7,0.3,3.5,1.4c-1.1,0-2.3-0.3-3.4,0.2c0.4,0.4,0.8,0.7,1.1,1.2c0.2,0.4,0.4,0.8,0.5,1.3c-1.3-0.7-2.6-1.5-4.2-1.6
				c0.5,0.4,1,0.9,1.2,1.6c-1.4-1-3.1-1.8-5-1.7c0.2,0.2,0.4,0.3,0.7,0.5c0.4,0.3,0.7,0.6,0.9,1c-1.2-0.5-2.3-1-3.7-1
				c-0.5,0-1,0.1-1.3,0.4c0.5,0.3,1.1,0.6,1.6,1c-0.9,0.1-1.9,0.2-2.7,0.5c-0.8,0.1-1.6,0-2.3,0.1c-0.6,0.1-1.2,0.2-1.7,0.6
				c0.3,0.4,0.8,0,1.2-0.1c1-0.3,2.2-0.3,3.3,0c2,0.5,4.1,1.2,5.7,2.6c0.6,0.5,1.2,1.2,1.6,1.9c1,1.6,1.1,3.6,0.6,5.6
				c-0.3-1.5-0.4-3.1-1.5-4.4c0,0.8,0,1.5-0.2,2.2c-0.1,0.3-0.2,0.7-0.6,0.8c0-0.9-0.2-1.8-0.5-2.6c0-0.1-0.2-0.3-0.3-0.1
				c-0.2,0.4-0.3,1.1-0.8,1.3c-0.3-0.4-0.3-1-0.6-1.4c-0.3-0.6-0.8-1.3-1.5-1.6c0.1,0.9,0.3,2-0.3,2.8c-0.2-0.6-0.3-1.2-0.6-1.7
				c-0.1-0.3-0.4-0.4-0.6-0.6c-0.1-0.5-0.2-1-0.6-1.3c-0.1-0.2-0.4-0.1-0.5,0.1c0.4,0.4,0.9,1,0.6,1.7c-0.2,0.3-0.2,0.8-0.6,1
				c-0.5-1.2-1.6-2.1-2.8-2.5c-0.7-0.2-1.4-0.2-2.1,0c0,0.1,0,0.2,0.1,0.2c1.7,0.8,3.3,2,4.7,3.4c1.3,1.3,2.4,3,2.7,4.9
				c0,1.2,0.1,2.4,0,3.6c-0.1,0.7-0.3,1.5-0.9,2.1c0-0.6,0-1.1-0.1-1.7c-0.2-0.8,0.2-1.7,0.1-2.5l-0.1-0.1h-0.2
				c-0.1,0.5-0.1,1-0.2,1.4c-0.2,0.7-0.7,1.4-1.2,2c0.1-0.7,0.4-1.4,0.5-2.2c0.1-1,0.4-2,0.5-3c0.1-0.3-0.2-0.4-0.4-0.2
				c-0.1,0.5-0.1,1.1-0.2,1.7c-0.2,0.8-0.5,1.6-1,2.2c-0.1,0.2-0.2,0.2-0.4,0.3c0-0.9,0.2-1.8,0.3-2.7c0.1-0.9,0.1-1.7,0.1-2.6
				c0-0.4,0.1-0.9-0.1-1.3c-0.1,0-0.2,0-0.3,0c0,0.8,0.1,1.6,0,2.4c-0.4,0.6-0.7,1.1-1.2,1.6c0-0.7,0.3-1.4,0.3-2.2
				c0.1-1-0.3-2-0.5-3c0-0.2-0.2-0.4-0.4-0.2c0,0.5,0.3,1,0.3,1.5c-0.1,0.5-0.3,1-0.6,1.4c0-1.1-0.2-2.3-0.9-3.2
				c0.1-0.4,0.3-0.9,0.2-1.4c-0.1,0-0.2,0-0.3,0c-0.2,0.5-0.2,1.1-0.5,1.6c0,0.2-0.3,0.2-0.4,0.3c-0.1-0.7,0-1.6-0.5-2.2
				c-0.4,0-0.3,0.5-0.3,0.7c0,0.4-0.1,0.8-0.3,1.2c-0.2-0.9-0.4-1.9-1.1-2.5c0.1,1.7-0.2,3.4-0.7,5.2c-0.4-0.7-0.5-1.6-0.7-2.4
				c-0.1,0-0.3,0-0.3,0c0,0.5,0,1-0.2,1.5c-0.2,1-0.4,2-0.8,2.9c-0.5-0.8-0.7-1.8-0.8-2.7c-0.2-0.1-0.3-0.1-0.4-0.1
				c-0.1,1,0,2-0.2,3c-0.2,1.1-0.5,2.1-0.8,3.1c-0.4-0.8-0.8-1.6-1-2.4c-0.1-0.9,0-1.7,0.2-2.6c-0.1,0-0.3,0-0.4-0.1
				c-0.1,0.6-0.2,1.1-0.2,1.7c0,0.7,0.1,1.5-0.2,2.2c-0.3,0.7-0.4,1.6-0.8,2.3c-0.2-0.3-0.4-0.6-0.5-0.9c0.4-1,0.5-2,0.6-3.1
				c0.1-0.2-0.3-0.2-0.4-0.2c-0.1,1-0.2,2-0.5,3c-0.3,0.7-0.7,1.3-1,1.9c-0.2-2.3,0.1-4.9,1.1-7c1.1-2.4,2.9-4.5,5.1-5.9
				c0.7-0.4,1.4-0.7,2-1.1c-0.6-0.6-1.5-0.5-2.2-0.3c-0.4,0.1-0.8,0.5-1.2,0.7c-0.1,0-0.1,0-0.2,0c0-0.4-0.1-0.8,0-1.2
				c0-0.4,0.6-0.6,0.5-1.1c-0.2-0.2-0.3,0.1-0.5,0.3c-0.3,0.5-0.6,1-1,1.5c-0.4,0.4-0.6,1-0.9,1.5c-0.2-0.6-0.2-1.1-0.2-1.7
				c0.1-0.5,0.5-0.8,0.7-1.2c0-0.2-0.4-0.3-0.4-0.1c-0.8,1.3-1.6,2.6-2.1,4.1c-0.3-0.8-0.4-1.6-0.3-2.4c0.1-0.3,0.4-0.5,0.5-0.7
				c0-0.3-0.4-0.2-0.5,0c-0.3,0.4-0.4,0.9-0.6,1.4c-0.4,0.7-0.6,1.5-0.8,2.2c-0.4-0.7-0.7-1.5-0.3-2.3c0.1-0.4,0.3-0.7,0.6-1
				c-0.1,0-0.4-0.1-0.5,0.1c-0.4,0.5-0.5,1.2-0.8,1.8c-0.5,1-0.7,2.1-0.9,3.2c-0.5-0.7-0.7-1.6-0.8-2.4c-0.1-0.7,0.4-1.3,0.6-1.9
				c-0.1,0.1-0.4,0-0.5,0.1c-0.3,0.5-0.4,1-0.5,1.5c0,0.3-0.3,0.5-0.4,0.7c-0.6,0.7-1.1,1.4-1.5,2.1c-0.3-0.2-0.2-0.6-0.2-0.8
				c0-2.1,1.2-4.2,3-5.4c0.7-0.6,1.6-0.9,2.4-1.3c3.2-1.1,6.8-0.9,10-0.2c0.3,0.1,0.5,0.6,0.9,0.5c0.2-0.2-0.1-0.4-0.3-0.6
				c-0.8-1-0.7-2.3-1-3.5c-0.2-0.5-0.4-0.8-0.5-1.3c0.3,0.2,0.6,0.4,0.9,0.3c-0.2-0.9-0.7-1.6-1.1-2.4c0.6,0.3,1,0.9,1.5,1.3
				c0.3-0.9,0.1-1.8,0.1-2.7c0.8,0.5,1.1,1.3,1.4,2.2c0.3-1,0.6-1.9,1.3-2.7c0,0.6,0,1.1-0.1,1.7c0,0.3,0.1,0.7,0.1,1.1
				c0.6-0.2,1.1-0.6,1.7-0.7c-1,1.4-1.7,3-2,4.8c-0.1,0.4-0.1,0.8,0,1.2c0.1,0,0.3,0,0.3,0c0-0.8,0-1.6,0.4-2.3
				c0.9-1.3,2.2-2.1,3.5-2.9c1-0.6,2-1.1,3-1.6c0.5-0.2,0.8-0.6,1.3-0.8c0.1,0.6-0.5,0.9-0.6,1.4c0.1,0,0.2,0.1,0.2,0.1
				C451.3,253.1,451.4,252.7,451.8,252.5L451.8,252.5z"/>
			<path d="M448.6,255.5c2.4-1,5.3-1.1,7.8-0.4c0,0.1-0.1,0.2-0.1,0.3c-1.4-0.3-2.9-0.5-4.5-0.3c-3.3,0.4-6.5,2.2-8.6,4.8
				c-0.2,0.2-0.4,0.1-0.6,0C444.2,258,446.2,256.4,448.6,255.5L448.6,255.5z"/>
			<path class="st2" d="M430.3,259.9c0.5-0.8,1.1-1.4,1.9-2c-0.1,0.5,0,1.1,0.1,1.6C431.6,259.5,430.9,259.7,430.3,259.9
				L430.3,259.9z"/>
			<path class="st2" d="M432.7,259.5c0.4-0.5,1-0.9,1.7-0.9c1.1,0,2.2,0.6,3.2,1.1c-0.1,0-0.2,0-0.4-0.1
				C435.9,259.3,434.4,259.3,432.7,259.5L432.7,259.5z"/>
			<path class="st2" d="M443.6,263.7c1.6,0.1,3,1.2,3.6,2.6C446.1,265.3,444.9,264.4,443.6,263.7L443.6,263.7z"/>
			<path class="st8" d="M441.6,267.1C441.6,267,441.6,267,441.6,267.1c0.1,0.6-0.1,1.3-0.2,1.9c0.3-0.1,0.5-0.2,0.7-0.4
				c0,1.5-0.1,3,0.1,4.5c0.1,2,0.2,4.1,0.6,6.1c0.2,1.3,0.5,2.6,0.9,4c-0.5-0.1-0.8-0.4-1.2-0.7c-0.3-0.3-0.5-0.7-0.7-1
				c-0.3,0.7-0.7,1.4-1.1,2c-0.4-0.8-0.4-1.8-0.4-2.6c-0.1,0-0.3,0-0.3,0c0,0.4,0,0.8,0,1.1c-0.6,0.3-1.1,0.7-1.7,0.8
				c1.3-2.8,2-5.9,2-8.9c0.1-1.7-0.1-3.4-0.3-5.2c0-0.5,0.2-0.9,0.1-1.4c0.1,0.2,0.1,0.4,0.1,0.6c0-0.2-0.2-0.7,0.2-0.6
				c0.1,0.5,0.2,1,0.1,1.5c0.4-0.1,0.5-0.4,0.7-0.7C441.4,267.8,441.6,267.5,441.6,267.1L441.6,267.1z"/>
		</g>
		<g>
			<g>
				<path d="M377.8,252.5c0.9-0.3,1.9-0.6,2.9-0.7c0.3,0,0.7-0.1,0.8,0.3c0,0.3-0.2,0.5-0.5,0.7c-1.8,1.4-4.2,1.9-6.1,3.2
					c-1,0.6-1.7,1.5-2.3,2.5c-0.8,1.3-1.5,2.7-2.1,4.2c0.9-0.7,1.7-1.5,2.8-1.9c0.5-0.2,1.1-0.1,1.5,0.3c0.6,0.5,0.7,1.3,0.8,2
					c0.2,1.3,0.1,2.6,0,4c-0.1,0.6-0.2,1.3,0.1,2c0.3,0.5,0.9,0.8,1.3,1.2c-1.1,0.1-2.3,0.2-3.2-0.5c-0.9-0.7-1.1-1.9-1.2-2.9
					c0-0.3,0-0.8-0.3-1c-0.3-0.1-0.6,0.1-0.8,0.2c-0.6,0.4-1,1-1.5,1.5c0.1,3.4,0.3,7,0.4,10.5c0.1,0.5-0.3,1-0.7,1.2
					c-0.7,0.4-1.6,0.3-2.4,0c-0.4-0.2-0.8-0.5-0.7-0.9c0.1-4.4,0.3-8.6,0.2-13c-0.1-0.7-0.3-1.4-0.7-2c-0.2-0.4-0.5,0.1-0.7,0.3
					c-0.4,0.7-1,1.4-0.8,2.3c0.4,1.8,0.6,3.7,0.1,5.6c-0.1,0.5-0.3,0.9-0.6,1.3c-0.1,0.1-0.2,0.2-0.4,0.2c-0.3-1.3-0.9-2.5-1.4-3.7
					c-0.5-1.1-1.1-2.3-0.9-3.5c0.2-1.5,0.9-2.8,1.7-4.1c0.5-0.8,1.2-1.7,2.2-1.7s1.5,1,2,1.8c-0.1-1-0.1-1.9-0.4-2.8
					c-0.2-0.7-0.5-1.4-1.1-1.8c-0.8-0.5-1.6-0.7-2.4-1.1c-1.7-0.8-3.3-2-5.1-3c-0.3-0.2-0.7-0.2-1-0.5c1.5-0.2,3.1-0.4,4.7-0.4
					c1.1,0,2.1,0.1,3.1,0.5c0.9,0.4,1.7,1,2.5,1.6c0.6,0.5,1.3,1,1.7,1.7c0.2,0.4,0.4,0.9,0.3,1.4c-0.2,0.2-0.1,0.3,0.1,0.4v-0.2
					c0.7-1.6,2.2-2.7,3.7-3.4C374.9,253.4,376.4,253,377.8,252.5L377.8,252.5z"/>
				<path class="st7" d="M378.6,252.7c0.8-0.2,1.6-0.5,2.5-0.5c-0.3,0.6-0.9,0.8-1.4,1.1c-1.8,1.1-4,1.6-5.6,2.8
					c-1.1,0.8-1.8,2-2.4,3.1c-0.7,1.3-1.3,2.6-1.9,3.9c-0.1,0.2-0.1,0.4-0.2,0.6c0.4,0.2,0.6-0.2,0.9-0.4c0.7-0.7,1.5-1.4,2.4-1.9
					c0.4-0.2,0.9-0.4,1.4-0.1c0.6,0.5,0.8,1.3,0.8,2c0.1,1.1,0,2.3,0,3.4c-0.1,0.7-0.2,1.5-0.1,2.2c0.1,0.4,0.4,0.7,0.7,1
					c-0.7,0.1-1.4-0.1-1.9-0.6c-0.6-0.5-0.8-1.3-0.9-2.1c0-0.5,0-1.1-0.3-1.5c-0.3-0.4-0.8-0.3-1.2-0.1c-1,0.5-1.6,1.5-2.3,2.4
					c-0.1,0.2-0.4,0.2-0.7,0.2c-0.9-0.9-1.1-2.2-1.5-3.5c-0.2-0.6-0.3-1.3-0.8-1.8c-0.4-0.3-0.8,0-1.1,0.3c-0.5,0.9-1.3,1.7-1,2.8
					c0.5,1.8,0.6,3.9,0,5.7c-0.1,0.1-0.2,0.3-0.3,0.2c-0.1-0.2-0.2-0.4-0.3-0.6c-0.4-1.5-1.3-2.9-1.7-4.5c-0.2-1.2,0.2-2.4,0.7-3.4
					c0.5-0.9,0.9-1.9,1.7-2.6c0.2-0.2,0.6-0.5,1-0.4c0.6,0,1,0.5,1.3,1c0.4,0.5,0.5,1.2,0.8,1.8c0.1,0,0.3,0,0.3,0
					c0-0.4,0-0.8,0-1.2c-0.2-1.5-0.2-3.2-1-4.7c-0.6-0.8-1.7-1.1-2.5-1.5c-2-0.8-3.6-2.1-5.5-3.2c1.5-0.2,3.1-0.3,4.7-0.2
					c1.9,0.2,3.4,1.4,4.8,2.6c0.5,0.4,1,0.9,1.2,1.5c0.3,1.5-0.2,2.9-0.2,4.5c0.1,0,0.3,0,0.3,0c0.1-1.4,0.5-3,1.3-4.3
					c0.8-1.2,2.2-2,3.5-2.5C375.6,253.6,377.1,253.1,378.6,252.7L378.6,252.7z"/>
				<path class="st8" d="M367.1,267.6c0-0.3,0-0.6,0.1-0.9c0,0.2,0,0.4,0.1,0.6c0.3,0.5,0.5,1,0.9,1.3s1,0.1,1.3-0.3
					c0,1.2,0.1,2.4,0.1,3.6c0.1,1.6,0.1,3.1,0.2,4.8c0,0.6,0,1.3-0.1,1.9c-0.3,0.5-1,0.6-1.6,0.6c-0.5,0-1-0.2-1.4-0.6
					c0.1-1.4,0.1-2.9,0.2-4.5C367.1,272,367.1,269.8,367.1,267.6L367.1,267.6z"/>
			</g>
			<g>
				<path d="M373.2,251.8c0.4,0.4,0.7,0.8,1.2,1.1c1,0.6,2.2,0.9,3.4,1.1c0.9,0.2,1.9,0.2,2.7,0.7c1.1,0.6,1.7,1.9,1.9,3.1
					c1-0.6,2.1-1.1,3.2-1.5c0.7-0.2,1.5-0.3,2.2,0.1c0.7,0.3,1.1,1.1,1.3,1.8c0.5,1.3,0.6,2.7,0.6,4.2c-1.5-0.4-2.8-1.2-3.9-2.3
					c-1,1-2,2-3,2.9c-0.2,0.2-0.5,0.5-0.7,0.8c-0.1,0.4-0.1,0.8-0.1,1.2c0.9-0.8,1.9-1.7,3.2-1.8c1.2,0,2,1,2.5,1.9
					c0.9,1.9,1.3,4.1,1.5,6.2c-1.5-1-2.8-2.4-4.4-3.6c-0.2-0.1-0.5-0.3-0.8-0.1c-0.5,0.4-0.8,0.9-1.1,1.4c0.8,0.6,1.6,1.2,2,2.2
					c0.4,1.1,0.2,2.2-0.2,3.3c-0.5,1.4-1.2,2.8-0.9,4.4c-0.7,0-1.4-0.2-1.8-0.9c-0.6-1-0.4-2.3-0.2-3.4c0.2-0.8,0-1.8-0.7-2.3
					c-0.4-0.3-0.9,0-1.2,0.3c-0.3,0.4-0.4,0.8-0.6,1.2c-1.2,2.6-2.3,5.4-3.5,8c-0.2,0.3-0.4,0.6-0.7,0.7c-0.6,0.2-1.3,0-1.8-0.3
					c-0.5-0.3-1-0.7-1.2-1.2v-0.4c1.8-3.3,3.6-6.7,5.3-10c0.1-1.1,0.1-2.2,0.1-3.2c0-1.6-0.1-3.1,0.3-4.8c0.2-0.8,0.7-1.6,1.2-2.3
					c-0.2-0.5-0.4-1-0.9-1.4c-0.6-0.5-1.3-0.6-2-1C374.3,256.7,373,254.3,373.2,251.8L373.2,251.8z"/>
				<path class="st7" d="M373.7,253c1.5,1.1,3.4,1.5,5.3,1.7c1.7,0.2,3.1,1.8,3.1,3.5c-0.8,0.5-1.7,1-2.3,1.7
					c-0.2-0.5-0.5-1-0.9-1.3c-0.7-0.6-1.6-0.7-2.3-1.2C374.9,256.5,373.7,254.8,373.7,253L373.7,253z"/>
				<path class="st7" d="M382.6,258.4c1.1-0.6,2.3-1.3,3.5-1.6c0.6-0.1,1.3-0.2,1.7,0.2c0.7,0.5,1,1.3,1.2,2
					c0.2,0.9,0.3,1.9,0.4,2.9c-0.8-0.1-1.4-0.6-2.1-1c-0.5-0.4-0.9-0.8-1.3-1.2c-0.2,0-0.3,0.2-0.4,0.3c-1.5,1.5-3.1,2.9-4.6,4.6
					c-0.4,0.4-0.3,1-0.4,1.5c-0.2,0.8-0.1,1.7-0.4,2.4c-0.1,0.2-0.3,0.3-0.5,0.4c-0.5,0.3-0.9,0.7-1.4,1.2c-0.1,0-0.2,0-0.2,0
					c0-1.8,0-3.6,0-5.5c0.1-1,0.2-2.1,0.7-3C379.7,260.1,381.2,259.1,382.6,258.4L382.6,258.4z"/>
				<path class="st7" d="M384.5,264.1c0.6-0.4,1.5-0.3,2.1,0.1c0.6,0.5,1,1.2,1.3,1.8c0.5,1.4,0.9,2.9,1.1,4.6
					c-1.2-0.9-2.2-1.9-3.4-2.8c-0.3-0.3-0.7-0.6-1.2-0.4c-0.7,0.3-1,1-1.5,1.5c-0.2,0-0.4-0.1-0.6-0.2c-0.5-0.2-1-0.2-1.5-0.2
					c0.4-0.9,0.8-1.7,1.4-2.5C382.8,265.2,383.6,264.5,384.5,264.1L384.5,264.1z"/>
				<path class="st7" d="M381.8,264.5c0.1,0.4,0,0.9,0,1.3c-0.2,0.4-0.5,0.7-0.6,1.1c0-0.5,0.1-1.1,0.2-1.6
					C381.3,264.9,381.6,264.7,381.8,264.5L381.8,264.5z"/>
				<path class="st7" d="M379.8,269.3c0.7-0.4,1.5-0.5,2.1-0.2c1,0.3,1.8,1,2.5,1.8c0.6,0.8,0.5,1.8,0.4,2.8c-0.4,1.7-1.2,3.2-1.2,5
					c-0.3-0.1-0.7-0.3-0.9-0.6c-0.2-0.4-0.4-0.8-0.3-1.2c0-0.7-0.1-1.3,0.1-2c0.2-0.8,0-1.6-0.4-2.3c-0.3-0.4-0.8-0.7-1.3-0.6
					c-0.5,0.1-0.8,0.6-1.2,0.9c-0.2,0.2-0.4,0-0.6-0.1c-0.5-0.3-1-0.6-1.1-1.2C378.3,270.7,379,269.8,379.8,269.3L379.8,269.3z"/>
				<path class="st8" d="M373,280.4c1.6-2.8,3-5.7,4.6-8.6c0.4,0.8,1.2,1.2,1.9,1.5c-0.5,1-0.9,2.1-1.4,3.2
					c-0.7,1.7-1.5,3.4-2.2,5.2c-0.1,0.3-0.4,0.6-0.7,0.6c-0.8,0-1.6-0.5-2.1-1.1C372.8,280.9,372.9,280.7,373,280.4L373,280.4z"/>
			</g>
			<g>
				<path d="M361.4,254.3c2.2-0.7,4.5-1.3,6.6-2.2c0.3,0,0.4,0.3,0.2,0.5c-1.6,2-3.7,3.5-6,5c-0.5,0.4-0.8,0.9-1.2,1.4
					c-0.9,1.5-1.5,3.2-1.8,5c-0.1,0.7-0.2,1.3-0.1,2c1.3,4,2.7,7.9,3.9,11.9c0.1,0.6,0.4,1.3,0.3,2c-0.3,1-1.4,1.7-2.4,1.6
					c-0.6,0-1.1-0.4-1.3-1c-0.8-3.2-1.8-6.5-2.8-9.7c-0.5-0.1-1.1,0-1.5,0.3c-0.9,0.6-1.4,1.5-1.9,2.4c-1.1,2.2-1.6,4.7-1.8,7
					c-1.4-1.2-2.4-3-2.5-5c0-1.7,0.3-3.5,1.4-5c1-1.4,2.6-2.4,4.4-2.5c-0.8-0.6-1.8-1-2.8-0.9c-0.9,0.1-1.8,0.6-2.2,1.4
					c-0.5,1.2-0.4,2.6-0.7,3.9c-0.6-1.2-1.3-2.2-1.9-3.4c-0.4-0.9-0.2-2,0.3-2.8c0.9-1.3,2.1-2.5,3.7-2.6s3,0.9,4.1,2
					c-0.4-2.2-1.1-4.6-2.8-6c-0.5-0.5-1.4-0.7-1.9,0c-0.8,1.2-0.9,2.6-1.4,3.9c-0.6-1-1.5-1.9-1.8-3.2c-0.3-1.1,0.2-2.2,0.7-3.3
					c0.5-0.9,1-1.8,2-2.3c0.7-0.4,1.6-0.4,2.3,0c1.1,0.6,1.8,1.6,2.5,2.5c0.9,1.3,1.7,2.7,2,4.4c0.1-1.9,0.6-4,2-5.4
					C359.5,255.1,360.4,254.6,361.4,254.3L361.4,254.3z"/>
				<path class="st7" d="M361.8,254.6c1.9-0.6,3.9-1.2,5.8-1.9c-1.6,1.7-3.4,3.1-5.4,4.4c-0.8,0.5-1.2,1.4-1.7,2.1
					c-0.8,1.5-1.3,3.1-1.6,4.9c-0.2,0.9,0,1.9-0.2,2.8c-0.1,0.6-0.2,1.2-0.5,1.7l-0.1,0.1c-0.6-0.2-1-0.5-1.6-0.6
					c-0.4-0.1-1-0.1-1.3-0.4c-0.9-0.7-2.1-1.2-3.3-1.1c-0.9,0-1.9,0.5-2.4,1.3c-0.4,0.8-0.5,1.7-0.7,2.6c-0.3,0.2-0.4-0.2-0.6-0.5
					c-0.5-0.8-1.1-1.7-1-2.7c0.2-0.9,0.8-1.6,1.5-2.2c0.8-0.8,1.9-1.4,3-1.2c1.1,0.2,2.1,0.9,2.9,1.7c0.4,0.3,0.6,0.7,0.9,1
					c0.1-0.8-0.2-1.6-0.3-2.4c-0.4-1.3-0.9-2.6-1.6-3.7c-0.4-0.6-0.9-1.2-1.6-1.6c-0.6-0.3-1.5-0.2-1.9,0.4
					c-0.7,0.9-0.8,2.1-1.2,3.1c-0.8-1-1.5-2.2-1.2-3.5c0.3-1.3,1-2.7,2-3.6c0.6-0.6,1.6-0.7,2.3-0.3c1.1,0.6,1.9,1.6,2.6,2.6
					c1.4,2,2.2,4.5,2.1,6.9c-0.1,0.3,0.3,0.5,0.4,0.1c0-0.9,0-1.7,0.1-2.5c0.1-2,0.4-4.2,1.8-5.7
					C359.7,255.4,360.7,254.9,361.8,254.6L361.8,254.6z"/>
				<path class="st8" d="M359.1,266.9c0.8,2.1,1.5,4.4,2.2,6.6c0.6,1.8,1,3.6,1.6,5.5c0.3,1.2-1.1,2.2-2.2,1.9
					c-0.4,0-0.7-0.4-0.7-0.7c-0.8-3.1-1.7-6.2-2.6-9.2c0.6,0.4,1.3,0.8,2,0.7c0.3,0,0.5-0.2,0.7-0.4c0.1-0.4,0.1-1-0.3-1.3
					c-0.4-0.4-0.9-0.7-1.3-1C358.8,268.4,359,267.7,359.1,266.9L359.1,266.9z"/>
				<path class="st7" d="M351.3,269.9c1-1,2.4-1.6,3.7-1.5c1.6,0,3,0.8,4.3,1.8c0.3,0.2,0.3,0.6,0.3,0.9c-0.8,0.4-1.5-0.1-2.2-0.5
					c-0.6-0.5-1.4-0.5-2.1-0.1c-1,0.5-1.7,1.5-2.2,2.5c-1.1,2-1.7,4.3-1.9,6.5c-1.2-1.1-1.9-2.8-1.8-4.5
					C349.3,273.1,349.9,271.1,351.3,269.9L351.3,269.9z"/>
			</g>
		</g>
		<g>
			<path d="M442,266.3c0.8-0.2,1.7,0,2.2,0.7c0.5,0.7,0.5,1.7-0.1,2.4c-0.8,0.9-2.5,0.7-3.1-0.3C440.3,268.1,440.9,266.5,442,266.3
				L442,266.3z"/>
			<path class="st8" d="M442.1,266.7c0.5-0.1,1.1,0,1.5,0.3c0.7,0.6,0.6,1.8-0.2,2.3c-0.4,0.2-0.8,0.3-1.3,0.2
				c-0.5-0.1-0.8-0.5-1-0.9C440.9,267.9,441.3,266.9,442.1,266.7L442.1,266.7z"/>
		</g>
		<g>
			<path d="M381.6,315c0.4-0.3,0.6-0.7,1-0.7c0.3,0,0.4,0.3,0.4,0.6c0.1,0.9-0.4,1.7-1,2.3c0.2,0,0.6,0,0.6,0.3
				c-0.1,0.9-0.6,1.7-1.1,2.4c2.2-0.4,4.4-1,6.3-2.3c0.7-0.5,1.4-1,1.9-1.7c0.2-0.3,0.8-0.4,1,0c0.2,0.3,0,0.7,0,1.1
				c-0.4,1-1.1,1.8-1.7,2.7c0.4-0.1,1-0.1,1,0.5c-0.1,0.8-0.8,1.3-1.3,1.9c0.3,0.2,0.3,0.6,0.2,0.9c-0.6,1-1.4,1.8-2.2,2.6
				c0.2,0.3,0.1,0.6-0.1,0.8c-0.7,0.6-1.3,1.4-2.2,1.8c0.1,0.1,0.2,0.2,0.3,0.2c0.1,0.8-0.8,1.3-1.4,1.5c-0.2,0.7-0.8,1.1-1.4,1.4
				c0.9,0.9,1.3,2,1.7,3.2c0.7,1.8,1.3,3.6,2.4,5.3c0.8,1.2,1.9,2.2,3.3,2.8c0.5,0.2,1.1,0.4,1.6,0.7c0.3,0.2,0.5,0.5,0.4,0.8
				c-0.1,0.5-0.6,0.9-1,1.2c0,1.1-1.4,1.9-2.2,1.2c-0.2,0.2-0.5,0.5-0.9,0.5c-0.4,0-0.6-0.4-1-0.3c-0.5,0.1-1.2,0.1-1.6-0.2
				c-0.5-0.4-0.7-1.2-0.9-1.7c-0.4-1.2-1.1-2.3-2.1-3.2s-2.3-1.4-3.5-1.8c-0.6-0.2-1.2-0.3-1.7-0.1c-0.6,0.2-0.8,0.8-1,1.3
				c-0.1,0-0.2-0.1-0.4-0.1c0-0.4,0-1-0.5-1.1c-0.6,0.2-0.8,0.8-1.2,1.2c-0.1-0.5-0.2-1-0.5-1.4c-0.3,0.2-0.5,0.5-0.6,0.8
				c-0.2-0.1-0.2-0.4-0.2-0.6c-0.1-0.8,0.3-1.6,0.9-2.1c-0.5-0.3-0.9-0.6-1.3-0.9c-0.5,0.3-0.9,0.7-1,1.2c-0.1,0.2-0.1,0.4-0.2,0.6
				c-0.3-0.6-0.5-1.2-0.6-1.8c-0.4,0.2-0.8,0.5-0.9,1c-0.1,0.1-0.1,0.4-0.3,0.3c-0.2-0.5-0.3-1.1-0.4-1.7c-0.2,0-0.4,0-0.6,0
				c-0.2,0.2-0.3,0.6-0.5,0.8c-0.1-0.7-0.1-1.4,0.2-2c0.3-0.5,0.9-0.8,1.4-1c-1-1.7-1.5-3.9-1.2-6c0.2-1.7,0.7-3.4,0.4-5.2
				c-0.2-1.1-0.8-2.1-1.7-2.6c-0.6-0.1-1.2,0-1.9,0c-0.5,0.6-1,1.3-1.5,2c0.8,0.6,1.4,1.3,1.9,2.1c0.3,0.5,0.6,0.9,0.6,1.5
				c0,1.2-0.8,2.1-0.7,3.3c0,0.5,0.2,0.9,0.4,1.4c-1.1,0-2.1-0.6-2.9-1.4c-0.7,1.2-1.6,2.3-2.6,3.2c-0.4,0.4-0.8,0.7-1.3,0.9
				c-0.2-0.7-0.3-1.4-0.2-2.1c0.1-1.4,0.3-2.8,0.9-4.2c-0.7,0.1-1.5,0.3-2.2,0c0-0.5,0.2-1,0.4-1.5c-1.2,0.3-2.6,0.4-4,0.1
				c0.1-0.8,0.6-1.5,1.1-2.1c-1.6,0.2-3.1-0.5-4.5-1.2c0.8-0.9,1.9-1.5,3.1-1.7c-1.2-0.8-2.3-1.9-2.8-3.4c0-0.2-0.2-0.6-0.1-0.8
				c0.8-0.3,1.7-0.1,2.5,0.2c0.8,0.3,1.6,0.6,2.3,1.2c-0.1-0.9,0.3-1.9,0.8-2.7c0.1,0.3,0.1,0.6,0.4,0.8c0.7,0.4,1.4,0.8,2,1.3
				c0.4,0.4,0.8,0.9,1,1.4c0.2-0.8,0.2-1.7,0-2.5c0.6,0.2,1,0.6,1.4,1c0.7,0.8,1.3,1.7,1.8,2.6c0.4-0.6,0.8-1.3,1-2
				c0.6,0,1.2,0,1.8,0c0.1-1.1,1.1-2.1,2.2-2.2c1.5-0.3,2.8,0.8,4.3,0.7c0.6,0,1-0.3,1.4-0.6c0.1,1-0.3,2-1.1,2.7
				c0.6,0.3,1.2,0.9,1.4,1.5c0.5,0.9,0.4,2,1.1,2.9c0.7,0.8,1.8,1.2,2.6,1.8c0.1-0.8-0.5-1.4-1.1-1.9c-0.9-0.6-1.4-1.7-1.4-2.8
				c0-1,0.7-1.8,1.4-2.3c0.8-0.5,1.7-0.7,2.6-1C379.1,316.2,380.5,315.7,381.6,315L381.6,315z"/>
			<path class="st2" d="M381.5,315.6c0.4-0.2,0.8-0.6,1.2-0.9c0.2,1.3-0.7,2.3-1.6,3c-0.6,0.2-1.3,0.2-1.7,0.7
				c0.1,0.1,0.2,0.2,0.3,0.3c0.4-0.5,1-0.5,1.6-0.6c0.4-0.1,0.7-0.3,1.1-0.5c-0.2,0.9-0.7,1.7-1.4,2.3c-0.7,0.1-1.5,0-2.2,0.4
				c-1,0.4-1.6,1.5-1.7,2.5c-0.1,0.7,0.1,1.5-0.2,2.2c0-0.4,0.1-0.8,0-1.2c-0.3-0.8-0.9-1.2-1.5-1.8c-0.8-0.7-1.2-2-0.7-3
				c0.4-0.8,1.2-1.3,2.1-1.6C378.2,317,379.9,316.5,381.5,315.6L381.5,315.6z"/>
			<path class="st2" d="M365.1,317c0.6-0.9,1.9-1.2,2.9-0.8c1.2,0.4,2.4,1,3.6,0.4c-0.1,0.6-0.3,1.1-0.8,1.4
				c-0.3,0.2-0.6,0.2-0.9,0.4c0.6,0.2,1.4,0.5,1.8,1.1c0.7,1.1,0.6,2.6,1.5,3.6c0.7,0.9,1.9,1.2,2.7,1.9c0.1,0.1,0.3,0.3,0.2,0.5
				c-0.3,0.5-0.8,0.9-1.3,1.2c0.1,0.1,0.1,0.2,0.2,0.3c1.1-0.6,2-1.7,2-3c0-0.9-0.1-1.8,0.5-2.6c0.4-0.7,1.3-1,2.1-1.1
				c2.4-0.1,4.8-0.7,7-1.8c1.1-0.6,2.2-1.3,3-2.2c0.1-0.2,0.3-0.3,0.5-0.4c0.1,0.6-0.2,1.1-0.5,1.5c-0.5,0.8-1,1.5-1.6,2.3
				c-0.9,0.4-2,1-3.1,0.8c0,0.1-0.1,0.3-0.1,0.3c1,0.4,2-0.1,2.9-0.5c0.5-0.2,1-0.5,1.5-0.3c-0.2,0.6-0.7,1.1-1.2,1.6
				c-0.6,0.6-1.2,1.1-2,1.4c-0.5,0.2-1,0.2-1.5,0.2c0,0.1,0,0.3,0,0.4c1,0,2-0.3,2.8-0.8c0.2-0.2,0.5-0.4,0.8-0.5
				c0.1,0.3-0.2,0.6-0.3,0.8c-0.5,0.8-1.2,1.4-1.9,2c-0.1,0.1-0.2,0.2-0.4,0.2c-0.7,0.1-1.5,0.3-2.2,0.4c0,0.1,0,0.2,0,0.3
				c0.9,0,1.8-0.5,2.7-0.3c-0.7,0.7-1.4,1.6-2.5,1.9c-0.4,0.2-0.8,0-1.2-0.1c0,0.1,0,0.3,0,0.4c0.4,0.2,0.9,0.3,1.4,0.4
				c-0.4,0.7-1.2,0.9-1.9,1c0,0.1,0,0.3,0,0.4c0.1,0,0.3,0,0.5,0c-0.5,0.6-1.1,1-1.7,1.2c1.2,0.7,1.7,2.1,2.1,3.4
				c0.7,2,1.4,4.1,2.8,5.7c1,1.2,2.3,2.3,3.7,2.8c0.4,0.2,1,0.3,1.3,0.8c-0.2,0.4-0.4,0.7-0.8,0.9c-0.5-0.7-1.4-1.2-2.1-1.7
				c-0.2-0.3-0.5,0.2-0.2,0.3c0.7,0.5,1.5,0.9,2,1.5c0.2,0.2,0.2,0.5,0,0.8c-0.3,0.3-0.8,0.7-1.2,0.4c-0.4-0.2-0.2-0.7-0.5-0.9
				c-0.6-0.8-1.3-1.4-2-2.1c0,0.1-0.2,0.2-0.2,0.3c0.6,0.8,1.5,1.3,2,2.1c0.2,0.5-0.2,0.8-0.6,0.9c-0.5-0.2-0.8-0.6-1-1.1
				c-0.3-0.5-0.6-1.1-1-1.6c-0.1,0.1-0.2,0.1-0.4,0.2c0.4,0.8,0.9,1.5,1.3,2.2c-0.4,0-1,0.1-1.3-0.2c-0.5-0.5-0.5-1.1-0.8-1.7
				c-0.4-1-0.9-2-1.7-2.7c-0.9-1-2.1-1.6-3.4-2.1c-0.7-0.3-1.4-0.5-2.2-0.6c-0.7,0-1.4,0.4-1.6,1c-0.2-0.3-0.3-0.7-0.7-0.8
				c-0.5-0.1-0.8,0.3-1.1,0.6c-0.1-0.3-0.2-0.6-0.5-0.7c-0.2-0.1-0.4,0-0.5,0c0.2-0.5,0.4-1,0.8-1.4c0.6,0.1,1.2,0.3,1.8,0.2v-0.2
				l-0.1-0.2c-1.5,0.1-2.9-0.8-4-1.9c-0.4,0.2-0.2,0.5,0.1,0.7c-0.4,0.3-0.7,0.6-1,1.1c-0.2-0.5-0.3-1-0.3-1.5
				c-0.5,0.3-1,0.6-1.5,1.1c0-0.4-0.1-0.8,0-1.2c-0.4-0.1-0.8-0.1-1.2-0.1c0.2-0.6,0.8-1.2,1.5-1.2c0.3,0.3,0.4,0.7,0.7,0.9
				c0.1,0,0.2-0.1,0.3-0.2c-1.5-1.9-2.4-4.5-2.1-6.9c0.2-1.8,0.7-3.7,0.4-5.6c-0.2-1.2-0.9-2.2-2-2.8c-0.5-0.1-1.1,0-1.7-0.1
				c-0.4-0.1-0.8,0.2-1.2,0.3c0.4-0.9,1.2-1.4,2-1.8C364.7,318,364.8,317.4,365.1,317L365.1,317z"/>
			<path class="st7" d="M354.7,316.4c0.2-0.2,0.5,0.1,0.6,0.2c1.1,0.6,2.1,1.3,2.6,2.5c0.1,0.2,0.1,0.6,0.4,0.7
				c0.4-0.9,0.4-1.8,0.4-2.7c0.6,0.3,0.9,0.8,1.3,1.2c0.5,0.7,1,1.5,1.2,2.4c0.4-0.1,0.5-0.4,0.7-0.6c0.3-0.5,0.6-1,0.8-1.6
				c0.3-0.2,0.8-0.1,1.2-0.1c-0.7,0.6-1.7,1.2-1.7,2.2c0.2,0.1,0.3,0.1,0.5,0.2c-0.3,0.6-0.8,1.1-1.2,1.7c1.1,0.8,1.9,1.8,2.5,3
				c0.3,1-0.2,1.9-0.5,2.8c-0.2,0.6-0.1,1.3,0.1,1.9c-0.9-0.2-1.6-0.9-2.2-1.5c0,0-0.1,0-0.2,0c-0.8,1.5-1.8,2.8-3.1,3.9
				c-0.1,0.1-0.3,0.1-0.4,0.2c0-0.8,0-1.6,0-2.3c0.1-0.9,0.3-1.8,0.7-2.6c0.1-0.3,0.4-0.6,0.4-0.9c0,0-0.1-0.1-0.2-0.1
				c-0.7,0.2-1.5,0.4-2.2,0.3c0.1-0.4,0.3-0.8,0.5-1.2c0.1-0.1,0.2-0.3,0-0.5c-0.5,0-1,0.3-1.5,0.3c-0.8,0.1-1.6,0.1-2.4-0.1
				c0.2-0.7,0.7-1.3,1.2-1.9c0.1-0.1,0.2-0.4,0-0.5c-0.5,0.1-1,0.2-1.4,0.2c-1-0.1-1.9-0.4-2.8-0.9c-0.2-0.1,0-0.3,0.1-0.4
				c0.7-0.6,1.7-1,2.7-1.1c0.2,0,0.2-0.2,0.2-0.4c-0.9-0.4-1.7-1.1-2.3-1.9c-0.4-0.6-0.8-1.2-0.9-1.9c1.7-0.1,3.3,0.6,4.7,1.7
				c0,0,0.2-0.1,0.3-0.1C354.3,317.8,354.5,317,354.7,316.4L354.7,316.4z"/>
			<path d="M366.5,317.7c0.2-0.2,0.6-0.1,0.6,0.2c0,0.4-0.5,0.6-0.8,0.4C366.3,318.1,366.3,317.8,366.5,317.7L366.5,317.7z"/>
			<path d="M381.1,321.3c0.1-0.1,0.1-0.2,0.2-0.3c0.3,0.2,0.6,0.6,0.7,1c0.1,0.7-0.2,1.3-0.6,1.7c0.7,0.7,0.7,2,0,2.6
				c-0.3,0.3-0.8,0.4-1.3,0.4c-0.2,0.4-0.4,0.9-0.8,1.1c-0.6,0.4-1.4,0.3-2,0c0.1-0.1,0.1-0.2,0.1-0.4c0.4,0.1,0.8,0.3,1.2,0.1
				c0.5-0.1,0.8-0.6,1-1c-0.1-0.1-0.3-0.1-0.4-0.2c0.1-0.6,0.6-0.1,0.9-0.2c0.8,0.1,1.4-0.7,1.3-1.4c0-0.3-0.2-0.6-0.4-0.9
				c-0.2,0.1-0.3,0.2-0.5,0.2c0-0.1-0.1-0.3-0.1-0.3c0.5-0.4,1.1-0.9,1.1-1.6C381.6,321.9,381.4,321.6,381.1,321.3L381.1,321.3z"/>
		</g>
		<g>
			<path d="M449.2,314.6c2.1-0.4,4.2-0.4,6.3-0.4c0.8,0,1.6,0.2,2.1,0.8c0.6,0.7,0.6,1.6,0.4,2.4c-0.1,0.5-0.4,1.2-0.9,1.3
				c-0.5,0.1-0.9-0.3-1.3-0.5c-1.2-0.5-2.5-0.6-3.9-0.5c-1.8,0.1-3.6,0.5-5.3,1.5c-0.1,0.2-0.1,0.5-0.1,0.8c0.5-0.2,1.2-0.3,1.7,0.2
				c0.6,0.5,0.7,1.2,0.6,2c0.4-0.1,0.8-0.2,1.2,0c0.6,0.3,0.9,1,0.9,1.7c0.9,0.2,1.4,1,1.4,1.9c0.4,0.2,0.8,0.6,0.9,1
				c0.2,0.9-0.2,1.9-0.6,2.7c-1.1,2-2.6,4-4.7,5.1c0,0.6-0.3,1.2-0.7,1.6c-0.8,1-1.9,1.8-3,2.6c-1.1,0.8-2.2,1.6-3.5,2
				c0,0.4-0.1,0.8-0.4,1.2c-0.7,0.9-1.7,1.6-2.6,2.3c-0.8,0.5-1.7,1.1-2.7,1.2c-0.6,0.1-1.2-0.3-1.4-0.9c-0.4,0.1-0.9,0.3-1.3,0
				c-0.2-0.2-0.2-0.5-0.3-0.7c-0.5,0.4-1.2,0.6-1.8,0.5c-0.3,0.4-0.7,0.9-0.8,1.5c-0.1,0.6,0.1,1.2,0.2,1.7c0.1,0.6,0,1.2,0.4,1.6
				c0.2,0.4,0.5,0.7,0.5,1.1c-0.9,0.6-1.7,1.5-2,2.5c-0.5-0.3-1-0.8-1.3-1.3c-0.5,0.5-1.3,0.9-1.4,1.6c-0.7-0.2-1.2-0.7-1.7-1.2
				c-1.1,0.8-2.5,1.2-3.9,1.3h-0.3l-0.1-0.1c0.7-1.1,1.3-2.4,1.5-3.7c0.1-0.8,0.5-1.5,1.2-1.7c1.2-0.5,2.7-0.8,3.5-2
				c0.7-1.1,1.3-2.3,2.1-3.4c-0.8-0.3-0.9-1.3-0.8-2c-0.3-0.1-0.7-0.2-0.8-0.4c-0.3-0.6-0.2-1.3-0.2-1.9c0.3-1.7,0.8-3.4,1.3-5.2
				c0.4-0.9,0.7-2,1.8-2.3c0.1-1.7,0.5-3.3,1.2-4.8c0.6-1.2,1.2-2.5,2.2-3.4c0.6-0.5,1.3-0.9,2.1-0.7c0.3-1.2,0.8-2.2,1.5-3.2
				c0.5-0.7,1-1.3,1.5-2c0.6-0.7,1.3-1.5,2.2-1.7c1-0.1,1.7,0.8,1.7,1.7c0.4-0.3,0.9-0.5,1.4-0.5c0.5,0,0.8,0.4,1.1,0.8
				C445.8,315.6,447.4,315,449.2,314.6L449.2,314.6z"/>
			<path class="st8" d="M444.5,317.1c2.6-2,6-2.5,9.2-2.5c0.8,0,1.7,0,2.5,0.1c-0.2,0.4-0.5,0.9-0.6,1.4c-0.1,0.6,0,1.2,0,1.8
				c-0.6-0.3-1.2-0.4-1.9-0.5c-2.5-0.2-5.2,0.1-7.3,1.4c-0.3-0.7-1.2-1.1-1.9-0.8C444.5,317.7,444.5,317.4,444.5,317.1L444.5,317.1z
				"/>
			<path class="st6" d="M439,315.6c0.4-0.3,0.9-0.7,1.4-0.5c0.8,0.2,1.2,1.5,0.5,2c-0.7,0.7-1.2,1.5-1.9,2.2c-0.8,1-1.4,2.1-1.7,3.2
				c-0.5,0-0.9,0-1.4,0.2c-0.1-0.4-0.4-0.8-0.8-1c0.3-1.2,0.8-2.4,1.6-3.3C437.5,317.4,438.2,316.5,439,315.6L439,315.6z"/>
			<path class="st8" d="M456.7,315.1c0.2-0.1,0.5,0,0.5,0.1c0.5,0.6,0.5,1.5,0.3,2.2c-0.1,0.4-0.3,0.9-0.8,0.9
				c-0.3,0-0.5-0.4-0.5-0.6C456.1,316.8,456.2,315.9,456.7,315.1L456.7,315.1z"/>
			<path class="st6" d="M442.1,316.7c0.4-0.3,0.9-0.5,1.4-0.3c0.7,0.3,0.8,1.3,0.4,1.9c-1.1,0.9-1.9,2.2-2.8,3.3
				c-0.6,0.8-1.2,1.7-1.8,2.6c-0.2,0-0.4-0.1-0.7-0.1c-0.1-0.6-0.3-1.1-0.8-1.4c0.4-1.1,0.9-2.3,1.7-3.2
				C440.3,318.6,441.1,317.5,442.1,316.7L442.1,316.7z"/>
			<path class="st6" d="M442.7,320.3c0.6-0.7,1.1-1.5,2-1.9c0.7-0.3,1.5,0.4,1.4,1.1c-0.2,1-0.9,1.7-1.5,2.5c-1,1.1-1.9,2.4-3,3.4
				c-0.5,0-1,0.1-1.4,0.4c0.1-0.5-0.1-1-0.5-1.4C440.4,323.1,441.7,321.7,442.7,320.3L442.7,320.3z"/>
			<path class="st6" d="M446,321c0.3-0.4,0.8-0.6,1.2-0.7c0.7,0,1.1,0.7,1.1,1.4c0,0.7-0.4,1.3-0.7,1.9c-1,1.5-2.3,2.8-3.7,4
				c-0.3,0.2-0.7,0.2-1.1,0.3c0.1-0.4,0.2-0.9,0-1.3c-0.2-0.4-0.5-0.6-0.8-0.8c0.9-0.9,1.7-2,2.6-3C445,322.2,445.5,321.7,446,321
				L446,321z"/>
			<path class="st6" d="M433.7,322.2c0.7-0.4,1.8,0,1.9,0.9c-1.2,0.9-1.9,2.2-2.5,3.5c-0.8,1.6-1.4,3.4-1.7,5.3c-0.2,0-0.3,0-0.4,0
				c0-0.7-0.6-1.1-1.1-1.4c0-2.3,0.9-4.5,2.1-6.4C432.2,323.4,432.8,322.6,433.7,322.2L433.7,322.2z"/>
			<path class="st6" d="M448.2,323.6c0.2-0.4,0.3-1,0.8-1.1c0.6-0.3,1.2,0.1,1.4,0.7c0.2,0.5,0,1.1-0.2,1.6c-0.6,1.1-1.4,2-2.2,2.8
				c-0.7,0.8-1.5,1.5-2.4,2c0-0.3,0.1-0.7-0.1-1c-0.2-0.4-0.7-0.7-1.1-0.9C445.6,326.6,447.1,325.3,448.2,323.6L448.2,323.6z"/>
			<path class="st6" d="M436.4,323.1c0.8-0.3,1.8,0.3,1.7,1.2c-1.1,0.6-1.6,1.7-2.2,2.8c-0.8,1.7-1.8,3.3-2.5,5.2
				c-0.1,0.3-0.2,0.7-0.4,1c-0.1,0.1-0.3,0.1-0.5,0.2c0-0.6-0.3-1.2-0.9-1.5c0.5-2.3,1.3-4.6,2.5-6.6
				C434.7,324.5,435.3,323.6,436.4,323.1L436.4,323.1z"/>
			<path class="st6" d="M450.8,324.3c0.5,0.1,1,0.6,1,1.1c0.1,0.9-0.6,1.8-1.1,2.5c-1,1.3-2.1,2.5-3.4,3.3c-0.4-0.6-1.1-1-1.8-0.9
				c0.9-0.6,1.8-1.3,2.6-2.1C449.1,327.1,450.2,325.9,450.8,324.3L450.8,324.3z"/>
			<path class="st6" d="M438.4,324.7c0.6-0.1,1.3,0.4,1.2,1.1c0.1,0.9-0.6,1.5-1,2.2c-1,2.2-2.6,4.1-3.6,6.2
				c-0.3-0.5-0.9-0.8-1.5-0.9c0.4-1.5,1.2-2.7,1.9-4.2c0.6-1.1,1-2.3,1.7-3.3C437.4,325.3,437.8,324.8,438.4,324.7L438.4,324.7z"/>
			<path class="st6" d="M440.7,326.1c0.6-0.3,1.4,0.1,1.7,0.7c0.2,1-0.5,1.9-0.9,2.8c-1.3,1.9-2.5,4-4.1,5.8
				c-0.3-0.2-0.6-0.4-0.9-0.4c-0.5-0.1-1,0.3-1.4,0.6c0-0.3,0-0.7,0.2-1c0.8-1.6,1.8-3,2.7-4.5c0.6-1,1-2,1.7-3
				C440,326.7,440.3,326.3,440.7,326.1L440.7,326.1z"/>
			<path class="st6" d="M452.2,326.2c0.4,0.3,0.7,0.7,0.6,1.2c-0.1,1-0.6,2-1.2,2.8c-1,1.5-2.2,2.9-3.7,3.9c-0.2-0.4-0.5-0.8-1-0.9
				c0.2-0.4,0.5-1,0.5-1.5c0.8-0.6,1.7-1.2,2.3-1.9C450.7,328.8,451.7,327.7,452.2,326.2L452.2,326.2z"/>
			<path class="st6" d="M443.2,328.3c0.7-0.1,1.3,0.3,1.7,0.8c0.2,0.5-0.1,1.1-0.3,1.5c-0.6,1-1.4,1.9-2.2,2.8c-1,1.2-2,2.4-3.1,3.5
				c-0.3,0.3-0.6,0.6-1,0.8c-0.2-0.1-0.5-0.1-0.7-0.2c0.4-0.6,0.3-1.3,0.1-1.9c0.9-1.1,1.8-2.3,2.6-3.6c0.6-1,1.4-2,2-3.1
				C442.5,328.6,442.9,328.4,443.2,328.3L443.2,328.3z"/>
			<path class="st6" d="M445.3,330.9c0.6-0.3,1.3,0.2,1.5,0.8c0.1,0.7-0.3,1.2-0.6,1.8c-0.7,0.9-1.5,1.8-2.4,2.6
				c-1.3,1.2-2.7,2.6-4.6,3c-0.1-0.3-0.3-0.6-0.6-0.9c2.1-1.8,3.6-4.1,5.5-6.1C444.5,331.8,444.7,331.1,445.3,330.9L445.3,330.9z"/>
			<path class="st6" d="M428.4,331.7c0.2-0.4,0.6-0.8,1.1-0.7c0.5,0,0.9,0.5,0.8,1c-0.9,0.6-1.3,1.7-1.6,2.7
				c-0.6,1.7-1.3,3.3-1.6,5.2c-0.6,0.1-0.7-0.6-0.7-1c0-1.4,0.5-2.8,0.9-4.3C427.6,333.7,427.9,332.6,428.4,331.7L428.4,331.7z"/>
			<path class="st6" d="M430.6,332.5c0.3-0.1,0.7-0.1,0.9,0c0.5,0.2,0.6,0.9,0.5,1.4c-0.9,1-1.4,2.3-2,3.5c-0.7,1.4-1.3,2.8-1.5,4.4
				c-0.2,0.3-0.8,0.4-0.9-0.1c-0.3-0.8,0-1.6,0.1-2.3c0.3-1.5,0.9-2.9,1.4-4.4C429.4,334.1,429.7,333,430.6,332.5L430.6,332.5z"/>
			<path class="st6" d="M433.1,333.7c0.7-0.2,1.7,0.3,1.6,1.1c0,0.9-0.5,1.8-0.9,2.6c-0.8,1.5-1.6,3.1-2.6,4.6
				c-0.4,0.5-0.8,1.1-1.4,1.3c-0.6,0.2-0.8-0.5-0.8-1c0.1-1.5,0.6-2.9,1.3-4.3c0.6-1.1,1-2.2,1.7-3.2
				C432.2,334.3,432.5,333.9,433.1,333.7L433.1,333.7z"/>
			<path class="st6" d="M446.6,333.7c0.5,0.1,0.9,0.5,0.9,1.1c0,0.7-0.5,1.2-1,1.7c-0.7,0.8-1.6,1.4-2.5,2.1c-1,0.8-2.2,1.5-3.4,1.9
				c-0.3-0.5-0.9-0.7-1.4-0.7c0-0.1,0-0.2,0-0.3c1.5-0.3,2.8-1.3,4-2.3C444.4,336.2,445.6,335,446.6,333.7L446.6,333.7z"/>
			<path class="st6" d="M436.1,335.5c0.5-0.3,1.1,0.2,1.3,0.7c0.1,0.5,0,1.1-0.2,1.5c-0.6,1.1-1.5,2-2.3,2.9
				c-0.8,0.9-1.8,1.9-2.8,2.6c-0.5,0.3-1,0.7-1.6,0.7c-0.2,0-0.4-0.2-0.5-0.4c0.9-0.5,1.5-1.3,2-2.1c0.9-1.3,1.6-2.8,2.4-4.3
				C434.7,336.6,435.3,335.9,436.1,335.5L436.1,335.5z"/>
			<path class="st6" d="M432.4,343.6c1.9-1.6,3.5-3.3,5-5.4c0.5-0.1,0.9,0.4,1.2,0.8c0.3,0.4,0,0.9-0.2,1.3
				c-0.7,0.9-1.7,1.5-2.6,2.3c-0.8,0.6-1.6,1.3-2.6,1.7c-0.3,0.1-0.5,0.1-0.8,0C432.3,344.1,432.3,343.8,432.4,343.6L432.4,343.6z"
				/>
			<path class="st6" d="M438.9,340.4c0.6-0.3,1.3,0,1.3,0.7c-0.1,0.8-0.8,1.3-1.4,1.8c-1,0.8-2,1.6-3.2,2c-0.5,0.2-1.2,0.3-1.5-0.2
				c-0.2-0.1-0.1-0.4,0.1-0.5c0.8-0.5,1.5-1,2.2-1.7c0.7-0.6,1.4-1.1,2-1.7C438.6,340.7,438.7,340.5,438.9,340.4L438.9,340.4z"/>
			<path class="st8" d="M426.5,345.6c0.7-1,1.2-2.2,2-3.1c0,0.3,0,0.7,0.2,1c0.2,0.2,0.5,0.3,0.8,0.4c0.1,0.2,0.2,0.4,0,0.5
				c-0.6,0.7-1,1.6-0.7,2.5c0.3,0.8,0,1.8,0.5,2.6c0.1,0.3,0.3,0.5,0.5,0.8c-0.8,0.6-1.3,1.3-1.8,2c-0.4-0.3-0.8-0.7-0.9-1.1
				c0.1-0.7,0.4-1.3,0.4-1.9c-0.1,0-0.3,0-0.4,0c-0.1,0.7-0.4,1.4-0.4,2.1c-0.3,0.3-0.7,0.6-1,0.9c-0.2,0.2-0.2,0.4-0.4,0.6
				c-0.5-0.2-0.8-0.6-1.1-0.9c0.1-0.5,0.2-1,0.2-1.5c-0.1-0.2-0.2-0.2-0.4-0.2c0,0.4,0,0.8-0.1,1.1c-0.1,0.4-0.4,0.6-0.7,0.8
				c-0.8,0.5-1.7,0.8-2.7,0.9c0.3-0.7,0.7-1.4,0.9-2.1c0.2-0.8,0.1-1.7,0.8-2.3c0.8-0.6,1.8-0.7,2.7-1.3
				C425.5,347,426.2,346.3,426.5,345.6L426.5,345.6z"/>
		</g>
	</g>
</g>
</svg>
