<?xml version="1.0" encoding="utf-8"?>
<!-- Generator: Adobe Illustrator 21.1.0, SVG Export Plug-In . SVG Version: 6.00 Build 0)  -->
<svg version="1.1" id="Warstwa_1" xmlns="http://www.w3.org/2000/svg" xmlns:xlink="http://www.w3.org/1999/xlink" x="0px" y="0px"
	 viewBox="0 0 512 512" style="enable-background:new 0 0 512 512;" xml:space="preserve">
<style type="text/css">
	.st0{fill:#FFFFFF;}
	.st1{fill:#005596;}
</style>
<g>
	<path class="st0" d="M8.2,319.9C25.5,387,69.4,443.5,128.1,477.5V319.9H8.2z"/>
	<path class="st0" d="M128.1,34.4C69.5,68.4,25.5,124.9,8.2,192h119.9V34.4z"/>
	<path class="st0" d="M256,192h247.8C475.4,81.8,375.5,0.4,256.5,0.2H256V192z"/>
	<path class="st0" d="M256,511.8h0.3c119.1-0.2,219-81.6,247.4-191.9H256V511.8z"/>
	<path class="st1" d="M256,319.9h247.8c5.3-20.5,8.1-41.9,8.1-64s-2.8-43.5-8.1-64H256V0.2l0,0c-46.6,0-90.3,12.6-127.9,34.3v157.6
		H8.2c-5.3,20.5-8.1,41.9-8.1,64s2.8,43.5,8.1,64h119.9v157.6c37.6,21.7,81.1,34.2,127.6,34.3h0.3V319.9z"/>
</g>
</svg>
