<?xml version="1.0" encoding="utf-8"?>
<!-- Generator: Adobe Illustrator 21.1.0, SVG Export Plug-In . SVG Version: 6.00 Build 0)  -->
<svg version="1.1" id="Warstwa_1" xmlns="http://www.w3.org/2000/svg" xmlns:xlink="http://www.w3.org/1999/xlink" x="0px" y="0px"
	 viewBox="0 0 512 512" style="enable-background:new 0 0 512 512;" xml:space="preserve">
<style type="text/css">
	.st0{fill:#FFFFFF;}
	.st1{fill:#0061AA;}
</style>
<g>
	<path class="st0" d="M468.9,398.2H43.1c14.4,21.5,31.9,40.7,52,57h321.7C436.9,438.9,454.5,419.8,468.9,398.2z"/>
	<path class="st0" d="M510.4,284.5H170.7h-57H1.6c2.2,19.8,6.6,38.8,13,56.9h482.8C503.8,323.2,508.3,304.2,510.4,284.5z"/>
	<path class="st0" d="M284.5,227.5h226c-2.2-19.8-6.6-38.8-13-56.9h-213V227.5z"/>
	<path class="st0" d="M284.5,113.7L284.5,113.7h184.4c-14.4-21.5-31.9-40.6-52-56.9H284.5V113.7z"/>
	<path class="st1" d="M95.2,455.1c44,35.6,99.9,56.9,160.8,56.9s116.9-21.4,160.8-56.9H95.2z"/>
	<path class="st1" d="M497.4,341.3H14.6c7.2,20.3,16.8,39.3,28.5,56.9h425.8C480.6,380.7,490.2,361.6,497.4,341.3z"/>
	<path class="st1" d="M113.7,170.7H14.6C5.2,197.3,0,226.1,0,256c0,9.6,0.6,19.2,1.6,28.5h112.2V170.7H113.7z"/>
	<path class="st1" d="M284.5,170.7h212.9c-7.2-20.3-16.8-39.3-28.5-56.9H284.5V170.7z"/>
	<path class="st1" d="M284.5,170.7H170.7v113.8h339.7c1-9.3,1.6-18.9,1.6-28.5s-0.6-19.1-1.6-28.5h-226v-56.9H284.5z"/>
	<path class="st1" d="M170.7,113.7h113.8V56.9h132.5C373,21.3,316.9,0,256,0c-29.9,0-58.7,5.2-85.3,14.6V113.7z"/>
	<path class="st1" d="M113.7,43.1c-27.9,18.7-52,42.8-70.6,70.6h70.6V43.1z"/>
	<path class="st0" d="M113.7,284.5h57V170.7h113.8v-56.9l0,0H170.7V14.6c-20.3,7.2-39.3,16.7-57,28.5v70.6H43.1
		c-11.8,17.5-21.4,36.7-28.5,57h99.1C113.7,170.7,113.7,284.5,113.7,284.5z"/>
</g>
</svg>
