<?xml version="1.0" encoding="utf-8"?>
<!-- Generator: Adobe Illustrator 21.1.0, SVG Export Plug-In . SVG Version: 6.00 Build 0)  -->
<svg version="1.1" id="Warstwa_1" xmlns="http://www.w3.org/2000/svg" xmlns:xlink="http://www.w3.org/1999/xlink" x="0px" y="0px"
	 viewBox="0 0 512 512" style="enable-background:new 0 0 512 512;" xml:space="preserve">
<style type="text/css">
	.st0{fill:#D00C33;}
	.st1{fill:#FFFFFF;}
</style>
<g>
	<path class="st0" d="M256,512c141.4,0,256-114.6,256-256H0C0,397.4,114.6,512,256,512z"/>
	<path class="st1" d="M256,0C114.6,0,0,114.6,0,256h512.1C512,114.6,397.4,0,256,0z"/>
	<g>
		<path class="st1" d="M221.9,383.5c70.4,0,127.4-57.1,127.4-127.4H94.6C94.6,326.3,151.6,383.5,221.9,383.5z"/>
		<path class="st0" d="M221.9,128.6c-70.3,0-127.4,57.1-127.4,127.4h254.9C349.4,185.7,292.4,128.6,221.9,128.6z"/>
	</g>
</g>
</svg>
