<?xml version="1.0" encoding="utf-8"?>
<!-- Generator: Adobe Illustrator 21.1.0, SVG Export Plug-In . SVG Version: 6.00 Build 0)  -->
<svg version="1.1" id="Warstwa_1" xmlns="http://www.w3.org/2000/svg" xmlns:xlink="http://www.w3.org/1999/xlink" x="0px" y="0px"
	 viewBox="0 0 512 512" style="enable-background:new 0 0 512 512;" xml:space="preserve">
<style type="text/css">
	.st0{fill:#FFFFFF;}
	.st1{clip-path:url(#SVGID_2_);}
	.st2{fill:#E8112D;}
	.st3{fill:#F9DD16;}
</style>
<path class="st0" d="M511.9,256.7C511.5,398,396.6,512.4,255.3,512C114,511.6-0.4,396.7,0,255.4S115.3-0.3,256.7,0.1
	C398,0.5,512.3,115.4,511.9,256.7z"/>
<g>
	<g>
		<defs>
			<path id="SVGID_1_" d="M511.9,256.7C511.5,398,396.6,512.4,255.3,512C114,511.6-0.4,396.7,0,255.4S115.3-0.3,256.7,0.1
				C398,0.5,512.3,115.4,511.9,256.7z"/>
		</defs>
		<clipPath id="SVGID_2_">
			<use xlink:href="#SVGID_1_"  style="overflow:visible;"/>
		</clipPath>
		<g class="st1">
			<path class="st2" d="M320.8-3.2v194.5h324.1v129.7H320.8v194.5H191.2V320.8h-324.1V191.2h324.1V-3.2H320.8z"/>
			<path class="st3" d="M61.5,299.3l21.6-21.6h151.2v151.2l-21.6,21.6h86.4l-21.6-21.6V277.7h151.2l21.6,21.6v-86.4l-21.6,21.6
				H277.6V83.2l21.6-21.6h-86.4l21.6,21.6v151.2H83.1l-21.6-21.6V299.3z"/>
		</g>
	</g>
</g>
</svg>
