<?xml version="1.0" encoding="utf-8"?>
<!-- Generator: Adobe Illustrator 21.1.0, SVG Export Plug-In . SVG Version: 6.00 Build 0)  -->
<svg version="1.1" id="Warstwa_1" xmlns="http://www.w3.org/2000/svg" xmlns:xlink="http://www.w3.org/1999/xlink" x="0px" y="0px"
	 viewBox="0 0 512 512" style="enable-background:new 0 0 512 512;" xml:space="preserve">
<style type="text/css">
	.st0{fill:#CE1126;}
	.st1{fill:#009460;}
	.st2{fill:#FCD116;}
</style>
<g>
	<path class="st0" d="M0.1,256c0,103.2,61.2,192.2,149.3,232.6V23.3C61.3,63.8,0.1,152.8,0.1,256z"/>
	<path class="st1" d="M511.9,256c0-103.2-61.2-192.2-149.3-232.7v465.3C450.7,448.2,511.9,359.2,511.9,256z"/>
	<path class="st2" d="M256,0.1c-38.1,0-74.2,8.4-106.6,23.3v465.3C181.9,503.6,218,512,256,512c38.1,0,74.2-8.4,106.7-23.3V23.3
		C330.2,8.4,294.1,0.1,256,0.1z"/>
</g>
</svg>
