<?xml version="1.0" encoding="utf-8"?>
<!-- Generator: Adobe Illustrator 21.1.0, SVG Export Plug-In . SVG Version: 6.00 Build 0)  -->
<svg version="1.1" id="Warstwa_1" xmlns="http://www.w3.org/2000/svg" xmlns:xlink="http://www.w3.org/1999/xlink" x="0px" y="0px"
	 viewBox="0 0 512 512" style="enable-background:new 0 0 512 512;" xml:space="preserve">
<style type="text/css">
	.st0{fill:#FF0000;}
	.st1{fill:#FFFFFF;}
</style>
<path class="st0" d="M512,256c0,141.4-114.6,256-256,256S0,397.4,0,256C0,114.5,114.6-0.1,256-0.1S512,114.5,512,256z"/>
<g>
	<path class="st1" d="M257.3,206.7c19.4-9,24-31.7,14-46.7c-9-13.7,0.3-23.3,14.2-30.3c-36-9-65.4,17.1-73.3,36.1
		c-14.5,34.6,2.1,78.5,36.9,92.5C229.1,240,242.3,213.8,257.3,206.7z"/>
	<path class="st1" d="M325.9,194.9c-37.4-3.1-74.1,26-76.8,63.5c11.4-24.7,40.3-20.3,51.6-8.1c14.6,15.6,37.6,13.1,48.7-1
		c10.2-12.9,22.3-6.9,33.1,4.3C380.1,216.5,346.4,196.6,325.9,194.9z"/>
	<path class="st1" d="M272.7,305.1c-10.3,18.6-0.9,39.7,15.9,46.1c15.4,5.8,13.4,19.1,6.2,32.8c34.5-13.7,43.1-52,38.4-72.1
		c-8.5-36.5-47.6-62.4-84-53.5C276.2,261.6,280.7,290.5,272.7,305.1z"/>
	<path class="st1" d="M211.9,295.1c-20.9-4.2-38.1,11.2-39,29.3c-0.8,16.4-14.1,18.5-29.4,15.9c23.6,28.6,62.7,25,80.4,14.5
		c32.2-19.3,45-64.5,25.2-96.4C254.4,285,228.2,298.3,211.9,295.1z"/>
	<path class="st1" d="M202.8,234.2c-2.4-21.2-22.5-32.8-39.8-28.2c-15.9,4.3-22-7.7-24.1-23.1c-20,31.3-4.6,67.4,10.8,80.9
		c28.2,24.7,75.1,23,99.4-5.5C225.4,271.5,204.7,250.7,202.8,234.2z"/>
</g>
<g>
	<polygon class="st0" points="240.9,177.2 242.6,185 245.9,177.7 253.8,178.5 247.8,173.1 251,165.8 244.1,169.9 238.2,164.5 
		239.9,172.3 233,176.3 	"/>
	<path class="st0" d="M314.9,222.9c-0.1-0.1-13.4-5.6-31.8,0.3c-2.3,0.7-4.7,1.6-7.1,2.8c-19.3,8.9-23.4,20.1-26.5,28.7
		c-0.1,0-0.3,0-0.4,0c-0.8,0-1.6,0.3-2.2,0.8c-7.2-5.6-16-12.3-18.5-32.8c-0.3-2.6-0.5-5.1-0.5-7.4c0-9.3,2.2-16.6,4.5-21.7
		c2.2-5,4.6-7.6,4.6-7.6c0.3-0.4,0.3-0.9-0.1-1.2c-0.4-0.3-0.9-0.3-1.2,0.1c-0.1,0.1-9.4,11-9.4,30.3c0,2.4,0.1,5,0.5,7.6
		c2.5,21,12,28.4,19.2,34c-0.2,0.5-0.3,1-0.3,1.5c0,0.4,0.1,0.8,0.2,1.2c-7.5,5.1-16.7,11.1-37,7.1c-2.5-0.5-5-1.1-7.1-1.9
		c-8.8-2.9-15.1-7.5-19.2-11.1c-4-3.7-5.7-6.7-5.8-6.7c-0.2-0.4-0.7-0.5-1.2-0.3c-0.4,0.2-0.5,0.8-0.3,1.2l0,0
		c0.1,0.1,7.5,12.5,25.7,18.5c2.2,0.8,4.7,1.4,7.3,1.9c20.8,4.3,30.8-2.3,38.3-7.4c0.6,0.6,1.5,1,2.5,1h0.1
		c2.5,8.7,5.6,19.4-4.6,37.5c-1.3,2.2-2.6,4.4-4,6.2c-5.6,7.5-11.8,12.1-16.5,14.8c-4.8,2.7-8.1,3.4-8.1,3.4c-0.4,0.1-0.7,0.6-0.6,1
		c0.1,0.4,0.6,0.7,1.1,0.6c0.1,0,14.1-3.3,25.5-18.9c1.4-1.9,2.8-4.1,4.2-6.4c10.4-18.4,7.3-30,4.8-38.7c0.8-0.5,1.4-1.2,1.7-2.2
		c9.1,0.3,20.2,0.7,34.3,15.8c1.8,1.9,3.3,3.9,4.8,5.8c5.5,7.6,7.9,14.9,8.9,20.3c1.1,5.4,0.8,8.8,0.8,8.8c-0.1,0.4,0.3,0.9,0.7,0.9
		c0.5,0,0.9-0.3,0.9-0.8c0-0.1,1.2-14.5-10-30.1c-1.4-1.9-3-3.9-4.9-5.9c-14.3-15.6-26.3-16.1-35.5-16.4c-0.2-1-0.8-1.8-1.5-2.3
		c3-8.6,6.8-19,25.5-27.8c2.3-1.1,4.7-2,6.9-2.7c8.9-2.8,16.5-2.9,22-2.3c5.5,0.6,8.6,2,8.6,1.9c0.4,0.2,0.9,0,1.1-0.4
		C315.6,223.6,315.4,223.1,314.9,222.9z"/>
	<polygon class="st0" points="331.9,226.4 335.2,219.1 328.3,223.2 322.3,217.8 323.9,225.6 317,229.7 325,230.5 326.6,238.3 
		329.9,231 337.9,231.8 	"/>
	<polygon class="st0" points="310.2,315.5 303.3,319.4 297.3,314.2 299,322 292.1,325.9 300,326.8 301.7,334.6 304.9,327.2 
		312.9,328.2 307,322.8 	"/>
	<polygon class="st0" points="210.9,321.4 203.9,325.3 198,319.9 199.7,327.8 192.7,331.8 200.7,332.6 202.3,340.4 205.5,333.1 
		213.5,334 207.6,328.7 	"/>
	<polygon class="st0" points="171.6,235.8 174.8,228.5 167.8,232.5 162,227.1 163.6,235 156.7,239 164.6,239.8 166.2,247.7 
		169.6,240.4 177.5,241.2 	"/>
</g>
</svg>
