<?xml version="1.0" encoding="utf-8"?>
<!-- Generator: Adobe Illustrator 21.1.0, SVG Export Plug-In . SVG Version: 6.00 Build 0)  -->
<svg version="1.1" id="Warstwa_1" xmlns="http://www.w3.org/2000/svg" xmlns:xlink="http://www.w3.org/1999/xlink" x="0px" y="0px"
	 viewBox="0 0 512 512" style="enable-background:new 0 0 512 512;" xml:space="preserve">
<style type="text/css">
	.st0{fill:#FFFFFF;}
	.st1{fill:#0148C8;}
</style>
<g>
	<polygon class="st0" points="310.1,236.8 320.4,219 299.9,219 	"/>
	<polygon class="st0" points="299.8,293 320.4,293 310.1,275.2 	"/>
	<polygon class="st0" points="234.3,219 213,256 234.3,293 277.7,293 299,256 277.7,219 	"/>
	<path class="st0" d="M103.6,461.7C146.1,493.4,198.8,512,256,512c57.1,0,109.8-18.6,152.3-50.3H103.6z"/>
	<path class="st0" d="M512,256c0-47-12.8-91.1-34.9-128.9H34.9C12.7,164.9,0,209,0,256s12.8,91,34.9,128.9h442.4
		C499.3,347,512,303,512,256z M256,368.9l-32.8-56.8h-48.2h-16.6l32.4-56.1l-24.1-41.8l-8.3-14.4h64.9l32.8-56.8l32.7,56.8h64.8
		L321.1,256l32.4,56.1h-64.9L256,368.9z"/>
	<polygon class="st0" points="256,181.4 245.4,199.9 266.6,199.9 	"/>
	<path class="st0" d="M256,0c-57.1,0-109.9,18.7-152.4,50.3h304.7C365.8,18.6,313.1,0,256,0z"/>
	<polygon class="st0" points="201.9,236.7 212.1,219 191.6,219 	"/>
	<polygon class="st0" points="191.6,293 212.1,293 201.9,275.2 	"/>
	<polygon class="st0" points="256,330.5 266.6,312.1 245.4,312.1 	"/>
	<path class="st1" d="M408.4,50.3H103.6c-27.8,20.7-51.3,46.8-68.8,76.8h442.4C459.6,97.1,436.2,70.8,408.4,50.3z"/>
	<path class="st1" d="M477.1,384.9H34.9c17.5,30,40.9,56.1,68.8,76.8h304.7C436.2,441.1,459.6,414.9,477.1,384.9z"/>
	<path class="st1" d="M321.2,256l32.4-56.1h-64.8l-32.7-56.8l-32.8,56.8h-64.9l8.3,14.4l24.1,41.8l-32.4,56.1H175h48.2l32.8,56.8
		l32.7-56.8h64.9L321.2,256z M256,181.4l10.6,18.3h-21.2L256,181.4z M191.6,293l10.2-17.7l10.2,17.7H191.6z M201.9,236.7L191.6,219
		h20.5L201.9,236.7z M256,330.5l-10.6-18.3h21.2L256,330.5z M277.7,293h-43.4L213,256l21.3-37h43.4l21.4,37L277.7,293z M299.8,293
		l10.2-17.7l10.2,17.7H299.8z M310.1,236.8l-10.2-17.7h20.5L310.1,236.8z"/>
</g>
</svg>
