<?xml version="1.0" encoding="utf-8"?>
<!-- Generator: Adobe Illustrator 21.1.0, SVG Export Plug-In . SVG Version: 6.00 Build 0)  -->
<svg version="1.1" id="Warstwa_1" xmlns="http://www.w3.org/2000/svg" xmlns:xlink="http://www.w3.org/1999/xlink" x="0px" y="0px"
	 viewBox="0 0 512 512" style="enable-background:new 0 0 512 512;" xml:space="preserve">
<style type="text/css">
	.st0{fill:#FFFFFF;}
	.st1{fill:#BE0026;}
</style>
<g>
	<path class="st0" d="M512,256c0,141.4-114.6,256-256,256S-0.1,397.4-0.1,256S114.6,0,256,0S512,114.6,512,256z"/>
	<path class="st1" d="M384,256c0,70.7-57.3,128-128,128s-128-57.4-128-128c0-70.7,57.3-128,128-128C326.7,128,384,185.3,384,256z"/>
</g>
</svg>
