<?xml version="1.0" encoding="utf-8"?>
<!-- Generator: Adobe Illustrator 21.1.0, SVG Export Plug-In . SVG Version: 6.00 Build 0)  -->
<svg version="1.1" id="Warstwa_1" xmlns="http://www.w3.org/2000/svg" xmlns:xlink="http://www.w3.org/1999/xlink" x="0px" y="0px"
	 viewBox="0 0 512 512" style="enable-background:new 0 0 512 512;" xml:space="preserve">
<style type="text/css">
	.st0{clip-path:url(#SVGID_2_);}
	.st1{clip-path:url(#SVGID_4_);fill:#2A4C9E;}
	.st2{clip-path:url(#SVGID_4_);}
	.st3{clip-path:url(#SVGID_6_);fill:#EDAD49;}
	.st4{clip-path:url(#SVGID_6_);fill:#FFFFFF;}
</style>
<path d="M512,256c0,141.4-114.6,256-256,256S0,397.4,0,256S114.6,0,256,0S512,114.6,512,256z"/>
<g>
	<defs>
		<path id="SVGID_1_" d="M512,256c0,141.4-114.6,256-256,256S0,397.4,0,256S114.6,0,256,0S512,114.6,512,256z"/>
	</defs>
	<clipPath id="SVGID_2_">
		<use xlink:href="#SVGID_1_"  style="overflow:visible;"/>
	</clipPath>
	<g class="st0">
		<defs>
			<rect id="SVGID_3_" x="-181.9" y="0.6" width="875.8" height="510.9"/>
		</defs>
		<clipPath id="SVGID_4_">
			<use xlink:href="#SVGID_3_"  style="overflow:visible;"/>
		</clipPath>
		<rect x="-181.9" y="0.6" class="st1" width="875.8" height="510.9"/>
		<g class="st2">
			<defs>
				<rect id="SVGID_5_" x="-181.9" y="0.6" width="875.8" height="510.9"/>
			</defs>
			<clipPath id="SVGID_6_">
				<use xlink:href="#SVGID_5_"  style="overflow:visible;"/>
			</clipPath>
			<path class="st3" d="M259.9,162.5c3,3.5,5,7,5,11.2c-2.5,1.2-6,1.7-8,4c12.5-1.8,15,12.7,28.9,7.2c0.5,2,2.5,3.7,5,3l1.5-4
				c5.5-1.5,4,7.5,10,5.7c3,2.5,1,6.7,3,9.8c0,3.5,1.5,6.5,3,9.5c1.5-1.7,2.5-4.2,6-3.5c2.5,2.7,4.5,5.2,5,8.2
				c-1,5.7-2.5,10.7,3.5,13.7v1.7c4,1.7,13-1.7,13,5.2c-0.5,2.5,2.5,0.3,3.5,1.7c2.5-1,6-0.5,9-0.5c2.5,5.3-3,9-4.5,13.7
				c2.5,2.5,1.5,7,1,10l-1.5,0.8c4,0.8,9-0.5,12.5,1.8l6.5,2.5c3-1.7,6.5-2,10.5-1.7c3,2.2-1,6,1.5,7.7c3.5,0,6.5,0.5,7,3.5l0.5,1
				c2.5-4.5,9.5-1.5,12.5-4.7c5,0,6,5.5,8.5,8.5c1,7.8-8.5,11.3-5.5,19c-2,3.7-6,6.7-9,10.2c1,0.5,0.5,1.7,0.5,2.5
				c-3,1.8-0.5,7-4.5,7.5c-0.5,3.3-6.5,2-4.5,5.5c4,5.2-2,8.5-2,13.2c-2.5,2.8-7.5-2.5-7.5,2.8c-3,0.8-6-2.8-8,0.2
				c-1,3.5,2,4.7,1.5,8.2c4.9-0.5,6.5,4.5,8.4,7.5l5,5c-5,4-11.5-0.5-17.5,1.7c-1.5-0.7,0-2.7-1.5-3.5c-1.5-1.8-4.5-1.8-7-2.3
				c0.5,2.3-4,3-2,5.7c0,0.8,1,3-1,3c-4,1.3-3.5-3.5-7-1.7c-4.5,1.7-1,8.4-7.5,7.7c1,6-9.9,10-2.5,15.2c1,1,0.5,3,0.5,4.5
				c-4.5,4-12.5,2.5-17.5,1c-4-1-1.5-6-3-8.7c-1.5-2.5-6-4.3-6-7.8c-3-1.2-5.5-2-7.5-4.5c-7,6.7-15.5,13.2-25.4,13.5
				c-4.5,2.2-7,11.3-14,7.5c-2.8,4.5-11,0-11.5,6.4c-3.2,1.3-1.7,5.5-3.7,7.5c-0.8,5,0,9.2,4.2,12.2c1.8,3.7-3.7,3.7-1.5,7.3
				c0.5,1.2,0,3-0.7,3.5c-1.5,0.8-2,1.5-1.5,3c-1.3,0-1.8,0.7-2.7,1.7c-1.2,2.5-5.2,3.7-8,5.5c-2.7,0.8-4.7-1.2-6.5-3
				c-0.5,2.8-2.8,4.2-5.5,4.2c-4,0-3.3-3.5-6.2-5c1.2-4.5-2.8-6.5-1.5-10.5c3.3-2.5,8.7-4.2,7.2-9.5c-3.5-4.2-2.3-10.5-5.7-15.4
				c-2.2-2-6-5-4.7-9.7c3.3-3.7,0-8.2-1.7-12.2c-0.7-3.3-2.7-6.2-2.7-10c-5.5-3.2-5.7-11.7-13.5-12.5c-5.5,0-6.5-7-12-6.5
				c-0.5-1-1.8-1.7-2.8-2.7c-4,2.7-9-0.8-14,0.5c-3.3-5.5,2.7-12.9-6-16.2v-3.5c1,0.5,1.5-0.5,1.8-1c0.5-3.7-6.3-4.2-3.5-8.4
				c-1.5-1.3-3.3-1.8-2.2-4.3c-3.8-7.7-15-7-17.5-14.7c2-1.7,2-3.5,2.8-5c-1.7-3-2.2-6.2-1.7-9.5c1.7-0.5,2.7-2.8,3.7-4.5
				c-2.2-1.5-5-3.7-7.5-3c-4.5-0.8-7.7-4.2-11.7-6.2c-1-1-0.5-2.7-0.5-4c5.5-1.8-0.8-9.5,6-8.5c1.7-2.3,5.5-3,8.2-4.8
				c2.8-0.5,5,0.5,7.7,1.3c2.3,3,6.2,1.7,8.5,4.2c2.3-0.5,5-1.7,7.7-0.5c0-4.2,2-6.7,5-9.7c0.5-1.7,3.2-3,5.5-4c4.2,1,9.2,1,12.2-2
				c2,1.2,3.7-1.2,6-1.2c2.7-0.5,5,0.2,7,1.5c0.2-5,9-0.7,10.7-6.7c2-4-5.5-5.5-5-9c-1.2-4,1.7-6,3.3-8.7c1.7-0.8,3.7-1.8,6-1.3
				c5.7-2,1.2-13.7,10.5-9.5c0,1.2-0.5,2.7,0.2,3c3.2,0,3.7-3.7,6-5c1-3.5-1.3-7.7,1.7-10.5c1.5-0.2,2.7-0.7,3.7-2
				c0-2.7-1.5-4.2-3.7-6c-0.8,1.2-2.7,0.3-4,0.8c0-3-1.7-5-2.3-7.7c-1.5-0.7-2.2-2-1.7-3.7c2.2-2.2,0-7.7,5.2-6.5
				c2-1.7,5.5-0.5,7.5-3.5c5.2-3,12.2-3,16.2-8.5c1.7,0.3,3.7-1.5,5.5,0C255.1,160.7,259.9,159.4,259.9,162.5"/>
			<polygon class="st4" points="105.5,160.7 87,147.7 68.5,160.7 75.6,139.7 57,126.8 80,126.8 87,105.8 94,126.8 116.9,126.8 
				98.4,139.7 			"/>
			<polygon class="st4" points="167.9,140.7 149.4,127.7 130.9,140.7 138,119.8 119.4,106.8 142.3,106.9 149.4,85.9 156.4,106.9 
				179.3,106.8 160.7,119.8 			"/>
			<polygon class="st4" points="307.3,127 288.8,114 270.3,127 277.4,106 258.9,93.1 281.8,93.1 288.8,72.1 295.8,93.1 318.8,93.1 
				300.2,106 			"/>
			<polygon class="st4" points="374.7,140.7 356.2,127.7 337.7,140.7 344.8,119.8 326.2,106.8 349.1,106.9 356.2,85.9 363.2,106.9 
				386.1,106.8 367.5,119.8 			"/>
			<polygon class="st4" points="234.2,127 215.7,114 197.2,127 204.3,106 185.8,93.1 208.7,93.1 215.7,72.1 222.7,93.1 245.6,93.1 
				227.1,106 			"/>
			<polygon class="st4" points="443.5,160.7 425,147.7 406.5,160.7 413.6,139.7 395.1,126.8 418,126.8 425,105.8 432,126.8 
				455,126.8 436.4,139.7 			"/>
		</g>
	</g>
</g>
</svg>
