<?xml version="1.0" encoding="utf-8"?>
<!-- Generator: Adobe Illustrator 21.1.0, SVG Export Plug-In . SVG Version: 6.00 Build 0)  -->
<svg version="1.1" id="Warstwa_1" xmlns="http://www.w3.org/2000/svg" xmlns:xlink="http://www.w3.org/1999/xlink" x="0px" y="0px"
	 viewBox="0 0 512 512" style="enable-background:new 0 0 512 512;" xml:space="preserve">
<style type="text/css">
	.st0{fill:#A12830;}
	.st1{fill:#FFFFFF;}
</style>
<g>
	<path class="st0" d="M256,512c115.4,0,213-76.4,245-181.4H11C43,435.7,140.6,512,256,512z"/>
	<path class="st0" d="M256-0.1C140.6-0.1,43,76.3,11,181.3H501C469,76.3,371.4-0.1,256-0.1z"/>
	<path class="st1" d="M501,181.3H11C3.9,204.9,0,230,0,256c0,25.9,3.9,51.1,11,74.7H501c7.2-23.6,11.1-48.7,11.1-74.7
		C512,230.1,508.1,204.9,501,181.3z"/>
</g>
</svg>
