<?xml version="1.0" encoding="utf-8"?>
<!-- Generator: Adobe Illustrator 21.1.0, SVG Export Plug-In . SVG Version: 6.00 Build 0)  -->
<svg version="1.1" id="Warstwa_1" xmlns="http://www.w3.org/2000/svg" xmlns:xlink="http://www.w3.org/1999/xlink" x="0px" y="0px"
	 viewBox="0 0 512 512" style="enable-background:new 0 0 512 512;" xml:space="preserve">
<style type="text/css">
	.st0{fill:#CE1126;}
	.st1{fill:#002B7F;}
	.st2{fill:#FFD83D;}
</style>
<g>
	<g>
		<path class="st0" d="M256,512c141.4,0,256-114.6,256-256.1H-0.1C-0.1,397.4,114.6,512,256,512z"/>
		<path class="st1" d="M256-0.1C114.6-0.1-0.1,114.6-0.1,256H512C512,114.6,397.4-0.1,256-0.1z"/>
	</g>
	<g>
		<path d="M128.5,80.2L128.5,80.2c1.1,1.6,2.2,3.2,3.3,4.9c0.4,0.5,0.3,1.2,0,1.8c-0.8,1.7-1.5,3.4-2.3,5.2c0.5,0.4,0.9,0.8,1.4,1.3
			c1.2-0.6,2.6-1.2,3.9-1.8c0.6-0.3,1.3-0.1,1.9,0.2c1.7,1,3.4,2,5.1,3.1c0,0.2-0.1,0.5-0.3,0.6c-1.4,1.1-3,2.1-4.6,3.1
			c-0.4,0.3-1,0.4-1.5,0.2c-1.2-0.5-2.5-1.1-3.7-1.6c-0.4,0.5-0.9,1-1.5,1.4c0.6,1.1,1.3,2.2,1.9,3.3c0.2,0.4,0.3,0.9,0.1,1.3
			c-0.4,0.7-0.7,1.5-1.1,2.2c1.7,0.5,3.3,1.6,4.4,3.1c1.1,2,1.2,4.5,0.8,6.7c-0.2,0.9-0.5,1.8-0.9,2.6c0.6,0,1.2,0.1,1.7,0.3
			c0.4,0.1,0.6,0.4,0.9,0.5c0.8-0.7,1.5-1.5,2.6-1.8c1-0.4,2.1-0.6,3.2-0.2c0.5,0.2,0.9,0.5,1.3,0.9c1-1.5,2.7-2.5,4.6-2.7
			c1.3-0.1,2.6,0.4,3.5,1.1c0.7-1,1.5-1.9,2.5-2.4c1.1-0.6,2.5-0.6,3.7,0c0.6,0.3,1.1,0.8,1.6,1.3c1.2-2,4.1-2.8,6.3-1.8
			c0.7,0.3,1.2,0.9,1.6,1.5c1-1,2.6-1.8,4.2-1.5c1.6,0.2,2.9,1.4,3.9,2.7c1.3-0.9,2.9-1.4,4.5-1.1c1.2,0.3,2.2,1.2,2.8,2.3
			c0.4,0.7,0.6,1.5,0.8,2.3c1.6-0.2,3.2-0.1,4.7,0.7c1.2,0.6,1.9,1.8,2.1,3.1c0.2,0.9,0,1.8-0.2,2.8c1.3,0.1,2.7,0.4,3.7,1.3
			c0.7,0.6,1.1,1.6,1,2.5c0,1.5-0.8,2.9-1.7,4.1c1.2,0.3,2.4,0.8,3.3,1.7s1.2,2.3,0.9,3.6c-0.3,1.4-1.3,2.5-2.3,3.4
			c1.1,0.5,2.2,1.3,2.6,2.6c0.3,1,0.1,2.2-0.3,3.1c-0.5,1-1.4,1.8-2.4,2.3c0.9,0.9,1.6,2,1.5,3.3c0.1,1.6-1,3.1-2.3,4
			c1.4,0.7,2.8,1.3,4.2,2c0.9,0.5,1.9,1.1,2.6,1.8v0.1c-2.1,1.2-3.7,3.3-5.1,5.6c-2.7,4.4-4.6,9-6.5,13.8c-1.3,3.2-2.6,6.5-4.2,9.5
			c-1,2.1-2.1,4.2-3.4,6.1c-0.7,1-1.9,1.6-3.1,2c-2.9,1-6,1.5-9.1,1.9c-7.6,0.9-15.3,1.1-23.1,1.3l-19.7,0.4l-19.2-0.4
			c-5.8-0.1-11.8-0.3-17.6-0.7c-2.9-0.2-5.9-0.5-8.7-1c-2.3-0.4-4.6-0.9-6.7-1.8c-0.9-0.4-1.7-0.9-2.3-1.7c-1.4-2-2.6-4.3-3.7-6.5
			c-2.5-5.3-4.6-10.7-6.9-16c-1.2-2.6-2.5-5.3-4.2-7.7c-1.1-1.8-2.6-3.6-4.6-4.7v-0.1c0.3-0.3,0.6-0.6,1-0.8
			c1.8-1.2,3.9-2.1,5.9-3.1c-1.3-0.9-2.4-2.3-2.3-4c-0.1-1.3,0.7-2.4,1.5-3.3c-1-0.6-1.9-1.4-2.5-2.5c-0.6-1.2-0.6-2.7,0.2-3.9
			c0.6-0.8,1.4-1.2,2.2-1.7c-1-0.9-2-2.1-2.3-3.4c-0.3-1.2-0.1-2.5,0.8-3.4c0.9-1,2.1-1.5,3.4-1.8c-1-1.2-1.8-2.6-1.8-4.2
			c0-1,0.5-2,1.2-2.6c1-0.8,2.3-1.1,3.5-1.1c-0.2-1-0.4-2.1-0.1-3.1c0.2-1.2,1-2.2,2-2.8c1.4-0.8,3-0.9,4.7-0.7
			c0.3-0.9,0.5-1.8,0.9-2.6c0.6-1.1,1.6-1.9,2.9-2.2c1.5-0.3,3,0.3,4.3,1.1c0.8-1.3,2.2-2.5,3.9-2.7c1.5-0.3,3,0.5,4.2,1.5
			c0.4-0.6,0.9-1.1,1.6-1.5c2.1-1.1,5.1-0.3,6.4,1.7c0.5-0.4,1-1,1.6-1.3c1.1-0.6,2.5-0.6,3.5,0c1.2,0.5,2,1.5,2.6,2.5
			c1-0.8,2.4-1.3,3.6-1.1c1.8,0.2,3.4,1.3,4.5,2.7c0.6-0.6,1.3-1,2.1-1.1c1.9-0.2,3.7,0.9,5,2.3c0.8-0.6,1.7-0.9,2.7-0.8
			c-1.2-2.5-1.5-5.7-0.6-8.3c0.7-2.1,2.6-3.5,4.8-4.2c-0.3-0.7-0.7-1.5-1.1-2.2c-0.2-0.4-0.2-0.9,0-1.2c0.6-1.2,1.3-2.3,2-3.5
			c-0.6-0.4-1.1-0.9-1.5-1.4c-1.3,0.5-2.5,1.1-3.7,1.6c-0.5,0.2-1.1,0.1-1.5-0.2c-1.5-1-3-1.9-4.5-3c-0.2-0.1-0.3-0.4-0.4-0.6
			c1.6-1.1,3.2-2.1,5-3.1c0.6-0.3,1.3-0.6,1.9-0.3c1.3,0.6,2.6,1.2,4,1.8c0.4-0.5,0.8-0.9,1.3-1.3c-0.8-1.6-1.4-3.2-2.2-4.9
			c-0.2-0.5-0.4-0.9-0.3-1.5c0.1-0.5,0.5-0.9,0.8-1.4C126.6,82.9,127.5,81.5,128.5,80.2L128.5,80.2z"/>
		<path class="st2" d="M128.4,81.9c0.6,0.7,0.9,1.6,1.4,2.4c0.3,0.5,0.8,0.9,0.9,1.4c0.1,0.3-0.1,0.6-0.2,0.9
			c-0.7,1.5-1.4,3-2.1,4.6c-0.7-1.4-1.4-2.7-2-4.2c-0.2-0.5-0.4-1-0.3-1.5c0.1-0.4,0.4-0.6,0.6-0.9
			C127.4,83.8,127.9,82.9,128.4,81.9L128.4,81.9z"/>
		<path class="st2" d="M119.6,93.3c0.7-0.4,1.5-0.9,2.3-0.6c1.1,0.3,2,0.8,3,1.3c-0.2,0.6-0.3,1.3-0.2,2c-1.1,0.5-2.3,1-3.5,1.4
			c-0.6,0.3-1.2-0.2-1.7-0.5c-0.8-0.5-1.5-1-2.3-1.6c-0.2-0.1-0.2-0.5,0-0.6C117.9,94.2,118.8,93.8,119.6,93.3L119.6,93.3z"/>
		<path class="st2" d="M135,92.7c0.5-0.2,1,0,1.5,0.1c0.9,0.4,1.7,1,2.6,1.4c0.3,0.2,0.9,0.4,0.8,0.9c-0.9,0.7-1.8,1.3-2.8,2
			c-0.4,0.2-0.9,0.5-1.4,0.3c-1.2-0.4-2.4-0.9-3.5-1.4c0-0.7-0.1-1.4-0.3-2C133,93.5,134,93,135,92.7L135,92.7z"/>
		<path class="st2" d="M127.7,93.4c1.3-0.6,2.8,0.6,2.8,1.9c0.2,1.1-0.7,2.2-1.8,2.4c-1.1,0.1-2.2-0.8-2.3-1.9
			C126.4,94.9,126.8,93.8,127.7,93.4L127.7,93.4z"/>
		<path class="st2" d="M126.5,101.2c0.4-0.8,0.6-1.7,1.2-2.3c0.5-0.1,1,0,1.5-0.1c0.6,0.9,0.9,1.9,1.5,2.8c0.2,0.5,0.5,1,0.3,1.6
			c-0.3,0.7-0.7,1.3-1.1,1.9c-0.9,0-1.9,0-2.8,0c-0.4-0.6-0.8-1.2-1.1-1.9C125.7,102.6,126.2,101.9,126.5,101.2L126.5,101.2z"/>
		<path class="st2" d="M127.4,106.3c0.7-0.2,1.4-0.2,2.2,0c0,1.6,0.2,3.3,0.3,5c1.5,0.2,3,0.2,4.5,0.4c0.3,0,0.7,0,0.9,0.3
			c0.1,0.8,0,1.5-0.1,2.3c-0.5,0-0.9,0-1.4-0.1c-1.6-0.2-3.2-0.3-4.9-0.3c-1.8,0-3.6,0-5.4,0.3c-0.5,0.1-1,0.1-1.5,0.1
			c-0.1-0.8-0.2-1.6,0-2.4c1.7-0.3,3.4-0.3,5.2-0.5C127.3,109.7,127.4,108,127.4,106.3L127.4,106.3z"/>
		<path class="st2" d="M124.7,107.4c0.5-0.3,1-0.6,1.5-0.7c0,1.1-0.1,2.3-0.2,3.4c-1.1,0.1-2.2,0.2-3.3,0
			C122.9,109.2,123.7,108.2,124.7,107.4L124.7,107.4z"/>
		<path class="st2" d="M130.7,106.8c1.2,0.2,2.1,1,2.8,1.9c0.3,0.4,0.5,1,0.7,1.5c-1.1,0.2-2.2,0.1-3.3,0
			C130.8,109,130.8,107.9,130.7,106.8L130.7,106.8z"/>
		<path class="st2" d="M91.1,114c0.9-0.1,1.9,0.1,2.6,0.8c1.2,1.2,1.2,3.5-0.3,4.7c-1.1,0.8-2.7,0.8-3.7,0c-1.2-0.9-1.4-2.7-0.7-4
			C89.3,114.7,90.2,114.1,91.1,114L91.1,114z"/>
		<path class="st2" d="M164.8,114.1c0.9-0.1,2,0,2.7,0.7c1.2,1.1,1.2,3.3,0,4.5c-1.1,0.9-2.8,1-4.1,0.2c-1-0.8-1.3-2.3-0.9-3.5
			C162.9,115,163.8,114.2,164.8,114.1L164.8,114.1z"/>
		<path class="st2" d="M83,114.6c0.9-0.2,1.9-0.1,2.7,0.5c1.4,1,1.6,3.3,0.3,4.6c-0.8,0.9-2.2,1.1-3.4,0.7c-1.4-0.5-2.1-2.2-1.7-3.6
			C81.1,115.6,82,114.8,83,114.6L83,114.6z"/>
		<path class="st2" d="M172.2,114.6c1-0.2,2.3-0.1,3,0.8c1.1,1.1,1.2,3.1,0,4.3c-0.8,0.9-2.2,1-3.2,0.7c-1.1-0.3-1.9-1.4-1.9-2.5
			C169.9,116.4,170.8,114.9,172.2,114.6L172.2,114.6z"/>
		<path class="st2" d="M98.5,115.1c1-0.3,2.2-0.1,3,0.7c1.2,1.1,1.2,3.3-0.1,4.6c-1,0.9-2.7,1-3.9,0.2c-1.2-0.8-1.5-2.5-1-3.7
			C96.9,116,97.6,115.3,98.5,115.1L98.5,115.1z"/>
		<path class="st2" d="M122.3,115.5c1.4-0.4,3-0.5,4.7-0.5c2.5,0,5.2-0.1,7.7,0.5c-0.1,0.9-0.6,1.7-1,2.3c-0.8,1.2-2,2.1-3.4,2.4
			c-0.8,0.2-1.5,0.1-2.3,0.1c-1.6,0.1-3.2-0.8-4.3-2.1C123,117.5,122.4,116.5,122.3,115.5L122.3,115.5z"/>
		<path class="st2" d="M156.8,115.1c0.9-0.1,1.9,0,2.7,0.6c1.4,1.1,1.5,3.5,0.1,4.8c-1.1,0.9-2.8,0.9-4,0c-1.2-1-1.4-2.8-0.5-4.2
			C155.5,115.6,156.2,115.2,156.8,115.1L156.8,115.1z"/>
		<path class="st2" d="M75.5,116.1c0.9-0.2,2.1-0.1,2.8,0.6c1.3,1.1,1.4,3.4,0.1,4.6c-0.9,0.8-2.3,0.9-3.4,0.5
			c-1.4-0.6-2.1-2.5-1.4-4.1C73.9,117.1,74.6,116.3,75.5,116.1L75.5,116.1z"/>
		<path class="st2" d="M179.8,116.2c0.7-0.2,1.6-0.2,2.4,0.2c1,0.6,1.6,1.8,1.4,3c-0.1,1.1-0.8,2.1-1.7,2.4c-1,0.3-2.1,0.3-3-0.3
			c-1.1-0.7-1.6-2.4-1.1-3.6C178.1,117.2,178.9,116.3,179.8,116.2L179.8,116.2z"/>
		<path class="st2" d="M106.4,116.4c1-0.2,2.3,0,3,0.8c1.1,1.2,1,3.2-0.1,4.4c-1.1,1-2.9,1-4.1,0.2c-1.4-1.1-1.5-3.5-0.1-4.8
			C105.5,116.8,105.9,116.5,106.4,116.4L106.4,116.4z"/>
		<path class="st2" d="M148.9,116.4c1-0.2,2.2,0,3,0.8c1.2,1.1,1.2,3.1,0,4.4c-1.1,1.1-3,1.1-4.3,0.1c-1.3-1.1-1.3-3.4,0-4.6
			C148.1,116.8,148.5,116.5,148.9,116.4L148.9,116.4z"/>
		<path class="st2" d="M114.1,118.1c1-0.2,2.1,0.1,2.8,0.9c1.1,1.2,1,3.4-0.3,4.5c-1.1,0.8-2.6,0.8-3.7,0.1
			c-1.4-0.9-1.7-3.2-0.5-4.6C112.8,118.5,113.4,118.2,114.1,118.1L114.1,118.1z"/>
		<path class="st2" d="M141.2,118.2c1-0.3,2.3-0.2,3.1,0.5c1.4,1.2,1.3,3.5,0,4.7c-1.3,1.2-3.7,0.8-4.6-0.7
			C138.8,121.1,139.4,118.8,141.2,118.2L141.2,118.2z"/>
		<path class="st2" d="M121.1,119.4c1-0.2,2.2,0,3,0.8c1.1,1.1,1.1,3,0.1,4.2c-0.9,1-2.4,1.3-3.5,0.8c-0.9-0.3-1.5-1.1-1.7-2
			C118.5,121.6,119.5,119.7,121.1,119.4L121.1,119.4z"/>
		<path class="st2" d="M134.3,119.4c1.1-0.2,2.3,0,3.1,0.8c0.9,1,1,2.8,0.2,4c-0.8,1.3-2.7,1.5-4,0.9c-1.5-0.7-1.9-2.8-1.1-4.3
			C132.8,120.1,133.5,119.6,134.3,119.4L134.3,119.4z"/>
		<path class="st2" d="M187.4,120.9c0.8,0,1.7,0.2,2.2,0.8c1.1,1,1.2,2.7,0.3,4c-1,1.4-3.3,1.5-4.6,0.3c-1.1-1.2-1-3.2,0.2-4.3
			C186.2,121.1,186.8,121,187.4,120.9L187.4,120.9z"/>
		<path class="st2" d="M68,121.1c0.9-0.3,2.1-0.3,3,0.3c1.4,0.9,1.6,3.1,0.4,4.5c-1.2,1.3-3.9,1.1-4.8-0.6
			C65.9,123.8,66.5,121.8,68,121.1L68,121.1z"/>
		<path class="st2" d="M85.4,121.5c5.7-0.4,11.5,0.2,17,1.2c5.9,1,11.6,2.6,17.3,4.4c0,1-0.1,2.1-0.6,3c-5.8-1.6-11.6-3.1-17.5-4.2
			c-2.6-0.4-5.4-0.8-8.1-0.9c-3.5-0.2-7.2,0-10.6,0.9c-2.3,0.6-4.7,1.7-6.6,3.1c-2.4,1.7-4.4,4.2-5.3,7c-1,3.1-0.8,6.6-0.1,9.8
			c0.9,4.5,2.6,8.6,4.6,12.7c-1.9-1.3-4.4-1.5-6.6-1.9c-1-3.1-1.8-6.3-2.2-9.6c-0.7-4.5-0.5-9.1,1.2-13.4c1-2.4,2.5-4.7,4.3-6.7
			c1.2-1.4,2.6-2.4,4.4-3.2C79.3,122.3,82.3,121.8,85.4,121.5L85.4,121.5z"/>
		<path class="st2" d="M153.8,122.8c5.9-1,11.8-1.8,17.7-1.3c2.2,0.2,4.5,0.5,6.6,1.2c2.2,0.7,4.4,1.8,6.1,3.5
			c2.6,2.7,4.7,6,5.6,9.6c1.1,3.7,1,7.7,0.5,11.6c-0.5,3.1-1.2,6.2-2.2,9.2c-2.2,0.4-4.7,0.7-6.5,1.9c1.5-3.1,2.8-6.4,3.9-9.6
			c1-3.5,1.7-7.3,1-11c-0.4-2.3-1.4-4.6-3-6.4c-2.3-2.6-5.5-4.6-8.8-5.4c-5-1.3-10.1-1.1-15.3-0.6c-7.2,0.9-14.3,2.7-21.3,4.7
			c-0.4-0.9-0.5-1.9-0.5-2.9C142.7,125.5,148.3,123.9,153.8,122.8L153.8,122.8z"/>
		<path class="st2" d="M127.7,121.7c1-0.5,2.2,0,2.6,1c0.6,1,0,2.4-1.1,2.7c-1,0.4-2.2-0.2-2.5-1.2
			C126.2,123.2,126.7,122,127.7,121.7L127.7,121.7z"/>
		<path class="st2" d="M90.3,126.5c0.7,0,1.4-0.1,2.1,0c0,8.3,0,16.6,0,24.9c-0.7,0.1-1.4,0.2-2.1,0.4
			C90.3,143.4,90.3,135,90.3,126.5L90.3,126.5z"/>
		<path class="st2" d="M93.4,126.5c0.7,0,1.4,0.1,2.2,0.2c0,8.4,0,16.8,0,25.1c-0.7-0.1-1.4-0.3-2.2-0.3
			C93.4,143.2,93.4,134.8,93.4,126.5L93.4,126.5z"/>
		<path class="st2" d="M161.3,126.7c0.7-0.1,1.4-0.2,2.1-0.2c0,8.3,0,16.7,0,25c-0.7,0-1.4,0.2-2.1,0.3
			C161.3,143.4,161.3,135.1,161.3,126.7L161.3,126.7z"/>
		<path class="st2" d="M167.8,126.5c0.8,0.1,1.6,0.2,2.4,0.3c0.1,3.6,0.1,7.2,0,10.8c-0.1,2.4,0.1,4.8,0,7.1c0.1,3,0,5.9,0.1,8.9
			c-0.8-0.5-1.6-1-2.4-1.4C167.8,143.7,167.7,135.1,167.8,126.5L167.8,126.5z"/>
		<path class="st2" d="M86.8,126.8c0.8-0.1,1.5-0.2,2.3-0.2c0.1,7.6,0,15.2,0,22.7c0,1,0,1.9,0,2.9c-0.8,0.4-1.7,0.9-2.4,1.4
			c0.1-4.8,0-9.6,0.1-14.4C86.7,135.1,86.7,130.9,86.8,126.8L86.8,126.8z"/>
		<path class="st2" d="M121.5,126.7c1.3-0.1,2.5,0,3.7,0.3c-0.6,5.6-1,11.1-1.7,16.8c-0.3,2.5-0.6,5.1-1.3,7.6
			c-1.7,0.4-3.2,1.5-4.8,2.1c1-2.8,1.6-5.8,2.2-8.8C120.7,138.7,121.2,132.7,121.5,126.7L121.5,126.7z"/>
		<path class="st2" d="M164.6,126.5c0.7,0,1.4,0,2,0c0,8.4,0,16.9,0,25.3c-0.7-0.2-1.4-0.2-2-0.4
			C164.6,143.1,164.6,134.8,164.6,126.5L164.6,126.5z"/>
		<path class="st2" d="M131.8,127c1.2-0.3,2.4-0.4,3.6-0.3c0.2,4.5,0.6,8.9,1.1,13.4c0.6,4.6,1.4,9.1,3,13.5c-1.6-0.6-3-1.7-4.8-2.1
			c-0.8-2.6-1.1-5.5-1.4-8.2c-0.4-3.5-0.8-7.1-1.1-10.6C132.1,130.6,131.9,128.8,131.8,127L131.8,127z"/>
		<path class="st2" d="M96.6,131c0-1.4-0.1-2.8,0-4.3c0.9,0.2,1.8,0.2,2.7,0.5c0,3,0,6.2,0,9.2c0,5.7,0,11.4,0,17
			c-1-0.5-1.8-0.9-2.8-1.4c-0.1-2.3,0-4.8,0-7.1C96.6,140.4,96.6,135.7,96.6,131L96.6,131z"/>
		<path class="st2" d="M157.6,127.3c0.9-0.3,1.8-0.3,2.7-0.5c0,8.4,0,16.9,0,25.4c-1,0.4-1.9,0.9-2.8,1.4c0-7.7,0-15.4,0-23.1
			C157.5,129.4,157.5,128.4,157.6,127.3L157.6,127.3z"/>
		<path class="st2" d="M83,127.8c0.9-0.3,1.8-0.5,2.7-0.7c0,9.1,0,18.3,0,27.5c-0.8,0.8-1.7,1.5-2.7,2.1C83,147.1,83,137.4,83,127.8
			L83,127.8z"/>
		<path class="st2" d="M127.6,127c0.8-0.2,1.7-0.2,2.3,0.3c0.9,0.7,1.1,2.2,0.4,3c-0.9,1.2-3,1.1-3.9-0.2
			C125.8,129.1,126.4,127.4,127.6,127L127.6,127z"/>
		<path class="st2" d="M171.3,127c0.9,0.2,1.8,0.5,2.7,0.7c0.1,9.6,0,19.3,0,28.9c-1-0.6-1.9-1.3-2.7-2.1
			C171.3,145.4,171.3,136.2,171.3,127L171.3,127z"/>
		<path class="st2" d="M100.5,127.5c0.8,0.1,1.6,0.4,2.4,0.7c0,9.3,0,18.7,0,28.1c-0.8-0.7-1.5-1.4-2.4-2
			C100.5,145.3,100.4,136.5,100.5,127.5L100.5,127.5z"/>
		<path class="st2" d="M154,128.3c0.7-0.3,1.6-0.6,2.3-0.7c0,7.9,0,15.7,0,23.6c0,1,0,2,0,3c-0.8,0.7-1.6,1.3-2.3,2
			C154,147,154.1,137.6,154,128.3L154,128.3z"/>
		<path class="st2" d="M64.5,127.7c0.9,0,1.8,0.3,2.4,1c1,1.3,0.8,3.4-0.6,4.4c-0.9,0.6-2.2,0.6-3.2,0.1c-1.3-0.8-1.7-2.6-1-4
			C62.5,128.2,63.5,127.7,64.5,127.7L64.5,127.7z"/>
		<path class="st2" d="M192.3,127.7c1-0.1,2.1,0.5,2.6,1.4c0.7,1.3,0.4,3.1-0.9,4c-1.1,0.6-2.7,0.6-3.6-0.3
			c-1.2-1.1-1.2-3.1-0.1-4.3C190.7,128,191.4,127.7,192.3,127.7L192.3,127.7z"/>
		<path class="st2" d="M79.3,129.3c0.9-0.4,1.7-0.8,2.6-1.1c0,9.6,0,19.4,0,29c-0.9,0.3-2,0.3-2.9,0.1c0-9.2,0-18.4,0-27.7
			C78.9,129.4,79.2,129.4,79.3,129.3L79.3,129.3z"/>
		<path class="st2" d="M175,128.2c1,0.4,2,0.8,2.9,1.3c0,9.3,0,18.5,0,27.9c-1,0.2-2,0.2-2.9-0.1C175,147.5,175,137.8,175,128.2
			L175,128.2z"/>
		<path class="st2" d="M104,128.7c0.8,0.2,1.7,0.5,2.5,0.9c0,9.8,0,19.7,0,29.5c-0.8-0.4-1.6-0.9-2.2-1.5c-0.3-0.2-0.2-0.6-0.3-1
			C104,147.2,104,137.9,104,128.7L104,128.7z"/>
		<path class="st2" d="M150.5,129.5c0.8-0.4,1.6-0.7,2.5-0.9c0,9.4,0,18.9,0,28.2c0,0.2,0,0.4-0.2,0.5c-0.7,0.6-1.4,1.2-2.3,1.6
			c0-7,0-13.9,0-20.9c0-2.3,0.1-4.8,0-7.1C150.4,130.5,150.5,130,150.5,129.5L150.5,129.5z"/>
		<path class="st2" d="M107.5,130c0.9,0.3,1.7,0.8,2.6,1.3c0,7.3,0,14.6,0,22c0,1.9,0,3.9,0,5.8c-0.8,0.4-1.7,0.6-2.6,0.4
			c0-1.4,0-2.8,0.1-4.3c0-4.3,0-8.4,0-12.7C107.4,138.2,107.5,134.2,107.5,130L107.5,130z"/>
		<path class="st2" d="M146.9,131.2c0.8-0.5,1.6-0.9,2.5-1.3c0,9.8,0,19.6,0,29.4c-0.9,0.2-1.8,0-2.6-0.4c0-7.8,0-15.6,0-23.4
			C146.9,134.2,146.7,132.7,146.9,131.2L146.9,131.2z"/>
		<path class="st2" d="M75.7,132.3c0.6-0.8,1.4-1.4,2.2-1.9c0,2.1,0,4.3,0,6.4c0,1.5-0.1,3,0,4.6c0,5.2,0,10.2,0,15.4
			c-0.9-0.6-1.7-1.4-2.3-2.4c-0.2-0.3-0.1-0.7-0.1-1c0-6.8,0-13.6,0-20.4C75.4,132.7,75.5,132.5,75.7,132.3L75.7,132.3z"/>
		<path class="st2" d="M179.1,130.2c0.8,0.6,1.7,1.2,2.3,2c0.2,0.2,0.1,0.6,0.2,0.9c0,6.7,0,13.4,0,20.1c0,0.3,0,0.7-0.2,1
			c-0.6,1-1.4,1.8-2.3,2.4C179.1,147.9,179.1,139,179.1,130.2L179.1,130.2z"/>
		<path class="st2" d="M111.1,132.1c1,0.5,2,1,2.8,1.8c0.1,1.4,0,2.8,0,4.3c0,2.4,0,4.9,0,7.3c-0.1,3.3,0,6.7-0.1,10.1
			c0,0.2,0,0.3-0.2,0.4c-0.8,0.8-1.6,1.6-2.6,2.2C111.1,149.5,111.1,140.8,111.1,132.1L111.1,132.1z"/>
		<path class="st2" d="M143,133.9c0.8-0.8,1.8-1.3,2.8-1.8c0,8.7,0,17.4,0,26c-1.1-0.6-2-1.5-2.8-2.3c0-3.2,0-6.5,0-9.7
			C143,142.1,142.9,137.9,143,133.9L143,133.9z"/>
		<path class="st2" d="M127.9,132.5c1.5-0.4,3.1,0.9,3.2,2.4c0.1,1.2-0.7,2.3-1.8,2.7c-0.5,0.1-0.9,0.1-1.5,0.1
			c-1.2-0.2-2.1-1.4-2-2.6C125.8,133.8,126.7,132.7,127.9,132.5L127.9,132.5z"/>
		<path class="st2" d="M72.9,136.9c0.3-1.1,0.7-2.3,1.3-3.3c0.1,2.3,0.1,4.8,0.1,7.1c0,3.2,0,6.5,0,9.6c0,0.6,0,1.2-0.1,1.7
			c-1.1-2.6-1.6-5.5-1.8-8.3C72.3,141.6,72.4,139.1,72.9,136.9L72.9,136.9z"/>
		<path class="st2" d="M182.7,133.7c1.2,1.7,1.5,3.9,1.8,6c0.3,3.9-0.1,7.8-1.4,11.6c-0.1,0.3-0.2,0.7-0.4,1c-0.1-5,0-9.9-0.1-14.8
			C182.7,136.1,182.6,134.9,182.7,133.7L182.7,133.7z"/>
		<path class="st2" d="M115,134.7c1.6,1.7,2.5,4.1,2.8,6.4c0.4,2.6,0,5.2-0.7,7.7c-0.5,1.9-1.2,3.9-2.1,5.6
			C114.9,147.9,114.9,141.3,115,134.7L115,134.7z"/>
		<path class="st2" d="M139.8,138.4c0.5-1.4,1.2-2.6,2.2-3.7c0,1.6-0.1,3.2,0,4.9c0,2.2,0,4.6,0,6.7c0,1.3,0,2.7,0,4
			c0,1.4,0,2.7,0,4.1c-1.2-2.3-2-4.9-2.6-7.4C138.8,144.2,138.8,141.3,139.8,138.4L139.8,138.4z"/>
		<path class="st2" d="M61.2,136c1-0.3,2.2-0.2,3,0.5c1.2,1.1,1.2,3.3,0,4.5c-1.3,1.2-3.7,0.8-4.6-0.8
			C58.8,138.6,59.5,136.5,61.2,136L61.2,136z"/>
		<path class="st2" d="M194.3,135.8c0.8-0.1,1.7,0.1,2.4,0.6c1.2,1,1.3,3.1,0.2,4.3c-1,1-2.8,1.1-4.1,0.2c-1-0.8-1.3-2.5-0.6-3.7
			C192.6,136.5,193.4,136,194.3,135.8L194.3,135.8z"/>
		<path class="st2" d="M128,139.3c0.6-0.1,1.3,0,1.8,0.3c0.9,0.4,1.4,1.4,1.3,2.4c0,1.1-0.9,2.2-2,2.4c-0.7,0.1-1.4,0.1-2-0.3
			c-0.9-0.5-1.4-1.4-1.3-2.4C125.8,140.5,126.8,139.4,128,139.3L128,139.3z"/>
		<path class="st2" d="M61.3,144.3c0.9-0.1,2-0.1,2.7,0.6c1.3,1.1,1.3,3.3,0,4.5c-1,0.9-2.6,0.9-3.7,0.1c-1-0.8-1.4-2.4-0.8-3.6
			C59.8,145.1,60.5,144.5,61.3,144.3L61.3,144.3z"/>
		<path class="st2" d="M194,144.3c0.6-0.1,1.2-0.1,1.8,0.1c1.2,0.3,1.9,1.6,1.9,2.8c0,0.7-0.2,1.4-0.7,1.9c-1,1.1-2.9,1.3-4.1,0.3
			c-1.1-0.9-1.3-2.5-0.7-3.7C192.6,145,193.3,144.5,194,144.3L194,144.3z"/>
		<path class="st2" d="M127.7,145.8c0.8-0.2,1.6-0.1,2.2,0.3c0.9,0.5,1.4,1.5,1.4,2.5c0,0.9-0.5,1.8-1.3,2.3
			c-0.7,0.5-1.5,0.6-2.3,0.4c-1.1-0.3-1.9-1.2-2.1-2.3C125.4,147.7,126.4,146.1,127.7,145.8L127.7,145.8z"/>
		<path class="st2" d="M63.1,151.6c0.9-0.1,2.1,0.2,2.7,1.1c0.9,1.2,0.7,3-0.5,4.1c-1,0.8-2.5,0.8-3.6,0.1c-1.3-0.9-1.5-2.9-0.6-4.2
			C61.6,152,62.3,151.6,63.1,151.6L63.1,151.6z"/>
		<path class="st2" d="M193,151.6c1-0.1,2.2,0.2,2.7,1.1c0.6,0.7,0.7,1.7,0.5,2.5c-0.2,1-1,1.8-1.9,2c-1,0.2-2.1,0.1-2.8-0.6
			c-1.1-0.9-1.2-2.7-0.5-3.9C191.3,152.1,192.2,151.7,193,151.6L193,151.6z"/>
		<path class="st2" d="M120,154.2c2.7-1.3,5.9-1.6,8.8-1.6c3,0,6.1,0.5,8.8,1.9c2,1,3.6,2.7,4.8,4.8c1.2,2.1,1.8,4.6,2.1,6.9
			c0.1,0.6,0.1,1.4,0.3,2c0.6-0.3,0.9-0.9,1.4-1.4c1.5-1.8,3-3.5,4.7-5.3c2-2.1,4.1-4.2,6.4-5.9c1.7-1.2,3.5-2.2,5.7-2.5
			c1.9-0.2,4,0.3,5.6,1.4c1.7,1.2,2.9,2.9,3.9,4.8c1.5,3.1,2.2,6.6,1.7,10c-0.1,0.4,0,0.9,0.3,1.1c0.5,0,0.6-0.6,0.7-0.9
			c0.6-1.9,1.5-3.9,2.8-5.5c2.2-2.7,5.4-4.8,8.8-5.4c3.2-0.7,6.7-0.2,9.7,1.2c1.2,0.6,2.3,1.3,3.4,2.1c0.3,0.1,0.1,0.6-0.1,0.8
			c-0.6,0.7-1.4,1.3-2,2.1c-1.7,2.1-3,4.6-4.1,7c-2.3,5.4-4.2,10.8-6.7,16.1c-1.3,2.7-2.7,5.4-4.4,7.8c-0.2,0.4-0.5,0.7-0.9,0.8
			c-0.6,0-1.1-0.2-1.6-0.3c-0.4-0.1-0.2-0.5-0.2-0.8c0.1-0.7,0.3-1.4,0.3-2.1c-0.1,0-0.3-0.1-0.4-0.2c-0.6,0.8-0.7,1.8-1.3,2.6
			c-0.5-0.2-1.1-0.1-1.6-0.5c0-0.6,0.2-1.3,0.1-1.9c-0.1-0.2-0.2-0.3-0.3-0.4c-0.5,0.6-0.7,1.3-0.9,2c-0.6,0-1.1-0.1-1.7-0.2
			c-0.2-0.8,0.2-1.6,0.1-2.4c-0.8,0.4-0.7,1.4-1.2,2.1c-0.5-0.1-1-0.1-1.5-0.3c-0.2-0.1-0.1-0.4-0.2-0.7c0.1-0.6,0.2-1.2-0.1-1.7
			c-0.6,0.5-0.6,1.5-1.2,2.1c-0.6,0-1-0.2-1.6-0.3c-0.2,0-0.6-0.2-0.6-0.5c0-0.8,0.3-1.5-0.1-2.3c-0.7,0.6-0.7,1.6-1.3,2.3
			c-0.9,0.1-1.7-0.2-2.5-0.3c-0.1-0.9,0.2-1.8-0.1-2.7c-0.9,0.5-0.7,1.7-1.1,2.5c-0.7,0-1.4-0.1-2.1-0.2c-0.4,0-0.4-0.5-0.4-0.8
			c0-0.7,0-1.5-0.2-2.2c-0.1,0-0.2,0.1-0.4,0.2c-0.3,0.9-0.1,1.8-0.6,2.7c-0.6-0.1-1.2-0.1-1.8-0.2c-0.3,0-0.6-0.2-0.6-0.5
			c-0.1-0.7,0.1-1.4-0.2-2c-0.7,0.6-0.4,1.6-0.8,2.3c-0.7,0-1.4,0-2-0.2c-0.4-0.7,0-1.6-0.3-2.4c-0.1-0.2-0.3-0.2-0.5-0.3
			c-0.4,0.8-0.3,1.7-0.6,2.6c-0.7-0.1-1.4-0.1-2-0.2l-0.1-0.1c-0.1-0.7-0.1-1.5-0.3-2.1c0-0.2-0.2-0.3-0.4-0.4
			c-0.5,0.8-0.3,1.7-0.6,2.6c-0.8,0-1.6-0.1-2.4-0.2c-0.2-0.7,0-1.5-0.3-2.1c-0.3-0.2-0.5,0.1-0.6,0.4c-0.2,0.5-0.3,1-0.3,1.6
			c-0.7,0.1-1.4,0.1-2.1-0.1c-0.1-0.8,0.1-1.6-0.3-2.3c-0.1,0-0.4-0.1-0.4-0.1c-0.4,0.7-0.3,1.5-0.3,2.3c-0.8,0.1-1.7,0-2.5,0
			c-0.1-0.9,0.2-2-0.6-2.6c-0.8,0.6-0.5,1.7-0.7,2.5c-1,0-2.1,0.2-3.1,0c-0.2-0.8,0-1.7-0.5-2.4c-0.1-0.2-0.2-0.2-0.4-0.2
			c-0.5,0.7-0.2,1.7-0.5,2.5c0,0.2-0.2,0.3-0.4,0.3c-0.7,0-1.4,0-2.1,0c-0.2-0.9,0.2-1.7-0.3-2.5c-0.1,0-0.3,0-0.4,0
			c-0.2,0.8-0.2,1.7-0.2,2.5c-1.2,0-2.3,0-3.5,0c0-0.8,0.1-1.7-0.1-2.5c-0.1,0-0.2,0-0.4,0c-0.6,0.7-0.2,1.7-0.4,2.6
			c-0.7-0.1-1.4-0.1-2.1,0c-0.2,0-0.4-0.1-0.4-0.3c-0.3-0.8,0-1.7-0.5-2.4c-0.2,0-0.3,0-0.4,0.2c-0.3,0.6-0.3,1.3-0.3,2
			c0,0.1,0,0.3-0.1,0.4c-0.4,0.2-0.9,0.1-1.3,0.1c-0.6,0-1.1,0-1.7-0.1c-0.1-0.9,0.2-2-0.6-2.5c-0.7,0.7-0.5,1.7-0.5,2.6
			c-0.9,0.1-1.7,0.1-2.6,0c0-0.8,0-1.6-0.3-2.3c-0.1,0-0.3,0-0.4,0c-0.4,0.7-0.3,1.5-0.3,2.3c-0.7,0.1-1.4,0.2-2.1,0.1
			c-0.1-0.7-0.1-1.6-0.6-2.1c-0.1,0-0.2,0.1-0.3,0.1c-0.3,0.7-0.1,1.4-0.3,2.1c-0.8,0.1-1.6,0.2-2.4,0.2c-0.3-0.8-0.1-1.8-0.6-2.6
			c-0.2,0.1-0.4,0.3-0.4,0.5c-0.1,0.7-0.1,1.5-0.3,2.2c-0.7,0-1.3,0.1-2,0.1c-0.3-0.8-0.2-1.8-0.6-2.6c-0.6,0.1-0.6,0.8-0.6,1.3
			c0,0.4,0.1,1-0.2,1.4c-0.7,0.2-1.4,0.1-2,0.2c-0.3-0.6-0.2-1.3-0.4-1.9c-0.1-0.2-0.2-0.3-0.4-0.4c-0.3,0.6-0.1,1.3-0.2,2
			c0,0.4-0.4,0.5-0.7,0.5c-0.6,0.1-1.2,0.2-1.8,0.2c-0.4-0.8-0.3-1.8-0.6-2.7c-0.1,0-0.2-0.1-0.3-0.2c-0.2,0.8-0.2,1.5-0.2,2.4
			c0,0.2,0,0.5-0.3,0.6c-0.7,0.2-1.4,0.3-2.2,0.3c-0.4-0.8-0.3-1.9-1.1-2.4c-0.2,0.9,0.1,1.7,0,2.6c-0.8,0.1-1.5,0.4-2.4,0.4
			c-0.3,0-0.3-0.3-0.5-0.5c-0.2-0.6-0.4-1.4-0.9-1.9c-0.3,0.8,0,1.5-0.1,2.3c0,0.3-0.2,0.5-0.5,0.5c-0.6,0.1-1.2,0.3-1.7,0.3
			c-0.5-0.5-0.5-1.2-0.9-1.7c-0.1-0.1-0.2-0.2-0.4-0.3c-0.1,0.7,0.1,1.5-0.1,2.2c-0.4,0.4-1.1,0.3-1.6,0.5c-0.5-0.6-0.4-1.6-1.2-2.1
			c-0.1,0.8,0.4,1.6,0.1,2.4c-0.5,0-1.1,0.2-1.7,0.2c-0.3-0.7-0.4-1.5-0.9-2c-0.3,0.1-0.3,0.5-0.4,0.8c0,0.5,0.2,1.1,0.1,1.6
			c-0.5,0.2-1.1,0.3-1.6,0.4c-0.5-0.8-0.6-1.9-1.2-2.6c-0.1,0-0.3,0.1-0.4,0.2c-0.1,1,0.4,1.9,0.3,2.8c-0.7,0.2-1.3,0.4-1.9,0.4
			c-0.5-0.1-0.7-0.5-0.9-0.8c-3-4.6-5.2-9.5-7.2-14.5c-1.1-2.9-2.3-5.9-3.5-8.8c-1.4-3.2-2.9-6.6-5.6-8.9c-0.4-0.4-1-0.8-1-1.5
			c1.9-1.3,4-2.5,6.2-3.1c4.7-1.4,10.1-0.4,14,2.8c2,1.7,3.6,4.1,4.7,6.6c0.2,0.6,0.4,1.2,0.7,1.7c0.1,0.2,0.3,0.3,0.5,0.2
			c0.4-0.5,0.2-1.2,0.1-1.9c-0.2-2.9,0.4-6.1,1.5-8.8c0.9-1.9,2.2-3.9,4.1-5.2c1.5-1.1,3.5-1.6,5.5-1.4c2,0.2,4,1.2,5.7,2.4
			c2.5,1.8,4.7,4.2,6.8,6.4c1.5,1.6,2.9,3.2,4.4,5c0.4,0.5,0.7,1,1.3,1.3c0.3-0.6,0.3-1.4,0.3-2.1c0.3-2.5,1-5.2,2.5-7.4
			C116,156.8,117.9,155.2,120,154.2L120,154.2z"/>
		<path d="M126.6,155.9c0.5-0.2,1,0.1,1.1,0.6c0.1,1,0,2.1,0,3.1c0,0.4-0.2,0.9-0.6,1c-0.2-0.1-0.3-0.4-0.3-0.6
			c-0.2-1-0.3-2.1-0.4-3.2C126.2,156.4,126.3,156,126.6,155.9L126.6,155.9z"/>
		<path d="M129.3,156.6c0-0.6,0.6-0.9,1.1-0.7c0.6,0.4,0.2,1.2,0.2,1.8c-0.2,1-0.1,2.1-0.7,2.9c-0.3-0.2-0.6-0.5-0.6-0.9
			C129.3,158.6,129.3,157.6,129.3,156.6L129.3,156.6z"/>
		<path d="M123.6,156.7c0.2-0.1,0.5-0.1,0.6,0c0.3,0.3,0.3,0.7,0.3,1.1c0,0.8,0,1.5-0.1,2.3c0,0.3-0.2,0.7-0.6,0.7
			c-0.4,0-0.4-0.5-0.4-0.8c-0.1-0.9-0.3-1.7-0.3-2.6C123,157.1,123.3,156.8,123.6,156.7L123.6,156.7z"/>
		<path d="M132.5,157.3c0-0.3,0.1-0.6,0.5-0.6c0.4-0.1,0.9,0.3,0.9,0.7c0,0.7-0.2,1.4-0.3,2.2c0,0.4-0.1,0.7-0.2,1.1
			c-0.2,0-0.4,0-0.6,0c-0.3-0.2-0.3-0.6-0.3-1C132.5,158.9,132.5,158,132.5,157.3L132.5,157.3z"/>
		<path d="M120.1,158c0.2-0.3,0.7-0.4,0.9-0.1c0.3,0.3,0.2,0.7,0.2,1.1c0,1,0,1.9-0.2,2.9c-0.2,0.1-0.4,0.1-0.6,0.2
			c-0.1-0.9-0.1-1.9-0.3-2.9C120,158.8,119.8,158.4,120.1,158L120.1,158z"/>
		<path d="M135.7,159c0-0.4-0.1-1,0.4-1.3c0.4-0.1,0.9,0.3,0.9,0.7c0,0.4-0.1,0.7-0.2,1.1c-0.2,0.8-0.2,1.6-0.3,2.5
			c-0.2-0.1-0.6,0-0.6-0.4C135.7,160.8,135.7,159.9,135.7,159L135.7,159z"/>
		<path d="M92.2,160.7c-0.2-0.4-0.2-1,0.2-1.2c0.4-0.1,0.7,0.3,0.8,0.6c0.3,0.6,0.5,1.2,0.8,1.9c0.2,0.5,0.5,1.1,0.2,1.7
			c-0.3,0-0.6,0-0.7-0.3C93.2,162.5,92.6,161.6,92.2,160.7L92.2,160.7z"/>
		<path d="M95.3,159.6c0.3,0,0.6-0.1,0.8,0.1c0.3,0.4,0.5,0.9,0.6,1.4c0.2,0.8,0.6,1.6,0.6,2.4c-0.2,0-0.6,0.1-0.7-0.2
			c-0.4-0.8-0.7-1.7-1.2-2.5C95.1,160.5,95.1,160,95.3,159.6L95.3,159.6z"/>
		<path d="M160.8,159.7c0.2-0.3,0.6-0.1,0.8-0.1c0.4,0.7-0.2,1.4-0.5,2.1c-0.4,0.6-0.5,1.3-0.9,1.9c-0.2,0-0.4,0-0.6,0
			c0-0.8,0.3-1.6,0.5-2.4C160.4,160.7,160.5,160.1,160.8,159.7L160.8,159.7z"/>
		<path d="M163.2,161.1c0.3-0.6,0.4-1.3,1-1.6c0.6-0.2,0.7,0.7,0.5,1.1c-0.4,0.9-1,1.8-1.4,2.7c-0.1,0.3-0.4,0.3-0.7,0.3
			C162.4,162.9,162.9,162,163.2,161.1L163.2,161.1z"/>
		<path d="M98.6,161.4c-0.1-0.4-0.1-1,0.4-1.1s0.8,0.4,0.9,0.9c0.3,1.2,0.7,2.4,0.8,3.6c0,0.1-0.2,0.2-0.3,0.2c-0.6-0.3-0.7-1-1-1.6
			C99.1,162.8,98.8,162.2,98.6,161.4L98.6,161.4z"/>
		<path d="M157.2,160.8c0.1-0.3,0.5-0.7,0.9-0.5c0.5,0.3,0.4,1,0.2,1.4c-0.3,0.9-0.7,1.7-1.1,2.6c0,0.3-0.3,0.5-0.6,0.7
			c-0.1-0.2-0.4-0.3-0.2-0.5C156.5,163.3,156.8,162.1,157.2,160.8L157.2,160.8z"/>
		<path d="M89.6,161.5c0.1-0.4,0.3-0.8,0.8-0.9c0.2,0.2,0.4,0.5,0.5,0.8c0.2,0.9,0.6,1.7,0.6,2.6c0,0.1-0.2,0.2-0.2,0.3
			c-0.5-0.3-0.6-0.8-0.9-1.2C90,162.6,89.8,162.1,89.6,161.5L89.6,161.5z"/>
		<path d="M166.1,161.4c0.1-0.3,0.3-0.8,0.7-0.7c0.4,0.2,0.7,0.9,0.4,1.3c-0.4,0.7-0.8,1.4-1.2,2c-0.1,0.3-0.4,0.1-0.6-0.1
			C165.5,163.2,165.9,162.4,166.1,161.4L166.1,161.4z"/>
		<path d="M116.9,162.3c-0.2-0.4,0-0.9,0.4-1.1c0.4-0.3,0.8,0.1,0.9,0.5c0.2,0.9,0.4,1.8,0.5,2.8c0.1,0.4-0.2,0.7-0.4,0.9
			c-0.1,0-0.2-0.1-0.4-0.2C117.6,164.3,117.2,163.3,116.9,162.3L116.9,162.3z"/>
		<path d="M138.8,161.7c0-0.3,0.2-0.5,0.5-0.6c0.5-0.1,1,0.5,0.8,1c-0.2,0.9-0.6,1.7-0.9,2.6c-0.1,0.3-0.3,0.5-0.5,0.7
			c-0.3-0.3-0.5-0.6-0.5-0.9C138.4,163.7,138.6,162.7,138.8,161.7L138.8,161.7z"/>
		<path d="M128.6,161.7c0.5,0,1,0.5,1.1,1.1c0.4,1.6,0.7,3.2,1.5,4.5c0.2,0.3,0.5,0.6,0.8,0.7c0.4,0.1,0.8,0.1,1.2-0.1
			c1.1-0.5,2.1-1.2,3-1.8c0.3-0.2,0.7-0.2,1.1-0.2c0,0.6-0.2,1.1-0.6,1.6c-1.8,2.1-4.9,6.1-5.4,7.4c-0.8,1.9-1.8,5.5-1.8,8.6
			c0,0.7-0.6,1.2-1,1.6c-0.6-0.4-1.1-1.1-1.1-1.9c0-2.6-0.4-5.7-1.5-7.9c-1.1-2.6-3.2-4.5-4.9-6.8c-0.6-0.8-1.3-1.5-1.4-2.6
			c0.3-0.1,0.7-0.1,1,0.1c1,0.7,2,1.5,3.1,1.9c0.6,0.2,1.2,0.2,1.6-0.4c0.6-0.8,1-1.8,1.3-2.7c0.2-0.7,0.4-1.3,0.6-2
			C127.5,162.6,128.1,161.7,128.6,161.7z"/>
		<path d="M102.3,163.2c0-0.3-0.1-0.6,0.2-0.7c0.5-0.1,0.9,0.3,1,0.7c0.2,0.8,0.4,1.7,0.5,2.5c0.1,0.4-0.3,0.6-0.6,0.6
			c-0.1-0.2-0.3-0.5-0.3-0.8C102.8,164.8,102.5,164,102.3,163.2L102.3,163.2z"/>
		<path d="M153.4,163.4c0.1-0.4,0.4-1,1-0.9c0.2,0,0.4,0.2,0.3,0.5c0,0.5-0.3,1.1-0.4,1.7c-0.2,0.6-0.4,1.2-0.7,1.7
			c-0.3,0-0.6-0.2-0.6-0.5C153,165.1,153.2,164.3,153.4,163.4L153.4,163.4z"/>
		<path d="M87.4,163c0.2-0.3,0.8-0.3,1,0.1c0.6,0.8,0.7,1.8,1.1,2.7c0.2,0.3,0.2,0.7,0.3,1c-0.2,0-0.4,0-0.5,0
			c-0.6-0.8-1.2-1.7-1.7-2.5C87.4,163.8,87.2,163.4,87.4,163L87.4,163z"/>
		<path d="M168.5,163.2c0.1-0.2,0.4-0.5,0.7-0.4c0.3,0,0.5,0.3,0.5,0.6c0,0.4-0.3,0.8-0.5,1.1c-0.5,0.8-1,1.5-1.5,2.3
			c-0.2,0-0.3,0-0.5,0c0-0.3,0-0.7,0.2-1C167.8,164.9,168,164,168.5,163.2L168.5,163.2z"/>
		<path d="M65,163.5c0.4,0,0.7,0,0.9,0.3c0.5,0.6,0.9,1.3,1.4,1.9c0.2,0.3,0.4,0.8,0.2,1.2c-0.1,0.2-0.4,0-0.5-0.1
			c-0.7-0.6-1.3-1.3-1.8-2C64.8,164.5,64.9,163.9,65,163.5L65,163.5z"/>
		<path d="M191.2,163.6c0.2-0.2,0.5-0.1,0.7-0.1c0.1,0.4,0.2,0.9-0.1,1.3c-0.5,0.7-1.1,1.4-1.8,1.9c-0.1,0.2-0.4,0.2-0.6,0.3
			c-0.3-0.8,0.3-1.5,0.8-2.1C190.5,164.5,190.8,164,191.2,163.6L191.2,163.6z"/>
		<path d="M68.4,164.3c0.5-0.4,1.1-0.1,1.4,0.4c0.3,0.5,0.5,1.1,0.6,1.7c0.2,0.6,0.5,1.2,0.5,1.9c-0.4,0-0.9-0.1-1-0.4
			c-0.5-0.9-1-1.8-1.4-2.7C68.4,164.9,68.4,164.6,68.4,164.3L68.4,164.3z"/>
		<path d="M187.5,164.3c0.2-0.2,0.7-0.1,1-0.1c0,0.3,0.1,0.6-0.1,0.9c-0.4,1-0.9,1.9-1.4,2.8c-0.2,0.4-0.7,0.4-1,0.4
			c0-0.8,0.5-1.6,0.6-2.4C186.8,165.4,186.9,164.6,187.5,164.3L187.5,164.3z"/>
		<path d="M191.8,166.8c0.7-1.2,1.8-2.2,3.1-2.5c0.2,0.1,0.3,0.1,0.4,0.1c0,0.1,0.1,0.2,0.1,0.3c-0.1,0.3-0.3,0.5-0.6,0.7
			c-0.7,0.4-1.4,1-2,1.5c-0.2,0.1-0.4,0.3-0.7,0.3C192,167.2,192,167,191.8,166.8L191.8,166.8z"/>
		<path d="M61.6,164.5c0.8-0.2,1.5,0.3,2.1,0.7c0.6,0.4,1,1,1.4,1.6c-0.1,0.2-0.1,0.3-0.2,0.5c-0.6-0.1-1.1-0.6-1.6-1
			c-0.4-0.4-0.9-0.7-1.4-1.1C61.5,165.1,61.5,164.7,61.6,164.5L61.6,164.5z"/>
		<path d="M115.4,165c0.3-0.2,0.7,0.1,0.8,0.4c0.3,1,0.4,2,0.6,3c0,0.3-0.1,0.6-0.4,0.6c-0.3-0.2-0.5-0.3-0.6-0.6
			c-0.1-0.8-0.3-1.5-0.6-2.2C115.1,165.8,115,165.2,115.4,165L115.4,165z"/>
		<path d="M141,165c0.3-0.3,0.8-0.1,0.9,0.3c0.1,0.6-0.2,1.1-0.3,1.6c-0.2,0.5-0.2,1.1-0.5,1.6c-0.1,0.2-0.5,0.5-0.7,0.3
			c-0.2-0.2-0.1-0.5-0.1-0.8c0.2-0.8,0.2-1.6,0.4-2.5C140.8,165.5,140.8,165.2,141,165L141,165z"/>
		<path d="M72.2,165.3c0.4,0,0.8-0.2,1.1,0.1c0.4,0.3,0.4,0.9,0.5,1.3c0,0.7,0.3,1.5,0,2.2c-0.2,0-0.3,0-0.5,0
			c-0.3-0.9-0.8-1.7-1.1-2.5C72.1,166,72.2,165.6,72.2,165.3L72.2,165.3z"/>
		<path d="M94.1,166.2c-0.1-0.4,0-0.8,0-1.1c0.3,0.1,0.6,0,0.7,0.3c0.8,1.8,1.6,3.6,2.7,5.4c0.2,0.4,0.5,0.9,1,1.1
			c0.2,0.1,0.5-0.1,0.7-0.2c0.7-0.5,0.8-1.4,1.4-2c0.1,0,0.3,0,0.5,0c0.2,1-0.5,1.9-0.7,2.9c-0.6,2.2-0.6,4.7-0.5,7
			c0.1,1.9,0.4,4,0.7,5.9c0,0.3,0,0.6-0.1,0.9c-0.3-0.1-0.5-0.4-0.6-0.8c-0.5-2.2-1.4-4.5-2.7-6.4c-1.5-2.3-3.4-4.4-5.6-6.1
			c-0.2-0.2-0.5-0.5-0.5-0.8c0.1-0.2,0.4-0.3,0.6-0.2c0.8,0.5,1.7,1.1,2.6,1.3c0.7,0.1,0.8-0.8,0.8-1.3
			C95.2,170.2,94.6,168.2,94.1,166.2L94.1,166.2z"/>
		<path d="M162.2,165.5c0.1-0.3,0.4-0.3,0.7-0.4c0.2,1-0.2,1.9-0.4,2.8c-0.4,1.4-0.7,2.8-0.7,4.4c0,0.5,0.2,1.3,0.8,1.1
			c0.9-0.2,1.7-0.8,2.6-1.3c0.3-0.2,0.5,0,0.7,0.1c-0.2,0.3-0.3,0.6-0.6,0.8c-2.7,2.2-5.2,4.9-6.7,8c-0.7,1.4-1.3,2.9-1.6,4.5
			c-0.1,0.3-0.3,0.7-0.6,0.8c-0.2-0.7,0-1.3,0.1-1.9c0.3-2.5,0.7-5.1,0.6-7.6c0-1.4-0.2-2.8-0.5-4.2c-0.2-1-0.9-1.9-0.7-2.9
			c0.1,0,0.3,0,0.5,0c0.6,0.6,0.7,1.5,1.4,2c0.2,0.1,0.5,0.3,0.8,0.2c0.4-0.2,0.7-0.6,0.9-1C160.4,169.2,161.4,167.4,162.2,165.5
			L162.2,165.5z"/>
		<path d="M183.5,165.5c0.3-0.4,0.7-0.3,1.1-0.2c0.2,0.2,0.1,0.5,0.1,0.8c-0.3,1-0.8,1.9-1.1,2.8c-0.2,0-0.4,0-0.5,0
			c-0.3-0.7,0-1.4,0-2.1C183.3,166.3,183.2,165.8,183.5,165.5L183.5,165.5z"/>
		<path d="M85.6,165.8c0.1-0.3,0.6-0.2,0.7,0.1c0.6,0.9,1.3,1.9,1.9,2.8c0.2,0.3,0.2,0.7,0.2,1c-0.2,0-0.5,0-0.7-0.2
			c-0.7-0.7-1.2-1.4-1.9-2.1C85.6,166.9,85.5,166.3,85.6,165.8L85.6,165.8z"/>
		<path d="M170.6,165.8c0.1-0.2,0.4-0.1,0.6-0.1c0,0.3,0.2,0.7,0,1c-0.1,0.5-0.5,0.9-0.8,1.3c-0.5,0.5-0.9,1.1-1.5,1.6
			c-0.1,0.2-0.4,0.1-0.6,0.1c-0.1-0.7,0.5-1.3,0.8-1.8C169.8,167.2,170.1,166.5,170.6,165.8L170.6,165.8z"/>
		<path d="M75.5,166.7c0.4,0.1,0.8,0.1,0.9,0.5c0.1,0.9,0.3,1.8,0.2,2.7c0,0.3-0.2,0.3-0.5,0.3c-0.4-0.8-0.6-1.7-0.8-2.6
			C75.2,167.3,75.4,167,75.5,166.7L75.5,166.7z"/>
		<path d="M180.5,167.4c0.1-0.4,0.5-0.5,0.8-0.6c0.1,0,0.3,0.1,0.3,0.2c0,0.2,0.1,0.5,0,0.8c-0.2,0.9-0.4,1.7-0.7,2.5
			c-0.2,0-0.3,0-0.5,0C180.2,169.4,180.4,168.3,180.5,167.4L180.5,167.4z"/>
		<path d="M84.7,169.6c0.3-0.2,0.6-0.1,0.9,0c0.5,0.9,1.1,1.6,1.6,2.5c0.2,0.3,0.2,0.6,0.3,0.9c-0.3,0-0.6,0.1-0.8-0.2
			c-0.7-0.8-1.5-1.4-2.1-2.3C84.4,170.3,84.3,169.8,84.7,169.6L84.7,169.6z"/>
		<path d="M171.3,169.6c0.3-0.1,0.7-0.2,1,0c0.3,0.2,0.3,0.7,0.1,1c-0.6,0.8-1.4,1.5-2.1,2.3c-0.2,0.2-0.5,0.1-0.7,0.2
			c-0.1-0.7,0.4-1.2,0.8-1.7C170.6,170.7,171,170.2,171.3,169.6L171.3,169.6z"/>
		<path d="M70,170.7c0.5,0,0.9,0.2,1.3,0.5c1.3,1.2,2.6,2.5,3.7,4c0.3,0.4,0.6,0.8,1.1,0.9c0.3,0,0.7,0.1,0.9-0.2
			c0.5-0.7,0.6-1.8,1-2.6c0.2-0.1,0.3-0.1,0.4-0.2c0.1,0.4,0.3,0.8,0.3,1.2c-0.1,1.5-0.7,3.1-0.9,4.7c-0.2,2.4,0.5,4.9,1.3,7.2
			c0.2,0.7,0.6,1.3,0.6,2c-0.8-0.3-1.2-1-1.6-1.7c-1.1-1.9-2.8-3.4-4.5-5c-1.8-1.6-3.7-3-5.7-4.5c-0.3-0.2-0.7-0.6-0.4-1
			c1.6-0.4,2.7,1.5,4.4,1.2c0.3,0,0.5-0.3,0.5-0.6c0-0.6-0.2-1.1-0.5-1.6c-0.5-1.2-1.1-2.2-1.8-3.3C70.1,171.4,70,171.1,70,170.7
			L70,170.7z"/>
		<path d="M185.6,171.3c0.3-0.4,0.8-0.5,1.3-0.5c0,0.3,0,0.6-0.2,0.8c-0.9,1.3-1.8,2.6-2.2,4.2c-0.2,0.4-0.2,0.8-0.1,1.2
			c0.2,0.3,0.5,0.2,0.8,0.2c1.3,0,2.1-1.2,3.3-1.2c0.2,0,0.6-0.1,0.6,0.2c0.1,0.4-0.3,0.7-0.6,0.9c-2,1.4-4,2.9-5.9,4.7
			c-1.6,1.5-3.2,3-4.4,5c-0.3,0.6-0.7,1.2-1.4,1.4c0-0.7,0.4-1.3,0.6-2c0.8-2.1,1.4-4.4,1.3-6.6c0-1.8-0.9-3.5-0.9-5.4
			c0-0.4,0.1-0.7,0.3-1c0.1,0.1,0.3,0.1,0.4,0.2c0.5,0.8,0.5,1.8,1,2.6c0.2,0.3,0.6,0.3,0.9,0.2c0.6-0.2,0.9-0.7,1.3-1.1
			C183.1,173.7,184.3,172.5,185.6,171.3L185.6,171.3z"/>
	</g>
</g>
</svg>
