<?xml version="1.0" encoding="utf-8"?>
<!-- Generator: Adobe Illustrator 21.1.0, SVG Export Plug-In . SVG Version: 6.00 Build 0)  -->
<svg version="1.1" id="Warstwa_1" xmlns="http://www.w3.org/2000/svg" xmlns:xlink="http://www.w3.org/1999/xlink" x="0px" y="0px"
	 viewBox="0 0 512 512" style="enable-background:new 0 0 512 512;" xml:space="preserve">
<style type="text/css">
	.st0{fill:#007E3A;}
	.st1{fill:#FC3D32;}
	.st2{fill:#FFFFFF;}
</style>
<g>
	<path class="st0" d="M256,512c141.3,0,255.9-114.6,255.9-256H0.1C0.1,397.3,114.7,512,256,512z"/>
	<path class="st1" d="M256,0.1C114.7,0.1,0.1,114.7,0.1,256H512C511.9,114.7,397.3,0.1,256,0.1z"/>
	<path class="st2" d="M0.1,256c0,132.8,101.1,241.9,230.6,254.7V1.3C101.2,14.1,0.1,123.2,0.1,256z"/>
</g>
</svg>
