<?xml version="1.0" encoding="utf-8"?>
<!-- Generator: Adobe Illustrator 21.1.0, SVG Export Plug-In . SVG Version: 6.00 Build 0)  -->
<svg version="1.1" id="Warstwa_1" xmlns="http://www.w3.org/2000/svg" xmlns:xlink="http://www.w3.org/1999/xlink" x="0px" y="0px"
	 viewBox="0 0 512 512" style="enable-background:new 0 0 512 512;" xml:space="preserve">
<style type="text/css">
	.st0{fill:#FFFFFF;}
	.st1{fill:#CE1126;}
</style>
<g>
	<path class="st0" d="M256,512c141.4,0,256-114.6,256-256.1H0C0,397.4,114.6,512,256,512z"/>
	<path class="st1" d="M256,0C114.6,0,0,114.5,0,256h512.1C512,114.5,397.4,0,256,0z"/>
</g>
</svg>
