<?xml version="1.0" encoding="utf-8"?>
<!-- Generator: Adobe Illustrator 21.1.0, SVG Export Plug-In . SVG Version: 6.00 Build 0)  -->
<svg version="1.1" id="Warstwa_1" xmlns="http://www.w3.org/2000/svg" xmlns:xlink="http://www.w3.org/1999/xlink" x="0px" y="0px"
	 viewBox="0 0 512 512" style="enable-background:new 0 0 512 512;" xml:space="preserve">
<style type="text/css">
	.st0{fill:#C40308;}
	.st1{fill:#B86A1E;}
	.st2{fill:#D4AF3C;}
	.st3{fill:#1F5E91;}
	.st4{fill:#6D8C3E;}
</style>
<g>
	<path class="st0" d="M256,0C114.7,0,0.1,114.7,0.1,256S114.7,512,256,512s255.9-114.6,255.9-256C512,114.7,397.3,0,256,0z"/>
	<g>
		<path class="st1" d="M380.1,249.8c-3.1,0.7-6.2,1.5-9.3,1.8c4.9-2,10.1-3.1,14.9-5.6c5.2-2.9,10.4-6,14-10.8
			c2.8-3.4,4.9-7.9,4.6-12.5c-4.9,3.1-9.3,7.1-14.5,9.7c-3.7,1.9-7.8,3.2-11.9,4.2c5-1.4,9.7-3.7,13.6-7.3
			c5.2-3.8,8.8-9.5,10.7-15.7c0.6-2.8,1.3-5.9,0.3-8.7c-2,1.8-4.1,3.8-5.8,6c-5.7,6.2-12.4,11.7-20.1,15.2c1.4-1.1,3-2.1,4.5-3.2
			c9-6.8,16-16.6,18.6-27.7c0.5-4.2,1.2-8.6-0.3-12.8c-2,2.4-3.1,5.7-4.8,8.4c-4.2,7.1-8.6,14.1-15.3,19.1
			c4.2-5.3,8.3-10.8,10.8-17.2c1.2-4.1,3-7.9,3.2-12.2c0.4-3.7,1.1-7.5,0.4-11.3c-0.6-3.3-1.6-6.7-3.5-9.5
			c-2.4,6.6-4.1,13.4-6.3,20.1c-1.6,4.6-4.1,8.9-6.5,13.1c-0.9,1.6-1.8,3-3,4.4c4.1-8.7,7.5-17.7,8.1-27.4c1-6.5,0.9-13.1,0.2-19.6
			c-0.9-4.9-1.9-10.1-5.7-13.5c-0.1,4.5-0.2,8.9-1.1,13.4c-1.3,5.3-1.7,10.6-3.5,15.7c-1.5,4-2.6,8.1-4.9,11.8
			c0.9-4.5,2.7-8.8,3.3-13.4c0.6-6.1,0.5-12.1,0.3-18.1c-0.4-3.1-1.3-6.3-2.1-9.5c-1.1-4.5-2.9-8.9-6.4-12.1
			c-0.8,9.6-1.2,19.3-2.6,28.9c-0.6,3.6-1.6,7.1-2.5,10.5c-0.6-0.4-1.2-0.8-1.8-1.1c-1,3.3-1.3,6.9-2.7,10.1
			c-1.9,5.1-4,10.1-6.5,14.9c-2.2,3-4,6.4-6.5,9.2c-0.8-1.9-1.6-3.8-2.6-5.6c-1.3,2.2-2.1,4.6-3.5,6.8c-2.3,3.7-4.8,7.5-7.7,10.8
			c-2.8,4.1-6.7,7.4-9,11.8c-1.2,3.5-1.7,7.9,0.3,11.3c1.7,2.5,4.4,4.4,7,5.9c1.9,1.1,3.3,3.3,2.6,5.7c-0.5,2.6-3,4.1-5.6,4.5
			c-2.9,0.5-5.9,0-8.8,0.4c-2.9,0.9-3.1,4.5-5.6,6c-0.9,0.6-1.8,0.9-2.7,1.3c0-2.8-0.1-5.7,0.5-8.4c2.1-9.7,5.8-13.2,5.8-13.2
			l-17.5-19.1l-2.1,0.9c0,0-3-5.8-3.2-9c1.5,0.4,3.1,0.6,4.8,0.6c-0.4-2.4-1.2-4.8-1.5-7.2c-0.3-2.2,0.1-4.4,0.3-6.5
			c1.3,1.3,2.9,2.4,5,2.3c0.5-3.6,1.4-7.3,3.5-10.2c4,2.6,9.2,2,13.3-0.2c2.1-1.4,3.8-3.3,5.3-5.4c6,1.7,12.8,3.6,18.6,0.6
			c5.3-2.9,5.2-11.5,0.2-14.8c-0.3,1.6-0.4,3.1-0.8,4.8c-0.6,2.1-2.6,3.7-4.7,4.2c-2.7,0.8-5.4-0.5-7.9-1.1c-3.6-0.6-7.5-0.5-11,0.3
			c2.7-1.8,5.3-4.7,8.8-4.6c2.8,0.1,4.5,2.6,6.2,4.4c2.7-4.7,1.4-12-4.1-14c-2.8-0.5-5.7-0.5-8.4,0.5c-0.6-1.1-1.1-2.3-1.8-3.3
			c-1.7-2-4.6-2.2-7.1-2.5c-4.4,0.3-8.8,1.3-12.5,3.6c-4.4,0.5-8.8-0.6-12.5-2.9c0.4-1.3,0.6-2.7,1.2-4.1c0.9-0.7,2-1,3-1.7
			c0.5-1.5-1.2-2.3-1.8-3.4c0.2-2.9,3.2-4.5,5.7-5.3c2.4-0.1,4.9-1.2,6.3-3.2c1-1.4,0.2-3-0.2-4.5c0.6-1.2,1.1-2.6,1.4-4
			c0.8-1.4,1.6-3.2,0.2-4.7c-1.7-1.7-2.7-3.4-4.1-5.3c0-1,0.3-2.2-0.5-3.1c-0.8-1-2.2-1-3.3-1.3c-1.5-0.8-3.1-1.6-4.7-2.5
			c-1-0.7-0.5-1.9-2.2-2.8c-2.2-1.3-3.5,0.1-7.6-1.1c-4.7-1.4-7.4-3-11.4-3.5c2.2-2.3,2.5-5,1.1-7.3c-1.3-2.1-3.6-2.7-4.9-4.8
			c1.2,0.1,2.4,0,3.6,0.1c0.1-1.7,0.3-3.3,0.3-5.1c-1,0.1-1.9,0.3-2.9,0.4c0.1-1,0.2-2.1,0.3-3.1c-2.1-0.2-4.3-0.2-6.4,0
			c0.1,1,0.2,2.1,0.3,3.1c-1-0.1-1.9-0.3-2.9-0.4c0,1.7,0,3.3,0.2,5.1c1.3,0.1,2.5-0.1,3.7-0.1c-1.2,2-3.6,2.6-5,4.5
			c-1.7,2.4-1.1,5.7,1,7.6c-2.8,0.5-5.9,2.2-8.6,2.9c-3.4,1-3.7,1.7-7.4,1.8c-0.5,0-2.1-0.4-3.1,0.1c-2.8,1.4-2.7,3-2.7,3
			s-5.8,1.9-7.3,3c-2,1.6-1.1,3.4-1,3.7c-0.9,1.3-1.5,2.4-2.3,3.8c-0.8,0.6-2,1.1-2.2,2.3c-0.3,1.2,0.3,2.4,0.8,3.5
			c0.4,1.3,0.9,2.6,1.5,3.8c-0.3,1.1-0.8,2.2-0.7,3.3c0.4,2,2.4,3,4.1,4c3.6,0.3,7.7,1.9,8.7,5.8c-1.2,1.1-2.3,2.3-2.1,4.1
			c1.1,0.4,2.2,0.9,3.3,1.3c0.3,1.2,0.6,2.4,0.9,3.6c-3.6,2.5-8.2,4.1-12.8,3.2c-1.7-0.7-3.3-1.8-5.2-2.3c-4.2-1.2-8.8-2.1-12.9-0.2
			c-2,0.8-2.6,2.9-3.6,4.7c-2.2-0.7-4.7-1.1-7-0.6c-2.4,0.3-4.9,1.7-5.8,4.1c-1.4,3.1-1.6,7,0.2,9.9c2-1.5,3.3-4.2,6.2-4.2
			c3.6-0.2,6.3,2.7,9,4.6c-4.7-1.1-9.6-1.1-14.2,0.5c-2.9,1-6.5,0.4-8.5-1.9c-1.7-1.9-1.3-4.6-2-6.8c-1.8,1.3-2.9,3.3-3.4,5.6
			c-1.3,4.2,1.3,9.2,5.6,10.1c5.6,1.8,11.3,0.1,16.7-1.4c1.3,1.8,2.7,3.5,4.6,4.9c1.9,1.5,4.5,2,6.9,2.4c2.6,0.5,5.2-0.6,7.4-1.5
			c2.2,3,3.1,6.6,3.6,10.2c2,0,3.5-1,4.9-2.3c0.2,2.2,0.6,4.6,0.2,6.9c-0.3,2.2-1.1,4.3-1.3,6.5c1.5,0.5,3.1-0.1,4.7-0.4
			c-0.2,3.2-3.1,9.2-3.1,9.2l-2.7-0.8l-15.8,18.6c0,0,5,8.9,5.2,14.1c0,2.5,0.7,5.1,0.6,7.6c-1.7-0.6-3.4-1.3-4.5-2.9
			c-1.1-1.6-1.9-3.7-4-4.4c-3-0.5-6.2,0.1-9.1-0.5c-2.1-0.5-4.5-1.7-5.1-4c-0.9-2.2,0.3-4.8,2.2-6c2.7-1.7,5.6-3.4,7.3-6.2
			c1.9-3.1,1.5-7.2,0.6-10.5c-0.9-2.6-3.1-4.7-4.8-6.9c-4.8-5.5-9.2-11.2-12.9-17.5c-1-1.8-1.8-3.8-2.8-5.7
			c-1.2,1.7-1.9,3.6-2.7,5.6c-2.5-2.7-4.3-6.1-6.5-9.1c-2.5-4.8-4.6-9.7-6.5-14.8c-1.3-3.2-1.6-6.8-2.6-10.1l-1.8,1
			c-0.8-3.5-1.9-7-2.5-10.5c-1.4-9.6-1.8-19.2-2.6-28.9c-3.6,3.1-5.4,7.8-6.6,12.4c-0.9,4-2.2,7.8-2.1,12c-0.3,5.1,0,10.1,0.4,15.2
			c0.6,4.6,2.3,8.9,3.3,13.4c-1.3-1.8-1.9-4-2.7-6.1c-1.7-4.6-3.5-9.2-4.3-14.1c-0.4-3.4-1.4-6.7-1.9-10.1
			c-0.6-3.4-0.4-7.1-0.8-10.5c-3.5,3.5-4.7,8.5-5.6,13.4c-0.6,6-0.9,12.1,0,18c0.4,3.2,0.5,6.7,1.4,9.9c1.6,6.5,4,13,6.9,19
			c-2.3-2.7-4.1-5.9-5.8-8.9c-5-8.9-6.6-19.1-10.1-28.6c-2,2.8-3,6.3-3.6,9.6c-0.6,4.1,0.1,8.2,0.5,12.3c0.3,3.3,1.6,6.4,2.5,9.4
			c1,3.7,3.1,6.9,5.1,10.1c1.8,3.1,4.3,5.9,6.3,8.8c-6.4-4.9-10.9-11.8-14.9-18.6c-1.7-2.9-2.9-6.2-5-8.8c-1,2.5-1,5.4-0.8,8.1
			c0.3,6.8,3,13.3,6.7,18.9c2.7,4.6,6.5,8.4,10.5,11.9c2,1.7,4.4,3,6.4,4.8c-4.3-1.8-7.9-4.5-11.7-7.3c-5.4-4.1-9.3-9.5-14.3-14
			c-0.9,2.8-0.2,5.8,0.3,8.5c1.4,4.9,4.1,9.3,7.5,13c3.2,2.9,6.5,5.8,10.3,7.7c2,1.1,4.4,1.6,6.6,2.5c-4.7-1-9.3-2.6-13.6-5.1
			c-4.5-2.6-8.5-6-12.8-8.7c-0.4,2.2,0.5,4.4,1,6.4c1.9,4.8,5.4,8.5,9.2,11.7c2.5,1.8,5.3,3.4,8,5c4.9,2.6,10.2,3.7,15.2,5.8
			c-5-0.7-9.9-1.6-14.5-3.7c-5.4-1.9-10.2-4.9-15.2-7.6c-0.3,7.1,4.2,13.6,9.9,17.3c2.8,1.8,6.3,2.4,9.5,3.4c3.6,1.2,7.6,1.3,11.3,2
			c-1,0.1-2.1,0.3-3.2,0.2c-6.5-0.3-12.9-1.4-19-3.6c-0.4-1.1-1.2-3.5-1.2-3.5l-4.3,2.2l-0.8-5.4l-6.7,2.7l2.5,5.3l-4.9,1.3l2.9,7.2
			l3.8-2.2l0.8,3.6c0,0-4.4,1.7-3.4,4c2.1,1.2,4.7,1.9,6.3,4c2.8,3.6,3.1,8.5,4.3,12.8c1.1,7.6,1,15.5,4.2,22.7
			c1.9,4.2,4.4,8.5,8.5,10.8c-0.6,1.9-1.4,4-0.6,5.9c0.7,1.8,2.6,2.7,4.2,3.7c-0.9,5.7,0.1,11.7,3,16.7c1.1,1.4,2.4,2.5,3.6,3.7
			c-2.3,1.3-4.8,2.8-6,5.4c-1.1,1.6-0.6,3.6-0.3,5.4c0.3,1.8,2,2.8,3.4,4c-0.3,1.2-0.6,2.5-0.5,3.7c1,2.9,3.8,4.7,6.8,5
			c0.4,1.8,0.8,4,2.6,4.8c2.2,1.6,4.8,0.6,7.2,0.2c1.8,1.6,1.2,4.4,1.2,6.6c0.1,1.8-0.8,3.7-0.1,5.5c1.6-0.3,3.1-0.9,4.7-1.5
			c1.8,1.1,3.7,2.1,5.8,2.9c0.3-2.2,0.3-4.5,0.5-6.6c2.6-0.4,5-1.4,7-3.1c-3.2-2.2-7.2-3.4-9.7-6.6c0.5-0.8,1.1-1.6,1.6-2.4v-1.3
			c2-2.7,4.6-5.1,6.1-8.2c1.3-2.6,4.2-4.2,6-6.5c2.9-3.4,7.3-4.9,11-7.2c0.3,1.3,0.3,2.8,1,4.1c1.4,0.9,2.9-0.2,4.1-1.1
			c4.2-3.5,8.9-6.8,14-9c1.2,1.5,1.8,4,3.8,4.5c0.6-0.3,1.1-0.8,1.6-1.3c3.4-4.3,6.7-8.7,10-13.1c2.7-3.1,5.4-6.6,8.6-9.3
			c1.3-1.1,2.3-2.6,4.1-2.2c-0.3,3.7-2.5,7.2-5,9.8c-2.7,3-5,6.2-6,10c-0.3,2.4-1.1,5.2,0.1,7.4c0.3,0.5,1,0.8,1.3,1
			c-1.6,1.8-3.3,3.5-4.4,5.8c-0.9,2.3-0.9,5-1.8,7.2c-0.6,1.2-1.3,2.3-2.1,3.5c-2.3,3.1-11,9.1-16.3,12.3c0.7,1.4,1.1,2.1,2.3,2.9
			c3.2,2.1,7,3.8,10.9,2.9c-2.1,2.7-3.6,6-3.4,9.5c0.6,0.5,8.1,0.3,11.1-0.9c-0.6,2.7-1,5.9,0.2,8.5c1.3,0.1,2.4-0.6,3.6-1
			c2.3-0.8,4.8-1.8,7.3-2.4c0.1-0.2,0.4-0.7,0.5-0.9c-3.2,7.9,2.9,13.7,5,13.7c1.8-2,3.1-4.6,5.2-6.4c0.9,3,1.5,6.2,3,8.9
			c1.3,2.8,3.6,5,6,7.1c1.9-1.7,3.7-3.4,5.2-5.5c2-3.1,2.8-6.9,3.7-10.3c2.1,1.8,3.3,4.3,5.2,6.4c2.9-0.1,7.4-6.1,5-13.3
			c2.4,1.2,5,1.9,7.4,2.8c1.3,0.5,2.5,1.2,4,1.2c1.3-2.6,0.9-5.8,0.3-8.6c3,1.3,10.5,1.4,11.1,0.9c0.3-3.5-1.3-6.9-3.4-9.6
			c4.5,1,11.7-3.3,13.5-6.3c-8.1-4-15.8-9.6-18.4-14.7c-1.4-2.7-1.1-6-2.3-8.9c-1.1-1.8-2.7-3.1-4.1-4.8c0.3-0.2,0.9-0.3,1.2-0.9
			c2.6-4.7,0.3-10.8-5.9-16.9c-2.8-2.7-4.9-7.1-4.9-11.1c1.9,1.2,3.6,2.7,5.5,4.3c2.3,1.9,4.1,4.6,6.1,6.9c4.5,5,7.8,10.9,12.6,15.6
			c2.2-0.1,2.8-2.9,4.2-4.5c4.8,2.1,9.2,5,13.2,8.4c1.1,0.9,2.2,2.1,3.8,2.1c1.6-0.2,1.5-2.1,2-3.2c6,2.2,12.3,3.8,17.6,7.5
			c1.7,1.2,3.2,2.8,5.1,3.8c2.3,1.2,4.9,1.8,7.4,1.6c3.3-0.5,6.5-1.6,9.6-2.6c7.6-2.4,15.2-4.7,22.4-8.1c2.1-1,4.4-1.9,6.2-3.4
			c1.4-1.1,1.7-2.8,2.1-4.5c0.4-1.8-0.7-3.5-1.5-5.1c0.1-2.3-0.6-4.5-1.9-6.3c0.4-3-0.1-6.1-1.3-8.9c-1.3-4.8-6.2-7.1-9.6-10.3
			c0.1-1.4,0.3-4.7,0.3-4.7l3.5,1.9l2-7l-3.8-0.4l2.1-3.8l-7.6-2.1l-0.5,4.6l-3.6-1.9l-1.8,7.5l4.1,0.4c0,0-1.6,2.5-2.3,3.7
			c-4,0.2-8.2,0.1-11.8,2.1c-3.1,2.2-6.4,4.7-8.1,8.3c-0.9,1.8-2.9,2.9-4,4.8c-0.7,1.2-0.7,2.9-1.8,3.8c-2.2,2-2.9,5.2-2.1,7.9
			c0.5,1.7,2,2.8,2.9,4.3c1.4,1.7,2,4.1,2.6,6.1c-1-0.3-2.2-0.4-3-1.1c-4.1-3-7.9-6.3-12-9.3c1.5-0.4,3-0.9,4.4-1.7
			c-0.6-0.9-1.8-1.2-2.7-1.6c-1.8-0.7-3.3-1.9-4.5-3.4c1.5-1.2,3.2-2.2,4.7-3.5c-0.5-0.4-1-0.8-1.5-1.1c-3.4-1.1-7.2-1.3-10.4-3.1
			c0.7-1.4,1.5-2.8,2.2-4.3c-3.5-0.8-7.1-1.4-10.4-2.9c-4.8-2.4-9.1-6.4-10.7-11.7c2,2.2,4.2,4.9,7.2,5.5c2.5-0.1,5.1-0.4,7.5-1.3
			c-0.8-3.1-3.3-5.3-5-8c1.7,1.4,2.8,3.5,4.8,4.7c1.4,0.8,2.8,1.7,4.5,2.1c2.9,0.8,6,0.9,9,0.2c2.3-0.5,5-0.7,6.7-3.1
			c-1.4-1.3-3-2.3-4.4-3.7c3.1,0.7,6.2,1.7,9.4,1.2c2.8-0.5,5.9-0.6,8.5-1.9c2.5-1,4.5-3.1,6-5.2c-3.7-0.8-7.6-1.3-10.8-3.4
			c5.1,0.8,10.4,2.1,15.5,0.5c2-0.8,4.4-1.5,5.8-3.3c1.1-1.2,1.3-2.9,1.8-4.5c-3.4-1.3-7.2-1.6-10.5-3.2c6.2,1.3,12.9,0.4,18.2-2.9
			c2.8-2.3,4.9-6.1,4.5-9.8c-5.7,1.1-11.5,2.1-17.3,1.2c3.2-0.4,6.6-0.4,9.8-1c4-0.6,7.7-2.1,11.1-4.2c3.7-2.7,6.2-7.4,6-12
			c-7.4,2.3-15.1,4.3-22.9,3.5c5-0.6,9.9-1.3,14.7-2.9c8.8-1.9,16.4-10.2,16.1-19.6c-3.7,1.7-7.2,4.2-11,5.8
			C386.3,247.5,383.2,248.8,380.1,249.8z M323.1,175.6c3.1,0.4,6.6,2,9.7,0.6c2.8-1,4.9-4,5.4-6.6c0,0,0.4,0.4,0.4,0.5
			c1.1,1.8,0.7,4-0.1,5.7c-1.2,2.4-3.6,4.4-6.5,4.4c-5.7,0.6-10.6-3-16.3-2.7c-2.8,0-5.3,1.8-7.5,3.3c-1.1-0.6-2.1-1.3-3.2-1.9
			C310.2,175.2,317,174.3,323.1,175.6z M205.8,180.7c-2.3-1.5-4.7-3.3-7.5-3.3c-5.6-0.3-10.6,3.3-16.3,2.7c-2.8,0-5.3-1.9-6.5-4.4
			c-0.8-1.8-1.2-3.8-0.1-5.7c0.1-0.1,0.4-0.5,0.4-0.5c0.5,2.6,2.5,5.7,5.4,6.6c3.2,1.4,6.6-0.2,9.8-0.6c6.1-1.2,12.9-0.5,18,3.2
			C207.9,179.4,206.8,180.1,205.8,180.7z M121.5,267.9c-0.6-1.1-1.2-2.2-1.8-3.3c0,0,2.3-0.5,3.5-0.7c0.4,0.9,0.7,1.7,1.1,2.6
			C123.4,266.8,122.4,267.3,121.5,267.9z M203.6,321.2c-4,3.3-9.2,4.2-14.1,5.2c0.7,1.5,1.5,2.9,2.3,4.4c-3.5,1.6-7.5,1.9-11.1,3.1
			c-0.2,0.3-0.5,0.8-0.6,1c1.2,1.5,3,2.3,4.6,3.5c-1.8,2.2-4.5,3.4-7.2,4.5c0.1,0.2,0.2,0.7,0.3,1c1.9,0.9,4.2,1.4,6.3,2
			c-1.7,1.2-3.3,2.5-5.3,3.3c-4.7,2.2-9.9,1.4-14.9,1.6c-3.5,0.1-7.1-0.4-10.6-0.6c-0.6-4.6-1.6-9-4.1-13.1
			c-1.2-1.8-2.7-3.4-4.1-5.3c0.1-1.7,0.6-3.5-0.2-5.2c-0.8-1.9-2.5-3.1-4-4.5c-0.2-6.5-1-13.2-4.3-18.9c-2.5-4.8-5.7-9.3-8.1-14.4
			c-1.3-3.2-2.4-6.6-3-10.1c-0.5-3.4-1.3-7-0.2-10.4c2.4,3,6.1,4.5,9.5,5.9c4.7,1.5,9.6,1.6,14.5,2c-5.8,1-11.7,0-17.3-1.1
			c-0.5,3.6,1.5,7.3,4.1,9.6c5.5,3.5,12.4,4.6,18.5,3.1c-3.3,1.5-7.1,1.9-10.5,3.2c0.5,2.1,1.2,4.3,3,5.7c3.1,1.9,6.8,3.1,10.4,2.9
			c3.3,0,6.5-0.8,9.7-1.3c-3.2,2.1-7.1,2.7-10.8,3.4c1.7,2.1,3.4,4.3,6.1,5.3c2.7,1.2,5.7,1.3,8.6,1.8c3.1,0.6,6.3-0.5,9.3-1.2
			c-1.3,1.3-2.9,2.4-4.4,3.7c1.3,2.2,4,2.5,6.3,3c3.1,0.7,6.5,0.8,9.5-0.1c1.5-0.5,2.9-1.3,4.4-2.1c1.9-1.1,3-3.3,4.8-4.7
			c-1.6,2.7-4.3,4.9-5,8c2.2,0.9,4.5,1.2,6.8,0.9c3.1-0.3,4.8-3.3,7.5-4.8C209.1,315.7,207,319.1,203.6,321.2z M281,117.3
			c3,2.2,6.7,4.6,7.4,8.5c0.8,3.4-1.6,6.8,0.1,10.2c-1.4,0.5-2.8,1.3-4.4,1.5c-1.4,0.1-2.5-0.9-3.5-1.5c1.5-1.4,3.5-2.5,4-4.7
			C285.9,126.4,283.3,121.7,281,117.3z M264.5,127c-0.1-4.7-1.5-9.2-1.5-13.9c4.3,2.1,8.5,5.4,9.9,10c1.3,3.5-1.2,7-0.3,10.6
			c-1.8,1-3.5,2.6-5.8,2.5c-2,0-3.7-1.2-5.5-2C263.3,132.5,264.6,129.9,264.5,127z M242.1,122.6c1.7-4.4,5.8-7.3,9.7-9.4
			c-0.2,4.4-1,8.5-1.5,12.8c-0.3,3,0.8,6.4,3.2,8.3c-2,1-4.1,2.4-6.5,2.1c-1.7-0.5-3.2-1.6-4.9-2.5
			C243,130.1,240.6,126.3,242.1,122.6z M230.8,137.7c-1.7-0.2-3.2-1-4.9-1.5c1.9-3.4-0.8-7.1,0.3-10.6c0.8-3.7,4.4-6,7.4-7.9
			c-2.1,4.4-4.7,9-3.4,14c0.4,2,2.4,3.1,3.7,4.6C233.2,136.9,232.1,137.7,230.8,137.7z M277.3,173.5c-0.7,0.4-2.1,0.5-1.8,1.6
			c0.6,1.4,2.2,2,3.4,2.7c-3.6,3.2-7.6,6.2-12.4,7.7c0.4,2.4,1.8,4.4,4.1,5.5c-3.3,3.8-7.1,7.4-11.9,9.3c0.2,1.9,0.2,4,1.2,5.6
			c0.7,0.8,1.7,1.4,2.7,2.1c-1.6,2.7-3.1,5.8-5.3,8.1c-1.8-2.7-4.3-5.1-5.7-8c1-0.7,2-1.2,2.8-2.2c1-1.6,1-3.5,1.2-5.4
			c-4.9-1.9-8.6-5.6-12-9.3c2-1,3.8-2.9,3.7-5.4c-1.6-1-3.5-1.4-5.1-2.3c-2.6-1.4-4.8-3.5-7.1-5.4c1.4-0.7,3.1-1.5,3.7-3.2
			c-1.5-1.2-3.3-1.4-4.9-2.3c-2.1-1.1-4-2.8-5.8-4.5c2-1.2,4.3-2.4,5.7-4.5c1-1.5,1.4-3.4,1.7-5.3c8.2,2.2,16.7,3.5,25.3,2.8
			c5.9-0.2,11.5-1.4,17.2-2.6c0.4,2,0.9,4.2,2.3,5.8c1.4,1.6,3.2,2.6,5.1,3.7C283.1,170.3,280.6,172.6,277.3,173.5z"/>
		<path class="st2" d="M259.5,86.2l-0.5,3.1l3.7-0.3v2.8l-4.2-0.4l0.5,3H256l0.4-3.1l-3.8,0.4l0.1-2.7l3.7,0.3c0,0-0.5-2.1-0.8-3.1
			C255.6,86.2,259.5,86.2,259.5,86.2z"/>
		<path class="st2" d="M256.2,95.5h2.6v4.2h4.8v1.9h-12.1v-1.9h4.8c0,0,0-2.6,0-4.1v-0.1H256.2z"/>
		<path class="st3" d="M260,95.8c1.9,0.7,2.4,1.3,3,3.1c-1.4,0-3,0-3,0V95.8z"/>
		<path class="st3" d="M255.1,95.8c-1.9,0.7-2.4,1.3-3,3.1c1.4,0,3,0,3,0V95.8z"/>
		<path class="st3" d="M251.8,102.3c1.6,0.1,10.1,0,11.3,0c-0.8,2.6-3.5,4.3-5.6,4.3C255.7,106.5,252.7,105.3,251.8,102.3
			L251.8,102.3z"/>
		<path class="st2" d="M246.8,107.5c1.8-0.5,3.7-0.9,5.7-1.4c-0.2,1.5-0.2,3-0.7,4.4c-1.8,1.7-4.4,2.7-6.1,4.6
			c-2.9,2.6-5.1,6.5-5.1,10.4c0.1,2.7,0.8,5.3,0.6,8c-1.7-1.4-3.3-2.9-5.1-4.4c-0.2,1.8-0.3,3.5-0.6,5.4c-1.5-1-3.7-1.9-4.1-4.1
			c-0.6-5.9,1.9-11.7,5.6-16.1c1.5-1.8,3.6-3,5.7-4.3c0.6,0.9,1.2,1.8,1.8,2.7c1.8,0.7,4.1-1.2,4-3
			C248.1,108.9,247.4,108.2,246.8,107.5L246.8,107.5z"/>
		<path class="st2" d="M262.5,106.1c1.9,0.5,3.8,0.9,5.8,1.5c-0.8,0.8-1.9,1.4-2.1,2.6c0.5,1.6,2,2.9,3.7,2.7
			c0.8-0.9,1.4-1.9,2.1-2.9c2,1.3,4.3,2.5,5.9,4.5c3.5,4.5,6,10.1,5.5,15.9c-0.2,2.1-2.4,3.1-4.1,4.2c-0.2-1.8-0.4-3.5-0.6-5.4
			c-1.7,1.4-3.3,2.9-5,4.3c-0.3-3.6,1.3-7.3,0.1-10.9c-1.4-5.6-6.2-9.2-10.9-11.9C262.7,109.1,262.6,107.6,262.5,106.1L262.5,106.1z
			"/>
		<path class="st2" d="M253.5,107.3c2.6,0.7,5.4,0.6,7.9-0.3c0.5,4.5,0.7,8.9,1.5,13.3c0.4,3,0.8,6.1,0.1,9
			c-0.4,1.6-1.6,2.8-2.5,4.1c-1-1.3-1.9-2.7-2.9-4.1c-0.9,1.4-1.9,2.7-2.8,4.2c-1.1-1.4-2.3-2.8-2.6-4.7c-0.6-3-0.2-6.1,0.3-9.1
			C252.8,115.6,253.2,111.4,253.5,107.3L253.5,107.3z"/>
		<path class="st1" d="M256.9,108.8c1.9-0.6,3.7,1.4,3.3,3.3c-0.4,2.8-5.8,2.7-5.8-0.3C254.4,110.3,255.4,108.8,256.9,108.8
			L256.9,108.8z"/>
		<path class="st2" d="M236.2,110.7c1.4-0.5,2.8-0.9,4.4-1.3c-2.3,2.4-4.7,4.9-7.7,6.5c-3.3,1.6-6,4.7-7.5,8
			c-1.5,3.8,0.3,7.9-0.1,11.9c-2.1-1.7-4.8-3-6.3-5.4c0.8-0.8,1.8-1.4,2.5-2.3c0.1-1.9-0.9-4-0.2-5.9c0.7-1.8,2.8-1.7,4.4-2.6
			c0.7-1.2,0.8-2.7,1.5-3.8c1.8-2,4.8-2.1,7.3-2.4C235.2,112.4,235.7,111.5,236.2,110.7L236.2,110.7z"/>
		<path class="st2" d="M274.3,109.5c1.3,0.4,2.7,0.8,4.1,1.2c0.5,0.8,1,1.7,1.7,2.4c2.2,0.6,4.7,0.4,6.6,1.9c1.8,1,1.6,3.2,2.4,4.9
			c1.1,0.3,2.1,0.4,3.2,0.5c0.4,0.9,1,1.8,1.2,2.8c0.1,1.6-0.4,3.3-0.3,5c0.7,0.7,1.5,1.3,2.3,1.9c-1.2,2.7-4.1,3.7-6.2,5.7
			c-0.4-4.4,1.5-9-0.8-13.1c-1.6-3.1-4.4-5.6-7.4-7.3C278.5,114,276.5,111.7,274.3,109.5L274.3,109.5z"/>
		<path class="st1" d="M238.8,114.3c1.8-1.1,4.5,1.3,3.4,3.2c-0.7,1.7-3.3,2.9-4.8,1.2C235.7,117.4,237.3,115.1,238.8,114.3
			L238.8,114.3z"/>
		<path class="st1" d="M273.7,114.5c2.4-1.8,6.1,2.6,3.4,4.4C274.6,121.7,270.3,116.2,273.7,114.5L273.7,114.5z"/>
		<path class="st1" d="M256.2,115.4c1.9-0.9,4.1,0.8,4.5,2.7c-0.2,1.2-0.9,2.4-2,3c-2.4,1.3-5.7-2.2-4-4.4
			C255.1,116.2,255.6,115.7,256.2,115.4L256.2,115.4z"/>
		<path class="st1" d="M233.2,125.3c-0.3-2.2,2.3-2.9,4-4c0.9,1.3,2.5,2.7,2,4.6C238.4,128.8,233.4,128.3,233.2,125.3L233.2,125.3z"
			/>
		<path class="st1" d="M256.9,122.3c2.4-0.5,4.9,2.7,3.1,4.8c-1.2,2-4.3,1.8-5.3-0.3C253.4,125,255,122.7,256.9,122.3L256.9,122.3z"
			/>
		<path class="st1" d="M277.1,122.3c2.1-1.3,5.2,1.2,4.5,3.6c-0.8,1.9-3.5,2.5-5.2,1.1C275,125.6,275.6,123.2,277.1,122.3
			L277.1,122.3z"/>
		<path class="st2" d="M147.7,133.8c0.8-2.8,2.3-5.4,4-7.8c0.9,12,1.3,24.1,4.4,35.8c1.2,3.6-1.6,6.9-2.9,10.1
			c-1.7-6.7-2.8-13.6-3-20.5c-0.6,6.6,0.4,13.2,2,19.5c1,3.2,0.5,6.7,0.1,10c-1.7-2.5-3.4-5.2-4.3-8.2
			C144.4,160.2,143.9,146.5,147.7,133.8L147.7,133.8z"/>
		<path class="st2" d="M363.2,126.2c1.8,2.3,3.2,4.9,4.2,7.7c4,12.9,3.3,26.9-0.5,39.8c-0.9,2.8-2.8,5.4-4.3,8
			c0-2.4-0.3-4.9-0.2-7.3c0.3-3.1,1.4-6.1,1.9-9.1c0.9-4.5,1.1-9.1,0.8-13.8c-0.1,6.9-1.3,13.8-3,20.5c-1.3-3.1-4.2-6.4-2.9-10.1
			C361.9,150.3,362.5,138.2,363.2,126.2L363.2,126.2z"/>
		<path class="st2" d="M236.9,130.7c1.8,1.3,3.2,3,4,5.2c-1.2-0.4-2.7-0.2-3.5-1.3C236.9,133.4,237,132,236.9,130.7L236.9,130.7z"/>
		<path class="st2" d="M256.4,135.1c-1.5-1.1,0.1-2.9,0.8-4c0.8,0.9,1.6,1.9,2.4,2.9C258.7,134.6,257.6,136,256.4,135.1L256.4,135.1
			z"/>
		<path class="st2" d="M274,136c0.7-2.1,2.1-3.8,3.8-5.2c0,1.1,0.2,2.3,0,3.4C277.1,135.6,275.1,135.4,274,136L274,136z"/>
		<path class="st2" d="M220,133.3c1.8,1,3.4,2.3,4.4,4.3c-1.2-0.1-2.6,0.2-3.8-0.3C219.5,136.3,220.1,134.6,220,133.3L220,133.3z"/>
		<path class="st2" d="M290.4,136.8c1.1-1.5,2.6-2.5,4.1-3.4c-0.2,1.4,0.8,3.6-0.9,4.3C292.5,138.1,291.3,137.6,290.4,136.8
			L290.4,136.8z"/>
		<path class="st2" d="M234,137.3c1-0.5,1.9-1.9,3.1-1.3c1,0.6,1.4,1.8,2.1,2.7C237.4,138.6,235.6,138.1,234,137.3L234,137.3z"/>
		<path class="st2" d="M241,135c1.8,0.5,3.6,1.1,5.2,2.2c-1.1,0.3-2.1,1.4-3.2,0.8C241.9,137.3,241.6,136.1,241,135L241,135z"/>
		<path class="st2" d="M250.6,137.7c1-0.9,1.9-1.9,3.2-2.3c1.1-0.3,2.9,1.5,1.6,2.3C254.1,138.8,252.2,137.9,250.6,137.7
			L250.6,137.7z"/>
		<path class="st2" d="M259.5,135.6c1.8-0.7,3.2,0.8,4.7,1.6c-1.6,0.6-3.5,1.5-5.2,0.3C259.1,137,258.6,135.7,259.5,135.6
			L259.5,135.6z"/>
		<path class="st2" d="M268.7,137.1c1.5-0.7,3-2,5-1.6c-0.4,1.1-0.9,2.5-2.3,2.7C270.4,138,269.5,137.5,268.7,137.1L268.7,137.1z"/>
		<path class="st2" d="M275.9,137.9c0.6-1.1,1.5-2.3,2.9-2.1c0.6,0.5,1.3,1.2,1.9,1.8C279.2,138.1,277.4,139.2,275.9,137.9
			L275.9,137.9z"/>
		<path class="st2" d="M225.1,137.2c1.7,0.1,3.3,0.7,4.9,1.5c-0.9,0.6-1.9,1.3-3,1.1C225.7,139.7,224.9,138.4,225.1,137.2
			L225.1,137.2z"/>
		<path class="st2" d="M284.5,138.8c1.5-0.7,3.1-1.4,4.8-1.6c1,1.1-0.2,2.2-1.3,2.6C286.7,139.8,285.6,139.2,284.5,138.8
			L284.5,138.8z"/>
		<path class="st2" d="M245.5,140.4c1.7,0.1,2.1-1.9,3-3c1.2,1,2.2,2.2,3.7,2.8c1.7,0.6,3.3-0.8,4.9-1.3c-0.5,1-1.3,2.5-2.6,2.4
			c-3.1,0.2-6.3,0.2-9.4,0c-1.9-0.1-3.1-1.6-4.4-2.9C242.2,139.2,243.7,140.3,245.5,140.4L245.5,140.4z"/>
		<path class="st2" d="M262.6,140.3c1.4-0.6,2.4-1.7,3.6-2.6c1.1,0.9,1.6,2.8,3.3,2.8c1.6-0.2,2.9-1.2,4.5-1.9
			c-1.1,1.2-2.2,2.8-4.1,2.8c-3,0.3-6.2,0.2-9.3,0.1c-1.5,0.2-2.3-1.4-3-2.5C259.2,139.5,260.8,140.8,262.6,140.3L262.6,140.3z"/>
		<path class="st2" d="M232.7,138.8c1.3,0.6,2.7,1.4,4.3,1.6c1.4,0.3,2.6-0.7,3.7-1.3c-0.7,1-1.1,2.4-2.2,2.8
			c-2.7,1.2-5.9,0.7-8.7,0.3C230.8,141.2,231.8,140,232.7,138.8L232.7,138.8z"/>
		<path class="st2" d="M282.1,138.8c0.9,1.3,1.9,2.5,3,3.5c-2.8,0.5-6,0.9-8.7-0.2c-1.3-0.4-1.7-1.9-2.3-2.9
			c0.9,0.5,1.8,1.1,2.7,1.4C278.8,140.7,280.5,139.6,282.1,138.8L282.1,138.8z"/>
		<path class="st2" d="M377.7,138.6c2.6,4,3.7,8.5,4.3,13.2c0.4,5,0.6,9.9-0.2,14.8c-0.6,4.3-1.1,8.5-2.1,12.7
			c-1.2,4.7-3.2,9.1-5.1,13.7c-0.8-1.5-1.6-2.8-2.3-4.3c1.6-4.4,3.6-8.6,4.4-13.3c0.5-3.2,0.8-6.4,0.9-9.5c-1,5.1-1.4,10.3-3.2,15.2
			c-1.1,3.3-2.4,6.6-4.6,9.5c0.1-4.2,0.3-8.3-0.7-12.4c3.2-7,5.9-14.2,6.7-21.9C376.7,150.4,377.9,144.5,377.7,138.6L377.7,138.6z"
			/>
		<path class="st2" d="M132.7,157.9c0.2-6.6,0.8-13.6,4.5-19.2c0.2,4,0.2,8,1.1,12c1,4.9,1.4,9.8,2.8,14.6c1.3,4.5,3,8.8,5,13
			c-1,4.1-0.8,8.2-0.7,12.4c-5-7.2-6.6-16.1-7.7-24.6c0.1,5.5,0.7,11.1,2.6,16.3c0.8,2.1,1.6,4.4,2.5,6.5c-0.7,1.4-1.5,2.8-2.2,4.4
			c-2.4-5.9-5.2-11.8-6-18.2C133.8,169.2,132.5,163.6,132.7,157.9L132.7,157.9z"/>
		<path class="st2" d="M232,145.2c4.4-2,9.3-2,14.1-2.5c6-0.2,12,0,17.9-0.1c4.2-0.2,8.2,0.4,12.4,0.8c2.3,0.2,4.6,0.9,6.6,1.8
			c-2.5,1-5.7,0.9-7.6,3.2c1.6,1.7,3.8,2.7,5.4,4.7c-1.3,0.1-2.5,0-3.8-0.2c-10.5-2-21.4-2.2-32-1.1c-3.7,0.3-7.4,1.4-11.2,1.4
			c1.7-1.6,3.7-2.8,5.6-4.4c-0.3-0.5-0.4-1.2-1-1.4C236.2,146.4,234,146,232,145.2L232,145.2z"/>
		<path class="st1" d="M251.6,147.1c0.9-2.3,3.7-2.9,5.8-4c2.3,0.9,4.7,2,6.3,4c-2,1.1-4.1,2.6-6.4,2.7
			C255.1,149.5,253.3,148.4,251.6,147.1L251.6,147.1z"/>
		<path class="st1" d="M243.4,144.2c1.7-0.9,4.6-0.6,5.4,1.4c0.3,1.4,0,2.9-0.9,4.1c-2.1,2.3-7.4-0.5-5.9-3.6
			C242.2,145.5,242.6,144.7,243.4,144.2L243.4,144.2z"/>
		<path class="st2" d="M257.3,144.1l4.1,2l-4.1,2.4l-3.8-2.4C253.5,146.1,256.1,144.7,257.3,144.1L257.3,144.1z"/>
		<path class="st1" d="M267.5,144.1c1.2-0.5,2.7-0.4,4,0.2c1,0.9,1.5,2.3,1.5,3.7c-0.8,2.3-4.4,3.7-6.3,1.6
			C265.5,148,265.3,144.9,267.5,144.1L267.5,144.1z"/>
		<path class="st2" d="M277.8,147.7l4.3-1.2l2.6,2.6l-3.3,1C281.2,150,278.6,148.3,277.8,147.7L277.8,147.7z"/>
		<path class="st2" d="M237.4,147.7l-4.3-1.2l-2.6,2.6l3.3,1C233.9,150,236.5,148.3,237.4,147.7L237.4,147.7z"/>
		<path class="st2" d="M242.2,155c6.8-1.2,13.7-1.1,20.6-1c3.5,0.1,7,0.3,10.4,1c-7.6,1.6-15.6,1.7-23.4,1.3
			C247.3,156,244.8,155.6,242.2,155L242.2,155z"/>
		<path class="st2" d="M235.4,155.9c3.4-1.1,6.8-0.1,10.2,0.7c8.8,1.1,17.7,1,26.5-0.5c2.6-0.8,5.4-0.8,8,0
			c-7.5,2.3-15.4,3.1-23.2,3.3C249.7,159.1,242.2,158.5,235.4,155.9L235.4,155.9z"/>
		<path class="st2" d="M203.2,157.4c3.7-1.9,8.1-1.2,11.9-0.1c3.7,1,6.6,3.7,9.8,5.8c-0.8-0.9-1.5-1.9-2.2-2.8
			c4.2-0.2,7.8-1.8,11.4-3.7c-0.3,1.8-0.3,4-1.4,5.5c-2.3,3.1-6.4,4.7-10.2,4.3c-5.4,0.1-9.4-4.3-14.6-4.9c-2.5-0.1-5.1,0.3-7.6,0.2
			C200.9,160.1,201.6,158.1,203.2,157.4L203.2,157.4z"/>
		<path class="st2" d="M298.9,157.4c3.7-1.2,8.2-1.9,11.9-0.1c1.8,0.8,2.5,2.7,3.3,4.4c-3.3,0.1-6.9-1-10.1,0.3
			c-3.3,1.1-6.2,3.3-9.5,4c-4.1,0.8-8.8,0.2-11.9-3c-1.9-1.5-2.1-4.2-2.4-6.4c3.6,1.7,7.4,3.5,11.5,3.5c-0.8,0.9-1.5,1.9-2.3,2.8
			C292.5,161.1,295.2,158.4,298.9,157.4L298.9,157.4z"/>
		<path class="st2" d="M190.7,161.7c4.3-1.6,8.6,0.6,12.3,2.7c0.6,1.8,0.9,4.4,3.1,4.7c2.2,0.7,3.1-1.9,4.1-3.3
			c5.3,2.7,11.3,3.1,17.1,2.5c2.3,2.4,5.3,4.4,7.9,6.6c-0.8,0.6-1.5,1-2.3,1.5c3.2,4.2,7.6,7.4,12.5,9.7c-1.3,0.9-2.6,1.8-3.7,3
			c1.2,3.1,3.7,5.5,6.1,7.7c2,2,4.7,3.2,7.2,4.2c-0.8,1.8-2.2,3.4-4.3,3.8c-5.5,1.3-10.7-1.9-14.1-6c0.5,7,2,14.5-1.1,21.1
			c-4.6-4.3-6.3-10.6-6.9-16.7c-1.4,0.6-2.9,1.2-4.5,1.7c0.7-5.2,1.6-11.1-1.7-15.5c-0.9,1.8-2,3.6-3.3,5.3c-1-4.1-2.1-8.6-5.8-11
			c-3.1,0.5-6.2,2-9.4,1.4c-2.5-0.3-4.3-2.3-5.7-4.1c3.4,0.5,7.5,1.5,10.6-0.7c0.8-0.4,0.9-1.6,0.3-2.2c-1.4-1.9-3.5-3.1-5.4-4.8
			c-3-2.7-6.7-5.8-11.1-5.4c-2.7,0-4.5,2.2-6.3,3.8C185.6,168,186.7,163.1,190.7,161.7L190.7,161.7z"/>
		<path class="st2" d="M311.1,164.4c3.7-2.2,8.2-4.5,12.6-2.6c3.7,1.5,4.9,6.3,4.2,9.9c-1.9-1.7-3.6-3.8-6.4-3.8
			c-4.5-0.3-8,2.6-11,5.5c-1.9,1.8-4.5,3.1-5.8,5.6c-0.1,1.2,1.3,1.7,2.2,2.2c2.9,1.3,6.3,0.4,9.3-0.3c-1.3,1.6-2.7,3.4-4.9,4.1
			c-3.4,0.9-7-0.1-10.2-1.4c-3.3,2.8-4.8,7-5.8,11.1c-1.3-1.6-2.4-3.4-3.4-5.3c-3,4.7-2.3,10.4-1.5,15.5c-1.4-0.5-2.8-1.2-4.5-1.6
			c-0.9,6.1-2.1,12.8-7.2,16.7c-2.5-6.9-1.3-14.2-0.8-21.3c-3.1,3.4-7.2,6.7-12.1,6.5c-2.6,0.1-5-1.6-6.1-4c1.8-1.1,3.8-1.9,5.6-3.2
			c3.2-2.3,5.9-5.5,7.8-9c-1.3-1-2.6-1.9-4-2.8c4.9-2.2,9.2-5.6,12.6-9.8c-0.8-0.5-1.6-1-2.5-1.5c2.9-1.9,5.5-4.1,8-6.5
			c5.8,0.7,11.7,0,16.9-2.3c1,1.4,1.7,3.8,3.8,3.3C310.1,169,310.5,166.2,311.1,164.4L311.1,164.4z"/>
		<path class="st2" d="M124.4,161.6c1.5,5.6,3,11.2,5.1,16.7c2.3,8,6.8,15,11.4,21.8c-0.7-0.1-1.3-0.2-2.1-0.4
			c-0.4,1-0.8,2.1-1.2,3.1c-3.5-4.5-6.2-9.5-8.5-14.7c1,4.9,3.4,9.4,6.5,13.4c2,2.4,2,5.7,2.6,8.6c-7.4-7.1-12.7-16.3-14.7-26.3
			c-0.9-4.5-1.9-9.1-1.5-13.7C122.3,167.2,123.3,164.4,124.4,161.6L124.4,161.6z"/>
		<path class="st2" d="M379.6,191.6c5.5-9.2,8-19.7,11-29.9c1.7,4.2,2.8,8.7,2.3,13.2c-0.7,6-1.8,11.7-3.8,17.3
			c-2.8,6.8-6.9,13.1-12.3,18c0.6-2.8,0.6-6,2.4-8.3c2.8-4,5.4-8.1,6.4-13c-2.5,5-4.9,9.9-8.3,14.1c-0.4-1.1-0.8-2.2-1.1-3.3
			c-0.8,0.4-1.5,0.7-2.4,1C375.4,197.5,377.8,194.7,379.6,191.6L379.6,191.6z"/>
		<path class="st2" d="M205.2,163.9c1.7-0.5,4,1.6,4,1.6s-2,2.2-3.5,1.9C204,167.2,204.1,164.7,205.2,163.9L205.2,163.9z"/>
		<path class="st2" d="M309,163.9c-1.7-0.5-4,1.6-4,1.6s2,2.2,3.5,1.9C310.1,167.2,310.1,164.7,309,163.9L309,163.9z"/>
		<path class="st2" d="M154.2,182.4c-1-6.4,0.5-13.2,4.5-18.2c1.2,3.8,1.8,7.7,3.3,11.4c1.6,3.7,2.8,7.7,5.1,11.2
			c2.1,3.3,4.2,6.7,6.6,9.8c0.9,1.2,1.2,2.8,1.5,4.4c-1.7-0.8-3.5-1.8-5.6-2.1c-2.6-0.3-5.6,1.1-6.4,3.7c-0.5,1.8-0.1,3.8,0.1,5.7
			c-2.8-0.1-6.5-0.7-8.2,2c-1.7,2.6-0.2,5.8,1.2,8.1c-1.9,0.9-4.4,2.1-4.4,4.7c-0.3,3.2,2.7,5.1,5,6.7c-1.1,1.5-2.3,3.2-1.9,5.3
			c0.3,3.2,3.5,5.1,6.1,6.7c-1.2,2.1-2.4,4.6-1.2,6.9c0.9,2.8,4.2,3.3,6.3,5c1,1.6,1.4,3.6,2.7,5.2c1.3,1.2,3,1.8,4.5,2.9
			c1.6,1.6,1.7,4.5,3.7,5.8c2.5,1.6,5.6,1.9,8.5,2.1c0.3,1.9,0.3,4.2,1.6,5.7c1.3,1.4,2.9,2.6,4.9,3c1.7,0.1,3.5-0.4,5.3-0.4
			c1.2,1.3,1.9,3.1,3.3,4.2c1.5,1,3.3,1.3,5.1,1.9c-0.4,2.5-0.4,5.2-0.6,7.8c-0.1,1.8-2,2.7-3.3,3.6c-3.7,2-8.7,3.3-12.7,1
			c-2-0.8-2.3-4.2-0.3-5.1c2.4-1.3,4.9-2.7,6.6-4.9c-4.6,1.4-9.1,3.6-14.1,3.5c-1.9,0-4.1-0.2-5.8-1.3c-1.1-1.3,0-3.4,1.5-3.8
			c2.5-1.1,5.8-1.6,6.9-4.6c-2.6,0.5-5,1.9-7.7,1.8c-2.4,0.1-5.1-0.1-7.1-1.6c-1.2-0.7-0.6-2.6,0.6-3.1c2.2-1.1,4.8-1.8,6.8-3.5
			c-5.3,0.2-11,1.6-16.1-0.9c-1.4-0.8-3.6-3.3-1.6-4.7c2.9-1.2,6.3-1.3,9.2-2.5c-4.3-2-9.2,0.4-13.7-1.2c-2.7-0.7-5.3-3-4.9-6
			c2.9-1.6,6.6-1.5,9.6-2.8c-4.1-1.1-8.3-1.5-11.9-3.7c-2.2-1.1-4.2-3.2-4-5.8c3.6-1.6,7.8-0.9,11.5-1.7c-4.3-1.6-9.1-2.2-12.5-5.7
			c-2.2-2.1-2.4-5.4-2.7-8.2c4.5,0.8,8.3,3.4,12.8,4.3c-2.8-2.8-7-4.1-9.5-7.3c-1.3-1.6-2.4-3.2-3.2-5.1c-1.1-2.1-1.4-4.7-1.6-7.2
			c4.5,2.1,8.1,5.8,12.8,7.7c-2-2.6-4.7-4.7-6.7-7.2c-2.2-2.6-4.7-5.4-5.4-8.8c-0.5-2,0.2-4.1,0.8-6c2.9,2.7,5.8,5.6,8.6,8.4
			c1.4,1.4,3,2.5,4.8,3.5c-3.2-4.6-7.9-8.2-10.1-13.5c-1.1-3.2-1.1-7,0.6-10.1c3.5,6.5,8.3,12.3,13.9,16.9
			c-2.5-5.3-7.3-9.1-9.6-14.4c-1.8-4.5-2-10,0.9-14.2c4,7.9,8.2,15.8,14.1,22.3C160.4,193.7,155.9,188.6,154.2,182.4L154.2,182.4z"
			/>
		<path class="st2" d="M356.2,164.1c4,5,5.7,11.9,4.6,18.2c-1.7,6.3-6.1,11.4-8.4,17.4c3.6-3.6,6.2-8.2,9-12.6
			c1.9-3.1,3.3-6.6,5.2-9.8c2.8,4.2,2.7,9.6,0.9,14.2c-2.3,5.4-7.1,9.2-9.6,14.5c5.6-4.8,10.2-10.5,13.9-16.9
			c1.8,3.4,1.7,7.8,0,11.2c-2.3,4.7-6.5,8-9.4,12.3c3.5-1.8,6.1-5.1,8.9-7.8c1.4-1.4,2.9-2.8,4.4-4.2c1,2.7,1.2,5.8,0,8.4
			c-2.6,5.4-7.6,9-11.2,13.6c4.6-1.9,8.2-5.5,12.6-7.7c-0.1,2.6-0.4,5.5-1.8,7.8c-1.7,2.8-3.6,5.8-6.5,7.5c-2.1,1.3-4.2,2.4-6,4.2
			c4.5-0.7,8.4-3.3,12.8-4.2c-0.3,2.8-0.5,6-2.6,8.1c-3.3,3.4-8.2,4.2-12.6,5.8c3.7,0.6,7.7,0.3,11.4,1.4c0.7,2.6-1.5,5-3.7,6
			c-3.6,2.3-8,2.6-12.1,4c3.3,1,6.8,1.5,10,2.6c-0.6,1.8-0.9,4.1-2.7,5c-3.6,2.3-8,1.7-12.1,1.5c-1.4-0.1-2.8,0.3-4.3,0.8
			c3.5,1.4,7.6,1.2,10.7,3.5c-1.1,1.5-2.1,3.4-4.3,4.2c-4.9,1.7-9.9,0.6-14.9,0.4c2,1.7,4.6,2.3,6.8,3.6c1.2,0.5,1.7,2.6,0.3,3.2
			c-4.6,2.7-10.1,1.2-14.7-0.4c0.6,0.9,1.3,1.9,2.2,2.6c1.7,1.1,3.8,1.3,5.6,2.4c1.5,0.9,1.7,3.6-0.2,4c-6.4,2.4-12.8-0.7-18.8-2.7
			c1.7,2.3,4.3,3.6,6.7,5c2,0.9,1.6,4.3-0.3,5.1c-4.1,2.3-8.9,1-12.8-1c-1.3-0.9-3.2-1.8-3.3-3.6c-0.2-2.6-0.2-5.3-0.6-7.8
			c1.6-0.5,3.2-0.9,4.8-1.7c1.6-1.1,2.3-3,3.6-4.4c2.7,0,5.7,1.2,8.1-0.7c2.7-1.6,3.6-4.7,3.7-7.5c2.9-0.2,6-0.5,8.5-2.1
			c1.8-1.4,2-3.8,3.4-5.7c1.5-1.3,3.5-1.8,5-3.4c1.1-1.4,1.6-3.1,2.2-4.8c2.5-1.3,5.8-2.3,6.7-5.4c1-2.3-0.3-4.6-1.4-6.6
			c2.4-1.5,5.5-3.1,6.1-6.2c0.5-2.2-0.8-4.1-1.9-5.7c2.2-1.6,5.3-3.5,5-6.7c0-2.4-2.4-3.7-4.4-4.7c1.5-2.4,3-5.8,1.1-8.3
			c-1.9-2.5-5.4-1.8-8-1.7c0.4-2.9,0.9-6.7-2-8.4c-3.1-2.2-6.9-0.5-9.8,1c0.2-1.5,0.5-3.1,1.5-4.4c2.3-3.1,4.5-6.6,6.5-9.9
			c2.2-3.4,3.4-7.4,5.1-11.1C354.5,171.8,355.1,168,356.2,164.1L356.2,164.1z"/>
		<path class="st1" d="M221,174c5.5,3.3,7.7,9.9,8.7,15.9c-4.4-2.8-9.2-5.5-12.2-9.9c3.4,0.4,6,3,9.1,4.3
			C226.3,180.2,223.4,177.2,221,174L221,174z"/>
		<path class="st1" d="M284.6,189.8c1.1-6,3.1-12.8,8.8-15.9c-1.3,1.7-2.7,3.2-4,5c-1,1.5-1.3,3.4-1.7,5.3c3-1.4,5.7-3.4,8.8-4.7
			c-0.6,1.3-1.2,2.6-2.3,3.4C291.2,185.6,287.9,187.9,284.6,189.8L284.6,189.8z"/>
		<path class="st2" d="M115.8,184.6c2.2,3.5,3.7,7.5,6.1,10.9c2,2.8,3.7,5.9,6.1,8.5c3,3.2,6.3,6.7,10,9.2c-0.4,1.1-0.8,2.3-1.2,3.5
			c-3.8-3-7.1-6.7-10.6-9.9c2.1,3,4.7,6,7.5,8.4c1,1,2.2,1.8,2.9,3c0.6,1.5,0.8,3,1.1,4.7c-9.4-6-17-14.9-20.5-25.5
			C115.8,193.3,115.6,188.8,115.8,184.6L115.8,184.6z"/>
		<path class="st2" d="M387.3,203.6c4.8-5.8,8.3-12.5,11.8-19.1c1.1,9.1-2.3,17.9-7.5,25.1c-3.7,5.4-8.7,9.7-14.2,13.3
			c0.3-1.6,0.4-3.3,1.2-4.9c1-1.4,2.5-2.5,3.7-3.6c2.2-1.9,4.2-4.3,5.8-6.7c-3.3,2.9-6.3,6.3-9.8,9c-0.4-1.2-0.8-2.3-1.2-3.5
			C380.8,210.5,384.1,207.2,387.3,203.6L387.3,203.6z"/>
		<path class="st1" d="M162.7,189.8c2.2,2.3,4.3,5,5.8,7.7C166,195.3,164.1,192.8,162.7,189.8L162.7,189.8z"/>
		<path class="st1" d="M346.5,197.5c1.6-2.7,3.6-5.4,5.9-7.7C350.8,192.7,348.9,195.3,346.5,197.5L346.5,197.5z"/>
		<path class="st2" d="M176.8,203.3c-0.2-3-0.2-6.2,1.2-8.9c1.7,2.9,3.3,6,5.3,8.8c3.3,5.2,7.7,9.5,11.3,14.4c1.5,2,3,4.2,3,6.7
			c0.1,3-1.8,6-4.4,7.5c-2.4,1.6-5.5,2.6-7.3,5.1c-2.6,3.6-1.4,9.5,2.6,11.4c3.4,1.4,7.2,0.7,10.7,1.6c2.8,1,4.2,4.2,6.8,5.5
			c1.4,0.7,2.9,1.1,4.5,1.5c-0.3,4.2-0.6,8.2-1.6,12.2c-0.9,2.5-2.7,4.5-4.3,6.4c1.2-0.9,2.3-1.8,3.5-2.7c-0.6,2.7-1.4,5.4-2.2,8
			c-2.2-0.1-4.8-0.1-6.4-1.9c-1.7-1.9,0-4.5,0.3-6.5c-2,0.6-3.7,1.9-5.5,3c-2.6,1.5-6.5,0.6-7.7-2.3c-0.2-2.8,0.9-5.4,1.5-8.1
			c-3.5,1.1-7.6,2.9-11,0.7c-1.9-0.9-1.7-3.3-1.7-5.1c1.8-1,3.5-2.3,5-4.1c-3.1,0.7-6.2,2.4-9.3,1.3c-1.5-0.5-3.8-1.4-3.5-3.4
			c1-1.7,2.8-2.9,4.1-4.7c-3.3-0.2-7,0.9-9.8-1.2c-2.4-1.2-1.9-4.9,0.1-6.2c1.5-0.9,3.2-1.4,4.9-2c-0.2-0.2-0.5-0.7-0.6-1
			c-3.2-0.3-6.9-0.9-9.2-3.3c-1.5-1.5-1.3-4.9,0.9-5.5c2-0.6,4.2-0.7,6.3-1.2c-3.6-1.4-8.2-1.6-10.6-5.2c-1.3-1.7,0.5-3.8,2.2-4.4
			c2.3-0.6,4.7,0.2,7,0.3c-1.9-2.6-5.7-3.7-7.1-6.9c-0.9-2.3,1.3-4.7,3.7-4.5c4,0.2,6.9,3.5,10.7,4.4c-1.8-3.3-5.2-5.9-5.6-9.9
			c-0.3-2.2,2.1-3.6,4.2-3.6C171.8,200,174.2,201.9,176.8,203.3L176.8,203.3z"/>
		<path class="st1" d="M237.8,194.1c2.9,2.5,6,4.9,9.1,7C243.2,200,239.4,197.9,237.8,194.1L237.8,194.1z"/>
		<path class="st1" d="M267.3,201c3.2-2.1,6.3-4.5,9-7.1C275,197.9,271.1,199.9,267.3,201L267.3,201z"/>
		<path class="st2" d="M327.3,209c3.8-4.6,6.8-9.6,9.6-14.7c1.3,2.8,1.3,6,1.1,9c2.5-1.3,5.1-3.3,8.1-3.5c2.1,0,4.7,1.7,4.1,4.2
			c-0.6,3.7-3.6,6.2-5.6,9.3c4.2-0.6,7.2-4.6,11.4-4.2c2.4,0,4.1,2.9,2.7,5c-1.8,2.6-4.8,4.2-7.1,6.3c2.3-0.1,4.7-0.7,7-0.3
			c1.8,0.4,3.8,2.5,2.6,4.4c-2.3,3.3-6.7,3.8-10.3,5c0.2,0.2,0.5,0.5,0.7,0.8c1.8,0.2,3.7,0.1,5.5,0.7c2.3,1.1,2,4.7,0.1,5.9
			c-2.6,2.4-6.6,1.9-9.4,3.5c1.6,0.9,3.4,1.4,5,2.3c2,1.3,2.5,4.9,0.2,6.1c-2.9,2.2-6.8,1-10.1,1.3c1.3,1.8,4.5,3,4.2,5.7
			c-0.9,1.5-2.8,2.2-4.6,2.6c-2.9,0.4-5.6-0.9-8.3-1.6c1.3,1.7,3.1,2.8,4.7,4.4c1,1.9-0.3,4.5-2.3,5.2c-3.3,1.6-7-0.1-10.2-1.2
			c0.5,2.5,1.5,5.1,1.5,7.7c-0.2,1.6-1.9,2.7-3.4,3.2c-2.4,0.8-4.9-0.6-6.7-2c-0.9-0.5-1.8-1.8-2.9-1c0.1,1.9,1.7,4.2,0.2,6
			c-1.6,1.9-4.2,1.9-6.4,2c-0.9-2.6-1.7-5.3-2.2-8c1.2,0.9,2.3,1.8,3.5,2.8c-1.6-2-3.4-4-4.3-6.5c-1.2-4-1.4-8-1.7-12.2
			c2.1-0.7,4.5-1.2,6.2-2.7c1.7-1.4,2.9-3.5,5.3-4.4c3.4-0.9,7.3-0.2,10.6-1.7c4.4-2,5.3-8.5,2.2-12c-2.7-3-7.4-3.6-9.7-7.2
			c-1.8-2.4-2-5.9-0.4-8.4C320.6,216.4,324.3,212.8,327.3,209L327.3,209z"/>
		<path class="st1" d="M156.5,198.3c1.9,2,3.7,4.3,5.3,6.7C159.6,203.1,157.8,200.9,156.5,198.3L156.5,198.3z"/>
		<path class="st1" d="M358.4,198.3c-1.3,2.5-3,4.8-5.2,6.7C354.7,202.5,356.4,200.3,358.4,198.3L358.4,198.3z"/>
		<path class="st1" d="M231.7,201.6c-0.2-1,0.6-1.7,1.1-2.4c0.6,4.7,0.7,9.5,1,14.2C232.8,209.5,232.1,205.5,231.7,201.6
			L231.7,201.6z"/>
		<path class="st1" d="M281.3,199.6c0.6,0.2,1,0.3,1.5,0.6c-0.8,4.4-1.2,8.8-2.2,13.1C280.6,208.7,281.1,204.1,281.3,199.6
			L281.3,199.6z"/>
		<path class="st1" d="M169.8,204.7c1.8,1,3.3,2.4,4.5,4.2C172.5,208,171,206.5,169.8,204.7L169.8,204.7z"/>
		<path class="st1" d="M340.7,208.9c1.1-1.7,2.7-3.1,4.5-4.2C344,206.5,342.5,207.9,340.7,208.9L340.7,208.9z"/>
		<path class="st1" d="M150.8,205.4c1.4,1.3,2.6,2.9,3.6,4.6C153,208.8,151.8,207.2,150.8,205.4L150.8,205.4z"/>
		<path class="st2" d="M264.1,208.4c3.2,0,6.3-0.8,9.2-1.9c-1.5,2.4-3.5,4.5-5.5,6.5c3.1-1.3,5.5-3.8,7.4-6.7
			c-0.3,4.7,0.3,9.3,1.6,14c-6.1,0.7-12.3-0.4-17.6-3.3C261.5,214.5,263,211.4,264.1,208.4L264.1,208.4z"/>
		<path class="st1" d="M360.5,210.1c0.8-1.6,2-3,3.3-4.3C363,207.5,361.9,208.9,360.5,210.1L360.5,210.1z"/>
		<path class="st2" d="M113.1,206.6c3.1,3,5.9,6.5,9.1,9.4c2.7,2.7,6,5,9.1,7.1c3.1,2.2,7,3.2,9.9,5.8c-1.3,0.5-2.6,2.3-4.1,1.3
			c-4.5-2.4-8.8-5.3-13.3-7.7c4,3.8,9,6.1,13.6,9.1c1.3,0.8,1.3,2.6,1.8,4c-10.5-3.2-20.3-10.7-24.8-21.1
			C113.3,212,113.1,209.3,113.1,206.6L113.1,206.6z"/>
		<path class="st2" d="M239.1,206.6c1.9,2.5,4.2,5,7.1,6.4c-1.8-2-3.7-4.1-5.3-6.4c2.9,1,5.9,1.7,9,1.7c1.4,2.9,3,5.9,4.8,8.6
			c-3,1.2-6.1,2.4-9.3,2.9c-2.6,0.5-5.4,0.3-8.1,0.3C238.8,215.8,239.4,211.2,239.1,206.6L239.1,206.6z"/>
		<path class="st2" d="M390.1,218.4c4.4-3.4,7.8-8,11.9-11.9c-0.1,2.8-0.4,5.8-1.7,8.3c-4.6,10.1-14.1,17.3-24.4,20.7
			c0.1-1.1,0.3-2.2,0.5-3.3c5-3,10.3-5.6,14.5-9.5c-4.8,2.6-9.4,5.5-14.1,8.2c-0.9-0.7-2-1.3-2.9-2c1.5-1.1,3.1-2.1,4.9-2.9
			C382.8,224.1,386.6,221.3,390.1,218.4L390.1,218.4z"/>
		<path class="st2" d="M227.3,212.5c0.9,2.2,2,4.5,3,6.7c-1.8-0.7-3.6-1.4-5.5-2.1C225.7,215.5,226.5,214.1,227.3,212.5L227.3,212.5
			z"/>
		<path class="st2" d="M286.9,212.3c0.8,1.5,1.6,3,2.3,4.6c-1.8,0.8-3.7,1.5-5.8,2.3C284.9,217,286,214.8,286.9,212.3L286.9,212.3z"
			/>
		<path class="st1" d="M161.2,213.2c1.9,0.8,3.7,1.8,5.3,3.3C164.4,216.1,162.6,214.9,161.2,213.2L161.2,213.2z"/>
		<path class="st1" d="M348.5,216.6c1.5-1.5,3.3-2.5,5.4-3.3C352.3,214.9,350.6,216.1,348.5,216.6L348.5,216.6z"/>
		<path class="st1" d="M148,214.8c1.8,1.1,3.3,2.5,4.5,4.3C150.7,217.8,149.3,216.4,148,214.8L148,214.8z"/>
		<path class="st1" d="M365.8,215.5c0.9,0.6-0.8,2.2-1.6,1.8C363.8,216.4,365,215.6,365.8,215.5L365.8,215.5z"/>
		<path class="st2" d="M234.7,221.8c5.7,0.1,11.4,0.4,16.9-1.4c1.8-0.5,5.8-1.8,5.8-1.8s3.2,1.3,5,1.7c3.2,1.2,6.7,1.6,10,1.6
			c3.6-0.1,7.4,0.2,10.9-0.5c3.4-0.7,9.5-3.5,9.5-3.5l15.1,16.8c0,0-3.2,5.7-4,8.9c-2.2,9.4-0.4,19.1,0.9,28.6
			c1.6,6.8,3.2,13.8,2.4,20.8c-1.1,8.3-5,16.5-12,21.4c-5.4,3.6-11.4,5.9-17.2,8.6c-3.8,1.7-7.8,3.1-11.3,5.5
			c-3.6,2.4-6.8,5.5-9.7,8.6c-3.5-3.8-7.3-7.5-12-10c-8.5-4.5-17.8-7.2-25.8-12.5c-5.7-3.7-8.9-10-10.7-16.2
			c-2.3-7.4-1.3-15.5,0.6-22.9c1.6-6.2,2-12.6,2.6-18.9c0.4-4.2-0.2-8.3-1.1-12.4c-0.7-3.3-4-9.4-4-9.4s9.3-10.9,14.1-16.4
			C220.8,218.1,229.8,221.7,234.7,221.8z"/>
		<path class="st1" d="M257.2,222c3.1,1.6,6.6,2.9,10.1,3.3c4.4,0.6,8.9,1.3,13.3,0.6c3.4-0.5,10-3.1,10-3.1s10.4,12.2,12.4,14.6
			c-2.5,3.6-3.8,7.1-4.4,10.2c-1.3,7.5-0.1,12.8,1.1,20.2c1.4,8.3,4.3,16.8,2.6,25.3c-1.2,6.4-5.1,12-9.6,16.6
			c-4.9,4.9-11.1,7.6-17.5,10c-6.5,2.8-13,6.5-18.1,11.4c-3.6-3.7-8.3-6.5-12.9-9c-4.7-2.6-10-4-14.7-6.7
			c-4.7-2.4-8.7-5.8-11.8-10.1c-4.3-5.4-6.7-12.2-6.3-19c0.6-8.2,2.9-16,3.7-24.2c0.6-5.7,1.7-11.3,0.1-17.5
			c-0.7-2.5-3.4-7.6-3.4-7.6l11.9-14.3c0,0,9.2,3.4,14.2,3.4C244.7,225.9,251.3,225.2,257.2,222L257.2,222z"/>
		<path class="st1" d="M158.7,223.7c2.5,0,5,0.3,7.4,0.7c0,0.3,0,0.8,0,1C163.6,224.9,161.1,224.4,158.7,223.7L158.7,223.7z"/>
		<path class="st1" d="M348.8,224.4c2.2-0.3,4.5-0.6,6.7-0.9l0.1,0.5c-2.2,0.5-4.5,0.9-6.7,1.4C348.9,225.2,348.8,224.7,348.8,224.4
			L348.8,224.4z"/>
		<path class="st2" d="M111.6,224.7c3.3,1.9,6.4,4.4,9.5,6.5c4.8,3.1,10,5,15.5,6.3c2.9,0.6,4.9,3,7.1,4.9c-2.8-0.7-5.8-1.1-8.5-1.8
			c-2.7-0.6-5.2-1.9-7.8-2.8c5,4.3,11.8,4.4,17.7,6.4c-0.9,0.2-1.8,0.4-2.7,0.7c-0.1,1.3-0.2,2.5-0.2,3.8c-8-1.6-15.5-5.3-21.7-10.6
			C116.3,234.6,113.3,229.9,111.6,224.7L111.6,224.7z"/>
		<path class="st1" d="M146.9,224.9c2.4,1.5,4.9,2.9,6.8,5.1C150.8,229.2,148.7,227.1,146.9,224.9L146.9,224.9z"/>
		<path class="st3" d="M231.2,227.8c5.5,1.1,13.7,0.6,20.8-1.5c3.2-0.7,5.5-1.8,5.5-1.8s2.4,1,4.2,1.5c9.4,2.6,19.6,4.3,28.4-0.3
			c2.7,2.9,10.6,12.1,10.6,12.1s-3.6,6.3-3.7,14.6c-0.1,8.6,2.7,20.6,3.6,29.1c0.8,7.3,0.4,11.1,0.4,11.1h-11.1c0,0,2.5-5,2.6-7.5
			c0.2-3.6,0.7-7-0.3-10.4c-0.6-2.3-3.5-2.1-5.3-2.9c-2.8-1.3-2.4-3.5-3.2-5.7c3.5-0.5,7.4-1.2,10-3.6c1.9-2.6,1-6.9-1.9-8.5
			c-3.2-1.8-6.9-1.5-10.5-1.5c-1.9-0.1-7.1-1.2-8.9-2.6c-1.6-1.2-0.7-4.3,1.3-4.4c2.7-0.2,5.2,1.5,7.9,1.5c3.2,0,6.7-0.5,9.4-2.4
			c1.2-0.9,1.4-2.5,1.8-3.8c-2.4,0.5-5,0.5-7.4-0.1c-3.1-0.7-6.4,0-9.4,1.3c-2,0.8-4.1,1.5-5.9,2.6c-1.5,0.9-2.8,2.5-2.8,4.2
			c-0.2,3.3,3.6,5.9,7,6.6c4,0.9,8.1,0.9,12.1,1.7c1.5,0.3,2.8,2.2,1.6,3.6c-2.2,1.3-5,1.3-7.5,1.2c-3.4-0.5-7-1.5-10.4-1
			c-3,0.5-6.2,0.5-9.2,0.2c-0.6-1.4-1.2-2.8-1.9-4.3c2.2-0.4,4.3-1,6.2-2.1c-1.6-1.7-3.2-3.4-5-5c1.6-1,3-2.1,4.4-3.4
			c-1.1-1.1-2.1-2.2-3.2-3.3c0.9-1.3,1.8-2.6,2.7-4c-1.7-0.7-3.4-1-5.2-1.4c0-0.7-0.1-1.4-0.1-2.1c-1.5-0.6-3.2-1.2-4.8-0.4
			c-2.8,1.1-6.1,0.4-8.7,2c-1.8,1-4.2,1.2-6,2.4c-0.5,1.5,0.3,3.2,0.3,4.8c-1.6-1-2.8-2.6-4-4.2c-0.5,1.2-1.3,2.6-0.7,4.1
			c0.7,2.2,3.1,3,5.2,3.6c0.2,0.9,0.3,1.8,0.6,2.6c1.5,1,3.3,1.1,5.1,1.6c-2.1,1-4.4,1.1-6.5,2c-1.5,0.9-2.3,2.6-3.4,4
			c-3.1-0.2-4.3-3.5-5.1-6.2c-1.4-4.7,2.4-9.6-0.4-14c-0.4,1.1-0.8,2.1-1.1,3.2c-0.6-1.6-1.5-3.1-3-4.2c-0.1,1.3-0.2,2.7-0.3,4.2
			c-1.2-0.7-2.3-1.4-3.5-2.1c-0.1,3.4,0.2,6.8,1.7,9.9c-1.8,0.1-2.7-2-4-2.9c-1.3,4,1.3,8.9,5.8,9.2c0.6,3,1,6.2,1.9,9.1
			c1.1,3,4.8,2.6,7.3,3.2c-0.6,2.7-1.7,5.4-0.8,8.2c0.8-0.3,1.5-0.6,2.3-0.8c-0.6,4-0.7,8.5-3.6,11.5c-1.2,1.4-3.1,1.4-4.7,2.2
			c-0.7,0.5-1,1.3-1.5,2.1l-0.3,0.2c-0.4,0.3-0.9,0.6-1.4,0.9c-0.3,0.2-1.2,0.8-1.2,0.8h-9.8c0,0-1-3.4-0.1-11.1
			c1-8.3,4.1-21.3,4.4-29.7c0.3-7.8-3.4-14.3-3.4-14.3s6.7-8.3,10.2-11.7C226.9,226.4,229,227.4,231.2,227.8L231.2,227.8z"/>
		<path class="st2" d="M389.9,233.3c4.8-2.2,8.6-5.9,13.2-8.5c-1.4,6.1-5.8,10.9-10.5,14.5c-5.8,4.8-12.8,7.6-20,9.2
			c-0.1-1.3-0.1-2.5-0.2-3.8c-0.9-0.2-1.9-0.4-2.9-0.6c6.1-2.1,13-2.2,18.1-6.5c-2.6,0.9-5.1,2.1-7.8,2.8c-2.8,0.7-5.7,1.1-8.6,1.8
			c2.1-1.7,4.1-4.1,6.8-4.8C381.9,236.4,386.1,235.2,389.9,233.3L389.9,233.3z"/>
		<path class="st1" d="M361.3,230.1c1.6-2,3.7-3.3,6.1-4.4C365.7,227.6,363.7,229.3,361.3,230.1L361.3,230.1z"/>
		<path class="st1" d="M162.8,235.8c2-0.9,4.3-1.4,6.5-0.9C167.2,235.6,165,235.9,162.8,235.8L162.8,235.8z"/>
		<path class="st1" d="M345.7,234.9c2.2-0.5,4.6,0,6.6,1C349.9,235.9,347.8,235.6,345.7,234.9L345.7,234.9z"/>
		<path class="st2" d="M251.4,236.9c1.8-0.7,4-2.1,5.8-0.7C255.5,237.2,253.4,237.9,251.4,236.9L251.4,236.9z"/>
		<path class="st2" d="M239.5,239.8c2.3-0.6,4.4-1.2,6.4-1.6c0.6-1.6,2.6-2,3.6-1.9c2.6,0.3,2.5,3,2.7,4.9c0.6-1.1,1.1-2.5,2.2-3.3
			c1.2-0.8,2.9,0.6,2.4,1.9c-0.2,1.8-1.7,2.9-3.2,3.6c-1,0.9-2.3,1.6-3.5,2.2c-0.1,0-0.1,0.1-0.1,0.1c1.2,0,2.4,0,3.6,0.1
			c0.2,1.9-1,3.5-1.9,5.1c0.8-0.6,1.7-1.2,2.6-1.8c1.5,0.2,3,0.3,4.5,0.9c1.5,0.8,2.6,2.2,3.7,3.4c-2.1,0.4-4.3,0.6-6.4,0.9
			c1.2,2.8,3.3,5.3,3.8,8.3c-1.4-0.5-2.8-1.1-4.4-1.6c-0.2,1.7-0.3,3.5-0.5,5.4c-1.1-0.9-2.2-1.8-3.3-2.8c-0.7,2.2-1.3,4.5-2.1,6.8
			c-1.1-1.8-2.2-3.5-3.4-5.3c-0.8,1.7-1.5,3.6-2.2,5.5c-2-2.5-1.9-5.8-1.6-8.8c-1.8,1.7-3.2,4.1-5.5,5.4c-1.3-1.4-2.1-3.6-1.5-5.6
			c1.5-1.4,3.4-2.2,5.3-3.1c0.2,0.6,0.4,1.3,0.7,1.9c1.3-0.3,2.7-0.6,4.1-0.9c0,1.1,0,2.2,0.1,3.3c0.9-0.2,2.1,0.3,2.8-0.6
			c1-1.1,1.5-2.6,2.2-4c-1.4,1-2.8,2-4.3,2.9c0.1-1.5,0.3-3,0.5-4.7c-1.5,0.8-2.9,1.6-4.5,2.4c0.2-1.1,0.5-2.1,0.7-3.2
			c-2.3,1-4.8,2.2-7,3.4c1-1.8,2-4,4.2-4.5c3-1,6.2-1.5,8.8-3.4c-2.3-2-5.6-2.3-8.5-2.7c1.6-0.7,3.1-1.3,4.8-2c-1-2-3.1-2.7-5.3-2.9
			c0.2-0.7,0.5-1.2,0.8-1.6C240.4,241.2,239.9,240.5,239.5,239.8L239.5,239.8z"/>
		<path class="st1" d="M361.2,238.5c1.6-0.4,3.1-0.7,4.8-1c-1.2,0.7-2.5,1.2-3.7,1.8C361.9,239.1,361.4,238.7,361.2,238.5
			L361.2,238.5z"/>
		<path class="st1" d="M149.5,237.9c1.2,0.1,2.4,0.1,3.6,0.1c0,0.3,0.1,1,0.1,1.4C152.1,238.9,150.8,238.4,149.5,237.9L149.5,237.9z
			"/>
		<path class="st2" d="M258.5,238.6c1.2,0,2.4,0.3,3.6,0.6c-1.5,1.4-3.2,2.3-5.3,2.9C257.4,240.9,257.8,239.6,258.5,238.6
			L258.5,238.6z"/>
		<path class="st2" d="M228.5,244.3c0,0,0.5-3,1.6-2.8c1.4,0.5-1,5.4-0.9,8c0.3,3.1,1.9,6,3.3,8.7c0.7,0.2,1.4,0.5,2.2,0.8
			c-0.5,1.8-1,3.5-1.5,5.3c-1.4-0.7-3.3-1-4.2-2.5c-1.2-2.5-1-5.6-2.1-8.1c-1.5-1.2-7.1-1.8-5.9-4.2c1-1.8,4.4,1,4.4-0.2
			c-0.2-3.1-4.2-6-1.8-7c1.4-0.6,1.6,0.5,2.6,2.1c0.2-1.2-0.8-3.6,0.4-3.7C228.9,240.6,228.5,244.3,228.5,244.3z"/>
		<path class="st2" d="M278.1,241.8c4.4-1.5,8.9-0.1,13.4,0.3c-3.1,2.6-7.4,3.3-11.3,2.5c-2.7-0.6-5.8-0.9-8.2,0.6
			c-1.5,0.8-2.5,3.2-1.1,4.6c2.3,2.2,9.7,2.8,9.9,3c3.5,0.2,7.3,0.3,10.4,2c2.4,1.4,2.9,5.6,0.6,7.4c-3.3,2.4-8.5,2.9-8.5,2.9
			s-0.8-1.5-1.9-2.2c2.6-0.7,5.4-0.8,7.7-2.2c1.9-1.2,1.4-4.5-0.8-5.1c-5-1.7-10.4-0.9-15.4-2.6c-2.1-0.8-4.3-2.2-5-4.5
			c0.2-1.7,1.3-3,2.7-3.7C273.1,243.5,275.7,242.6,278.1,241.8L278.1,241.8z"/>
		<path class="st2" d="M234.9,241.6c1,0.8,2,2,3.3,2.6c1.8,0.6,3.8,0.7,5.8,1.4c-2,1.8-5.2,1.2-7.1-0.5
			C235.9,244.1,235.5,242.7,234.9,241.6L234.9,241.6z"/>
		<path class="st2" d="M115.4,242.1c3.2,1.8,6.4,3.7,9.9,5.2c4.9,1.9,9.6,4.4,15,5c4,0.3,7.7,2,11.2,3.7c-4.2,0.6-8.2-0.4-12.3-0.8
			c-2.6-0.3-5.2-1-7.6-1.8c5.2,2.7,11.1,3.2,16.9,4.1c0,1.2,0,2.4,0,3.7c-8.3,0-16.6-1.9-23.9-5.9
			C120,252.3,116.7,247.4,115.4,242.1L115.4,242.1z"/>
		<path class="st1" d="M278.9,242.7c2.8-0.5,6-0.8,8.7,0.3C284.7,243.2,281.7,243.1,278.9,242.7L278.9,242.7z"/>
		<path class="st2" d="M380.9,250.8c6.4-2.4,12.8-5.1,18.6-8.7c-1.3,5.3-4.7,10-9.1,13.1c-7.3,4.1-15.6,6-24,5.9c0-1.3,0-2.5,0-3.8
			c5.8-0.6,11.5-1.4,16.9-3.7c-2.7,0.6-5.4,1.2-8.1,1.6c-4,0.4-7.8,1.5-11.8,0.7c3-1.3,6.1-2.8,9.4-3.3
			C375.6,252,378.4,251.6,380.9,250.8L380.9,250.8z"/>
		<path class="st1" d="M167,245.4c1.8-1.4,3.8-2.4,6.2-2.7C171.3,244.1,169.2,245.1,167,245.4L167,245.4z"/>
		<path class="st2" d="M254,244.6c1.1-0.7,2.3-1.5,3.7-1.8c2,0.1,3.5,1.9,5,3.2c-2.5,0.9-5.5,1.6-8,2.6
			C254.8,247,254,244.6,254,244.6z"/>
		<path class="st1" d="M341.9,242.6c2.2,0.4,4.2,1.3,5.9,2.6C345.7,245,343.6,244.1,341.9,242.6L341.9,242.6z"/>
		<path class="st1" d="M151.7,249.7c2-0.2,4-0.3,5.9-0.1c-0.1,0.2-0.3,0.8-0.4,1C155.3,250.7,153.5,250.3,151.7,249.7L151.7,249.7z"
			/>
		<path class="st1" d="M357.6,249.6c1.9-0.2,3.8-0.1,5.7,0.1c-1.7,0.6-3.7,1-5.6,1C357.7,250.4,357.6,249.9,357.6,249.6L357.6,249.6
			z"/>
		<path class="st1" d="M175.1,254.2c2-1.7,4.4-3.4,6.9-4.3C180.1,251.9,177.6,253.3,175.1,254.2L175.1,254.2z"/>
		<path class="st1" d="M333,249.8c2.5,0.9,4.9,2.5,6.9,4.3C337.3,253.3,334.8,252,333,249.8L333,249.8z"/>
		<path class="st2" d="M112,255.8l4-1.6l1.1,5.9l4.3-1.9l1.2,3.7l-4.7,1.3l3.4,6.6l-3.7,1.4l-2.1-7.2l-3.8,2.4l-1.3-3.5l4.2-1.6
			C114.5,261.2,113,257.5,112,255.8L112,255.8z"/>
		<path class="st1" d="M182.2,261.9c2.3-1.9,4.8-3.7,7.5-5.2C188.1,259.5,185.1,260.8,182.2,261.9L182.2,261.9z"/>
		<path class="st1" d="M325.2,256.7c2.5,1.4,4.9,3.1,7.1,5.1C329.5,260.7,326.7,259.4,325.2,256.7L325.2,256.7z"/>
		<path class="st1" d="M158.4,261.8c2.9,0,5.9-0.4,8.8-0.3c-2.8,1.2-5.9,1.2-8.8,0.7C158.4,262.1,158.4,261.9,158.4,261.8
			L158.4,261.8z"/>
		<path class="st1" d="M348.8,261.2c2.5,0.5,5.1,0.6,7.6,0.8c-2.6,0.7-5.6,0.6-8.2,0C348.3,261.8,348.6,261.4,348.8,261.2
			L348.8,261.2z"/>
		<path class="st2" d="M123.7,261.2c5.2,1.2,10.2,2.7,15.5,2.9c3.4,0.4,7-0.3,10.5-0.1c2.1,0.3,3.8,1.7,5.8,2.7
			c-4.1,1.7-8.5,1.5-12.9,1.6c4.6,1.3,9.3,0.7,14,0.1c0.5,1.5,1.1,3,1.7,4.6c-5.6,2.3-11.7,1.1-17.3,0.6c-4.5-0.6-8.8-2.3-12.5-5
			C125.9,267,124.7,264,123.7,261.2L123.7,261.2z"/>
		<path class="st2" d="M261,262.1c6.8,0,14.1-1.8,20.4,1.6c1.8,2.2,0.9,6,3,8.2c1.6,1.3,3.8,1.2,5.8,2.1c0.9,5.7,1.5,12.3-1.8,17.4
			c-0.7,1.4-2.4,0.8-3.6,0.9c-0.6-1-1.3-1.6-2.2-1.9c-1.3-0.3-3.3,1.3-3.3,1.3s-1.4-0.8,0.1-1.9c1.9-1.4,4.7-1.4,6.3-3.5
			c1.3-1.8,0.6-4.1,0.5-6.1c-1.8-0.6-3.6-1.2-5.4-1.9c-0.2,0.7-0.4,1.4-0.7,2.1c-2.2-1.1-4.9-1.9-6.1-4.3c-0.9-2.3-0.6-5-0.6-7.4
			c-3.5,0-7.2,0-10.5,1.4c3.4,0,6.9-0.5,10.2-0.1c-2.8,1.4-6,1.2-9,1.6c-4.1,0.5-7.9,1.9-11.7,3.2c0.2-0.9,0.4-1.7,0.7-2.6
			c-1,1.3-2,2.6-3,4c-1-1.2-2.1-2.4-3.2-3.6c-1.3,1.7-2.4,3.5-3.6,5.5c-1.5-1.9-2-4.4-2.5-6.8c-2,0.6-4.1,1.4-6.1,2
			c0.2-1.2,0.3-2.3,0.4-3.5c1.9-0.2,3.4-1.2,5.2-2.1c1.2,1.5,2.1,3.2,3.5,4.7c0.9-0.9,1.6-2,2.4-3c1.3,1.2,2.6,2.3,4,3.4
			c0.8-1.3,1.6-2.6,2.5-3.8c0.9-0.1,1.8-0.1,2.7-0.3c0.8-1.2,1.1-2.6,1.5-4c1.6-0.1,3.2-0.3,4.9-0.4
			C261.6,263.5,261.3,262.8,261,262.1L261,262.1z"/>
		<path class="st2" d="M376.4,264.1c5.1-0.3,9.9-1.7,14.9-2.9c-1,2.8-2.2,5.8-4.8,7.5c-3.7,2.7-8.3,4.6-13,5.1
			c-5.7,0.5-11.5,1.6-16.9-0.8c0.6-1.5,1.2-3,1.7-4.5c4.6,0.5,9.4,1.2,13.9-0.1c-4.4-0.1-8.8,0.1-13-1.6c1.9-1,3.7-2.4,5.9-2.7
			C369.1,263.9,372.7,264.6,376.4,264.1L376.4,264.1z"/>
		<path class="st1" d="M193.7,268.9c1.7-2,3.6-4.1,6.2-5.2C198.3,266,196,267.5,193.7,268.9L193.7,268.9z"/>
		<path class="st1" d="M315.2,263.7c2.4,1.1,4.5,3.1,6.2,5.2C318.9,267.5,316.7,266,315.2,263.7L315.2,263.7z"/>
		<path class="st2" d="M120.8,272.3c0.9-2,2.2-4.1,4.3-5.2c-0.6,2.3-1.4,4.9-1.2,7.4c0.9,8.9,4.4,17.4,9.4,24.8
			c2.6,4,4.3,8.5,5.5,13.2c0.6,2.6,1.1,5.6,0.2,8.2c-1.1,2.2-3.8,0.5-5.1-0.7c-5.2-5.7-7-13.5-8.3-21c-0.9-7.2-2-14.5-5.4-21
			c-1.3-2.6-4.6-3.2-6.6-5.2C116,272.2,118.4,272.2,120.8,272.3L120.8,272.3z"/>
		<path class="st1" d="M165.9,270.8c2.5-0.6,5.2-1.1,7.7-1.8c0.1,0.2,0.3,0.7,0.4,0.9C171.3,270.7,168.6,270.9,165.9,270.8
			L165.9,270.8z"/>
		<path class="st1" d="M340.5,269.3c2.8,0.2,5.8,0.9,8.6,1.5C346.1,270.9,343,270.9,340.5,269.3L340.5,269.3z"/>
		<path class="st2" d="M263.9,274.7c2.4-1.2,5.7-1.4,7.9,0.2c0.2,2-2.1,3-3,4.6c-0.1,2.6,2.2,5.4,0.5,7.8c-1.1,1.6-2.2,3.3-3.7,4.7
			c-1.7,0.6-2.9,0.3-4.8,0.3c-0.4-1.4-1.1-2.5-3-3.4c1.2-0.5,2.5-0.7,4.1-0.7c2.7,0.2,3.7-2.5,4.2-4.6c0-1.5-1.2-2.7-1.9-4.1
			c-0.7,0.2-1.3,0.3-2,0.6C262.5,278.3,262.3,276,263.9,274.7L263.9,274.7z"/>
		<path class="st2" d="M237.5,273.7c2,1.1,3.4,3.2,3.6,5.6c-0.3,1.8-1.1,3.5-1.6,5.3c-0.7,2.5-0.8,5.2-2,7.6c-1.3,0.3-2.6,0.5-4,0.2
			c-1-0.2-0.7-1.6-1.4-1.8c-0.9-0.4-2.5-0.4-3.6,1c-0.7-0.8-1.2-1.5,0.7-2.6c1.7-1.1,3.3-1,4.6-2.7
			C236.9,282.7,236.5,277.9,237.5,273.7L237.5,273.7z"/>
		<path class="st2" d="M143.8,277.8c6.1,0.1,12.1-1.3,18-2.6c1.4,0.5,2.9,0.9,4.4,1.3c-3.8,2.6-8.2,3.8-12.7,4.6
			c5.2,0.8,9.8-2.3,14.7-3.1c-0.5,1.5-0.7,3.5-2.4,4.3c-4.2,1.9-8.4,3.8-13,4.4c-3.8,0.4-7.6-0.4-11.2-1.4c-2.1-0.6-4.3-1.7-5.7-3.3
			c-1.3-1.4-1.8-3.2-2.4-5C136.8,277.2,140.2,277.8,143.8,277.8L143.8,277.8z"/>
		<path class="st1" d="M176.5,279.7c1.9-1.6,4-3.2,6.3-4.4C181,277.3,178.9,278.7,176.5,279.7L176.5,279.7z"/>
		<path class="st3" d="M252.2,277.3c3.1-0.5,6.1-1.6,9.1-2.3c-0.3,2.3-0.2,4.7,0.2,7c0.4-0.1,1.3-0.3,1.7-0.5c0.6,0.9,1,1.6,1.6,2.4
			c-0.7,1.2-1.4,2.4-2.1,3.6c-1.2-0.2-2.4-0.5-3.7-0.5c-0.9,0.5-1.8,1.2-2.6,1.9c-1.2,1.1-3.2,3.5-3.2,3.5h-12.9c0,0,0.8-4.3,1-6.4
			c0.3-3.4,2.2-6.6,4.8-8.8C248.1,277.1,250.1,277.6,252.2,277.3L252.2,277.3z"/>
		<path class="st1" d="M332.2,275.3c2.2,1.1,4.4,2.6,6.4,4.5C336.1,278.7,333.8,277.4,332.2,275.3L332.2,275.3z"/>
		<path class="st2" d="M348.9,276.6c1.5-0.4,2.9-0.9,4.5-1.3c6.2,1.3,12.3,2.8,18.5,2.6c3.3-0.1,6.6-0.6,9.8-1.1
			c-0.7,1.9-1.4,4.1-3,5.5c-1.5,1.6-3.5,2.4-5.6,3c-3.3,0.9-6.8,1.6-10.2,1.3c-4.3-0.3-8.1-1.9-12-3.6c-1-0.4-2.1-0.9-2.9-1.7
			c-0.7-1-0.8-2.2-1.2-3.3c5,0.9,9.6,4,14.8,3.1C357.1,280.5,352.6,279.1,348.9,276.6L348.9,276.6z"/>
		<path class="st3" d="M270.4,281.3c0.2-1.1,1-2,1.5-2.9c1.5,1.2,2.9,2.6,4.8,3.3c1.6,0.6,3.2,0.8,5,1.1c0.2-0.5,0.5-1.6,0.6-2.1
			c0.9,0.4,1.9,0.7,2.7,1.3c0.5,1.6,0.5,3.8-1.2,4.8c-1.7,0.7-3.7,0.9-5.2,2.1c-1.4,1.2-4.3,3.6-4.3,3.6h-6.2c0,0,2.3-3.7,3.1-5.8
			C272.1,284.8,270.6,283.1,270.4,281.3L270.4,281.3z"/>
		<path class="st1" d="M183.5,286.7c2.3-1.1,4.6-2.5,6.8-3.8C188.6,285,186.1,286.2,183.5,286.7L183.5,286.7z"/>
		<path class="st1" d="M324.7,282.8c2.2,1.4,4.5,2.7,6.7,3.8C328.8,286.1,326.3,285.1,324.7,282.8L324.7,282.8z"/>
		<path class="st2" d="M166.9,284.5c2.4-1.6,5.3-0.2,7.8,0.1c-2.9,3-6.9,4.6-10.4,6.8c3.3-1,6.7-2.3,9.5-4.5c0.6,2,1.7,3.6,3.2,5
			c-5.5,3.3-11.8,5.1-18,5.8c-3.2,0.3-6.7,0.2-9.4-1.6c-1.5-1-2.3-2.6-3.2-4.1c3.4-1,6.9-1.5,10.1-2.8
			C159.9,287.7,163.5,286.4,166.9,284.5L166.9,284.5z"/>
		<path class="st2" d="M340.3,284.6c2-0.3,4.2-0.7,6.2-1c3.7,2.4,8,4,12.1,5.7c3.2,1.4,6.7,1.8,10,2.8c-1.2,2-2.6,4.3-5.1,5
			c-5.2,1.7-10.6,0.4-15.8-0.9c-3.5-0.8-6.7-2.3-9.8-4.2c1.5-1.4,2.6-3,3.2-5.1c2.8,2.1,6.3,3.4,9.6,4.6
			C347.3,289.2,343.3,287.6,340.3,284.6L340.3,284.6z"/>
		<path class="st1" d="M194.2,294.1c1.9-1.5,4-2.8,6.1-4.1C198.8,292.1,196.6,293.5,194.2,294.1L194.2,294.1z"/>
		<path class="st2" d="M256.1,292.5h-2.2c0.9-1.1,1.6-1.9,2.8-2.7C255.9,291.4,256.1,292.5,256.1,292.5z"/>
		<path class="st1" d="M315.1,291.1c0-0.2,0.1-0.7,0.2-0.9c1.7,1.3,3.5,2.6,5.2,4.2C318.6,293.4,316.9,292.3,315.1,291.1
			L315.1,291.1z"/>
		<path class="st2" d="M226.4,291.2c0.7,0.5,1,0.7,1.6,1.3c-0.8,0-2,0-2.8,0C225.5,291.7,226,291.5,226.4,291.2z"/>
		<path class="st2" d="M256.9,292.5c0.3-4.4,1.5-2.2,2.9,0C258.2,292.5,256.9,292.5,256.9,292.5z"/>
		<path class="st2" d="M228.9,292.5c0.5-0.7,2.8-2.7,3.2,0C230.5,292.5,228.9,292.5,228.9,292.5z"/>
		<path class="st2" d="M280.1,292.5c0.5-0.7,1.8-2.2,3.2,0C281.7,292.5,280.1,292.5,280.1,292.5z"/>
		<path class="st2" d="M275.3,292.5c0,0,1.2-1.1,2-1.3c0.5,0.3,1.6,1.3,1.6,1.3H275.3z"/>
		<path class="st2" d="M179.3,294.1c1.5-0.9,3.3-1.2,5.1-1.2c-1.8,3.4-5.4,5.2-8.1,7.6c3.8-1.2,6.7-4.1,9.6-6.7
			c0.6,2,1.5,4.3,0.5,6.3c-2,4.2-6.7,6.4-11.1,6.7c-5.2,0.1-10.7-0.4-15.1-3.6C167.2,301.7,173.1,297.5,179.3,294.1L179.3,294.1z"/>
		<path class="st2" d="M330.5,293.2c1.8-0.6,3.6,0,5.2,0.9c6.1,3.4,12.1,7.5,19,9c-4.5,3.2-10.1,3.7-15.5,3.6c-4.5-0.4-9-2.8-10.8-7
			c-0.9-1.9,0.1-4.1,0.6-6c2.9,2.5,5.8,5.5,9.6,6.7C335.8,298.2,332.6,296.3,330.5,293.2L330.5,293.2z"/>
		<polygon class="st2" points="213.7,293.5 301,293.5 300.5,296.3 214.2,296.3 		"/>
		<path class="st2" d="M198.9,299.3c2.2-0.8,4.3-1.8,6.2-3c-0.8,2.7-1.5,5.6-3.5,7.8c-2.8,3.1-5.8,6.9-10.1,8
			c-3.6,1.2-7.5,0.3-10.9-0.9c2.4-4.3,6.4-7.4,9-11.4c2.1,0.1,4.3,0.2,6.4,0.4c-2.1,2.9-5.2,5.2-8.2,7.2c1.9-0.6,4-1.3,5.4-2.8
			C194.9,302.8,196.3,300.2,198.9,299.3L198.9,299.3z"/>
		<path class="st2" d="M309.9,296.1c3.1,2.4,7.6,2.6,9.9,6.1c1.8,2.5,4.5,4.5,7.5,5.2c-2.9-2.1-6.1-4.3-8.2-7.3
			c2.1-0.2,4.3-0.3,6.4-0.4c2.6,4.1,6.5,7.1,9,11.4c-3.4,1.1-7.3,2-10.9,0.9c-4.4-1.1-7.3-4.8-10.1-8
			C311.4,301.9,310.7,299,309.9,296.1L309.9,296.1z"/>
		<path class="st4" d="M214.8,297.5h85.3c0,0-3.8,7.5-6.7,10.8c-3.3,3.5-7.8,6-12.3,8c-5.3,2.2-10.6,4.6-15.6,7.4
			c-2.9,1.7-5.6,4-8.4,6c-3.8-2.9-7.5-6.1-12-8c-6-3.2-12.5-5.2-18.2-8.7c-5.9-3.2-9.7-9.1-12.3-15.1v-0.4H214.8z"/>
		<path class="st2" d="M201.8,308.8c1.9-2.7,3.2-5.9,4.6-8.9c0.5,1.4,1,2.7,1.4,4.1c-0.7,1.5-1.3,3.1-1.9,4.7
			c1.2-1.1,2.3-2.2,3.4-3.2c0.4,2.4,0.7,5.5-1.4,7.4c-2.4,1.9-6.1,2.6-8.9,0.9C199.7,311.8,200.8,310.4,201.8,308.8L201.8,308.8z"/>
		<path class="st2" d="M307.1,303.9c0.5-1.3,1.1-2.7,1.6-4.1c1.2,2.9,2.4,6,4.4,8.6c1.2,1.7,2.4,3.6,3.1,5.6
			c-3.1,0.7-6.9,0.9-9.4-1.6c-1.8-1.9-1.5-4.8-1.1-7.1c1.2,1,2.3,2.2,3.5,3.3C308.4,307.2,307.7,305.5,307.1,303.9L307.1,303.9z"/>
		<path class="st2" d="M375.6,305.7l4.6,1.1l-2,4.3l4.2,0.4l-1,3.8l-4-1.7l-0.6,6.1l-4.6-1.3l2.5-5.7l-4.7-0.2l1-4.3l4.2,1.8
			C375.1,310.2,375.5,307.2,375.6,305.7L375.6,305.7z"/>
		<path class="st2" d="M296.9,316.6c1.8-1.6,3.7-3.3,5.6-5c1.5,5.1,5.3,9.1,9.6,11.9c2.8,1.7,6.1,2.3,9.1,3.5
			c-2.4,0.6-4.8,1.3-7.2,1.2c-3.2-0.1-6.4-1-9.5-1.4c4.4,2.5,9.5,2.3,14.4,2.2c-2.3,1.5-4.8,2.9-7.7,3.2c-3.1,0.7-6.4,0-9.5,0
			c2.8,5.3,2,11.9-1.1,16.9c-1.5-4.2-2.4-8.3-4.2-12.3c0.1,3.5,1.5,6.8,2.1,10.3c-6.4-7.3-12-15.3-19.2-21.8
			c1.8-0.8,3.6-1.6,5.5-2.5c3.1,1.5,5.4,4.2,7.7,6.6c-1-2.9-2.9-5.5-5.5-7.3c2.7-1.4,5.4-2.8,7.9-4.4c1.4,2.1,3.4,3.7,5.6,5
			C299.4,320.7,298,318.7,296.9,316.6L296.9,316.6z"/>
		<path class="st2" d="M202.1,323.8c4.7-2.7,8.5-7,10.1-12.3c1.7,1.7,3.5,3.4,5.5,5c-1.2,2.1-2.4,4.2-3.6,6.2c2.1-1.2,4.1-2.9,5.5-5
			c2.3,1.7,4.9,3.1,7.5,4.5c-2.2,2-4.2,4.5-5.1,7.3c2.2-2,3.8-5.1,6.9-6.1c2.1,0.1,4,1.5,5.9,2.2c-3.5,3.8-7.4,7.5-10.5,11.8
			c-2.7,3.2-5.4,6.5-8.1,9.7c0.7-3.5,1.9-6.8,2.3-10.3c-1.9,3.8-2.8,8.1-4.3,12.4c-1.5-2.6-2.5-5.6-2.7-8.6
			c-0.4-2.9,0.6-5.8,1.5-8.5c-5.8,1-12.2,0.6-16.9-3c4.9,0.1,10,0.3,14.4-2.2c-3,0.4-6,1.1-9,1.3c-2.7,0.2-5.4-0.4-7.9-1.1
			C196.3,325.8,199.4,325.2,202.1,323.8L202.1,323.8z"/>
		<path class="st3" d="M360.5,320.9c2.7-1,5.6-1,8.4-1.3c-0.8,3.7-2.1,7.4-2.7,11.1c-4.6-0.5-8.8-2.1-13.3-3
			C354.8,324.8,357.5,322.5,360.5,320.9L360.5,320.9z"/>
		<path class="st2" d="M370.2,319.5c2.8,0.4,5.7,1,8.3,2c-1,4.1-2.5,8-3.1,12.2c4.3,1.5,8.7,2,13,3.4c-0.5,2.6-0.6,5.7-2.9,7.5
			c-1.7,0.4-3.6-0.3-5.2-1.3c-1-1.2-1-3-1.6-4.6c-0.4-1.6-1.6-2.7-2.8-3.8c-0.5,1.7-0.7,3.6-1.6,5.2c-1.3,1.5-3.3,1.5-5.2,1.2
			c-6.4-0.8-12.6-2.4-18.8-3.6c0.1-3.1,0.9-6.1,2.1-8.9c4.9,1,9.8,1.9,14.6,3.2C368.4,328,369.2,323.7,370.2,319.5L370.2,319.5z"/>
		<path class="st1" d="M372.6,321.7c1.8-0.5,3.8,1.2,3.3,3.1c-0.1,2.8-4.9,2.5-5.2,0C370.5,323.6,371.4,322.2,372.6,321.7
			L372.6,321.7z"/>
		<path class="st3" d="M377,333.4c0.8-3.4,1.5-6.9,2.7-10.3c2,1.3,4.2,2.7,5.7,4.6c1.7,2.4,2.2,5.5,2.7,8.3
			C384.4,335.2,380.6,334.3,377,333.4L377,333.4z"/>
		<path class="st1" d="M371.5,328c1.6-0.7,3.2,1.5,2.6,3c-0.3,1.6-1.8,2.5-3.3,2.2c-1.1-0.5-1.7-1.5-1.9-2.7
			C369.4,329.2,370.3,328.2,371.5,328L371.5,328z"/>
		<path class="st2" d="M236.1,338.1c2.7-2.7,4.5-6,6.3-9.4c2.2,1.5,4.6,3,6.7,4.8c3,2.3,5.4,5.4,8,8.1c2.1-2.3,4-5,6.2-7.1
			c2.7-2.3,5.8-4.4,8.9-6c1.5,3.6,2.9,7.5,5.8,10.3c2.2,2.3,4.9,4.5,5.9,7.7c0.6,2.1,0.9,4.3,0.4,6.4c-1.1,1.7-3.3,0.5-4.6-0.5
			c-1.8-1.8-2.5-4.5-3.8-6.6c0.6,4.1,2,8,1.5,12.2c-0.1,1.9-2.5,3.1-4.2,1.9c-2.8-2-3.5-5.7-5.6-8.4c0.1,4.5,2.7,8.6,1.7,13.1
			c-0.3,1.3-1.5,2.9-3,2.2c-1.2-0.4-1.8-1.6-2.3-2.7c-1.1-2.8-1.7-5.9-2.7-8.7c-0.6,3.8-0.1,8-1.8,11.5c-0.6,1.8-3.4,2.1-4.3,0.4
			c-1.8-3.4-1.6-7.3-1.6-10.9c-0.2-0.1-0.6-0.5-0.7-0.5c-0.8,3.1-1.4,6.5-2.9,9.5c-0.6,1.1-1.6,1.6-2.7,1.7c-1.3-0.7-2-2-2-3.3
			c-0.6-4.7,2-8.9,2.4-13.5c-2.6,2.8-2.7,7.3-6,9.5c-1.3,1.4-4,0.4-4.2-1.5c-0.9-4.7,1.2-9.1,2.4-13.6c-2.5,2.7-2.9,7.4-6.7,8.8
			c-1,0.6-2.7,0.2-2.8-1.1c-0.4-2.8,0.3-5.7,1.3-8.3C232.3,341.6,234.4,339.9,236.1,338.1L236.1,338.1z"/>
		<path class="st1" d="M351.9,332.3c1.3-0.6,2.5-1.6,4-1.6c1.5,0.1,2.4,1.7,2.4,3.1c-1,1.5-2.9,2.2-4.7,1.9
			C352.5,335,352.4,333.5,351.9,332.3L351.9,332.3z"/>
		<path class="st2" d="M185.3,334.5c2.8-1.1,5.8-2,8.6-3.1c2.2,1,4.4,2.1,6.6,3.1c2.1,0.9,4.5,1.1,6.7,1.4c-1.9,2.8-3.8,5.7-5.2,8.9
			c2.5-2.8,4.7-5.8,7.6-8.1c0.7,2.8,1.2,5.7,1.6,8.6c-6.1,2.9-11.8,6.6-16.9,10.8c-0.2-6.2,1.1-12.7,5-17.7
			C194.2,338.4,189.4,337,185.3,334.5L185.3,334.5z"/>
		<path class="st2" d="M314.1,334.6c2.2-1,4.5-2.2,6.7-3.2c2.8,1.1,5.8,2,8.6,3c-4.2,2.7-8.9,3.8-13.8,4.2c4,5.1,5,11.5,5,17.7
			c-5.3-4.3-10.9-7.9-17-10.9c0.5-2.9,0.9-5.8,1.6-8.6c2.8,2.4,5,5.4,7.5,8c-1.4-3-3.3-6-5.1-8.8
			C309.9,335.5,312.1,335.5,314.1,334.6L314.1,334.6z"/>
		<path class="st2" d="M346.4,336.3c0.8-1.8,1.9-3.5,3.1-5.1c-0.3,1.8-0.5,3.7-0.8,5.6C348,336.6,347.2,336.5,346.4,336.3
			L346.4,336.3z"/>
		<path class="st1" d="M359.4,335c0.4-1.8,2.5-2.8,4.2-2.5c1.3,0.7,1.8,2.2,1.7,3.5c-0.9,1.8-3.1,1.9-5,2.1
			C360.1,337.1,359.7,336.1,359.4,335L359.4,335z"/>
		<path class="st2" d="M141.8,334.2c0.4-1.2,1.9-1.7,2.9-0.8c2,1.7,3.2,4.4,4.6,6.7c1.4,3,2.8,6.5,2.3,10c-1,1.5-2.9,1.9-4.5,2.8
			c-2.1-3-4.7-6-5.5-9.8C141,340.2,140.7,337,141.8,334.2L141.8,334.2z"/>
		<path class="st1" d="M368.7,334.6c2.1-1.5,4.5,0.8,4.1,3c-0.7,2.1-4.4,3.1-5.5,0.8C366.1,337.1,367.1,335.1,368.7,334.6
			L368.7,334.6z"/>
		<path class="st2" d="M375.4,340.8c0.4-1.4,0.6-2.8,1-4.3c0.8,1.6,1.5,3.4,2.1,5.3C377.5,341.5,376.5,341.2,375.4,340.8
			L375.4,340.8z"/>
		<path class="st1" d="M382.1,337.4c1.6-0.7,4,0.3,4.3,2c-0.2,1.8-2.4,3.5-4.3,2.6C380.2,341.3,379.8,338.1,382.1,337.4L382.1,337.4
			z"/>
		<path class="st2" d="M346.2,338.1c1.1-0.7,2.2,0.5,2.6,1.4c1.8,4,2.1,8.6,4.9,12.1c3.8,3.4,10,2.9,14.1,0.2
			c2.8-2.1,2.8-6.3,5.3-8.8c2.3-2.8,7.6,1,5.8,4.2c-1.5,1.9-3.8,2.8-5.2,4.9c-0.7,1.1-1.3,2.8-0.2,4c0.8,1.4,2.6,1.2,4.1,1.1
			c3.4-0.3,6.5-2.7,7.7-5.9c0.8-2,1.6-4,2.7-5.9c1.4,1.3,3.8,2.4,3.5,4.8c-0.2,2.4-2.2,4.2-4.3,5.4c-6.1,3.3-13,4.8-19.6,6.8
			c-3.7,1.2-7.6,2.1-11.4,3.2c-2.3,0.6-5,1.2-7.3,0.2c-3.8-1.6-6.9-4.5-10.6-6.3c-5.4-2.7-10.5-5.6-16-8.1c-0.5-3-1.5-6-2.5-9
			c4.2,2.3,9.4,2.3,13.2,5.6c2.7,2.1,5.8,4,8.4,6.3c1.2,1,2.4,2.3,4,2.9c1.5,0.4,3.1,0,4.7-0.1c-0.7-2.7-1.4-5.6-3.1-7.7
			c-1.2-1.8-2.9-3.4-3.3-5.6C343.2,341.6,343.8,338.8,346.2,338.1L346.2,338.1z"/>
		<path class="st2" d="M181.3,342.6c1.7-1.2,3.3-2.2,5-3.4c1.7,0.6,3.5,1.2,5.2,1.8C188.4,342.6,184.8,342.8,181.3,342.6
			L181.3,342.6z"/>
		<path class="st2" d="M323.2,340.9c1.7-0.6,3.4-1.3,5.4-1.3c1.8,0.7,3.1,1.9,4.7,3C329.8,342.8,326.2,342.7,323.2,340.9
			L323.2,340.9z"/>
		<path class="st3" d="M350.8,340.3c6.6,1,12.8,3,19.2,3.6c-0.8,1.8-1.2,4.2-3,5.3c-2.6,1.9-6.2,1.5-9.1,0.8
			C353.7,348.7,352.5,343.8,350.8,340.3L350.8,340.3z"/>
		<path class="st1" d="M276.2,341c2.7,2.6,5.1,5.8,5.4,9.7C279.6,347.6,277.8,344.3,276.2,341L276.2,341z"/>
		<path class="st1" d="M234.1,346.5c0.9-2,2.5-3.5,4.2-5.1c-1.7,3.1-3.4,6.3-5.2,9.4C233.3,349.4,233.5,347.9,234.1,346.5
			L234.1,346.5z"/>
		<path class="st2" d="M387.9,344.5c-0.3-1.3,0.5-2.5,0.9-3.7c0.5,1.6,0.9,3.2,1.3,5C389.3,345.3,388.6,344.9,387.9,344.5
			L387.9,344.5z"/>
		<path class="st2" d="M185,347.1c2.9-2.1,6.6-3.1,9.9-4.7c-1,2.6-1.6,5.2-2.4,7.8c-0.6,2.5-3.3,3.5-5.3,4.8c-4,1.9-7.2,5.2-10.5,8
			c-2.2,1.9-4,4.5-5.7,6.9c-0.9-1.6-1.8-3.1-2.8-4.7c-1,2.3-1.9,4.7-2.9,7c-0.6-2.5-0.8-5.2-1-7.7c-0.2-2-1.6-3.6-3.1-4.9
			c-0.5,1-1.6,4.4-1.7,4.6c-0.3-1.9-0.7-4.4-1.1-6.3c3.5,0.9,6.8,2.5,10.4,2.7c-4.4-3-9.9-4-15.1-3.3c0.2,1.4,0.4,2.8,0.3,4.3
			c-0.5,1.5-2.2,2.6-3.7,2.5c-2.7-0.6-4.9-3.6-4-6.4c0.9-2.1,2.8-3.7,4.9-4.8c2.1-1,4.6-0.8,6.8-0.7c6,0.3,12,0.6,17.8-0.3
			C179.2,351.2,182.1,349.1,185,347.1L185,347.1z"/>
		<path class="st1" d="M270.8,346.3c1.9,2.8,2.8,6.1,3.3,9.3C272.3,352.8,271.2,349.6,270.8,346.3L270.8,346.3z"/>
		<path class="st3" d="M375.6,351.2c2.2-1.1,4.4-2.4,5.9-4.4c1.2,0.4,2.4,0.7,3.6,1.1c-0.8,1.5-1.2,3.3-2.7,4.4
			c-1.7,1.3-4.1,1.7-6.2,1.8C375.7,353.4,375.7,352.2,375.6,351.2L375.6,351.2z"/>
		<path class="st1" d="M240.4,355.6c0.6-3.1,1.3-6.4,3.4-8.8C243.3,349.9,242.1,352.9,240.4,355.6L240.4,355.6z"/>
		<path class="st1" d="M248.8,358.4c0.2-2.5,0.8-5.1,2.2-7.2C251,353.8,250.1,356.2,248.8,358.4L248.8,358.4z"/>
		<path class="st1" d="M263.5,351.3c1.6,2,2.1,4.6,2.1,7.1C264.5,356.2,263.7,353.8,263.5,351.3L263.5,351.3z"/>
		<path class="st1" d="M257,361.3c-0.5-2.7-0.7-5.8,0.6-8.2C257.9,355.8,257.7,358.6,257,361.3L257,361.3z"/>
		<path class="st2" d="M230.9,357c1.5-1.5,3.5-2,5.5-2.8c0,3.5-2.9,5.7-5,8c1.5-0.9,3-1.8,4.5-2.9c0.5,1,0.8,2.4,1.7,3.2
			c0.8,0.4,1.7,0.6,2.6,0.9c-0.9,2-1.7,4.1-2.2,6.3c1.8-2.7,3.4-5.7,5.5-8.4c0.4,2.1,0.9,4.2,1.6,6.2c1,2.4-0.3,5.1-0.7,7.6
			c1.1-1.7,2.1-3.4,3.1-5.2c2.1-0.6,4-1.8,4.7-4c0.7,2.4,2.2,4.6,4.2,6.2c0.2,2.8,0.3,5.6,0.9,8.3c0.6-2.7,0.8-5.6,1-8.3
			c2-1.6,3.5-3.7,4.2-6.4c0.8,1.3,1.6,2.6,3.1,3.3c2.3,1,3.3,3.5,4.7,5.6c-0.3-1.8-0.6-3.7-1-5.6c1.1-2.4,1.8-5.2,2.2-7.9
			c1.5,2.6,3.1,5.4,4.9,8c0.1,0,0.5,0.1,0.7,0.1c-0.8-2-1.5-4.1-2.3-6.1c0.8,0,1.7,0,2.5-0.1c0.6-1.2,1.2-2.5,1.7-3.7
			c1.4,0.9,2.8,1.8,4.3,2.6c-1.8-2.3-4.8-4.3-4.7-7.5c3.3,0.5,6.4,2.7,7.8,5.8c1.6,2.7,1.2,6,0.9,9c-2.4-1.2-4.7-2.8-6.8-4.6
			c0.4,3.7,1.1,7.5,0,11.1c-2.7-1.1-4.9-3-6.9-5.1c0.2,3.6,1.2,7.4,0,10.9c-1,0.8-2.1-0.2-2.8-0.9c-2.3-2.6-3.7-6-5.8-8.8
			c-0.8,5-0.8,10.3-4.1,14.5c-1.2,1.3-3.1,3-4.9,1.7c-2.4-1.4-3.7-4.2-4.5-6.8c-0.9-2.6-1.1-5.6-1.2-8.4c-0.2-0.1-0.5-0.5-0.7-0.6
			c-1.6,2.7-3,5.6-5,8c-0.8,1.1-2.2,1.5-3.4,1.9c-0.6-3.7-0.2-7.6,0.2-11.3c-2,1.9-4.2,3.7-6.7,5.1c-1.6-3.6-0.7-7.5-0.2-11.2
			c-2.2,1.7-4.5,3.3-7,4.5c-0.1-2.2-0.4-4.7,0.3-7C228.2,360.1,229.5,358.4,230.9,357L230.9,357z"/>
		<path class="st2" d="M141.3,360.5c0.8-1,1.8-1.7,2.8-2.5c0,4,2.5,7.1,3.1,10.8c-1.8-0.6-4-0.9-5.4-2.3
			C140.7,364.9,140.2,362.5,141.3,360.5L141.3,360.5z"/>
		<path class="st2" d="M155.5,360.9c0.2-0.9,0.4-1.9,0.7-2.8c1.5,2,1.7,2.9,1.8,4.4C157,361.7,156.2,361.2,155.5,360.9L155.5,360.9z
			"/>
		<path class="st2" d="M155.5,361.8c1.4,1,3.3,2.3,2.5,4.4c-1.5,1.3-3.3,1.7-5.2,2.3C152.8,365.9,154.1,363.8,155.5,361.8
			L155.5,361.8z"/>
		<path class="st2" d="M159.7,366.1c0.9-1.4,1.6-2.5,2.6-3.8c0.2,1.4,0.7,3,0.4,4.4C161.8,366.6,159.7,366.1,159.7,366.1z"/>
		<path class="st2" d="M148.7,365.9c0.8,0.2,1.6,0.5,2.4,0.9c0.6,1.3,0.7,3.5,0.7,3.5s-1.7-0.7-2.1-0.9
			C148.7,368.4,149.1,367.4,148.7,365.9L148.7,365.9z"/>
		<path class="st2" d="M154.4,370.7c1.6-1.1,3.2-2.2,5.1-2.9c2.2-0.1,4.7,2.5,3,4.7c-1.5,1.5-3.8,1.3-5.8,2.1
			c-1.6,0.5-2.9,1.7-4.3,2.8c-2.7-0.5-5.6-1-8-2.6c-1.3-0.7-1.2-2.5-0.8-3.7c2.9-0.5,5.8,0.4,8.6,0.9
			C153.2,372.2,153.7,371.2,154.4,370.7L154.4,370.7z"/>
		<path class="st2" d="M226.4,371.3c2.1-0.8,4.3-1.9,6.3-3.1c-0.1,3-0.2,6.2-0.2,9.2c0.8,0.3,1.6,0.6,2.4,0.9
			c-2.1,2.5-4.9,4.4-7.5,6.2c-2.8,1.9-5.9,4.3-9.5,4.1c-3.5-0.3-7.4-1.1-9.8-4c4.7-2.2,8.7-5.4,12.7-8.5c2.1-1.7,3.4-4.3,4.8-6.6
			C225.7,370,226.1,370.8,226.4,371.3L226.4,371.3z"/>
		<path class="st2" d="M281.8,368.1c2,1.1,4.1,2.2,6.3,3.1c0.3-0.5,0.6-0.9,0.9-1.3c1.6,2.6,3.4,5.3,6,7.1c3.7,2.7,7.3,5.6,11.5,7.5
			c-2.4,3-6.4,3.7-9.9,4.1c-2.8,0.1-5.2-1.4-7.5-2.8c-3.1-2.1-6.5-4.2-9.1-7c0.7-0.9,2.1-1.3,2-2.6
			C282.2,373.4,281.9,370.8,281.8,368.1L281.8,368.1z"/>
		<path class="st2" d="M168.4,368.3c1,1.6,0.8,3.4,0.2,5.2c-0.6-0.5-1.3-0.8-2-1.3C167.2,370.9,167.8,369.6,168.4,368.3L168.4,368.3
			z"/>
		<path class="st2" d="M163.6,374c2-1.2,4.6,0.7,4.2,2.9c-2,1.8-4.9,1.6-7.4,2.3c-1.9,0.4-3.2,1.9-5,2.7c-2,0.1-3.8-1-5.3-2.2
			c1.8-0.5,3.8-0.8,5.5-1.9C158,376.1,160.9,375.1,163.6,374L163.6,374z"/>
		<path class="st2" d="M230.5,383.5c3.5-2.1,5.3-6.2,8.9-8.1c0.1,2.2-0.2,4.7,0.4,6.9c0.7,1.1,1.8,1.7,2.7,2.5c-2,2.4-4,4.9-6.6,6.5
			c-3.6,2.2-6.9,5.4-11.2,6.3c-2.2,0.4-4.6,0.9-6.8,0.4c-0.5-2.9,0.9-6.1,3.4-7.8C224.5,388.2,227.2,385.6,230.5,383.5L230.5,383.5z
			"/>
		<path class="st2" d="M275.1,375.4c3.6,1.9,5.4,6,8.8,8.1c3.2,2,6.1,4.6,9.2,6.6c2.5,1.6,4.2,4.9,3.4,7.8c-2.1,0.4-4.3,0-6.3-0.4
			c-4.7-0.8-8-4.2-11.8-6.4c-2.7-1.6-4.8-4.2-6.7-6.7c1.1-0.7,3-1.1,3.1-2.8C275.2,379.6,275.1,377.5,275.1,375.4L275.1,375.4z"/>
		<path class="st1" d="M227.5,376.8c0.2,0.1,0.7,0.4,1,0.6c-2.7,3-5.8,5.9-9.9,7C222,382.2,224.7,379.5,227.5,376.8L227.5,376.8z"/>
		<path class="st1" d="M286.1,376.4c3.5,2.3,6,5.8,9.8,7.8C291.8,383.1,287.8,380.3,286.1,376.4L286.1,376.4z"/>
		<path class="st2" d="M245,383.4c1.5-1.7,2.6-3.5,3.6-5.5c0.8,3.2,1.5,6.6,3.2,9.5c-1.4,3.1-2.9,6.5-5.8,8.7
			c-4.4,3.8-10.2,4.9-15.4,7.2c-0.9,0.3-2,1.1-3,0.5c-0.8-2.5,0.5-5.2,2.1-7.2c2.2-2.6,5.6-3.7,8.2-5.8
			C240.9,389.1,242.7,386.1,245,383.4L245,383.4z"/>
		<path class="st2" d="M265.9,378.1c1.8,2.3,3.8,4.5,5.3,7.1c1.6,2.8,4,5.2,6.7,6.8c3.2,1.9,6.9,3.6,8.5,7.3
			c1.1,1.7,0.8,3.6,0.2,5.5c-5.4-2.9-11.8-3.8-16.8-7.5c-3.1-2.2-5.7-5.7-6.6-9.4C264,384.5,265.4,381.4,265.9,378.1L265.9,378.1z"
			/>
		<path class="st2" d="M161.6,381.6c1.7-0.1,3.5-0.4,5.3-0.6c2,2.4,4.8,4.6,7.6,6.2c-2.4,0.5-4.8,0.5-7.1,0.3
			c-1.2,1.6-2.5,3.3-3.8,5C163.7,388.8,163.8,384.9,161.6,381.6L161.6,381.6z"/>
		<path class="st1" d="M232.5,387.2c1.4-1.3,3-2.4,5-3c-2.6,4.1-6.9,6.7-11.4,8C228.2,390.5,230.5,389.1,232.5,387.2L232.5,387.2z"
			/>
		<path class="st1" d="M277.1,384.2c3.1,1,5.3,3.6,7.9,5.5c1.1,0.9,2.3,1.6,3.4,2.5C284,390.8,279.7,388.2,277.1,384.2L277.1,384.2z
			"/>
		<path class="st2" d="M252.4,388.4c1.3,1.4,2.7,2.7,4.1,4.2c-0.4,3-0.6,6.4-2.3,9c-2.1,3-5.4,5.2-8.1,7.6c-1.6,1.4-3,3-5,3.8
			c-2.5-2.3-2.5-6.2-1.4-9.1c1.5-2.9,4.6-4.5,6.9-6.8C249.2,394.9,250.8,391.6,252.4,388.4L252.4,388.4z"/>
		<path class="st2" d="M258.2,394.5c-0.6-2.7,2.3-4.4,3.8-6.1c1.5,3.4,3.3,6.7,6.2,9c2.3,2.3,5.6,4,6.9,7.1c0.7,2.8,0.7,6.5-1.7,8.5
			c-2-0.8-3.5-2.4-5.1-3.8c-2.6-2.3-5.7-4.4-7.8-7.3C259,399.8,258.5,397.1,258.2,394.5L258.2,394.5z"/>
		<path class="st2" d="M167.4,388.9c2,1,1.8,3.1,1.7,5.1c-0.9-0.7-1.9-1.3-2.6-2.1C166.6,390.8,167.1,389.8,167.4,388.9L167.4,388.9
			z"/>
		<path class="st1" d="M234.7,398.3c3.3-2.5,6.8-5.1,10.3-7.3C243.1,395,238.9,397.1,234.7,398.3L234.7,398.3z"/>
		<path class="st1" d="M269.4,391c3.6,2.1,6.9,5.1,10.6,7.1C275.7,397.5,271.6,394.9,269.4,391L269.4,391z"/>
		<path class="st1" d="M242.4,407.5c1.4-4.9,6.3-7.2,9.7-10.3c-0.7,1.4-1.5,3-2.8,4.2C247.1,403.4,244.8,405.5,242.4,407.5
			L242.4,407.5z"/>
		<path class="st1" d="M262.5,397.1c3.4,3.2,8.5,5.6,9.7,10.5c-2.2-2-4.4-4.2-6.7-6.1C264,400.4,263.2,398.7,262.5,397.1
			L262.5,397.1z"/>
		<path class="st2" d="M257.2,401.9c2,2.6,4.3,4.9,6.9,6.9c-0.3,2-0.7,4.3-1.7,6.2c-1.1,2.4-3.1,4.3-5,6.1c-2-1.6-4.1-3.4-5.3-5.8
			c-1-2-1.5-4.3-1.8-6.4C253,406.7,255.3,404.5,257.2,401.9L257.2,401.9z"/>
		<path class="st1" d="M256.3,406.1c0.5,0.1,1.4,0.2,1.9,0.2c-0.1,2.6-0.4,5.3-0.8,7.8C256.6,411.6,256.3,408.9,256.3,406.1
			L256.3,406.1z"/>
		<path class="st2" d="M292,139c0,0.4-0.3,0.7-0.8,0.7c-0.4,0-0.7-0.3-0.7-0.7c0-0.4,0.4-0.7,0.7-0.7C291.7,138.3,292,138.6,292,139
			z"/>
		<path class="st2" d="M224.1,139.2c0,0.4-0.3,0.7-0.8,0.7c-0.4,0-0.7-0.3-0.7-0.7s0.3-0.7,0.7-0.7
			C223.7,138.4,224.1,138.8,224.1,139.2z"/>
		<path class="st2" d="M240.9,137.2c0,0.4-0.3,0.7-0.7,0.7s-0.7-0.3-0.7-0.7c0-0.4,0.3-0.7,0.7-0.7S240.9,136.8,240.9,137.2z"/>
		<path class="st2" d="M275.6,137.2c0,0.4-0.3,0.7-0.8,0.7c-0.4,0-0.7-0.3-0.7-0.7c0-0.4,0.3-0.7,0.7-0.7
			C275.2,136.5,275.6,136.8,275.6,137.2z"/>
		<path class="st2" d="M258.4,137c0,0.5-0.4,1-0.9,1s-1-0.4-1-1c0-0.5,0.4-0.9,1-0.9C258,136.1,258.4,136.5,258.4,137z"/>
		<path class="st2" d="M375,324.3c0,0.9-0.7,1.6-1.6,1.6s-1.6-0.7-1.6-1.6c0-0.9,0.7-1.6,1.6-1.6C374.3,322.8,375,323.4,375,324.3z"
			/>
		<path class="st2" d="M373.4,330.5c0,0.9-0.7,1.6-1.6,1.6c-0.8,0-1.6-0.7-1.6-1.6s0.7-1.6,1.6-1.6
			C372.6,328.8,373.4,329.5,373.4,330.5z"/>
		<path class="st2" d="M357,333.1c0,0.9-0.7,1.6-1.6,1.6c-0.9,0-1.6-0.7-1.6-1.6s0.7-1.6,1.6-1.6C356.3,331.5,357,332.2,357,333.1z"
			/>
		<path class="st2" d="M385,339.7c0,0.9-0.7,1.6-1.6,1.6s-1.5-0.7-1.5-1.6s0.7-1.6,1.5-1.6C384.3,338.1,385,338.8,385,339.7z"/>
		<path class="st2" d="M371.6,336.7c0,0.9-0.7,1.6-1.6,1.6s-1.6-0.7-1.6-1.6c0-0.8,0.7-1.6,1.6-1.6S371.6,335.9,371.6,336.7z"/>
		<path class="st2" d="M364.2,335.4c0,0.9-0.7,1.6-1.6,1.6c-0.9,0-1.6-0.7-1.6-1.6c0-0.9,0.7-1.6,1.6-1.6S364.2,334.5,364.2,335.4z"
			/>
		<path class="st2" d="M143.8,328.2c0,2-1.6,3.6-3.6,3.6s-3.6-1.6-3.6-3.6c0-1.9,1.6-3.5,3.6-3.5
			C142.1,324.7,143.8,326.3,143.8,328.2z"/>
		<path class="st2" d="M247.5,147c0,1.2-1,2.2-2.1,2.2c-1.2,0-2.2-1-2.2-2.2s1-2.2,2.2-2.2C246.6,144.9,247.5,145.8,247.5,147z"/>
		<path class="st2" d="M271.6,147c0,1.2-0.9,2.2-2.2,2.2c-1.2,0-2.2-1-2.2-2.2s1-2.2,2.2-2.2C270.7,144.9,271.6,145.8,271.6,147z"/>
		<path class="st2" d="M259.3,125.1c0,1.1-0.8,1.9-1.9,1.9c-1,0-1.9-0.8-1.9-1.9s0.9-1.9,1.9-1.9
			C258.5,123.3,259.3,124.1,259.3,125.1z"/>
		<path class="st2" d="M280.7,124.8c0,1.1-0.8,1.9-1.9,1.9c-1,0-1.9-0.8-1.9-1.9c0-1,0.9-1.9,1.9-1.9
			C279.8,122.9,280.7,123.8,280.7,124.8z"/>
		<path class="st2" d="M238.4,124.8c0,1.1-0.9,1.9-1.9,1.9c-1.1,0-1.9-0.8-1.9-1.9c0-1,0.8-1.9,1.9-1.9
			C237.5,122.9,238.4,123.8,238.4,124.8z"/>
		<path class="st2" d="M259.1,118.1c0,1-0.8,1.7-1.7,1.7c-0.9,0-1.7-0.8-1.7-1.7s0.8-1.7,1.7-1.7
			C258.4,116.3,259.1,117.1,259.1,118.1z"/>
		<path class="st2" d="M241.4,117c0,1-0.8,1.7-1.8,1.7c-0.9,0-1.7-0.7-1.7-1.7c0-1,0.8-1.7,1.7-1.7C240.6,115.3,241.4,116,241.4,117
			z"/>
		<path class="st2" d="M277.2,117c0,1-0.8,1.7-1.7,1.7c-1,0-1.7-0.7-1.7-1.7c0-1,0.8-1.7,1.7-1.7C276.4,115.3,277.2,116,277.2,117z"
			/>
		<path class="st2" d="M259,111.3c0,0.9-0.7,1.6-1.7,1.6c-0.9,0-1.6-0.7-1.6-1.6c0-0.9,0.7-1.6,1.6-1.6
			C258.3,109.6,259,110.4,259,111.3z"/>
		<path class="st2" d="M247.6,110c0,0.9-0.7,1.6-1.6,1.6c-0.9,0-1.6-0.7-1.6-1.6c0-0.9,0.7-1.7,1.6-1.7
			C246.9,108.3,247.6,109.1,247.6,110z"/>
		<path class="st2" d="M270.7,110c0,0.9-0.7,1.6-1.6,1.6s-1.7-0.7-1.7-1.6c0-0.9,0.8-1.7,1.7-1.7C269.9,108.3,270.7,109.1,270.7,110
			z"/>
		<path class="st2" d="M222.7,117c-0.6,0.8-0.8,1.7-0.3,2.1c0.5,0.4,1.3,0,2-0.8c0.7-0.8,0.8-1.7,0.4-2.1
			C224.2,115.8,223.3,116.2,222.7,117z"/>
		<path class="st2" d="M232.6,110.6c-0.7,0.5-1.1,1.2-0.8,1.6c0.3,0.4,1.1,0.4,1.8-0.1c0.7-0.5,1.1-1.2,0.8-1.6
			S233.3,110.1,232.6,110.6z"/>
		<path class="st2" d="M281.9,110.6c0.7,0.5,1.1,1.2,0.8,1.6c-0.3,0.4-1.1,0.4-1.8-0.1c-0.8-0.5-1.1-1.2-0.9-1.6
			C280.3,110.1,281.1,110.1,281.9,110.6z"/>
		<path class="st2" d="M292,117c0.6,0.8,0.8,1.7,0.3,2.1c-0.4,0.4-1.3,0-2-0.8c-0.7-0.8-0.8-1.7-0.3-2.1
			C290.3,115.8,291.3,116.2,292,117z"/>
		<path class="st2" d="M296.7,125.7c0.7,1,0.7,2.1,0.1,2.5c-0.6,0.4-1.5-0.2-2.2-1.2c-0.7-1-0.7-2.1-0.1-2.5
			C295.1,124.2,296.1,124.7,296.7,125.7z"/>
		<path class="st2" d="M218.1,125.7c-0.6,1-0.7,2.1-0.2,2.5c0.6,0.4,1.6-0.2,2.2-1.2c0.7-1,0.7-2.1,0.2-2.5
			C219.7,124.2,218.7,124.7,218.1,125.7z"/>
		<path class="st2" d="M220.2,246.7l1.1,1.5l-1,1.2C220.4,249.5,219.7,248,220.2,246.7z"/>
		<path class="st2" d="M222.5,239.6c0,0,0.4,1.5,0.2,1.7l1.3-0.4C224.1,240.9,223.8,239.9,222.5,239.6z"/>
		<path class="st2" d="M230.2,238.7c0,0-0.4,1.5-0.7,1.6l1.4,0.3C230.9,240.6,231.2,239.6,230.2,238.7z"/>
		<path class="st2" d="M226.4,238c0,0-0.1,2-0.4,2.2l1.7-0.1C227.8,240.1,227.8,238.8,226.4,238z"/>
		<path class="st1" d="M250.9,239.3c0,0.9-0.9,1.6-2,1.6c-1.2,0-2.1-0.7-2.1-1.6c0-0.9,0.9-1.6,2.1-1.6
			C250,237.7,250.9,238.4,250.9,239.3z"/>
		<path class="st2" d="M249.6,239.1c0,0.2-0.2,0.5-0.6,0.5c-0.3,0-0.6-0.2-0.6-0.5c0-0.3,0.3-0.5,0.6-0.5
			C249.4,238.6,249.6,238.8,249.6,239.1z"/>
	</g>
</g>
</svg>
