<?xml version="1.0" encoding="utf-8"?>
<!-- Generator: Adobe Illustrator 21.1.0, SVG Export Plug-In . SVG Version: 6.00 Build 0)  -->
<svg version="1.1" id="Warstwa_1" xmlns="http://www.w3.org/2000/svg" xmlns:xlink="http://www.w3.org/1999/xlink" x="0px" y="0px"
	 viewBox="0 0 512 512" style="enable-background:new 0 0 512 512;" xml:space="preserve">
<style type="text/css">
	.st0{fill:#003580;}
	.st1{fill:#009543;}
	.st2{fill:#FFFFFF;}
	.st3{fill:#D21034;}
	.st4{fill:#FFCE00;}
</style>
<g>
	<g>
		<path class="st0" d="M256,0.1C114.7,0.1,0.1,114.7,0.1,256c0,21.3,2.8,41.8,7.8,61.5L408.3,50.6C365.6,18.9,313.1,0.1,256,0.1z"/>
		<path class="st1" d="M256,512c141.3,0,255.9-114.6,255.9-256c0-21.3-2.8-41.8-7.8-61.6L103.7,461.3C146.3,493.1,198.9,512,256,512
			z"/>
		<path class="st2" d="M408.3,50.6L7.8,317.5c1.8,7.4,4,14.7,6.4,21.8L425.8,64.8C420.2,59.9,414.3,55.1,408.3,50.6z"/>
		<path class="st2" d="M103.7,461.3l400.5-266.9c-1.8-7.4-4-14.6-6.4-21.8L86.2,447.2C91.8,452.1,97.7,456.9,103.7,461.3z"/>
		<path class="st3" d="M468.9,114.1c-12.2-18.2-26.7-34.6-43.2-49.2L14.2,339.3c7.2,20.9,16.8,40.6,28.9,58.7
			c12.2,18.2,26.7,34.6,43.2,49.1l411.6-274.4C490.6,151.9,481,132.1,468.9,114.1z"/>
	</g>
	<g>
		<path id="_x3C_Path_x3E__93_" class="st4" d="M124.9,146.1c0,15.7-12.8,28.5-28.5,28.5S68,161.8,68,146.1s12.8-28.4,28.5-28.4
			C112.2,117.7,124.9,130.4,124.9,146.1z"/>
		<path class="st4" d="M129.5,155l23.9-8.9l-23.9-8.8l16.3-19.7l-25.1,4.4l4.4-25.1l-19.7,16.3l-8.8-23.9l-8.8,23.9L68.1,96.8
			l4.4,25.1l-25.1-4.3l16.2,19.6l-23.9,8.8l23.9,8.9l-16.2,19.6l25.1-4.4l-4.4,25.1L87.7,179l8.8,23.9l8.8-23.9l19.7,16.3l-4.4-25.1
			l25.1,4.4L129.5,155z M96.5,180.2c-18.8,0-34.1-15.3-34.1-34.1s15.3-34.1,34.1-34.1s34.1,15.3,34.1,34.1
			C130.6,164.9,115.4,180.2,96.5,180.2z"/>
	</g>
</g>
</svg>
