<?xml version="1.0" encoding="utf-8"?>
<!-- Generator: Adobe Illustrator 21.1.0, SVG Export Plug-In . SVG Version: 6.00 Build 0)  -->
<svg version="1.1" id="Warstwa_1" xmlns="http://www.w3.org/2000/svg" xmlns:xlink="http://www.w3.org/1999/xlink" x="0px" y="0px"
	 viewBox="0 0 512 512" style="enable-background:new 0 0 512 512;" xml:space="preserve">
<style type="text/css">
	.st0{fill:#008751;}
	.st1{fill:#FFFFFF;}
</style>
<g>
	<path class="st0" d="M0,256c0,103.3,61.2,192.3,149.4,232.7V23.2C61.2,63.7,0,152.6,0,256z"/>
	<path class="st0" d="M512,256c0-103.3-61.2-192.3-149.4-232.8v465.5C450.8,448.3,512,359.3,512,256z"/>
	<path class="st1" d="M256-0.1c-38.1,0-74.2,8.4-106.7,23.3v465.5C181.7,503.6,217.9,512,256,512s74.2-8.4,106.7-23.3V23.2
		C330.2,8.3,294.1-0.1,256-0.1z"/>
</g>
</svg>
