<?xml version="1.0" encoding="utf-8"?>
<!-- Generator: Adobe Illustrator 21.1.0, SVG Export Plug-In . SVG Version: 6.00 Build 0)  -->
<svg version="1.1" id="Layer_1" xmlns="http://www.w3.org/2000/svg" xmlns:xlink="http://www.w3.org/1999/xlink" x="0px" y="0px"
	 viewBox="0 0 512 512" style="enable-background:new 0 0 512 512;" xml:space="preserve">
<style type="text/css">
	.st0{fill:#424242;}
	.st1{fill:#BFBFBF;}
	.st2{fill:#F9CF41;}
</style>
<circle class="st0" cx="256" cy="256" r="256"/>
<path id="XMLID_16413_" class="st1" d="M214.1,468.1v0.5l0,0l0,0l0,0l0.2-0.2c0-0.2,0-0.2,0-0.4v-0.4l0,0c0,0,0-0.2,0-0.4
	c0,0,0,0,0,0.2c0,0,0,0,0,0.2c0,0,0,0,0,0.2l0,0C214.1,467.8,214.1,467.8,214.1,468.1L214.1,468.1L214.1,468.1z"/>
<path id="XMLID_16412_" class="st1" d="M213.2,467.2v-0.4C213.2,466.9,213.1,466.9,213.2,467.2c-0.2,0.2-0.2,0.2,0,0.2
	C213.2,467.6,213.2,467.4,213.2,467.2z"/>
<path id="XMLID_16411_" class="st1" d="M213.1,467.8c0,0.2,0,0.2,0,0.4l0,0l0,0l0,0c0-0.2,0-0.5,0-0.5S213.1,467.6,213.1,467.8z"/>
<path id="XMLID_17515_" class="st1" d="M75,74.7c1.7-1.6,3.9-3.8,5.6-5.4C80.6,69.3,77.3,72.4,75,74.7z"/>
<path id="XMLID_17514_" class="st1" d="M188.1,25.4c0.5-0.4,0.5-0.5,0.6-0.7c-0.4,0.3-0.7,0.6-1.1,0.9C188,25.6,188,25.6,188.1,25.4
	z"/>
<path id="XMLID_17513_" class="st1" d="M73.1,76.7c0.3-0.3,0.6-0.6,0.8-0.8c0.3-0.4,0.7-0.7,1-1.1C74.1,75.6,73.4,76.4,73.1,76.7z"
	/>
<path id="XMLID_17512_" class="st1" d="M75,74.7C75,74.7,75,74.7,75,74.7C75,74.7,75,74.7,75,74.7C75,74.7,75,74.7,75,74.7z"/>
<path id="XMLID_17509_" class="st1" d="M103.2,307L103.2,307c1.2,1,1.3,1.1,0.7,3c3.5,5.7,3.5,5.7,5.2,11.9c0.4,0.2,0.6,0.3,1.1,0.4
	c2.8,0.6,0.9,4.1,2.3,5.7c1.9,2.2-1.4,5.1,0.8,7.3c1.1,1.1-0.8,2.4,0.2,3.6c1.2,1.4,0.6,3.2,1.1,4.8c0.4,0,0.4,0,0.8-0.1
	c0.1-0.4,0.1-0.8,0.2-1.1c0.5,0,0.5,0,2.3,2.6c0.1,0.1,0.2,0.2,2.5,2.7c0.3,0.4,0.8,0.5,1.1,0.9c0,0,1.4,2.3,3.3,8.1
	c0.6,2,2.8,3,3.3,5.1l3.4,3.3c2,1.7,4.6,2,6.8,3.4c0-0.1,0.1-0.2,0.1-0.2c0,0,0,0-1.1-1.1c0.4-0.4,0.4-0.4,1.2-0.6
	c0.2-0.9-4.1-4.6-4.1-4.6c-0.6-0.2-0.8-0.3-0.9-2.1c0-0.2,0-0.4,0-0.6c0.1-2,0.1-2-1-3.9c-0.3-0.5-0.7-1.2-1-1.7
	c-0.8-1.1-2.6-1.4-2.4-3.2c-0.1-0.1-0.4-0.2-0.5-0.2c-1.1,0.2-1.1,0.2-2.8-1.4c-0.8-0.8-1-2.1-2.3-2.5c-2.9-0.8-1.1-4.5-3.4-5.6
	c-0.2,0-0.2,0-0.2,0h0h0h0h0h0h0h0c-1.6-0.8-0.3-2.6-1.3-3.6c-1,0.5-0.5,1.5-0.8,2.3c-0.1-0.1-0.9-1.2-2.2-6.1
	c-0.3-1.2-0.1-2.4-0.4-3.6c0.3-0.5,1.6-3.4,0.1-5.4c-1.2-1.6,2-1.7,2.1-1.7c0.9,1.7,0.9,1.7,0.3,3.1c0.5,0.2,1.1,0.4,2.5,0.2
	c0.9-0.1,1.3,0.9,2.1,1.1c0.7,0.2,2.6,0.5,2.6,0.6c0.1,0.6,0.2,1.4,0.3,2c0.6,0.7,1,1.5,1.5,2.2c0,0.1,0,0.2,0,0.2
	c0.7,0.1,0.7,0.1,1.5-0.4c1,0.6,0.6,3.2,1.9,2.5c1.2,0.4,2.3,1,3.6,1.3c0.4,1.1,0.7,1.9,1.7,1.8c0-0.2,0.1-0.4,0.2-0.5
	c0.1,0,0.2,0,0.2,0c0.5,0.4,0.6,1.2,1.2,1.6c1,0.6,1.3,0.2,1.2-0.2c0-0.1-0.1-0.2-0.1-0.2c0.7-1.3,0.3-2.8-0.1-3.8
	c1-0.2,1.9,0.8,3,0.4c0.1-0.4,0.1-0.4,0.6-0.7l3.1-3.6c0.4-0.6,0.9-3.3,0.9-3.4c0.1-1.9-1.9-3-2.1-4.8c0.8-2.2-4.5-11.1-4.8-11.4
	c-0.8-0.8-2-1.7-2.9-2.5l-0.9-0.2l-1.2-0.3l-0.5-0.9c0-0.3-0.1-0.7-0.1-1c-0.4-0.3-0.9-0.8-1.1-1.3c-0.4-1.5-0.4-1.5-2.8-3.7
	c-0.3,0.1-0.6,0.3-0.9,0.4c-0.2-1.1-0.2-1.1,0.1-5.1c0.1,0,0.1,0,1.8-4.7c1.5-0.4,2.4-1.8,3.7-2.5c0.1-0.3,0.1-0.7,0.2-1
	c0.3-0.4,0.3-0.4,0.3-0.4h0h0h0h0h0h0h0c0.3,0.1,0.8,0.2,1.1,0.3c0.1-0.3,0.3-0.7,0.5-0.9c1,1.3,1,1.3,2.9,1.9
	c-0.2,0.2-0.4,0.5-0.6,0.8c0.8,1.6,1,1.7,2.1,2.4c0,0.3,0.1,0.7,0.1,1c0.6,0.2,1.6,0.3,2.2,0.2c1.1-3.9,1.1-3.9,5.1-5
	c0.9-0.7,1.3-0.9,2.2-3.1c1.5-0.5,1.8-0.6,3-1.8c0.3,0.4,0.5,1.2,0.4,1.8c3.6-0.3,5.6-3.8,9-4.6c0.3-0.9,0.2-1.9,0.7-2.8
	c1.4,0.2,1.5,0.3,3.1-0.6c-0.2-0.6-0.5-1.4-0.9-1.9c1.5-1.3,1.5-1.3,3.8-1.3c-0.2-0.8-0.6-1.7-1.2-2.3c0.3-1.6,1.6-2.8,2.3-4.2
	c0.8-1.4,0.5-3,0.9-4.4c-0.2-0.2-0.4-0.5-0.6-0.8c4-1.6,4.5-1.7,3.5-4.7c0.5-0.2,1.2-0.5,1.7-0.7c0.3,0,0.7,0,1,0
	c-0.6-0.5-1.4-1.1-2-1.6c0.4-0.3,1-0.8,1.4-1.1l-1.5-1.3c1.7-3.7,1.7-3.7,1.4-4.5c-0.4-0.1-0.7-0.1-1-0.1l-0.7-0.9l-0.4-1
	c-0.5,0-1.1,0-1.6,0c0.2-1.3,0.2-1.3,2.7-3c0-0.5,0-1.1,0-1.6l-1-1.8c-1.2-1.3-2.8-2-3.9-3.4c3.4,1.3,3.4,1.3,4,1.3
	c-0.2-0.4-0.4-1-0.5-1.4c-2-3.9-5-7.2-6.1-11.6c-0.3-0.1-0.6-0.3-0.9-0.4c-0.2,0.2-0.5,0.5-0.7,0.8c-2.8-2-3.4-3.4-1.9-4.9
	c-0.2-0.7-0.5-1.6-0.8-2.3c1.8-2.9,9-6.4,9.1-6.4c0.7-2.4,0.7-2.4,2-3.6c-0.6-0.3-2.3-1.2-4.8,0.9c-0.6-0.2-1.4-0.5-1.9-0.7l0-0.8
	c-0.3-0.1-0.7-0.3-1-0.4c-3.2,2.5-3.2,2.5-6.7,3.4c-0.1-0.1-0.1-0.1-0.5-4.5c-1.3-0.2-1.3-0.2-3.2,0.6c0.2-4.5,0.2-4.5-0.4-5.6
	c0.6,0.1,1.5,0.5,2,0.8c1.5-2,4.6-8.6,4.6-8.7c0.3,0.1,0.7,0.2,0.9,0.3c0.4-0.4,0.7-1.2,0.7-1.8c4.4-4.8,4.9,2.5,4.9,2.5
	c0,0.3-0.2,0.8-0.3,1.1c-0.6,0.2-1.4,0.5-2.1,0.6c0.2,1,1,1.9,1.2,3c-0.5,0.4-1,1.2-1.2,1.9c0.8,0.8,2.1,2.1,7-2.7
	c2.7-2.6,2.7-2.6,7.7-1.9c0.2,0.3,0.4,0.6,0.6,0.9c-0.3,0.2-0.7,0.5-0.9,0.7c0.2,1.1,1,1.9,1.5,2.9c-1.4,3.6-1.4,3.6-0.2,4.9
	c1.8,2.1,5,0.7,6.9,2.6c0,0.3,0,0.7,0,1.1c-0.6,0.3-1.5,0.6-2.1,0.9l-0.4,1.3l1.1,0.1c0.1,0.3,0.1,0.7,0.2,0.9c0.3,0,0.7,0,1,0
	c0.1,0.3,0.3,0.7,0.4,1c-0.2,0.2-0.5,0.5-0.7,0.7c0.3,0.5,0.9,1.1,1.4,1.4c-0.6,1-0.6,2.2-0.9,3.3c-0.1,1.1,0.2,2.2,0.1,3.3
	c0.5,0.2,1.2,0.7,1.6,1c0.8-1.3,0.9-1.5,1.5-3c1.2-0.1,1.6-0.1,2.6,1.1c5-4.7,5-4.7,4.6-7.3c-0.3-0.2-0.6-0.4-0.8-0.6
	c-0.3-5.2-0.5-7.2-5.4-11.9l-0.1-1.3l-1.3-0.7c-0.7-1.1-0.7-1.1-2.8-1.5c-3.1-5,5.5-6.6,5.4-11.3c1.9-7.6,1.9-7.6,4.8-9.8
	c0.5-0.9,0.7-1.9,1.3-2.8c0.3,0.1,0.8,0.1,1.1,0.2c0.4,0.6,0.7,1.4,1,2c3.7,1.4,9-5.7,8.5-7.7c6.6-4.4,4.1-13.3,9.1-18.5
	c-0.1-0.3-0.3-0.7-0.4-1c0.8-2,1.9-5.9,1.9-5.9c0.1-1.4-0.4-8.4-0.4-8.4c-0.2-1.5-1.3-2.8-1.3-4.4c0.5-2.7-0.9-7.5-1.2-8.4l-0.5-0.7
	l1.2-1.1l-1.2-1.6c-0.2-0.5-0.6-1-1-1.3c0.3-0.4,0.6-1.1,0.7-1.6c-1.7-1-4.2-1.7-4.2-1.7c-0.5-1.2-0.5-1.3-1.3-2.5
	c-1.1,0-1.1,0-4.7,3.7c0-0.3-0.1-0.6-0.2-0.9c-0.5,0-1.3,0.1-1.8,0.2c0.2-0.2,0.5-0.6,0.7-0.8c-0.4-2-3.2-2.7-3.2-2.7
	c-0.2,0.6-0.4,1.4-0.5,2c-0.3,0.1-0.7,0.2-1,0.4c-0.7-0.4-1.6-1-2.3-1.5c0-0.3-0.1-0.6-0.1-0.9c0.2-0.2,0.5-0.6,0.6-0.8
	c-0.1-0.5-0.5-1.1-0.8-1.4c-0.5,0.2-1.2,0.4-1.8,0.4c4.5-7.4,7.4-15.7,12.1-23.1c0.4-0.2,1-0.7,1.3-1.1c-0.2-0.2-0.4-0.5-0.5-0.8
	c0.1-0.2,0.2-0.6,0.3-0.8c9.2-3.1,9.2-3.1,10-2.8c0-0.2-0.1-0.6-0.1-0.8c0.2-0.2,0.4-0.5,0.6-0.7c0.2,0.1,0.6,0.2,0.8,0.2
	c0.2-0.1,0.5-0.3,0.8-0.5c1,0.3,4.1-0.3,4.1-2.4c0.7-0.2,0.7-0.2,2.3-1.4c0.2,0.1,0.6,0.2,0.8,0.2c2,0.4,4,0.3,5.9,1.1l0.2,0.3
	l-0.5,0.4l-0.3,0.2l-0.3-0.1c-0.2,0.3-0.4,0.7-0.8,0.8l0.7,0.5c0.1,0.2,0.2,0.5,0.3,0.8c1.4-0.4,1.4-0.5,1.9-1.7
	c0.4,0.3,1.1,0.5,1.6,0.5c0-0.9,0-0.9,1.4-2.2l0.3,0.2c0,0.2,0,0.3,0,0.5l0.8,0.1c0.1-0.5,0.7-1.1,1.1-1.4c0.3,0,0.6,0,0.8,0
	c0-0.4-0.2-1-0.3-1.5l-0.5,0.1l-0.3-0.2l-0.6,0.1l-0.3,0.2l-0.3-0.1l-0.4,0.2l-0.5-0.3c0.6-1.8,0-3.7,0-3.7l0.2-0.3l0.4-0.3l0.1-0.4
	l0.2-0.4l0.4-0.4c0.3-1-0.1-2.1,0.4-3c0.2-0.3,0.4-0.8,0.5-1.2l-0.3-0.2l-0.1-0.2l0-0.2l-0.3-0.6c0-0.1,0-0.2,0-0.2l0.2-0.2
	c1-1.9,1.3-1.9,3.3-2c0.2-0.2,0.4-0.4,0.6-0.6c0.2,0.1,0.5,0.2,0.8,0.3c0.1-0.3,0.2-0.6,0.2-0.9c0.4,0.4,1,0.7,1.5,0.9
	c0.2-0.2,0.4-0.6,0.6-0.8c1.8,2.2,1.6,2.7,1.3,3.5c0.5,0.2,1.2,0.5,1.7,0.7c0,0.2,0,0.4,0.1,0.6l0.6,0.3c0.2-0.2,0.5-0.4,0.7-0.6
	c-0.1-0.3-0.1-0.6-0.2-0.9c0.5-0.5,1.3-1.4,1-3.3c0.3-0.4,0.9-0.9,1.4-1.1c-0.4-1.9-1.8-3.5-1.9-5.6c1-0.8,1-0.8,4-0.3
	c-0.3,0.2-0.6,0.5-0.9,0.7c-0.1,0.2-0.2,0.5-0.3,0.8c0.9,1.7,1.6,4.8,1.6,4.8c0.2,0.1,0.6,0.1,0.8,0.2c0,3.3,0,3.3-0.1,3.6
	c-3.1,1.2-0.3,4.8-2.1,6.8c0.3,2.1-0.2,6-0.8,7c0.2,0.6,0.2,1.4,0.1,1.9c-0.6,1.6-0.6,1.6-1.4,2.2c0,0.5-0.2,1.2-0.5,1.6
	c-0.5,0-1.2-0.1-1.7-0.1c0.2,0.5,0.7,1.1,1.2,1.3c0.1,0.6,0.4,1.8,0.4,3.7c-0.4,0.3-1,0.8-1.3,1.2c0.2,0.6,0.5,1.3,0.9,1.8
	c-0.2,0.5-0.4,1.2-0.4,1.8c0.2,0.1,0.5,0.3,0.7,0.5c-1,4,3.9,5.9,3.4,9.7c4.9,2.2,13.5,18.6,13.9,19.3c1.8-2.1,1.7-5.1,3.5-7.2
	c-0.3-2-2.4-3.2-2.5-5.3c1.2-1.3,1.2-1.3,2.2-1.5c0.3-1.7,0.3-1.7,0-2.6c-0.3-0.1-0.6-0.2-0.8-0.2c-0.1-0.5-0.5-1.3-0.9-1.7
	c0.1-1.8,2.5-4.7,3.6-5.1c0.4-0.7,1.1-2.3-3-4.4c-0.3-2.6-3-4.9-1.1-7.9c0.3,0.5,0.6,1.2,0.8,1.7c0.3,0,0.6,0,0.9,0
	c1.1-1.3,0.4-3.4-1.5-4.4c-0.4,0.4-1,0.8-1.5,1c-0.2-0.2-0.5-0.4-0.8-0.6c-0.3-4.4-0.3-4.4-0.6-4.8c-0.5,0.3-1.1,0.6-1.6,0.9
	c-0.4,0.3-1,0.6-1.5,0.7c-4.5-8.8-3.3-11.2-0.4-17.6c2.2,2.6,2.2,2.6,2.3,2.6c0.2-0.5,0.2-1.3,0-1.9c2.5-3.8,6.5-0.2,9.6-1.2
	c-0.7-2.9-1.6-7.9,0.1-9.5c0-0.6-0.1-1.3-0.3-1.8c0.4-0.7,1.2-1.1,1.5-1.9c-0.2-0.5-0.4-1.2-0.4-1.7c4.1-1.5,4.1-1.5,4.9-1.2
	c0.2-0.1,0.5-0.3,0.8-0.4c-0.4-2-2.3-3.5-2.3-3.5c-0.2,0.1-0.5,0.3-0.7,0.4c-1.4-2.4-9.7-7.9-11.8-6.4c-0.2-0.5-0.3-1.2-0.3-1.7
	c1.1,0.3,2.3,0.1,3.3,0.7c0.3-0.1,0.6-0.2,0.8-0.3c-0.5-2.9-0.5-2.9-0.1-3.3c-1-1.8-1-1.8-2.9-2.5c0-0.3,0-0.7,0-1
	c-1.4-1.1-1.9-1.5-0.8-3c0,0.3,0.1,0.6,0.1,0.8c0.8,0.5,1.5,1,2.3,1.4c-0.1-0.3-0.2-0.6-0.3-0.8c0.4-0.3,0.8-0.9,1-1.3
	c2.4,0,4.6,1.8,7.1,1.1c-0.1-0.3-0.2-0.6-0.2-0.9c0.1-0.1,0.2-0.2,0.3-0.3c-0.6-0.2-1.4-0.6-2-0.9c-0.6-0.6-0.9-1.5-1.4-2.1
	c-0.3,0-0.6,0-0.8,0c-0.3-0.4-0.7-1-1-1.4c0.2-0.2,0.4-0.4,0.6-0.6c-0.3-0.4-0.6-1-0.7-1.5c-0.5-0.3-0.9-0.9-1-1.5l-0.3-0.4l-1.2,0
	c-0.7-0.4-1.6-0.4-2.3-0.8c-0.2,0.2-0.4,0.5-0.5,0.7c0.1,0.2,0.2,0.6,0.3,0.8c-0.2-0.1-0.6-0.2-0.8-0.2c0,0.2,0,0.6,0.1,0.8
	c0.7,0.5,1.3,1.1,2,1.6c0,0.1,0,0.3,0,0.5l-0.4,0c-3.5-0.7-6.3-3.1-9.9-3.6c-0.7,0.1-0.7,0.1-2.6-0.5c-0.2,0.2-0.4,0.4-0.6,0.5
	c-1.5-1.3-4.5-1.3-5.7-0.6c-0.3-0.2-0.8-0.5-1.2-0.7c-0.2,0.2-0.4,0.4-0.6,0.6c-0.6,0.2-0.7,0.2-0.7,0.2c-0.1,0-0.1,0-0.2,0
	c-0.1,0-0.1,0-0.2,0c-0.1,0-0.1,0-0.2,0c-0.1,0-0.1,0-0.2,0c0,0-0.1,0-0.1,0c0,0-0.1,0-0.1,0c0,0,0,0,0,0c-0.5,0-1.2,0-1.7,0.1
	c-0.2,1.8,1.4,3.3,0.7,5.1c-0.2,0-0.6,0.1-0.8,0.1c-1.6-1.2-1.8-1.3-3-1.1c0.1-0.6,0-1.3-0.2-1.9c-0.3,0-0.6,0-0.9,0
	c-0.6,1.4-0.6,1.4-2,1.6c-1.3,0.7-1.3,0.7-4,0.8c-1.7,2.1-1.7,2.1-1.7,2.2c-0.2,0.1-0.6,0.2-0.8,0.2c-1.6-1.1-1.8-1.3-3-0.4
	c-0.6-4.3-0.6-4.3-9.2-1.4c-0.2,0-0.2,0-0.3,0c-0.1,0-0.1,0-0.2,0c-0.1,0-0.1,0-0.2,0c-0.1,0-0.1,0-0.2,0c0,0-0.1,0-0.1,0
	c0,0-0.1,0-0.1,0c0,0,0,0-0.1,0c0,0,0,0,0,0c0.2-0.5,0.4-1.3,0.3-1.9c-0.5,0.2-1.3,0.5-1.8,0.8c-0.3-0.3-0.8-0.7-1.2-0.9
	c1.2-0.8,1.2-1.1,1-2.1c-1.2,0-1.2,0-6.5,2.9c0.2-0.5,0.6-1.1,1-1.5c-1.6-0.9-3.1,0.6-3.4,0.9c-0.4-0.3-1-0.7-1.5-0.8
	c-0.9,0.9-2.1,1.3-3.1,2.1c0,0.4,0,1,0.1,1.4c-2.1,2.1-2.1,2.1-4.4,1.8c0,0.3,0,0.6,0,0.9c-0.5,0.3-1.3,0.7-1.8,1
	c-0.1-0.2-0.2-0.6-0.3-0.8c-0.7,0.1-1.9,0.2-4.3,2.1c-0.5-0.1-1.1-0.3-1.6-0.3c0.1-0.3,0.2-0.6,0.2-0.9c-2.3,0.4-2.1,3.2-4,4
	c-1.3-0.7-1.2-1.1-1.1-2c0.2-0.1,0.5-0.3,0.7-0.5c-0.5-0.1-1.2-0.4-1.6-0.2c0.1-0.2,0.3-0.5,0.4-0.8c1-0.4,1.4-0.7,1.7-0.9
	c0.2-0.2,0.5-0.4,0.7-0.6c0.1,0,0.2-0.1,0.3-0.2c0.1-0.1,0.1-0.1,0.1-0.2c-0.2-0.1-0.5-0.2-0.7-0.3c1.5-1.5,1.5-1.5,1.7-2.2l-0.7,0
	c0.1-0.2,0.2-0.5,0.3-0.7c-0.6,0.1-1.4,0.3-2,0.4c-0.5,0.1-1.1,0.1-1.6-0.1c-0.7,0.4-0.7,0.4-2.6,1.9l-0.8,0.6c-5,1.5-5,1.5-5.7,1.3
	c0-0.2,0.1-0.6,0.1-0.8c0.5-0.2,1.1-0.6,1.5-0.9c-1.8,0.1-3.5,0.7-5.3,1c-1,0.5-1.8,1.4-3,1.6c0.5-0.5,1.1-1.2,1.6-1.7l-0.8,0.6
	l-0.8,0.3c-0.3,0.1-0.6,0.1-0.9,0.2c0.5-0.3,1-0.7,1.5-1.1c-1.7,0.5-3.9,1.6-3.9,1.6c0.2,0,0.6,0,0.8,0c-1.2,0.8-2.4,1.4-3.4,1.8
	c-1.7,1.3-7.7,4.1-7.7,4.2c0.6-0.8,4.1-3.2,16.7-9.9l0,0c1.8-0.9,3.6-1.8,5.4-2.7c0.5-0.3,0.5-0.3,0.6-0.3c0,0,0.1,0,0.1,0
	c0,0,0.1,0,0.1-0.1c0,0,0.1,0,0.1-0.1c0,0,0.1-0.1,0.1-0.1c0.1,0,0.1-0.1,0.2-0.1c0.1,0,0.1-0.1,0.2-0.1c0.1,0,0.2-0.1,0.2-0.1
	c0.4-0.2,1-0.6,1.4-0.9c-0.4,0-0.4,0-0.4,0l0,0l0,0h0l0,0l0,0h0l0,0c1-0.7,2.2-1,3.3-1.5c0-0.1,0-0.1-0.1-0.2l1.4-0.8
	c-0.5,0.1-1.1,0.4-1.6,0.6c0.9-0.7,2-1.2,2.8-2.1c-0.9,0.1-0.9,0.1-6.7,2.3c1.2-0.8,2.6-1.2,3.9-1.9c-0.5,0-1.2,0.1-1.6,0.3
	c1.6-0.9,3.9-0.2,5-2.2c-3.6,1.1-3.6,1.1-20.8,8.6c0.2-0.2,0.5-0.4,0.7-0.6c-2.2,0.8-2.2,0.8-3.6,1.3c0.5-0.2,1.2-0.6,1.6-0.8
	c-8.2,2.8-15.5,7.8-23.7,10.5c0,0.4,0,0.4,0,0.4h0h0h0h0h0h0h0c-2.9,2.3-6.8,2.6-9.9,4.6c-7.9,5-7.9,6.8-7.9,7.8
	c-1.2,0.8-1.2,0.8-10.3,9c1.8-2.3,4.1-3.9,6.1-5.9c-1.4,0.7-2.4,1.9-3.6,2.8c1.5-2.1,3.9-3.3,5.8-5c-0.2,0.1-0.6,0.2-0.8,0.3
	c0.5-1.1,0.5-1.1,1.6-2.4c-1.8-0.2-6.2,3.2-8,4.7c0,0.2,0.1,0.6,0.1,0.8c-0.2,0.2-0.4,0.5-0.6,0.7c-0.2-0.1-0.5-0.2-0.8-0.2
	c0.3-0.5,0.6-1,1-1.4c0.7-0.6,1.3-1.2,1.9-1.8c1.6-1.2,3.4-2.2,4.8-3.6c-0.2,0.1-1.9,1.2-4.3,3c0.8-0.8,1.5-1.8,2.1-2.7
	c-1.5,0.3-1.5,0.3-29,23.8c0,0,1.3-2.5,3.5-4.7c-0.2,0-0.6,0.1-0.8,0.1c0.4-0.5,0.9-1.2,1.3-1.7c-0.3,0.1-0.6,0.2-0.8,0.2
	c0-0.1-0.1-0.2-0.1-0.2l-2.8,2.5c-1.5,1-5.2,4.6-6.7,6.1c0.9-1.7,2.6-2.6,3.8-4c-2.3,1.9-2.3,1.9-3.6,2.5c-2.7,2.2-2.7,2.2-2.8,2.3
	c0.5-0.6,0.5-0.6,3.8-3.5c-0.6,0.3-0.6,0.3-5.5,4.4c-3.8,3.7-7.6,7.4-11.2,11.3c-4.6,5.1-9.4,10.8-13.8,16.1
	c-5.1,6.5-9.9,13.2-14.4,20.1c4.4-6.8,9-13.3,14-19.6c-2,2.5-4,4.8-5.7,7.1c-5.1,7.5-11.7,17.5-16.3,25.3l-4.5,8.3
	c-1.8,3.9-3.8,8.3-5.8,12.8c-1.3,2.9-2.5,5.8-3.7,8.8c-2.2,5.2-4.2,10.3-5.9,14.8l0,0l-0.1,0.3l-3.8,12.5l0,0l-0.6,2.2
	c-2,7.8-2.8,12-5.3,24.6c-1.5,12.4-2.8,29-3.4,41.5c0,6.2,0.2,12.3,0.6,18.4l0,0.7c0,0.1,1.4,15,3,22.3c0-0.1,0-0.3,0-0.5
	c2.2,8.4,4.2,16.8,6.5,25.2c1.3,4.6,1.5,4.9,2,4.8c0.1-0.1-0.1-1.5-0.2-1.8c-0.1-0.5-0.1-0.5-0.1-0.7c0.1-0.1,0.3,0.1,0.6,0.4
	c0.1,0.1,0.1,0.1,0.1,0.1c0.1-0.1,0-0.9,0-0.9c-0.1-0.6-0.4-1.1-0.4-1.6c0.1-1.2,0.2-2.4,0.2-3.7c0.4,0,0.8,0,1.2,0.1
	c0.2,0.2,0.4,0.6,0.6,0.8c1.5-3.1,0.5-6.4,0.8-9.6c0.3,0,0.7-0.1,1-0.1c1.4-2.3,3.4-25.4-0.4-26.8c-0.2-1-0.3-2.1-0.6-3.1
	c-0.2,0.2-0.5,0.5-0.7,0.8c-1.6-2.1-2.5-10.6-2.5-10.7c-2.8,3.4-1.1,7.8-2.6,11.6c-0.7-1-0.7-1-2-9.8c-0.3,1-0.4,2.1-0.8,3.1
	c0-0.1-2.8-9.8-2.4-21.2c0.3,0,0.7,0,1-0.1c1.2,3.7-2,8.7,2.8,11.3c0.1,0.7,0.2,1.6,0.3,2.2c0.5,0.3,1.2,0.7,1.7,1
	c0.3-0.6,0.7-1.4,1-2c0.3,0.1,0.7,0.2,1,0.3c0.7,1.8,0.9,3.7,1.3,5.6c2,0.3,2.5,0.3,5.2,3.4c0.3-0.1,0.7-0.2,0.9-0.2
	c0.1-0.7,0.3-1.6,0.4-2.3c0.5,0.3,1.2,0.8,1.5,1.3c1.3,0.2,1.4,0.2,4.9-1c0.9,1,2.7,2.9,2.1,8.3c1,0.4,1.4,0.5,2.6-0.7
	c1.4,1,1.4,2.9,2.4,4.2c0.3-0.1,0.6-0.3,0.9-0.4c0.3,0.1,0.7,0.3,1,0.5c-0.5,1.1-1.5,1.6-2.1,2.6c0.5,2.2,2.4,3.7,3.1,5.9
	c0.3,0,0.7,0.1,0.9,0.2c0.8-0.9,0.8-0.9,1.9-6.9c0.3,0,0.7,0.1,1,0.1c4.4,11.2,4.5,23.5,9.5,34.5c0.9,1.6,1.4,4.2,2.9,5.4
	c0.2,0.1,0.7,0.5,0.8,0.7c0.4,0.9-0.3,1.8,0.1,2.7c0.2,0.3,0.2,0.3,1.8,1.3c0.6,0.4,1.5,0.9,1.8,2.6c0,0,1.1,4.8,1.2,5
	c0.9,1.4,4.2,4.8,4.7,3.4c0.1-0.3,0.1-0.9,0-1.4c-0.4-3.2,0.9-1.6,0.9-1.6c0,0.1,0,0.2,0,0.3c0,0,0.1,0,0.1,0
	c0.6-0.7,0.6-0.7,0.5-3.6c0-0.7,0.3-1.1,0.8-1c0.3,0,0.4,0,0.4-0.2c0.1-0.6,0.1-0.6-0.9-3.4c-0.4-1.1-0.4-1.8-0.3-1.9
	c0.1-0.4,0.6-0.2,0.9-0.3c0,0,0-0.1,0-0.1v0c-0.2-1.8-1.8-2.9-2.4-4.5c-0.4-0.9,0.6-1.7,0.4-2.6c0-0.1-0.1-0.3-0.2-0.4
	c-3.7-6.7-1.2-8.2-0.2-8.8c0-0.3,0-0.7-0.1-1c1.4-1.4,1.6-1.7,1.3-3.9c2.9-2.8,2.1-6.7,3.3-10c1.1,0.8,1.1,0.8,1.8,2.5
	c0.3,0,0.7-0.1,1-0.1c1-2,3-9.7,4-14.1c0.6,0.5,1.3,1.3,1.8,2c0.3-0.1,0.7-0.1,1-0.2c0.6-2.1,0.6-2.1,1.3-2.9
	c0.5,0.3,1.2,0.7,1.8,0.8c0.8-0.8,1.2-1.9,2.1-2.6c0.3,0.1,0.7,0.3,1,0.5c1.6,5.3,4.8,9.3,4.8,9.3c1.3,2.2,1.5,4.8,2.5,7.1
	c0.3,0.1,0.7,0.2,0.9,0.3c0.4-0.5,0.9-1.1,1.3-1.5c0.7,1.8,2.8,9.7,4,14.2c0.3,0,0.8,0.1,1.2,0.1c0.4-0.5,0.8-1.2,1-1.8
	c3.1,0.3,2.8-3.4,4.3-5C103,306.9,103.2,307,103.2,307z M100.1,64.8c-0.1,0.2-0.3,0.5-0.4,0.8c-0.3-0.4-0.7-0.9-1-1.3
	c3-3.7,3-3.7,3.2-4.2c-3.1,0.8-14.8,13.4-14.9,13.5c-1,1.3-1,1.3-2,1.3c-0.1-0.3-0.3-0.6-0.5-0.9l-0.1-0.4l0.6-0.9
	c0.2-0.2,0.5-0.4,0.7-0.6c0,0.3-0.1,0.6-0.2,0.9c0.2,0.1,0.5,0.2,0.7,0.3c5.4-5.2,10-11.1,15.6-16.1c1.6-1.4,3.3-2.7,5.1-3.9
	c-2.5,2.2-4.7,4.4-6.3,6.4c1-0.6,1-0.6,2.2-1.6c0.1,0.2,0.3,0.5,0.5,0.6c-1.1,2.1-2.9,3.5-4.1,5.5C99.7,64.3,100,64.6,100.1,64.8z"
	/>
<path id="XMLID_17508_" class="st1" d="M69,430.6l0.1,0.1c-1.4-1.5-2.8-3.2-4.3-4.9C66.4,427.7,68,429.5,69,430.6z"/>
<path id="XMLID_17507_" class="st1" d="M69.3,80.9c0.3-0.3,0.5-0.6,0.8-0.8c-5.2,5.6-10.2,11.4-15,17.4c0.1-0.1,0.2-0.3,0.4-0.4
	C59.9,91.5,64.5,86.1,69.3,80.9z"/>
<path id="XMLID_17506_" class="st1" d="M80.1,70c-0.8,0.8-1.6,1.6-2.5,2.3c0-0.1,0.1-0.2,0.2-0.3c-1.3,1.2-2.6,2.5-3.8,3.8
	c-1.2,1.4-2.5,2.8-3.9,4.3C73.3,76.6,76.7,73.3,80.1,70z"/>
<path id="XMLID_17505_" class="st1" d="M4.8,304.5c-0.4-1.8-0.7-3.6-1.1-5.3C4.1,301,4.4,302.8,4.8,304.5z"/>
<path id="XMLID_17504_" class="st1" d="M51.8,409.5c-1.7-2.3-3.5-4.6-5.2-7c0,0-0.8-1.2-2-2.9c1.7,2.6,3.3,5.1,4.9,7.4
	c4.5,5.6,10.2,12.7,15.4,18.8c-2.6-3.1-5.2-6.2-5.3-6.3C57,416.1,54.3,412.9,51.8,409.5z"/>
<path id="XMLID_17503_" class="st1" d="M24.7,356c-0.4-0.2-0.4-0.2-0.7-2.6l-5.7-22.7c-0.6-2.3-0.9-2.5-1.1-2.6
	c-0.8,1.5,0,3-0.1,4.5c-0.2,0-0.6,0-0.8,0c-0.1,0.1-0.2,0.1-0.3,0.2c-0.2,2.4-0.2,2.4-0.3,2.6c-1.6-1.2-1.9-2-3-5.2
	c-0.1,0.1-0.2,0.1-0.3,0.2c0,0.1,0,0.2,0,0.3c-1.6-2.6-1.7-5.7-2.9-8.5c0,0-1.3-3.9-2.4-8.2c-0.9-3.2-1.6-6.3-2.3-9.3
	c1.2,6,2.5,12.4,3.9,17.5l0,0c1.3,4.9,2.8,9.8,4.4,14.6c1.6,4.3,3.5,9.1,5.6,14c1.4,3.6,2.9,7.1,4.5,10.6c1.9,4.3,3.7,8.4,5.5,12.1
	c1.8,3.2,3.9,6.8,6.1,10.4c1.1,1.9,2.2,3.7,3.3,5.5c2.2,3.8,4.8,7.7,6.6,10.3c-2.6-4-5.2-8.2-7.8-12.3
	C29.9,375.1,28.9,371.9,24.7,356z"/>
<path id="XMLID_17502_" class="st1" d="M3.1,295.8c-0.5-3.4-1-7.5-1.5-10.7C2.1,288.9,2.6,292.4,3.1,295.8z"/>
<path id="XMLID_17501_" class="st1" d="M3.4,297.3c0.1,0.6,0.3,1.3,0.4,2c-0.2-1.2-0.4-2.3-0.6-3.5C3.2,296.3,3.3,296.8,3.4,297.3z"
	/>
<path id="XMLID_17500_" class="st1" d="M66.3,338.6C66.3,338.6,66.3,338.7,66.3,338.6c0.1,0.5,0.2,1,0.4,1.4l0.2,0.9l0,1.4l0.4,0.9
	l-0.1,0.8c0.2,0.4,0.7,1,0.6,1.5c0,0.1-0.1,0.4,0,0.6c0.2,0.3,0.5,0.5,0.7,0.8c0.2,0.4,0.4,0.8,0.6,1.2c0.5,1,0.9,2,1.5,2.9
	c0.2,0.3,0.3,0.5,0.4,0.6c0.2,0.2,0.4,0.1,0.4,0.1c0.4-0.1,0.7-0.4,1-0.5c0.2-0.1,0.4,0.1,0.6,0c0.1-0.1,0.5-1.1,0.5-1.1
	c0.3-0.9-0.4-1.5-0.6-2.3c-0.1-0.5-0.3-1-0.4-1.5c0-0.1-0.1-0.3-0.3-0.7c-0.3-0.6-0.8-1-1-1.7c-0.2-0.5-0.1-1.2-0.5-1.6
	c-0.5-0.5-0.5-0.5-1.3-1.8c-0.4-0.6-0.9-1-1.3-1.6c-0.9-1.3-0.9-1.3-1.2-1.4c-0.6,0.1,0.2,0.9,0.3,1.3
	C66.9,338.8,66.6,338.5,66.3,338.6z"/>
<path id="XMLID_17499_" class="st1" d="M19.6,328.2c0,0,0-0.3,0-0.5c0-0.2,0.1-0.2,0.2-0.1c0.1,0.1,0.2,0.1,0.2,0c0,0,0,0,0,0
	c0-0.3-0.1-0.5-0.2-0.7c0,0,0-0.1,0-0.1c0,0-0.3-0.8-0.4-0.8c0,0,0,0,0,0c0,0-0.6,0.9-0.6,1.8c0,1,0.5,1.4,0.5,1.4
	C19.5,329,19.5,329,19.6,328.2z"/>
<path id="XMLID_17498_" class="st1" d="M65.3,421.5c1,1,1,1,1.2,1.1c-0.2-0.2-0.2-0.2-2.5-3.1c-0.1-0.1-6.6-8-7.2-8.5
	c0.2,2.6,3.4,3.2,3.7,5.7c-0.1,0-0.1-0.1-0.2-0.1c0,0,0,0,0,0c0,0,0,0,0.1,0.1c0,0,0.1,0.1,0.1,0.1c0,0,0.1,0.1,0.1,0.1
	c0,0.1,0.1,0.1,0.1,0.2c0,0.1,0.1,0.1,0.1,0.2c0.1,0.1,0.1,0.1,0.2,0.2c0.1,0.1,0.1,0.1,0.2,0.2c0.9,1.1,0.9,1.1,0.8,1.3
	c0.5,0.7,1.3,1.2,1.6,2.1c-0.1,0-0.1,0.1-0.2,0.1c0.4,0.6,0.6,0.8,1.3,1.6c-0.9-0.9-0.9-0.9-1.1-1.1c0.3,0.5,0.6,0.9,0.9,1.3
	c-0.1-0.1-0.3-0.2-0.4-0.3c4.9,7.7,23.1,25.2,26.1,26.7c-0.1-0.1-0.1-0.1-0.2-0.2c0-0.1,0-0.2,0-0.3c0.3,0.1,0.5,0.3,0.8,0.4
	C73.6,433.3,65.3,421.6,65.3,421.5z"/>
<path id="XMLID_17497_" class="st1" d="M68.5,425.3L68.5,425.3c0,0.1,0.1,0.2,0.9,1.1c0.1,0.1,0.2,0.2,0.3,0.4
	c-0.2-0.3-0.2-0.3-0.2-0.4C69.5,426.4,68.7,425.4,68.5,425.3z"/>
<path id="XMLID_17496_" class="st1" d="M82.6,436.7c0,0.1,0.4,0.5,0.8,1c0.3,0.3,1.2,1.1,1.3,1.1c0.1,0,0-0.2-0.1-0.5l0,0
	C84.4,438.1,82.8,436.7,82.6,436.7L82.6,436.7z"/>
<path id="XMLID_17495_" class="st1" d="M83,435.4l0.5,0.6c0.2,0.2,0.3,0.3,0.5,0.5c0.2,0.1,0.3,0.1,0.5,0.2c0,0,0,0,0,0
	c0-0.1-1-1.3-1.1-1.5l0,0c-0.3-0.4-0.4-0.4-0.5-0.4c-0.1,0,0,0.1,0,0.2c0.2,0.4,0.2,0.4,0.2,0.4C83.1,435.4,83.1,435.4,83,435.4z"/>
<path id="XMLID_17494_" class="st1" d="M84.4,66L84.4,66c2-1.8,2.4-2.3,2.5-2.4c-0.2,0.1-2.4,2.2-3.4,3L83,67.1
	c-0.6,0.6-0.6,0.6-0.6,0.6c0.6-0.4,1.1-0.9,1.6-1.3C84,66.3,84.1,66.3,84.4,66z"/>
<path id="XMLID_17493_" class="st1" d="M92.1,61.1c0.6-0.5,1.2-1,1.8-1.5c0.4-0.4,0.5-0.4,0.5-0.5c0,0,0,0,0,0c0.1-0.1,2-1.8,2-1.9
	c0.4-0.3,0.5-0.5,0.5-0.6c-0.3,0.2-0.5,0.4-0.7,0.6c-0.6,0.6-0.6,0.6-0.7,0.6c0,0,0-0.1,0-0.1c0,0,0,0,0,0c0,0-2.1,1.9-2.2,2
	c0,0,0,0,0,0c0.5-0.2,0.7-0.7,1.2-0.9c0,0-0.5,0.6-2,1.8C92,60.9,92,60.9,92,61c0.2-0.1,0.4-0.3,0.6-0.4
	C92.5,60.8,92.2,60.9,92.1,61.1z"/>
<path id="XMLID_17492_" class="st1" d="M91.1,61.6L91.1,61.6c-1,0.8-1.3,1.2-1.3,1.2c0,0,0,0,0.2-0.1C90.4,62.4,90.9,61.9,91.1,61.6
	z"/>
<path id="XMLID_17491_" class="st1" d="M91,61.7c0.1-0.1,0.6-0.6,0.7-0.6c0,0,0,0,0,0C91.4,61.3,91.2,61.4,91,61.7
	C91,61.6,90.9,61.7,91,61.7C90.9,61.7,90.9,61.7,91,61.7L91,61.7z"/>
<path id="XMLID_17490_" class="st1" d="M89,63.7c0.1-0.1,0.3-0.3,0.4-0.4c0,0,0,0,0,0l0,0c0,0,0,0,0,0C89.4,63.3,89,63.7,89,63.7
	C89,63.8,89,63.8,89,63.7C89,63.7,89,63.7,89,63.7z"/>
<path id="XMLID_17489_" class="st1" d="M96,56.6c-0.4,0.4-0.8,0.8-1.2,1.2c8.4-6.1,16.2-13,25.1-18.5c9.1-5.7,11.5-6.9,27.4-14.5
	c0.9-0.4,0.9-0.4,2.3-1.3c-5.2,2-12.9,5.9-22.9,11.4c0.2-0.1,0.4-0.3,0.6-0.4c-4.2,2.5-11.3,6.9-12,7.5c0.2-0.1,0.4-0.2,0.5-0.3
	c-0.1,0.1-13.2,8.7-17.5,12.6c0.9-0.7,0.9-0.7,1.5-1.1c-1.8,1.6-3.7,3.1-5.5,4.7C95.8,56.8,95.8,56.8,96,56.6z"/>
<path id="XMLID_17488_" class="st1" d="M124.7,38.5c-0.1,0-0.1,0-1.2,0.7l-0.6,0.3c-0.3,0.2-0.6,0.4-1,0.6l-0.2,0.2
	c-0.3,0.2-0.6,0.4-0.8,0.6c-0.2,0.1-0.4,0.2-0.5,0.4c0,0,0.1,0,0.1,0c0,0,0,0,0,0c0.1-0.1,0.5-0.2,0.6-0.2l0.3-0.1l0.4-0.2
	c0.5-0.3,1-0.6,1.4-0.9l0,0c0.1-0.1,1-0.7,1-0.8C124.3,38.8,124.5,38.6,124.7,38.5C124.7,38.5,124.7,38.5,124.7,38.5z"/>
<path id="XMLID_17487_" class="st1" d="M124,40.1l0.5-0.4c0,0-0.1,0-0.1,0l-0.8,0.5c-0.2,0.2-0.5,0.3-0.7,0.5
	c-0.1,0.1-0.2,0.2-0.3,0.3c0,0,0.1,0,0.1,0l0.8-0.6L124,40.1z"/>
<path id="XMLID_17486_" class="st1" d="M128.7,37.1l0.3-0.2L128.7,37.1c-0.8,0.3-1.5,0.7-1.5,0.8c0,0,0.3-0.1,0.4-0.1l0.4-0.2
	l0.2-0.2l0,0L128.7,37.1z"/>
<path id="XMLID_17485_" class="st1" d="M126.8,38.6C126.8,38.6,126.8,38.6,126.8,38.6c-0.3,0-0.7,0.4-0.7,0.5c0,0,0,0,0,0
	c0.1,0,0.1,0,0.2-0.1c0.1-0.1,0.2-0.1,0.3-0.1c0,0,0,0,0,0c0,0,0,0,0,0c0,0,0-0.1,0.1-0.2C126.7,38.7,126.7,38.6,126.8,38.6z"/>
<path id="XMLID_17484_" class="st1" d="M126.3,40.3c0.4-0.3,0.7-0.5,2.5-1.8l0.3-0.3l0.1-0.1c0.1,0,0.1-0.1,0.2-0.2v0
	c-0.2,0-0.2,0-1.4,0.9c-0.3,0.2-0.7,0.4-1,0.6l-0.1,0.1l-0.2,0.2c0,0-0.1,0-0.1,0l-0.2,0.3c0.1-0.1,0.1-0.1,0.2-0.2
	c-0.3,0.3-0.3,0.4-0.3,0.4C126.2,40.3,126.2,40.3,126.3,40.3z"/>
<path id="XMLID_17483_" class="st1" d="M121.6,42.9c0.9-0.5,1.8-1,2.6-1.5c0.1-0.1,0.2-0.1,0.3-0.3l0.1-0.1c-0.3,0.1-2.9,1.7-3.2,2
	L121.6,42.9z"/>
<path id="XMLID_17482_" class="st1" d="M139.6,32.3L139.6,32.3C139.6,32.3,139.6,32.3,139.6,32.3c-0.1,0-1.1,0.6-1.1,0.7
	c0.1,0,0.6-0.3,0.9-0.5C139.5,32.4,139.6,32.3,139.6,32.3z"/>
<path id="XMLID_17481_" class="st1" d="M137.9,33.1c0,0,0.1,0,0.1,0c0.1,0,0.1-0.1,0.2-0.1c0.2-0.1,0.4-0.2,0.5-0.3l-0.3,0.1
	L137.9,33.1z"/>
<path id="XMLID_17480_" class="st1" d="M139.1,33.1c0.1-0.1,0.2-0.3,0.1-0.3c-0.1,0-0.5,0.2-0.5,0.4c0,0,0,0,0,0c0,0,0.1,0,0.1,0
	c0,0,0,0,0.1,0C139,33.1,139,33.1,139.1,33.1L139.1,33.1C139.1,33.1,139.1,33.1,139.1,33.1z"/>
<path id="XMLID_17479_" class="st1" d="M141.1,32.1c0,0.1,0.1,0.1,0.2,0c0,0,0.7-0.4,0.7-0.5l0,0C141.5,31.8,141.1,32,141.1,32.1z"
	/>
<path id="XMLID_17478_" class="st1" d="M142.3,30.9C142.3,30.9,142.3,30.9,142.3,30.9c0,0.1,0,0.1-0.1,0.1c0,0,0,0,0,0
	c0,0,0.4-0.2,0.6-0.3c0.3-0.2,0.7-0.4,0.8-0.5l0,0c-0.1,0-1,0.5-1.2,0.6C142.3,30.8,142.3,30.8,142.3,30.9z"/>
<path id="XMLID_17477_" class="st1" d="M139.6,31.1C139.6,31.1,139.5,31.1,139.6,31.1c-0.1,0-0.9,0.4-0.9,0.5c0,0.1,0.2,0,0.2,0
	C139.2,31.4,139.4,31.3,139.6,31.1z"/>
<path id="XMLID_17476_" class="st1" d="M149.1,26.1C149.1,26.1,149.1,26.1,149.1,26.1C149.1,26.1,149.1,26.1,149.1,26.1L149.1,26.1
	L149.1,26.1L149.1,26.1L149.1,26.1L149.1,26.1L149.1,26.1L149.1,26.1L149.1,26.1c-0.3,0.1-0.3,0.1-2.3,1.1c-0.2,0.1-0.4,0.2-0.6,0.3
	c0,0,0.1,0,0.1,0l-0.2,0.1c0,0,0.1,0,0.1,0c0.9-0.5,1.8-1,2.7-1.4C149.1,26.1,149.1,26.1,149.1,26.1z"/>
<path id="XMLID_17475_" class="st1" d="M152.8,24.3c0.2-0.1,0.2-0.1,0.2-0.1c0,0,0,0,0,0c-0.4,0-1.4,0.6-1.4,0.6
	C151.6,24.8,152.6,24.4,152.8,24.3L152.8,24.3z"/>
<path id="XMLID_17474_" class="st1" d="M150.5,25.2c0.1,0,0.5-0.2,0.6-0.3c0,0,0.1,0,0.1-0.1c0,0-0.1,0-0.1,0c0,0,0,0,0,0l0,0
	c-0.1,0-0.1,0-0.3,0.1c-0.1,0-0.1,0.1-0.1,0.1c-0.1,0.1-0.2,0.1-0.3,0.2c0,0,0,0,0,0C150.4,25.3,150.4,25.3,150.5,25.2z"/>
<path id="XMLID_17473_" class="st1" d="M145.8,29c0.2-0.1,0.5-0.3,0.5-0.4c0,0,0,0,0,0c0,0-0.1,0-0.1,0c0,0-1,0.4-0.7,0.5l-0.5,0.3
	C145.2,29.3,145.5,29.2,145.8,29z"/>
<path id="XMLID_17472_" class="st1" d="M166.5,20.1c0.2,0,0.3-0.1,0.5-0.1c0,0,0,0,0,0.1c0.1,0,0.2-0.1,0.3-0.1
	c0.3-0.1,1-0.5,1.1-0.6c-0.2,0.1-0.4,0.2-0.7,0.3l0,0c0.1-0.1,0.3-0.1,0.4-0.2l0,0c0,0-0.3,0.1-0.7,0.2c-0.7,0.2-1,0.4-1,0.5
	C166.5,20.1,166.5,20.1,166.5,20.1z"/>
<path id="XMLID_17471_" class="st1" d="M169.3,18.7c0.2,0,0.5-0.2,0.9-0.4c0.1-0.1,0.5-0.2,0.5-0.3l0,0c0,0,0,0,0,0
	c-0.1,0-0.2,0.1-0.3,0.1l-0.9,0.4c0,0,0.1,0,0.1,0C169.5,18.5,169.4,18.6,169.3,18.7z"/>
<path id="XMLID_17470_" class="st1" d="M169.5,18.3c-0.4,0.1-0.4,0.1-0.6,0.2c-0.1,0-0.2,0.1-0.2,0.1c0,0-0.1,0.1-0.1,0.1
	c0,0,0.7-0.3,0.7-0.3C169.5,18.4,169.5,18.4,169.5,18.3z"/>
<path id="XMLID_17469_" class="st1" d="M175.5,15.8C175.5,15.8,175.5,15.8,175.5,15.8c-0.2,0-1.6,0.5-2.2,0.7l-1.1,0.5l0.3-0.1
	c0.1,0,0.3-0.1,0.5-0.1c-0.2,0.1-0.3,0.1-0.3,0.1c0,0,0.1,0,0.3-0.1l0.5-0.2c0.3-0.1,0.5-0.2,0.8-0.3
	C174.7,16.1,175.1,16.1,175.5,15.8z"/>
<path id="XMLID_17468_" class="st1" d="M172.9,17.1c-0.1,0.1-0.2,0.1-0.3,0.2c0.3-0.1,0.4-0.1,0.5-0.2c0.1,0,0.3-0.1,0.4-0.2l0,0
	c0,0,0,0,0,0C173.5,16.9,173.1,17.1,172.9,17.1z"/>
<path id="XMLID_17467_" class="st1" d="M171.3,18c0,0,0,0,0.4-0.1c0.7-0.3,0.8-0.4,0.9-0.4c0,0,0,0,0,0c-0.1,0-0.2,0.1-0.3,0.1
	C171.4,18,171.4,18,171.3,18z"/>
<path id="XMLID_17466_" class="st1" d="M184,12.6c1.4-0.2,2.7-1,4-1.3c0.9-0.2,0.9-0.2,7.8-2.3l0,0c0.8-0.2,0.8-0.2,2.1-0.8
	c0,0,0-0.1,0-0.1c0.5-0.2,0.5-0.2,0.5-0.2c-0.6,0.1-1.1,0.3-1.7,0.4c1.5-0.5,3.2-0.8,4.7-1.4C199.1,7.4,184.8,11.9,184,12.6z"/>
<path id="XMLID_17465_" class="st1" d="M197.8,7.5c1.9-0.5,3.8-0.8,5.6-1.5c-3.1,0.5-13.3,3.4-14.2,4c0.4-0.1,0.7-0.3,1.1-0.3
	c0,0,0,0-0.1,0.1c0.1,0,0.1,0,0.2,0c-0.4,0.2-0.8,0.3-1.2,0.5c1.4-0.3,1.6-0.4,3.4-0.9c1.5-0.5,3-1,4.5-1.4l6.4-1.9
	C201.6,6.5,199.7,7.2,197.8,7.5z"/>
<path id="XMLID_17464_" class="st1" d="M192.4,8.7c0.4-0.1,1.7-0.4,1.8-0.5c2.9-0.8,2.9-0.8,3-0.9c-0.5,0-0.5,0-4.9,1.4
	C192.3,8.7,192.3,8.7,192.4,8.7z"/>
<path id="XMLID_17463_" class="st1" d="M198.3,7.1c0.2,0,0.2,0,6.3-1.4c3.5-0.8,3.6-0.8,3.7-0.9c0,0-0.1,0-0.1,0
	c0.9-0.2,0.9-0.2,6-1.3c-4.8,0.8-14.2,2.9-16.5,3.6c0.6-0.1,1.2-0.3,1.8-0.4C198.3,7.1,198.3,7.1,198.3,7.1z"/>
<path id="XMLID_17462_" class="st1" d="M208.6,15.2c-0.4,0.3-0.9,0.5-1.2,0.9c0,0,0,0,0,0c0,0,0,0,0,0c0.4-0.1,0.7-0.4,1.2-0.5
	c0.2,0,0.4,0.2,0.6,0.1c0.7-0.1,1.4-0.2,2-0.4c0.3-0.1,0.7-0.3,1.1-0.6c0.2-0.1,0.5-0.3,0.6-0.4c0.1-0.1,0.2-0.2,0.1-0.3
	c-0.1-0.1-0.3-0.1-0.3-0.3c-0.1-0.1,0.1-0.3,0-0.4c0-0.1-0.2-0.1-0.2-0.1c-0.4,0-2.9,1-3,1c-0.1,0-0.2,0.1-0.2,0.1
	C208.9,14.8,208.8,15,208.6,15.2z"/>
<path id="XMLID_17461_" class="st1" d="M211.8,12.5C211.8,12.5,211.8,12.5,211.8,12.5L211.8,12.5c-0.1,0-0.3,0-0.4,0c0,0,0,0-0.1,0
	c-0.1,0-0.2,0.1-0.3,0.2c-0.4,0.2-1.8,1.1-1.7,1.2c0,0,0.3,0,1.4-0.6C211,13.1,211.7,12.6,211.8,12.5z"/>
<path id="XMLID_17460_" class="st1" d="M210.6,10.5l-1.3,1.1c0.1,0.1,0.3,0.1,0.4,0.2c0,0-0.1,0.1-0.1,0.1c0.7,0.2,0.7,0.2,1.4-0.3
	c0.3-0.2,1-0.7,1.3-0.6c0,0-0.1,0.1-0.1,0.1c0.9-0.3,1.7-0.8,2.7-1c0.4-0.1,0.9,0.1,1.4-0.1c0.3-0.2,0.4-0.3,0.5-0.3c0,0,0,0,0-0.1
	c-0.3,0-0.6,0.2-0.9,0.1c0,0,0.4-0.8,3.9-2.3c0.3-0.2,0.4-0.2,0.5-0.3c0,0,0-0.1,0-0.2c0,0,0,0-0.1,0c0,0-1.7,0.6-2.3,1
	c0,0-1.3,0.9-1.8,0.7c0.2-0.5,0.9-0.2,1.1-0.6c-0.3,0.1-0.3,0.1-0.3,0c1.2-0.6,1.2-0.6,1.2-0.7c-0.8,0.1-3.5,1.2-3.5,1.2L210.6,10.5
	C210.6,10.5,210.6,10.5,210.6,10.5z"/>
<path id="XMLID_17459_" class="st1" d="M219.9,7.6c-0.5,0.2-1,0.4-1.5,0.6c-0.1,0.1-0.3,0.1-0.4,0.2c-0.8,0.5-1.1,0.9-1.1,0.9
	c0,0,0,0,0.8,0h0h0h0h0h0h0h0h0c0.2,0,0.4-0.1,1.1-0.4c0.8-0.4,0.8-0.4,1.1-0.7c0.1-0.2,0.1-0.2,0.2-0.2c0.4-0.2,0.9-0.2,1.4-0.4
	c0,0,0.1,0,0.1,0c0.1,0,0.1-0.2,0-0.2c-0.1-0.1-0.2,0-0.3-0.1c0-0.1,0.1-0.1,0.1-0.2c0,0,0,0-0.1,0c-0.3,0-1.3,0.4-1.5,0.6
	C220,7.6,220,7.6,219.9,7.6z"/>
<path id="XMLID_17458_" class="st1" d="M223.4,8.3l2.5-1.1l0,0c0.2-0.1,0.2-0.1,0.2-0.1c-0.3,0-0.8,0.1-1.2,0.2
	c-0.3,0.1-0.6,0.2-0.6,0c0.1-0.1,0.2-0.1,0.2-0.2c-0.5-0.1-0.9,0.3-1.4,0.3c0.1-0.1,0.2-0.2,0.3-0.2c0.4-0.3,0.5-0.3,0.5-0.4
	c-0.2,0-0.9,0.3-1.2,0.5c-0.3,0.2-0.4,0.4-0.6,0.7c-0.1,0.1-0.2,0.1-0.2,0.2c0,0,0,0,0,0.1C221.8,8.3,222.9,8.4,223.4,8.3z"/>
<path id="XMLID_17457_" class="st1" d="M267.3,71c-0.2-1.2-0.5-1.3-0.6-1.4c-0.5,0.1-0.8,0.5-1.2,0.8c-0.1,0.1-0.4,0.2-0.5,0.2
	c-0.2,0.1-0.2,0.3-0.3,0.4c-0.1,0.3,0,0.5,0.1,0.8c0,0,0.7,1.8,0.8,2c0.5,1,1.9,1,2,0.7c0.1-0.2-0.2-0.6-0.4-0.9
	c-0.3-0.5-0.7-1.1-0.2-1.5C267.1,71.8,267.4,71.3,267.3,71z"/>
<path id="XMLID_17456_" class="st1" d="M268.3,126.1c-0.5,0.3-1,0.7-0.6,1.1c0.4,0.4,2.5-0.3,2.6-1.9c0-0.6-0.1-1.5-0.4-2.4
	c-0.1-0.3-0.1-0.3-0.5-0.3c-0.3,0-0.4,0.1-0.6,0.4c-0.3,0.8,0.4,1.4,0.4,2.2C269.3,125.5,269.1,125.6,268.3,126.1z"/>
<path id="XMLID_17455_" class="st1" d="M268.9,129.5c-0.4,0-1.2,0.3-1.3,0.7c0,0.1,0,0.1,0.1,0.2c0.1,0.2,0.4,0.7,0.7,1.2
	c0.1-0.1,0.6-1,0.7-1.9C269.1,129.6,269.1,129.5,268.9,129.5z"/>
<path id="XMLID_17454_" class="st1" d="M267.7,135.2c0.2,0.3,0.8,0,0.8-0.4c0,0,0,0,0,0l-0.8-0.5C267.7,134.3,267.5,135,267.7,135.2
	z"/>
<path id="XMLID_17453_" class="st1" d="M266.2,139c-0.1,0.2,0.3,0.6,0.5,0.5c0,0,0-0.2,0-0.7c0,0,0-0.1,0-0.1
	C266.6,138.7,266.2,138.8,266.2,139z"/>
<path id="XMLID_17452_" class="st1" d="M265.3,144.5c-0.1,0-0.3,0.6-0.4,0.8c0,0.1,0,0.3,0,0.4c0.3-0.5,0.4-0.6,0.4-0.8
	C265.4,144.9,265.4,144.6,265.3,144.5z"/>
<path id="XMLID_17451_" class="st1" d="M266.1,143.2c0-0.3-0.2-0.3-0.3-0.3h0h0h0h0h0h0h0h0l-0.2,0.5c0.1,0,0.3,0.2,0.4,0.1
	C266.1,143.5,266.1,143.4,266.1,143.2z"/>
<path id="XMLID_17450_" class="st1" d="M266.3,140.6c-0.1,0-0.1,0-0.1,0.1c0,0.2,0,0.4,0,0.6c0,0.1,0,0.1,0,0.1
	c0.1,0.2,0.5-0.3,0.5-0.5l0,0C266.8,140.7,266.6,140.6,266.3,140.6z"/>
<path id="XMLID_17449_" class="st1" d="M267.5,122.8c0.1-0.4-0.6-1.1-0.7-1.2c-0.4,0.5-0.4,0.5-0.5,0.6c0,0.2,0.1,0.6,0.2,0.7
	C266.9,123.4,267.4,123,267.5,122.8z"/>
<path id="XMLID_17448_" class="st1" d="M261.2,150.4c0.1-0.1,0.3-0.3,0.4-0.5c0.1-0.2-0.1-0.2-0.2-0.2c-0.5,0-0.6,0.1-0.8,0.4
	c-0.5,0.7-1.8,2.9-1.9,3.1c-0.1,0.2-0.2,0.4-0.1,0.5c0.2,0.2,1.1,0,1.3-0.1c0.2-0.1,0.8-0.8,0.9-0.9c0,0,0,0,0,0c0,0-0.1,0-0.1,0
	c0.1-0.3,0.3-0.6,0.3-0.9c0-0.3-0.1-0.5-0.1-0.8C261,150.7,261,150.6,261.2,150.4z"/>
<path id="XMLID_17447_" class="st1" d="M252.4,161.7c0.3-0.3,0.6-1.4,0.7-2.3c0-0.2,0.2-0.7,0.9-1c0.2-0.1,0.5-0.2,0.6-0.4
	c0.4-0.5,0.4-1.1,0.8-1.5c0.1-0.2,0.4-0.1,0.5-0.1c0.6,0.2,0.9,0.2,1.1-0.8c0.2-0.9-0.3-1-0.5-1c-0.5,0-0.7,0.2-0.7,0.2
	c-0.3,0.3-0.7,0.4-1,0.6c-0.2,0.2-0.2,0.4-0.4,0.6c0,0,0,0,0,0l-0.8-0.4c-0.5,0.5-0.5,0.5-0.6,1.3c0,0.6,0,0.8-0.2,1.1
	c-0.3,0.6-0.8,1.1-1,1.6c0,0.1-0.1,0.2-0.1,0.2c0,0-0.2,1.1-0.1,1.4C251.8,161.4,252.2,161.9,252.4,161.7z"/>
<path id="XMLID_17446_" class="st1" d="M249.3,164.5c0.1-0.4,0.3-1,0.8-1.6c0.2-0.2,0.2-0.3,0.3-0.3c0.1-0.2-0.2-0.7-0.7-0.8
	c0,0,0,0-0.1,0c-0.7,0.1-0.8,0.6-0.8,0.8c-0.2,1.6,0.1,3.3,0.2,3.4c0.1-0.1,0.2-0.6,0.2-0.9C249.3,165,249.3,164.8,249.3,164.5z"/>
<path id="XMLID_17445_" class="st1" d="M202.6,105.8c-0.1,0.2,0,0.4-0.1,0.6c-0.1,0.2-0.3,0.3-0.3,0.4c0,0,0,0.1,0,0.1
	c0,0.1,0,0.2,0,0.3c0.1,0.3,0.6,0.9,1.2,0.7c0.1,0,0.3-0.1,0.4-0.2c0.2-0.2,0.3-0.5,0.6-0.7c0.2-0.2,0.6-0.3,0.8-0.5
	c0,0,0.1-0.1,0.1-0.1c0.2-0.3-0.3-0.9-2-0.9C202.9,105.6,202.7,105.6,202.6,105.8z"/>
<path id="XMLID_17444_" class="st1" d="M218.9,113.1c-0.3,0.4-0.3,0.5,0.4,1.9c0.1,0.2,0.1,0.2,0.4,2.3c0.2,1.3-0.1,2.7,0.3,4
	c0,0.1,0.3,0.4,1.2,1c1.6,1,1.6,1,3.3,6.1c0.7,2.2,1,4.4,1.8,6.6c0.6,1.6-0.5,3.3,0.4,4.9c0.4,0.7,1.2,1.1,1.5,1.9l1.5,5.7
	c0,1.5,1.8,2.6,0.9,4.2c-0.8,1.6,1.1,3.8,1.4,3.7c1-1.3,0.2-2.8,0.5-4.1c0.1,0,0.2-0.1,0.2-0.2c0.5,0.6,1.4,0.2,1.9,0.7
	c0.7,0.5,0.6,1.5,1.2,2c0.1,0.1,0.2,0.1,0.3,0.2c0.2-0.1,0.4-0.2,0.6-1l0,0c0-0.2,0-0.2-1.1-3.2c-0.1,0-0.2,0-0.2,0
	c0,0.1-0.1,0.2-0.1,0.2c-0.4,0.5-1.1,0-1.1,0c-0.3-0.3-0.3-0.3-0.2-1.6c-0.6-0.6-1.5-0.9-2-1.6l-1.1-2.6c-0.3-1,0.1-1.9,0.1-2.9
	c0-0.2-0.3-0.3-0.5-0.4c-0.4-0.1-0.8-0.3-0.5-2c0.1-1.1,0.8-2,0.6-3.2c2.1-1.3,2.7,2.2,4.3,3c0.1,0,1.8-0.9-0.5-2.5l-5.6-9.4
	c-1.1-1-1.1-2.8-2.5-3.6c-1.6-2.4-1.6-2.4-1.7-2.9c-0.3-1.4,0.4-2.7,0.2-4l-0.7-0.8c0.1-0.2,0.3-0.6,0.4-0.8
	c-2.6-3.4-2.6-3.4-3.2-3.6c0-0.1-0.1-0.2-0.1-0.3c0.6-1.1,0.6-1.1,0.1-1.4c-0.8-0.5-1.3-1.3-2.1-1.7c-0.1,0.1,0.4,2.8,0.4,2.8
	c0.1,0.2,0.1,0.2,1.1,0.6c0,0.1,0,0.2,0.1,0.3c-0.1,0.1-0.3,0.2-0.4,0.2c-0.2,0.5,0.1,1.1-0.2,1.6
	C219.4,112.8,219.2,112.7,218.9,113.1z"/>
<path id="XMLID_17443_" class="st1" d="M246.9,164c-0.1-0.3-0.2-0.5-0.4-0.6c-0.5-0.3-1,0.4-1.2,0.6c-0.3,0.3-0.8,1-1.4,1.3
	c-0.3,0.1-2.7,0.5-3.3-0.8c-0.1-0.3-0.3-0.4-0.3-0.4c0,0-0.1-0.1-0.1-0.1c-0.7-0.5-1.4,0.5-2.2,0.1c-1.3-0.8-0.8-3-2.6-3.5
	c-0.3-0.4-0.6-0.9-1-1.2c0,0-0.1-0.1-0.1-0.1c-0.3-0.2-0.8,0-1.1-0.2c-0.3-0.2-0.1-0.8-0.6-0.8c0,0-0.9,0.2-1,0.8
	c-0.2,0.4-0.6,1-0.8,1.4c0.4,0.7,1.2,1.2,1.5,2.1c0.1,0.2,0,0.4,0.1,0.6c0.2,0.6,0.8,0.9,0.9,1.6c0.1,0.5-0.2,1.1,0.1,1.6
	c0.4,0.7,0.4,0.7,0.2,0.9c-1.1,0.8-0.5,1.4-0.5,1.4c0.1,0.1,0.2,0.2,0.2,0.6c0.1,0.7,0.2,1.4-0.9,1.9c-1.1-2-2.2-0.2-2.2-0.2
	c0.2,0.5,1,0.3,1,0.9c0,0.7-0.9,0.5-1.1,1c-1.5-0.1,0,2.1-0.5,3.1c-0.4,0.7,0.8,0.9,1.2,1.3c1.2,1.5,1,2.1,0.7,2.8
	c-0.2,0.5,0.7,1.3,0.9,1.3c0.1,0,0.2-0.1,0.2-0.2c0.3-0.4,0-0.9,0.3-1.2c0.3-0.4,1-0.4,1.3-0.8c0,0,0.1-0.1,0.1-0.1
	c0.5-1,1.6-0.1,2.3-0.4c0,0-1.2-2.1-3.7-2.1c-0.5,0-0.7,0-0.8-0.5c0,0-0.1-3.2,1.3-0.8c0.4,0.6,1.4-1.4,1.7-2.4
	c0.1-0.4,0.1-0.4,0.2-0.6c0.5-0.1,3.5,2.4,3.7,2.5c0.4,0.4,3.9,2.5,3.9,2.6c0.4,0.3,0.5,0.2,0.7,0.2c0,0,0.5-0.6-0.4-1.7
	c-0.5-0.6-1-1.2,1.2-4.2c0.3-0.5,0.8-1,1.6-0.8c0.9,0.2,1.4-0.3,1.4-0.3c0.8-1,2-0.9,3-1.4c0.1-0.1,0.5-0.4,0.6-0.6
	c0-0.1-0.1-0.1-0.1-0.2c-0.9-0.1-2.1-0.3-3-0.4c0-0.4,0-0.5,0-0.7c-0.2-0.8-1.2-0.6-1.5-1.4C246.2,164.9,247.1,164.6,246.9,164z"/>
<path id="XMLID_17442_" class="st1" d="M211.2,237.3L211.2,237.3C211.1,237.3,211.1,237.3,211.2,237.3
	C211.1,237.3,211.2,237.3,211.2,237.3z"/>
<path id="XMLID_17441_" class="st1" d="M204.8,224.8c-1,2.1-1,2.1-2.3,2.9c0.2,0.9,1.3,3.4,2.1,3.7c0.2-0.3,0.5-0.6,0.1-1.8
	c0.5,0.1,2.2,2.2,1.5,3.6c-0.3,0-0.8-0.1-1.2-0.1c0,0.3-0.3,3,2.3,6.2c0.4-2,0.6-2.3,0.7-2.5c1,0.9,0.1,2.9,1.8,3.2
	c0.4,0.1,0.5-0.6,0.5-1.3c0-0.5,0.3-1,0.7-1.5c0,0-1.7-3.8,1.2-8.1c-0.1-0.1-0.1-0.1-2.1-1.4c0-0.8,0.3-1.6,0.1-2.4
	c-1.1,0.1-1.7,0.2-2.2-0.2c0-0.5,0.4-1.2,1.3-1.3c0.1,0.1,0.2,0.1,0.3,0.2c1.2-0.3,1.4-1.7,2.4-2.2c1.3-0.6,2.5,0.4,3.8,0
	c0.2-0.1,0.5-0.2,0.7-0.3c0.9-0.5,1-0.5,1.3-0.4c3.4-2.8,3.4-2.8,5.4-2.1c-0.2,0.7-0.9,0.9-1.3,1.4c0.1,0.4,0.3,0.8,0.4,1.3
	c0,0.6-0.8,1.1-0.2,1.6c0,0,2.9,2.8,4.1,1c0.5-0.7,0.5-1.7,1.3-2.2c0-0.1,0-0.2,0-0.3c0.1-1.2,1.7-1.1,1.8-2.3
	c0.1-1-1.1-0.9-1.5-1.5c1.5-1.2,2.7,0.7,4.1,0.7c1.2,0,1.2,0,3.1-2.5c0.1,0,0.2,0,0.3,0.1c0.5,0.8,0.1,2.1,1.4,2.4
	c0.2-0.2,0.5-0.6,0.2-2.1c-0.1-0.4-0.3-1.4,2.7-2.7c-0.1,0.7,0,1.4,0,2.1c0.4,0.2,2.2,1.2,4.1-3c-0.1-0.7-0.1-0.7-2.2-1.8
	c-0.5-2-0.5-2-0.2-6.4c0.3-3.5,0.3-3.5-1.1-4.5c0.3-1.8,0.3-1.8,2.1-2.6c-0.6-0.9-0.2-3.9-0.1-4.5c0.4-1.7-2.1-6.7-4.2-9.1
	c0.1-1.7,0.3-3.7-2.5-3.7c-0.5,0.4-0.5,0.6-0.5,1.2c0.3-0.1,0.8-0.1,1.1-0.2c0,0.4,0,0.7,0,1.1c-0.3,0.1-0.6,0.1-0.9,0.1
	c0,0.4,0,0.4,0.2,1.4c-0.1,0.1-0.1,0.2-0.2,0.2c-1.1-0.2-0.9-1.5-1.7-2c-1.1,2.9-1.1,2.9-1.5,3.2c1.3,1.3,1.3,1.3,1.8,2.6
	c-0.3,0.4-0.9,0.4-1.3,0.6c0.1,1.5,0.5,1.5,1.7,1.4c0.1,18.7-7.9,16.7-8,16.7c-0.1-0.1-0.1-0.1,0.1-2.5c-1-0.9-2.5,1.2-2.3,2.3
	c0.5,2.9,0.5,2.9-0.2,4c-0.2,0-0.2,0-0.9-0.1c-0.1,0.1-0.2,0.2-0.3,0.2c0,1.2,0.5,2.4,0,3.5c-0.5,0-0.5,0-2.8-0.6
	c-0.6-0.2-1.3-0.4-2.9,0.1c-0.1,0-0.3,0.1-0.4,0.1c-0.5,0.2-0.3,1-0.9,1.2c-1.1,0.5-2.4,0.2-3.5,0.7c-0.1,0.1-0.3,0.2-0.5,0.3
	c-1.2,1-2,2.3-3.1,3.5c-0.6,0.7,0,1.7-0.6,2.3c-0.5,0.6-1.3,0.2-2,0.5c0.2,0.7,0.6,1.4,0.5,2.1C206.3,225.1,205.5,224.6,204.8,224.8
	z"/>
<path id="XMLID_17440_" class="st1" d="M221.2,223l-2-1.1c-0.1-0.1-0.3-0.1-0.5-0.1c0,0-2.3,0.5-1.9,1.4c0.3,0.8,0.1,1.1,0.1,1.1
	c0,0-1.3,0.7-1.3-0.5c0,0,0,0,0,0c-0.2,0-0.4,0.2-0.6,0.2c-0.2,0-0.2,0-0.3-0.1c-0.2-0.3-0.7-0.3-0.8-0.3c-0.3,0-0.5,0.1-0.6,0.2
	c-0.1,0.1-0.2,0.2-0.1,1c0.1,0.5,0,0.6-0.1,0.8l-0.5,1c0.2,0.2,0.5,0.5,0.8,0.7c-0.2,0.7,0.1,0.9,0.4,1.1c0.5,0.3,1,0.4,1.5,0.7
	c0.2,0.1,0.2,0.1,0.3,0.3c0,0.1,0.2,0.5,0.6,0.5c0.3-0.1,0.2-0.3,0.1-0.6c-0.6-1.6,2.1-3.3,2.2-3.3c0.9-0.5,1.7,0.8,2.6,0.3
	c0,0,0.1-0.1,0.1-0.1c0.6-0.5,0-1.1,0-1.7c0-0.1,0.2-0.3,0.2-0.4C221.4,223.7,221.7,223.4,221.2,223z"/>
<path id="XMLID_17439_" class="st1" d="M180.4,277.1c0.1-0.5,0.1-1.1,0.1-1.5c0-0.8-0.4-7-1.3-7.3l-2.6,3.7
	c-0.1,0.1-0.2,0.2-0.2,0.4c0,0-1,2.4-1.1,3.4c-0.1,0.8,0.4,1.4,0.5,2.2c0.1,0.6-0.1,1.2,0,1.8c0,0.2,0.1,0.4,0.1,0.6
	c0.2,1.1,0.7,1.7,0.9,1.9c0.3,0.4,0.4,0.5,0.3,0.9c-0.2,0.8-0.4,2,0.1,2.5c0.6,0.6,2.1,0,2.3-0.9c0.3-1-0.2-2-0.1-3.1
	C179.5,280.1,180.2,278.7,180.4,277.1z"/>
<path id="XMLID_17438_" class="st1" d="M143.8,294.7c0,0-1.5,0.1-1.8,0.3c-0.4,0.2-1.9,1.8-2,1.8c-0.3,0.4-0.5,0.9-0.8,1.4
	c-0.2,0.3-0.4,0.5-0.6,0.7c-0.1,0.1-0.1,0.3-0.2,0.4c-0.1,0.2-0.1,2.4,0.2,2.8c0.1,0.1,0.2,0.1,0.2,0.1c0.4,0,0.6-0.3,0.9-0.4
	c0.1,0,0.1,0,0.2,0c0.6,0.3,2.2,0.3,3.1,0.3c1-0.1,1.2-0.3,1.4-0.5c0.3-0.3,0.3-0.8,0.3-1.2c0-0.7-0.2-1.4-0.2-2.1
	c0-0.8,0.2-1.6,0.2-2.4C144.8,295,144.6,294.7,143.8,294.7z"/>
<path id="XMLID_17437_" class="st1" d="M210.2,243c0-0.2,0-0.3-0.4-0.4c-0.5,0-0.7,0.3-1.1,0.8c-0.5,0.8-0.7,1.3-0.6,1.5
	c0,0.1,0.1,0.1,0.8,0.2c0,0,0.7,0,0.9-0.1C210.1,244.9,210.2,244,210.2,243z"/>
<path id="XMLID_17436_" class="st1" d="M207.2,253.7c0-0.3-0.1-0.7-0.1-1l0,0c-0.1,0-0.1,0-0.2,0.2c-0.2,0.2-0.3,0.4-0.5,0.5
	c-0.2,0.1-0.5,0.2-0.7,0.3c0,0-0.1,0.1-0.1,0.1c-0.1,0.1-0.5,0.5-0.5,0.8c0,0.4,0.6,0.7,1,0.5c0.3-0.1,0.3-0.3,0.4-0.6
	c0.1-0.3,0.1-0.4,0.3-0.6l0,0L207.2,253.7z"/>
<path id="XMLID_17435_" class="st1" d="M204.5,257.1c0,0.1,0.2,0.4,0.5,0.4l0.4-0.4l-0.2-0.9c-0.2,0.1-0.6,0.1-0.8,0.3
	C204.5,256.4,204.3,256.7,204.5,257.1z"/>
<path id="XMLID_17434_" class="st1" d="M202.3,261.1c-0.1,0.2-0.2,0.3-0.2,0.4c-0.2,0.4-0.6,0.6-0.8,0.9c-0.1,0.2-0.2,0.2-0.3,0.4
	c0,0-0.4,0.8-0.2,1.1l0.8-0.1l0.4-0.9c0.2,0,0.5-0.1,0.7-0.1c0,0,0.1-0.1,0.1-0.2l0,0c0,0-0.1-1.7-0.2-1.8
	C202.4,260.8,202.4,260.8,202.3,261.1z"/>
<path id="XMLID_17433_" class="st1" d="M192.6,271.7C192.6,271.7,192.6,271.7,192.6,271.7c-0.3,0-0.3,0.9,0.1,1.4
	c0.5,0.6,1.3-0.2,1.3-0.6c0-0.2,0-0.2-0.1-0.2c-0.3-0.1-0.5-0.2-0.8-0.3C193,271.9,192.9,271.8,192.6,271.7
	C192.7,271.7,192.7,271.7,192.6,271.7z"/>
<path id="XMLID_17432_" class="st1" d="M188.3,275.5c0.4,0.6,1.5,0.2,1.5-0.4c0-0.2-0.2-0.5-0.7-0.5c-0.1,0-0.2,0-0.3,0
	c-0.2,0.2-0.4,0.4-0.6,0.6C188.3,275.4,188.3,275.4,188.3,275.5z"/>
<path id="XMLID_17431_" class="st1" d="M191.5,226.8c-0.2,0-2.7,1.1-2.8,1.2c-0.1,0-0.2,0.1-0.2,0.2c0.2,0.5,3.9,0.9,4.2-0.1l0,0
	C193,227.6,192.2,226.9,191.5,226.8z"/>
<path id="XMLID_17430_" class="st1" d="M227.9,177.6l0.5,0.7l0.9,0.5c0-0.3,0-0.6,0-1c-0.2-0.6-0.4-1-0.8-1
	C228.2,176.8,227.9,177.2,227.9,177.6z"/>
<path id="XMLID_17429_" class="st1" d="M283.3,90.5c1.6,0.5,1.6,0.5,1.5,0.7c0,0.1-0.1,0.2,0,0.3c0.1,0.1,0.2,0.2,0.3,0.2
	c0.3,0.2,0.6,0.4,0.8,0.6c0.2,0.1,0.2,0.3,0.4,0.5c0,0,0.1,0.1,0.1,0.1c0.1,0.1,0.3,0.1,0.4,0.2c0.4,0.1,0.4,0.1,1,0.3
	c0,0,0,0,0.3,0.2c0.3,0.2,0.6,0.3,0.7,0.3l0,0c-0.1-0.2-1.9-1.5-2.3-1.8c-0.4-0.3-0.5-0.4-0.6-0.5c-0.1-0.1,0-0.3-0.1-0.4
	c-0.1-0.2-0.2-0.4-0.2-0.6c-0.6-0.4-1.1-0.8-2.1-0.9C283.2,89.7,283.1,89.9,283.3,90.5z"/>
<path id="XMLID_17428_" class="st1" d="M291,93c0.4,0.2,0.6,0.3,0.6,0.4c0.1,0.1,0.1,0.1,0.3,0.3c0.3,0.2,1.2,0.4,1.5,0.3
	c0-0.2-0.1-0.4-0.1-0.6c-0.6-0.7-0.6-0.7-0.8-0.8c0,0-0.1,0-0.1,0c-0.2-0.1-0.5,0-0.7,0.1c-0.4,0-0.6-0.2-0.9-0.5
	c-0.3-0.3-0.4-0.3-0.5-0.3c-0.1,0-0.1,0-0.2,0.1c-0.1,0.2-0.1,0.6,0,0.6C290.1,92.7,290.1,92.7,291,93z"/>
<path id="XMLID_17427_" class="st1" d="M184.1,319.7l1.6,1.2c3.2-0.5,3.2-0.5,3.4,0.8c0.1,0.6,1.4,0.9,1.6,0.8
	c-0.1-0.7-0.8-1.2-0.6-2c0.6-0.2,3.6,1.7,3.6,1.7c0.6,0.6-0.3,1.2,0,1.8c0.2,0.5,3,2.8,3.2,1.9c0.1-0.5-0.3-1.8-0.4-2.1
	c-0.2-0.5-0.2-0.5-1.7-2c-0.6-0.6-0.5-0.8-0.2-1.2c0.1-0.2,0.2-0.4,0.1-0.6c-0.2-0.4-0.5-0.3-1.4,0c-1.5,0.5-1.7-1.5-2.7-1.9
	c-0.1,0-0.3-0.1-0.5-0.1c-0.8,0.2-1.2,1.4-2.2,1.1c0,0-1.2-0.7-1.5-1.1c-0.2-0.4,0.1-0.7,0.1-1.1c0-0.2-0.3-1.1-0.8-1.8
	c-0.5-0.8-0.6-1.2-0.5-1.4c0,0,1.3-2.3,2.4-3c0.5-0.3,0.7-0.6,0.8-0.8c0.4-0.5,0.7-1,0.5-1.8c0-0.2-0.1-0.4-0.2-0.5
	c-0.7-1.6-1.9-2.9-2.8-4.4c-0.2-0.3-0.1-0.6-0.1-1.5c0.1-0.9,0.2-1.7-0.3-1.9c-0.7,0.1-0.9,0.9-1.4,1.2c-1,0.6-1.7-0.6-2.6-0.4
	c-0.5,0.1-0.7,0.2-0.8,0.3c-0.4,0.3-0.8,2.3-0.8,2.3c-0.1,0.9,0.2,1.9-0.2,2.8c-1,2.4-1.2,2.8,0.1,3.1c0.1,2.3-1,4.5-0.2,6.7
	c0.1,0.2,0.2,0.7,1.2,0.2c0.9-0.4,1.6,1,1.6,1c-0.3,0.4-0.3,0.5,0,1c0.3,0.5,0.9,0.5,1.2,0.8C184,319.1,183.9,319.5,184.1,319.7z"/>
<path id="XMLID_17426_" class="st1" d="M187.2,315.6c0,0,0.1,1.3,0.1,1.4c0,0.1,0,0.1,0.4,0.2l0.3-0.5l-0.4-0.7l0.3-1.1
	C187.7,315.1,187.2,315.3,187.2,315.6z"/>
<path id="XMLID_17425_" class="st1" d="M196.9,320.1l-0.6-0.7l-0.4,1.5c0.2,0.2,0.4,0.4,0.6,0.6c0.4-0.1,0.4-0.3,0.5-0.4
	c0.1-0.2,0-0.3,0-0.5c0-0.1,0-0.2,0-0.3C197,320.2,196.9,320.2,196.9,320.1z"/>
<path id="XMLID_17424_" class="st1" d="M198.8,325.9c0,0.1-0.1,0.2-0.1,0.3c-0.1,0.2-0.2,0.4-0.1,0.6c0.1,0.4,0.6,0.5,0.9,0.7
	c0.1,0.1,0.1,0.2,0.2,0.3c0.3,0.2,0.7,0.3,1.1,0.6c0.2,0.2,0.8,0.6,0.2,1.4c-0.2,0.2-0.3,0.4-0.2,0.5c0.3,0.5,1.7,1.2,2,0.4
	c0,0,0.1-0.7-1.1-3.1c-0.7-1.4-0.5-1.5-0.4-1.5c0,0,0,0,0,0c-0.5-0.8-2.1-0.9-2.2-0.9C198.8,325.1,198.9,325.7,198.8,325.9z"/>
<path id="XMLID_17423_" class="st1" d="M184.5,324.7c0.2,0.4-0.2,0.8,0,1.1c0.2,0.4,0.7,0.5,1.1,0.7c0,0,0.1,0,0.1,0
	c0.1,0.1,0.3,0.1,0.4,0.1c0.4,0,1.1-0.2,1.2-0.6l0,0c0.1-0.4-0.7-2.5-1.2-3.1c-0.5-0.4-2.5-0.7-2.7-0.7c-0.8,0-0.4,1.1-0.4,1.1
	c0,0.1,0.1,0.1,0.3,0.2C184.2,324.2,184.4,324.4,184.5,324.7z"/>
<path id="XMLID_17422_" class="st1" d="M182.2,320.8l-0.8-0.4l-0.2,0.8c0.4,0,0.8,0,1.2,0L182.2,320.8z"/>
<path id="XMLID_17421_" class="st1" d="M187.3,321.8c0.1,0.2,0.2,0.4,0.3,0.6c0.1,0.2,0.1,0.2,0.1,0.3c0,0.1,0,0.2,0.1,0.3
	c0.1,0.2,0.4,0.2,0.7,0.2l0.4-0.8c-0.6-1.1-0.6-1.1-0.7-1.1l-0.7,0.2c-0.1,0-0.1,0-0.1,0.1C187.3,321.6,187.3,321.7,187.3,321.8
	C187.3,321.7,187.3,321.7,187.3,321.8z"/>
<path id="XMLID_17420_" class="st1" d="M190.6,326.4c0.2,0.1,0.4,0,0.5-0.2c0-0.3,0-0.5-0.1-0.8c-0.5-0.4-0.5-0.4-0.7-0.5
	c0,0-0.7,0-0.6,0.3c0,0.1,0.1,0.2,0.1,0.3l0.6,0.7C190.6,326.3,190.6,326.4,190.6,326.4z"/>
<path id="XMLID_17419_" class="st1" d="M196.4,328.4L196.4,328.4c0-0.2-0.4-1-0.5-1.2c0,0,0,0,0,0c-0.2-0.1-0.4,0-0.6,0
	c-0.3-0.1-0.3-0.1-1.1-0.7c0,0-0.8-0.6-1-0.6c0,0,0,0,0,0.1c0,0.1,0,0.1-0.1,0.2c0,0.5,0.1,1,0.1,1.5c0.4-0.1,1.3-0.3,1.7-0.2
	c0.1,0,0.2,0.1,0.1,0.2c0,0.1-0.1,0.3,0.1,0.5C195.3,328.6,196.4,328.8,196.4,328.4z"/>
<path id="XMLID_17418_" class="st1" d="M189.9,333.7c0.2,0.1,0.4-0.2,0.5-0.4c0.4-0.7,0.5-0.8,0.8-0.9c0,0,0,0,0,0c0,0,0,0,0,0
	c0,0,0,0,0,0c0,0,0,0,0,0c0,0,0,0,0,0c0,0,0,0,0,0c0,0,0,0,0,0s0,0,0,0c0.2,0,0.3,0,1.3-1.2c0.4-0.4,0.4-0.4,0.5-0.6
	c0.2-0.2,0.2-0.6,0.3-0.9c-0.4,0.1-1.2,0.2-1.4-0.3c-0.1-0.1-0.2-0.3-0.3-0.5c0,0-0.1-0.1-0.1-0.1c-0.4-0.3-1,0-1.4-0.2
	c-0.5-0.2-0.2-1-0.8-1.2c-0.6,0.1,0,0.9,0.3,1.3c-0.1,0.3-0.2,0.7-0.2,1c0.5,0.8,0.5,0.8,0.2,1.4c-0.4,0.6,0.2,1.1,0.2,1.6
	c0,0.2-0.1,0.4-0.1,0.7C189.7,333.5,189.8,333.7,189.9,333.7z"/>
<path id="XMLID_17417_" class="st1" d="M192,333.2l-0.2,0.9c0.2,0,0.3,0,0.5,0L192,333.2z"/>
<path id="XMLID_17416_" class="st1" d="M191.8,336.9c0,0,0.7,1,0.7,1c0.2,0.1,0.4,0.2,0.7,0.3c0.3,0.1,0.7,0.2,0.8,0.3
	c0.3,0.2,0.4,0.4,0.6,0.6c0.3-0.1,0.6-0.2,0.9-0.3c0-0.1,0.1-0.2,0.1-0.2c0,0,0-0.1,0-0.1c0-0.1,0-0.2-0.3-0.7
	c-0.4-0.7-0.7-2.1-0.7-2.1c-0.1-0.6,0-0.8,0.2-1.2c0.2-0.4,0-1.1,0-1.3c-0.1-0.3-0.2-0.9-0.6-1c-0.1,0-0.2,0.2-0.3,0.2
	c-0.3,1.6-0.3,1.6-0.7,2.2c-0.2,0.3-0.1,0.6-0.3,0.9c-0.3,0.8-0.6,0.9-0.7,1C191.8,336.6,191.8,336.6,191.8,336.9z"/>
<path id="XMLID_17415_" class="st1" d="M196.8,331.4c-0.2,0.3-0.1,0.7-0.2,1c-0.2,0.9-0.5,1-0.6,1c-0.1,0-0.2,0-0.2,0.1
	c-0.1,0.2,0,0.5-0.1,0.7c-0.1,0.2-0.2,0.4-0.3,0.6c0,0.1,0,0.3,0,0.4c0,0.1,0,0.2,0,0.2c0,0.1,0,0.1,0,0.2c0,0.1,0,0.1,0,0.2
	c0,0.1,0,0.1,0,0.2c0,0,0,0.1,0,0.1c0,0,0,0.1,0,0.1c0,0,0,0.1,0,0.1c0,0,0,0.1,0,0.1c0,0.2,0.1,0.3,0.2,0.3c0.2,0.2,0.3,0,0.3,0
	c0.2-0.4,0-0.8,0.1-1.2c0.1-0.5,0.6-0.8,0.7-1.2c0.1-0.3,0-0.6,0.2-0.9c0.1-0.2,0.3-0.4,0.4-0.7c0-0.1,0.1-0.6,0.1-0.9
	c0-0.4,0-0.6-0.1-0.8C197,331.1,196.8,331.4,196.8,331.4z"/>
<path id="XMLID_17414_" class="st1" d="M198.7,331.8l1.1,0.3c0.2,0.4,0.4,0.8,0.5,1.2c0.2,0.6,0.2,1.2,0.3,1.8c0,0,0,0.1,0,0.1
	c0,0,0.1,0.1,0.2,0.1c0.2-0.1,0.2-0.4,0.4-0.5c0.2,0,0.5,0,0.7,0c0-0.4-0.1-0.8-0.1-1.2c-0.1-0.1-0.1-0.1-0.2-0.3
	c-0.2-0.4-0.3-0.6-0.6-0.8c-0.1-0.1-0.3-0.2-0.4-0.4c-0.2-0.3-0.4-0.6-0.6-0.9c-0.1-0.1-0.1-0.2-0.2-0.2c0,0-0.4-0.5-0.7-0.5
	c-0.2,0-0.4,0.1-0.6,0.1h0h0h0h0h0h0h0h0c0,0-0.1,0-0.1,0C198.4,330.9,198.3,331.1,198.7,331.8z"/>
<path id="XMLID_17413_" class="st1" d="M197.7,335.6c-0.2,0.1-0.4,0-0.6,0.1c-0.1,0-0.1,0.1-0.1,0.2c0,0-0.1,0.4,0.1,0.6
	c0.1,0.2,0.4,0.3,0.6,0.4c0.1,0.1,0.2,0.2,0.3,0.3c0.6,0.5,1.1-0.3,1.1-0.8c0-0.3-0.3-1.5-0.6-1.5
	C198.1,335.1,198.1,335.5,197.7,335.6z"/>
<path id="XMLID_17412_" class="st1" d="M181.7,326.9l-0.4-0.5l-0.6,0.5l0.4,0.7c-0.1,0.2-0.2,0.5-0.3,0.7c0.1,0.2,0.2,0.3,0.3,0.5
	c0,0.1,0.1,0.2,0.1,0.3c0,0.1,0,0.2,0.1,0.2c0.1,0,0.4-0.3,0.7-0.6c0.2-0.2,0.2-0.2,0.4-0.3l0.6-0.3L181.7,326.9z"/>
<path id="XMLID_17411_" class="st1" d="M178.4,336.5c0-0.1,0.1-0.3,0.1-0.4c0.1-0.7,1.2-0.7,1.2-0.7c0,0.1,0,0.1,0,0.2
	c0.2-0.4,0.2-1,0.5-1.4c0.4-0.1,1,0.6,1.1,0.1c0-0.1,0-0.1-0.6-1.2c-0.3-0.6,0-1.2-0.2-1.8c0,0-0.2-0.4-0.4-0.5
	c-0.3,0-0.5,0.8-0.5,0.8c-0.1,0.4,0,0.9-0.1,1.3c0,0.2-0.2,0.4-0.2,0.6c0,0,0,0.1,0,0.1c-0.3,0.3-0.6,0.6-0.9,0.9
	c0.4,0.5,0.2,0.7-0.1,1c0,0-0.7,0.8-0.9,1.3c-0.1,0.4-0.4,0.9-0.4,1.3c0,0.2-0.1,0.2-0.1,0.3c-0.4,0.4-1,0.1-1.4,0.4
	c-0.2,0.3-0.4,0.6-0.6,0.9c-0.1,0.3-0.2,0.6-0.3,0.8c-0.1,0.3-0.8,0.5-0.4,0.8c0.1,0,0.7-0.1,1.1-0.9c0.3-0.5,0.8-0.5,1.2-0.9
	c1.1-1,1.1-1,1.3-1.4c0.1-0.2,0-0.5,0.1-0.7C178.2,337.1,178.4,336.9,178.4,336.5z"/>
<path id="XMLID_17410_" class="st1" d="M181.9,334.2c0,0.1,0.1,0.1,0.1,0.2c0.3,0.3,0.9,0.2,0.9-0.2v0l-0.6-0.5
	C182.2,333.8,182,334,181.9,334.2z"/>
<path id="XMLID_17409_" class="st1" d="M174.5,343.5c0-0.1,0-0.1-0.3-0.4c-0.3,0.5-0.3,0.5-0.3,0.6c0,0.2,0,0.4,0.2,0.5
	c0,0,1.3,1,1.2,0.1c0-0.2-0.1-0.2-0.1-0.3c-0.2-0.2-0.4-0.1-0.6-0.2C174.5,343.7,174.5,343.7,174.5,343.5z"/>
<path id="XMLID_17408_" class="st1" d="M205.1,346.2c0.5,0.1,1.1,1.7,1.2,2.6c0,0.3,0.1,0.5,0.2,0.6c0.2,0.4,0.6,0.5,0.7,0.4
	c0,0,1.2-3,1.2-3.1c0,0,0-0.1,0-0.1c0,0,0-0.1,0-0.1c-0.3,0-0.3,0-0.4-0.1l-0.9-3c-0.1-0.7-0.8-1.1-1-1.7c0,0,0,0,0.4-0.8
	c-0.3-1.5-0.3-1.5-0.8-1.9c-0.4-0.3-0.9-0.7-1.1-1c-0.1-0.2-0.2-0.4-0.4-0.6c0-0.1-0.1-0.1-0.1-0.2c-0.5-0.5-1.4-0.6-1.4-0.6
	c-0.1,0-0.1,0-0.2,0c-0.3,0.6,0.4,1,0.3,1.6c-0.1,0.4-0.5,0.6-0.5,1.1c0,0.3,0.3,0.4,0.4,0.7c-1.1-0.2-1.1-0.2-1.3-0.3
	c-0.1-0.1-0.2-0.2-0.4-0.2c0,0-0.6-0.1-0.5,0.3c0.4,1.9,0.4,1.9,0.3,2c-0.4-0.2-0.5-0.7-0.9-0.8c-0.3,0.4,0,1-0.3,1.4
	c-0.1,0.1-1.5,1.5-1.8,1.3c-0.3-0.1-0.2-0.6-0.1-1.3c0.1-0.4,0.1-0.8,0-1.2c-0.1-0.5-0.2-0.9-2.8,0.7c-0.5,0.3,0.2,1-0.4,1.3
	c-1.1,0.5-1.8,1.1-1.8,1.1c-0.1,0.1-0.1,0.1,0,1c0.1,0.6-0.6,0.6-0.8,1c-0.4,0.7,0.2,1.1,0.6,1.3c0.4,0.2,0.3-0.6,0.5-0.8
	c0,0,0,0,0.4-1.4c0.2-0.8,0.2-0.8,1.2-1l0.4,1.2c0.2-0.1,0.4-0.1,0.6-0.2c0.3,0.9,1.1,0.8,1.1,0.8c0.6-0.2-0.3-0.9,0.2-1.2
	c0.7-0.5,2.2,0.1,2.9,1.1c0.3,0.4-0.2,0.7-0.1,1.1c0.1,0.5,0.5,0.8,0.6,1.3c0,0,0,0.1,0,0.1c0,0.2,0,0.2-0.1,0.8
	c0,0.3,0,0.6,0.1,0.7c0.3,0.4,0.7,0.5,1,0.8c0.2,0.3,0.3,0.7,0.5,1c0,0,0.1,0.1,0.1,0.1c0.2,0.1,2,0.1,2.4-0.2l0.9-1.2
	c0.1-0.4-0.3-1.3-0.4-1.5c-0.2-0.3-0.8-0.3-0.7-0.8c0-0.6,0.7-0.8,0.8-1.4C205,346.3,205,346.3,205.1,346.2z"/>
<path id="XMLID_17407_" class="st1" d="M191.8,349.7c0.9,0.8,1-0.7,1-0.7l0,0c0-0.4-0.3-0.6-1-0.6c-0.4,0-0.7,0.1-0.5,0.4
	C191.7,349.7,191.7,349.7,191.8,349.7z"/>
<path id="XMLID_17406_" class="st1" d="M197.1,339.2c0.2,0,0.3,0.1,0.4,0.2c0,0,0,0,0.1,0c0.1,0,0.2-0.3,0.2-0.4
	c0-0.3-0.2-0.7-0.5-0.8c-0.2,0-0.6,0.5-0.6,0.5c-0.1,0.2-0.2,0.3-0.1,0.3c0,0,0.1,0.1,0.1,0.1C196.9,339.1,197,339.1,197.1,339.2z"
	/>
<path id="XMLID_17405_" class="st1" d="M204,336.6c0.1-0.3,0.3-0.8,0.2-1.2c0,0-0.5-1.8-0.7-1.8c-0.3,0.1-0.4,1.2-0.4,1.4l0.6,1
	L204,336.6z"/>
<path id="XMLID_17404_" class="st1" d="M205.8,335.3c0,0-0.3,0-0.3,0.2c0,0.2,0.1,0.3,0.1,0.5c0,0.2,0,0.4,0,0.6c0,0,0,0,0,0.1
	c0,0.1,0,0.2,0.1,0.3c0.1,0.1,0.4-0.4,0.4-0.4c0.1-0.2,0.1-0.2,0.1-0.7C206.2,335.7,206.1,335.4,205.8,335.3z"/>
<path id="XMLID_17403_" class="st1" d="M147.8,386.8c-0.1-0.6,0.6-0.7,0.8-1.1c0,0,0-0.1,0-0.1c-0.7-0.7-1.8-0.8-2.5-1.5
	c-0.4-0.4-0.8-0.8-1.3-2.1c-0.5-1.5-0.3-3.1-1-4.5c0-0.1-0.3-0.5-1.1,0.3l-2.8-0.7c-0.9-1.3-1.5-2.7-2.2-4.1
	c-0.6-1.1-2.6-0.2-2.8-1.8c-0.5-3.2-5.6-2.1-5.5-5.8c0-0.4-0.1-0.5-0.3-0.7c-0.8-0.7-2-0.1-2.8-0.9c-0.7-0.7-0.7-1.8-1.5-2.4
	c-2-1.4-4.4-2.1-6.4-3.6c-1.2-0.9-1.5-2.4-2.7-3.4c-0.9-0.7-2.1-0.1-3-0.5c-1.1-0.5-2-1.5-3.2-1.9c-0.2-0.1-0.4-0.1-0.5-0.1
	c0,0-0.1,0.1-0.1,0.1c0,0.9,0.2,3.9,4.2,6.1c1.3,0.7,1.9,1,4.4,4.8c1.4,1.3,1.4,1.3,1.8,1.3c0-0.1,0.1-0.1,0.2-0.2
	c1.2,0.7,1.2,0.7,6.6,8.3c2.1,3,4.8,5.6,7.1,8.6c0.5,0.6,0.6,0.9,1,1.7c2.1,5.3,9.8,8.6,10.8,8.8c0.4,0.3,0.9,0.7,1.4,1
	c1-0.5,1-0.5,2.8,0c0-1.2,0-2.5,0-3.7C149,388.1,147.9,387.7,147.8,386.8z"/>
<path id="XMLID_17402_" class="st1" d="M148.4,382c-0.1-0.1-0.2-0.3-0.2-0.5c0,0,0-0.1,0-0.2c-0.2-0.2-0.6-0.2-0.8-0.5
	c0,0-0.1-0.1-0.1-0.1c0-0.1,0-0.2,0-0.3c0-0.3,0-0.4-0.2-0.7c-0.2-0.4-0.2-0.4-0.3-0.5c0-0.2,0-0.3,0-0.5c0,0-0.7,0.4-1.1,1
	l-0.5-0.1l0.6,1.2c0.4,0.2,0.9,0.6,1.2,0.8c0,0.2-0.1,0.4,0,0.6c0.1,0.3,0.1,0.3,0.3,0.5c0.3,0.3,0.7,0.3,1.1,0.5
	c0.3,0.2,0.5,0.5,0.8,0.7c0,0,0.1,0.1,0.2,0.1c0,0,0.4,0.2,0.6,0.1c-0.1-0.5-0.3-1-0.4-1.5C148.8,382.4,148.5,382.1,148.4,382z"/>
<path id="XMLID_17401_" class="st1" d="M153.2,381.8c0,0-0.2-0.1-0.4-0.1c-0.1,0-0.1,0-0.2,0.1c-0.2,0.1-0.3,0.2-0.8,0.3
	c0.1,0.2,0.1,0.4,0.2,0.6c0.1,0.2,0.3,0.6,0.2,0.8c-0.1,0.1-0.1,0.4,0.1,0.5c0.2,0.2,2.3,0.5,2.4,0.5c0.1,0,0.3-0.3,0.3-0.7
	c0-0.3-0.2-0.5-0.3-0.6c-0.3-0.3-0.3-0.3-1.1-0.6c-0.3-0.1-0.3-0.3-0.3-0.6C153.4,382,153.3,381.9,153.2,381.8z"/>
<path id="XMLID_17400_" class="st1" d="M142.5,375.2C142.5,375.3,142.5,375.3,142.5,375.2c0.1,0.1,0.4,0,0.3-0.4
	c0-0.2-0.1-0.4-0.2-0.5l-1.4-0.7c0,0,0,0,0,0c-0.1,0-0.3,0.2,0,0.5c0.1,0.1,0.2,0.2,0.4,0.3c0,0,0.3,0.2,0.5,0.4
	C142.3,375.1,142.4,375.2,142.5,375.2z"/>
<path id="XMLID_17399_" class="st1" d="M141.5,375.3c0,0-0.1,0-0.1,0c0.1,0.3,0.2,0.6,0.2,0.9c0.1,0,0.3,0,0.4,0c0-0.1,0-0.1,0-0.2
	C141.8,375.5,141.7,375.3,141.5,375.3z"/>
<path id="XMLID_17398_" class="st1" d="M135.9,369c0-0.2-0.2-0.2-0.3-0.2c-0.1,0-0.5,0.1-0.5,0.1c-0.4,0.1-0.4,0.2-0.3,0.4
	c0.1,0.2,0.8,1.5,1.1,1.7c0.1,0.1,0.3-0.2,0.3-0.4c0-0.2-0.1-0.2-0.3-0.2c-0.1,0-0.1-0.1-0.1-0.2C135.8,369.6,136,369.3,135.9,369z"
	/>
<path id="XMLID_17397_" class="st1" d="M120.4,369.2c0-0.2-0.2-0.3-0.3-0.5c0-0.1-0.1-0.2-0.2-0.3c0,0-0.1-0.1-0.1-0.1
	c-0.1-0.1-0.1-0.2-0.2-0.3c-0.1-0.1-0.3-0.4-0.5-0.4c-0.1,0-0.2,0-0.2,0.2c-0.1,0.3,0.1,0.6,0.2,0.8c0,0.1,0,0.3,0.1,0.4
	c0.1,0.3,0.2,0.5,0.2,0.5c0.2,0.4,0.4,0.3,0.5,0.2c0.3,0.4,0.6,0.6,0.7,0.7c-0.1-0.3-0.2-0.7-0.3-1
	C120.3,369.4,120.4,369.3,120.4,369.2z"/>
<path id="XMLID_17396_" class="st1" d="M126.1,377.3c-0.1-0.1-0.1-0.2-0.1-0.4c0-0.1,0-0.1,0-0.2c-0.1-0.1-0.2-0.1-0.3-0.1
	c-0.1,0-0.3,0-0.4,0L125,377c0.1,0.4,0.3,0.8,0.4,1.3c0.3,0.1,0.6,0.3,0.9,0.4c-0.1,0.3,0,0.6,0.1,0.7c0,0,1,0.3,1-0.1
	c0-0.2-0.2-0.5-0.4-1C126.6,377.9,126.4,377.6,126.1,377.3z"/>
<path id="XMLID_17395_" class="st1" d="M131.8,383.3c0,0-0.1-0.1-0.1-0.1c-0.1-0.2-0.2-0.4-0.3-0.5c0,0,0-0.1-0.1-0.1
	c-0.2-0.2-0.4-0.2-0.6-0.3c-0.1,0-0.2,0-0.3,0c0,0.1-0.1,0.3,0,0.5c0,0.1,0.1,0.1,0.2,0.1c0.1,0,0.2,0.1,0.5,0.4
	c0.2,0.2,0.4,0.5,0.7,0.7c0,0,0,0,0,0c0.2,0,0.4,0,0.6,0c0-0.1-0.1-0.3-0.3-0.5C132,383.4,131.9,383.4,131.8,383.3z"/>
<path id="XMLID_17394_" class="st1" d="M114.2,363.7c0-0.2-0.2-0.3-0.3-0.4l-0.7-0.7c-0.1-0.1-0.1-0.1-0.2-0.1c0,0,0,0,0,0
	c-0.3,0.1-0.3,1.1,0.4,1.6C114,364.5,114.3,364,114.2,363.7L114.2,363.7z"/>
<path id="XMLID_17393_" class="st1" d="M103.3,346.8c-0.1-0.2-0.2-0.4-0.3-0.6c-0.1-0.1-0.1-0.2-0.2-0.2c-0.1,0-0.1,0.2-0.2,0.2
	c0.3,0.6,0.7,1.4,0.9,2c0.2,0,0.4-0.1,0.4-0.3c0-0.1-0.1-0.3-0.2-0.4C103.6,347.3,103.5,347,103.3,346.8z"/>
<path id="XMLID_17392_" class="st1" d="M96.5,333.2c-0.1-0.2-0.2-0.4-0.3-0.6c-0.1-0.1-0.1-0.1-0.1-0.1c-0.1,0-0.1,0.1-0.2,0.5
	c0,0.1,0,0.2-0.1,0.2c0,0-0.1,0.1-0.1,0.1c0,0,0,0.1,0,0.2c0,0.3,0.3,0.8,0.5,1c0.3,0.2,0.9,0.1,0.8-0.2c0-0.1-0.1-0.2-0.1-0.3
	C96.8,333.7,96.6,333.4,96.5,333.2z"/>
<path id="XMLID_17391_" class="st1" d="M95.4,326c0.1-0.3-0.2-0.6-0.2-0.9c0-0.5,0.3-0.9,0.3-1.4c0,0,0-1.4,0-1.5
	c0-0.2,0-0.3-0.1-0.3l0,0c-0.5,0.1-1.8,3.5-0.5,4.4C95.3,326.6,95.4,326,95.4,326z"/>
<path id="XMLID_17390_" class="st1" d="M96.1,329.7c0-0.4-0.3-1.1-0.4-1.3c0.1-0.3,0.1-0.6,0.1-0.7c0-0.2,0-0.2-0.1-0.3l0,0
	c-0.1,0-0.6,1.4-0.6,1.8c0,0.4,0.4,1.8,0.7,1.9C96,331.1,96.1,330.1,96.1,329.7z"/>
<path id="XMLID_17389_" class="st1" d="M175.3,399.7c-1.5-0.9-3.6,0.8-4.8-1.2l-1.5-1.8c-0.4-0.3-1-0.7-1.3-0.9
	c-0.2-0.1-0.5-0.3-0.8-0.3c-2.3-0.5-2.3-0.5-2.4,0.4c0,0.7,0,0.8-1.4,0.7c-5.9-0.2-5.9-0.2-6.1-0.4c-0.1-0.1-0.2-0.2-0.4-0.2
	c0-0.1,0-0.1,1-1.2c0,0,0-0.1,0-0.2c-0.6-0.5-4.5-1.8-5.5-1.9c-0.1,0-0.2,0-0.5,0.2c-0.7,0.5-3.9,2.8,0.8,3.9
	c-0.3,0.1-0.6,0.3-0.9,0.5c1.9,0.9,1.9,0.9,2.1,1.1c1.2,0,2.4,0,3.7,0l1.1,0.6c0.5,0.2,1.1,0.4,1.5,0.6c0.3-0.2,0.8-0.4,1.5,0
	c1.6,0.9,4.1,1.3,4.6,1.4c1.7,0.2,3.4,0.7,5.1,0.9c0.7,0.1,1.5-0.1,2.2-0.1c0.1,0,0.1,0,0.2,0c0.2,0,0.4,0.1,0.7,0.2
	c1.1,0.4,1.8,0.6,2,0.5c0,0,0,0,0,0c-0.4-0.8-1-1.8-1.4-2.6C175.2,399.9,175.2,399.9,175.3,399.7z"/>
<path id="XMLID_17388_" class="st1" d="M172.6,398.1c0.1,0,0.1,0,0.2,0c0.1,0,0.2,0,0.2,0c0.1,0,0.2,0,0.2,0c0.1,0,0.2,0,0.2,0
	c0.1,0,0.2,0,0.2,0c0.1,0,0.2,0,0.2,0c0.1,0,0.2,0,0.2,0c0.1,0,0.2,0,0.2,0c0.1,0,0.1,0,0.2,0c0.1,0,0.1,0,0.2,0c0.1,0,0.1,0,0.2,0
	c0.1,0,0.1,0,0.2,0c0,0,0.1,0,0.1,0c0,0,0.1,0,0.1,0c0,0,0,0,0.1,0c0,0,0,0,0,0c-1-0.7-1.6-1-1.8-1c-0.1,0-0.1,0-0.2-0.1
	c-0.4-0.1-0.6,0-0.8,0.1c-0.1,0-0.2,0.1-0.2,0.1c-0.2,0-0.6-0.2-1.1-0.5c-0.3-0.2-0.3-0.2-0.4-0.2c0,0,0,0,0,0
	C170.9,396.6,171.5,398,172.6,398.1z"/>
<path id="XMLID_17387_" class="st1" d="M179.3,400.4c-0.3-0.1-0.9-0.2-1.5-0.4c-0.5,0-0.9,0-1.3,0c-0.6,0.7-0.1,1.1,1.3,1.8
	c0.1,0.3,0.2,0.5,0.3,0.6c0.2,0.2,0.4,0,0.5-0.1c0.2-0.2,0.3-0.4,0.4-0.6c0.2-0.2,0.4-0.3,0.5-0.5c0,0,0-0.1,0.1-0.1
	c0,0,0.1-0.2,0.1-0.3C179.7,400.5,179.6,400.4,179.3,400.4z"/>
<path id="XMLID_17386_" class="st1" d="M181.8,401.3C181.8,401.3,181.8,401.3,181.8,401.3c-0.1,0-0.8,0.2-1,0.5
	c0,0.1-0.1,0.5-0.1,0.5c0,0.1,0.1,0.2,0.1,0.2c0.1,0.1,1.1,0.4,1.3,0.2c0.1,0,0.1-0.1,0.1-0.2c0-0.7,0-1,0-1.1
	C182.1,401.4,182,401.3,181.8,401.3z"/>
<path id="XMLID_17385_" class="st1" d="M187.8,403.1c0.5-0.1,0.9-0.3,1.4-0.3c0.7,0,0.7,0,1,0c0.1,0,0.3-0.1,0.4-0.1
	c0,0,0-0.1,0-0.1l-1.3-1.3c0,0-0.1,0-0.1,0c-0.1,0-0.1,0-0.1,0.1c-0.1,0.2-0.1,0.2-0.4,0.1c-1.3-0.6-1.3-0.6-1.6-0.6
	c0,0-0.9,0.1-1,0.2c-0.1,0.1-0.1,0.3,0.4,0.7c0.1,0.2,0.3,0.4,0.5,0.5c0,0-1.5,0.2-1.9-0.4c-0.2-0.3-0.4-0.5-0.9-0.4
	c-0.7,0.2-0.2,1-0.3,1.6c-0.1,0.2,0.3,0.3,0.5,0.3c0.4,0,0.8-0.2,1.2-0.2c0.4,0,0.8,0.1,1.2,0.1
	C186.7,403.2,187.8,403.1,187.8,403.1z"/>
<path id="XMLID_17384_" class="st1" d="M197.5,402.9c0.5-0.1,0.9-0.4,1.4-0.5c0.6-0.1,1.2,0,1.8-0.3c1.2-0.5,1.5-0.9,1.4-1.6
	c0-0.2-0.1-0.2-0.1-0.2c-0.1,0-0.2,0-0.4,0.3c-0.1,0.2-1.2,1.1-2,1.3c-0.7,0.2-1.1-0.6-1.7-0.7c-0.2,0-0.3,0.1-0.4,0.2
	c-0.2,0.3-0.2,0.3-0.8,0.2c-0.9-0.1-1.7-0.4-2.6-0.5c-0.1,0-0.1,0-0.2,0c-0.3,0-1.1,0.5-1.2,0.7c0,0-0.7,1.8,1.2,1.1
	c0.2,0,0.5,0,0.7,0c0,0,1-0.4,2-0.1C197.2,402.9,197.3,402.9,197.5,402.9z"/>
<path id="XMLID_17383_" class="st1" d="M191.1,404.8c-0.4,0-0.4,0.1-0.5,0.1c0,0,0,0.1,0,0.1c0.2,0.1,0.2,0.1,1.6,0.6
	c0.4,0.1,0.4,0.5,0.7,0.8c0.6,0.5,1.4,0.1,2,0.3c0.6,0.2,0.5,0.9,1,1.1c0.1,0,0.2,0.1,0.2-0.4c0-0.1-0.1-0.6-0.4-0.9
	c-0.4-0.4-0.9-0.7-1.4-1.1c-0.6-0.9-0.6-0.9-1-1.1c-0.3-0.1-0.3,0-0.3,0.2c0,0.2,0,0.3-0.2,0.3c-0.5,0-0.7-0.5-1.2-0.5
	C191.5,404.4,191.3,404.5,191.1,404.8z"/>
<path id="XMLID_17382_" class="st1" d="M212.4,403.9c0.5-0.2,0.8-0.5,1.2-0.7c0.5-0.2,1-0.2,1.4-0.4c0,0,0.1,0,0.1-0.1
	c0.1,0,0.1-0.1,0.1-0.2c0,0,0.1-0.8-0.7-0.9c-0.2,0-0.3,0-0.6,0.2c-0.5,0.3-1.3,0.7-2.2,0.8c-0.6,0.1-1.3-0.2-1.9,0c0,0,0,0-0.1,0
	c-0.1,0-0.1,0.1-0.2,0.1c-0.1,0.1-0.2,0.2-1.8,0.8c-1,0.4-1,0.4-1.3,0.4c-0.3,0-0.4,0-0.5,0.1c-0.1,0-0.1,0.1-0.1,0.2
	c0,0.1,0,0.3-0.1,0.4c0,0-0.1,0.1-0.1,0.1c-0.2,0.4-0.6,0.6-0.9,0.9c-0.2,0.3-0.1,0.7-0.3,0.9c-0.7,0-0.7,0-0.7,0
	c0,0.2,0.8,1.8,2.4,1.4c0.6-0.2,0.1-0.8,0.4-1.2c0.1-0.1,0.1-0.1,0.7,0c1.2,0.2,1.3-1.2,2-1.8c-0.1-0.1-0.2-0.1-0.2-0.2
	c0.3-0.3,2.1-0.7,2.2-0.7C212.2,404,212.4,403.9,212.4,403.9z"/>
<path id="XMLID_17381_" class="st1" d="M203.3,409.6c0.1,0,0.2,0,0.3,0c0.2-0.1,0.3-0.3,0.4-0.4c0.2-0.1,0.4-0.2,0.5-0.4
	c0,0,0.1-0.1,0-0.3l0,0c-0.1-0.5-0.4-0.5-0.5-0.5c-0.4,0-0.5,0.2-0.6,0.5c-0.1,0.3-0.3,0.6-0.8,0.4c0,0,0,0,0,0
	c-0.1,0-0.1,0.3,0,0.4C202.7,409.4,203.3,409.6,203.3,409.6z"/>
<path id="XMLID_17380_" class="st1" d="M203.4,401.6c-0.4,0.3-0.2,0.5,0.5,0.6h0h0c0,0,0,0,0,0h0h0h0h0h0c0.2,0,0.4,0,0.7-0.2
	c0.1-0.1,0.2-0.2,0.2-0.2c0.1-0.1,0.1-0.2,0.1-0.3c0-0.1,0.1-0.2,0.2-0.2c0,0,0-0.1,0-0.1c0-0.1,0-0.1-0.2-0.2
	C204.5,400.9,203.7,401.3,203.4,401.6z"/>
<path id="XMLID_17379_" class="st1" d="M207.4,402c0.3-0.4,0.9-0.6,1.3-0.8c0-0.1-0.1-0.1-0.3-0.2c-0.2-0.1-1.3-0.3-1.3-0.3
	c0,0,0,0-0.1,0c0,0.1,0,0.1,0.1,0.3c0.2,0.3,0.2,0.5,0.1,0.6c-0.1,0.3-0.5,0.4-0.8,0.5C207,402.7,207.4,402.1,207.4,402z"/>
<path id="XMLID_17378_" class="st1" d="M179.9,367.1c-0.8-0.6,0.2-1.5-0.2-2.2c-0.5-0.8-1.2-1.5-1.5-2.4c-0.1-0.2-0.1-0.3-0.2-1.1
	l-0.6-1l0.8-0.3c-0.5-1.5-0.5-1.5-0.2-2.1c1-0.2,2,0,2.9-0.3c0-0.1,0-0.2,0-0.2c-0.7-0.6-1.8-0.5-2.4-1.2c0.7-1.4,3.1-0.6,3.4-2.6
	c0-0.7-2.1-1.2-2.8-1.4c-1.3-0.3-0.7-1.8-1.5-2.4c-0.7-0.5-1.5-0.8-2.3-1.3c-0.3,0-0.8,0.2-1,0.9c-1.3,0.5-1.3,0.5-1.4,0.9
	c-0.3,2.1-0.3,2.1-0.6,2.3c-2.1,1.5-2.1,1.5-2.1,1.7c-0.1,1-0.2,1.2-1.2,1.3c-0.3-0.3-0.3-0.3-0.6-0.3c-0.5,0.6-1.2,1-1.8,1.5
	c-0.1,0.1-0.1,0.2-0.2,0.3c-0.2,0.7,0,1.4-0.3,2c-0.3,0.5-0.8,0.7-1.4,0.9c-1.2,0.4-0.5,1.9-1.4,2.5c-0.8,0.5-1.7-0.2-2.5,0.4
	c-0.1,0.1-0.1,0.1-0.2,0.2c-0.4,0.6-0.2,1.3-0.4,2c-0.2,0.6-0.8,1.1-0.7,1.9c0.1,0.9-0.1,1.1-0.3,1.4c-1.9,0.2-3.5-3.7-5-1.7
	c-0.9,1.2-0.4,2.6-0.8,3.9c-0.2,0.5-0.3,1,1.1,1.7c1,0.5,1,0.5,0.7,1.6c0.1,0.1,0.1,0.1,0.2,0.2c0.9,0,0.9,0,1.1,0.1
	c0.2,0.8-0.8,1.3-0.5,2.1c0.4,1.1,1.8,1.1,2.4,2c0.3,0.5-0.6,0.9-0.2,1.5c0,0,0.9,1.2,1,1.4c2,2.2,2,2.2,2.1,2.3
	c1.1,0.4,2.1-0.3,3.2-0.3c0.5,1.2,1.7,1.9,2.3,3.1c0,0,1.5,2,1.8-1.1c0-0.4,0.1-0.8,1.6-0.3l3.5,2c-0.1,0.3-0.1,0.3-0.4,0.8
	c0.1,0.1,0.1,0.1,0.2,0.2c0,0,2.9,0.9,4.2-2c0.3-0.6,0.3-0.8,0.2-1.2l-0.7-5c0.6-0.6,1.4-0.5,2.1-0.8c0.2-0.8-0.9-1.2-0.5-2
	c0.4-0.7,1-1.2,1.1-2c0-0.1,0-0.2,0-0.3c0,0,0-0.3-0.2-1c-0.3-0.8-0.4-1.1,1-2.6c2.6-0.9,2.6-0.9,2.3-1.8
	C182.8,367.4,181,367.8,179.9,367.1z"/>
<path id="XMLID_17377_" class="st1" d="M205.3,368.2c0-0.2,0.1-0.7-1.2-0.8c-0.2,0-0.7,0-0.9,0.3c-0.4,0.3-0.4,0.8-0.7,1.2
	c0,0-1,1.1-2.8,1.6c-1.2,0.4-1.2,0.4-3.5-0.2c-1-0.3-1.9-0.9-2.9-1c-0.5-0.1-1,0-1.4-0.2c-0.3-0.1-0.4-0.6-0.8-0.6
	c-0.4,0-0.7,0.8-0.9,1.2c-0.1,0.4-0.1,0.4-1.1,0.6c0,0-1.6,0.4-1.7,0.5c-0.9,0.5-0.1,2.3,0.4,3.5c0.5,1.2,0.6,1.4,0.5,1.9
	c-0.1,0-0.2,0.1-0.3,0.1c-1.1-0.9-1.1-0.9-1.3-0.9c-0.4,0.4-0.4,0.4,0,5.3c0,0.6-0.7,0.7-0.7,1.2c0.1,0.7,1,0.9,0.9,1.7
	c-0.1,0.5-0.6,0.7-0.8,1.1c0,0.1,0,0.4,0.1,0.4c0.7,0.3,1.5,0.3,2.2,0.6c0.3,0.1,0.3,0.1,0.2,1.6c-0.1,0.8-0.4,1.5-0.3,2.2l1,1.8
	c0,0,1.4,1,2.6,0.6c0.3-0.1-0.2-3.1-0.2-3.2c-0.1-0.2-0.1-0.3-0.2-0.5c-0.1-1.4,0-2.8-0.1-4.1c0-0.7-0.1-1.2,0.2-1.4
	c0,0,1.8-0.4,1.1,1.3c-0.2,0.4-0.3,0.7,2.3,2.8c0.9,0.7,0.3,2.2,0.3,2.2c-0.1,0.1-0.1,0.3,0,0.4c0.3,0.3,1.2,0.3,1.8,0.1
	c-0.1-0.1-0.1-0.2-0.2-0.3c0.9-1.2,2.3-0.8,3.5-1.2c0.4-0.2,0.3-0.8-0.3-1.3c-0.5-0.4-1.2,0-1.7-0.3c-0.1-0.1-0.4-0.2-0.2-0.8
	c0.2-0.5-0.6-1.8-0.6-1.8c-2.5-2.9-2.5-2.9-2.7-3.2c-0.1-0.1-0.1-0.2-0.1-0.3c0,0,0.3-0.8,1.9-1.2c1.2-0.2,1.5-0.6,1.4-1.6
	c0-0.3-0.1-0.6,0.1-0.7c0.8-0.5,1.6,0.4,2.4,0.1c0.1,0,0.8-1.9-0.3-1.9c-0.9,0-6.5,1.6-6.6,1.7c-0.1,0-0.4,0.2-0.6,0.5
	c-0.2,0.2-0.8,0.8-1.6,0.7c-1.4-0.1-3.1-3.7-3-4c0.4-2.4,2.9-1.8,4.2-2.8c3,0.7,3,0.7,5.5,0.3c1.2-0.2,2.2,0.5,3.3,0.7
	c0.5,0,0.6,0,0.8,0C202.5,371.9,205.1,370.8,205.3,368.2z"/>
<path id="XMLID_17376_" class="st1" d="M201.1,378.6c0.1,0.1,0.2,0.1,0.4-0.3c0,0,0-0.1,0-0.1c0-0.1,0.1-0.4-0.6-0.5
	c-0.2,0-0.4,0.1-0.6,0.1c-0.2,0-0.5-0.1-0.7-0.1c0,0,0,0-0.1,0c0,0-0.1,0-0.1,0.1c-0.1,0.1-0.1,0.2,0,0.2c0,0.1,0,0.2,0,0.3
	c0,0.2-0.1,0.3-0.1,0.5c0,0,0,0.1,0,0.1c0,0.2,0,0.3,0.1,0.3c0.2,0.3,1.1,0.8,1.4,0.7c0.1-0.1,0.1-0.2,0.1-0.6
	c0-0.3-0.1-0.6,0.1-0.7C200.8,378.5,200.8,378.5,201.1,378.6z"/>
<path id="XMLID_17375_" class="st1" d="M206.3,379.6c0,0,0.1,0.1,0.1,0.1c0.1,0.1,0.2,0,0.2-0.2c0-0.3-0.1-0.5-0.9-0.6
	c-0.4,0-0.7,0.1-0.8,0.1c-0.2,0.1-1,0.6-1,0.6c-0.3,0.3,0.6,0.6,1.3,0.3C205.4,379.9,206.2,379.6,206.3,379.6z"/>
<path id="XMLID_17374_" class="st1" d="M209.7,380.1L209.7,380.1C209.7,380.1,209.7,380.1,209.7,380.1L209.7,380.1
	C209.7,380.1,209.7,380.2,209.7,380.1z"/>
<path id="XMLID_17373_" class="st1" d="M209.1,380.2c0.3-0.1,0.5-0.1,0.6-0.1c0,0,0,0,0,0c-0.2-0.1-0.3-0.4-0.3-0.5
	c-0.1-0.2-0.1-0.2-0.2-0.2c-0.2-0.1-0.5-0.1-0.7-0.1c-0.4,0-0.8,0.1-1,0.2c0.4,0.3,0.9,0.7,1.3,0.9C209,380.4,209,380.2,209.1,380.2
	z"/>
<path id="XMLID_17372_" class="st1" d="M200,391.6c0,0.1-0.1,0.4,0.1,0.5c0.1,0,0.9,0.3,1.2-0.3c0-0.1,0.1-0.2,0.1-0.2
	c0-0.1,0-0.1-0.1-0.2c-0.1-0.1-0.2-0.1-0.2-0.5c0-0.2,0.2-0.9,0.4-1.2c0,0,0-0.1,0-0.1c0,0,0-0.1,0-0.1c0-0.2-0.1-0.3-0.2-0.3
	c-0.3,0-0.5,0.2-0.7,0.2C200.5,390,200.2,390.8,200,391.6z"/>
<path id="XMLID_17371_" class="st1" d="M198.5,391.7c0.1,0,0.2-0.1,0.4-0.2c0.1,0,0.1,0,0.2,0c0,0,0,0,0,0c0.1-0.1,0.2-1.1,0.2-1.4
	l0,0l0,0h0h0h0h0h0h0h0c0,0-0.1,0-0.1,0c-0.1,0-0.3,0.1-0.5,0.3c-0.2,0.2-0.3,0.4-0.3,0.6c0,0,0,0.1-0.1,0.1
	c-0.1,0.1-0.2,0.2-0.3,0.2c-0.1,0-0.1,0.1-0.2,0.1c0,0.1,0,0.1,0.1,0.1c0.1,0.1,0.3,0.2,0.5,0.1
	C198.4,391.7,198.5,391.7,198.5,391.7z"/>
<path id="XMLID_17370_" class="st1" d="M193.4,393.9c-0.2-0.3-0.4-0.4-0.5-0.4c-0.2,0-0.4,0.1-0.3,0.4c0,0.1,0,0.1,0.1,0.2
	c0.1,0.2,0.3,0.4,0.4,0.5c0.2,0.3,0.3,0.6,0.5,0.8c0.2,0.3,0.4-0.1,0.4-0.1l0,0c0,0-0.1-0.1-0.1-0.1c-0.1-0.1-0.3-0.2-0.3-0.3
	c-0.1-0.2,0-0.4,0-0.5C193.4,394.3,193.5,394.2,193.4,393.9z"/>
<path id="XMLID_17369_" class="st1" d="M211.2,386.1c0.2,0.1,1,0.4,1.7,0.5c1,0.1,1.4-0.9,1.4-0.9c0-0.1,0-0.2-0.1-0.3
	c0,0-0.8-1-0.9-1.1c-0.3-0.2-1.4-0.4-1.4-0.4c-0.3,0-0.2,0.5-0.4,0.6c-0.1,0-0.2,0-0.3,0c-0.2-0.1-0.5-0.2-0.7-0.3
	c-0.5-0.2-0.5,1-0.4,1.2C210.1,385.3,211.2,386.1,211.2,386.1z"/>
<path id="XMLID_17368_" class="st1" d="M218.4,385c1-0.1,1.8-0.1,4.9,0.7c3.7,1,3.7,1,4.3,0.7c0.1,0,0.1-0.1,0.2-0.1
	c-0.1-0.9-4.6-3-4.7-3c-1-0.4-1.4,0.8-2.2,0.9c-1.1,0.1-1.5-1.2-2.5-1.4c0,0-2.1,0.2-2.5,0.8C216,383.9,216.2,384.3,218.4,385z"/>
<path id="XMLID_17367_" class="st1" d="M217.7,372.4c0.3,0,0.4-0.1,0.4-0.2l-0.9-1.7c0-0.1-0.1-0.2-0.2-0.3
	c-0.5-0.6-0.5-0.6-0.5-0.7c0.2-0.6,1-0.8,1.2-1.4c0-0.1,0-0.2,0-0.2c0,0-0.1-0.7-1.2-0.3c-0.4,0.1-0.6,0.2-0.5,0.9
	c0.1,1,0,1.1-0.1,1.2c-0.4,0.3-1.4-0.2-1.4-0.2c0,0,0-0.1,0-0.1c0-0.4,0.3-0.8,0.3-1.2c0-0.5-0.4-0.8-0.4-1.3l0.2-1.3
	c-0.1,0.1-0.2,0.2-0.3,0.3c-1.4,1.6-1.4,2.5-1.4,2.8c0,0.5,0,0.5,0.7,1.9c0.5,1,0.5,1.2,0.5,1.8c0,0.1,0,0.4,0,0.5
	c0.2,0.8,1.1,1.1,1.6,1.8c0.3,0.4,0.3,0.9,0.6,1.3c0.2,0.2,0.5,0.6,0.9,0.6c0.5,0,0-2.5-1-3.3c0.1-0.3,0.2-0.6,0.4-0.9
	C217,372.3,217.4,372.4,217.7,372.4z"/>
<path id="XMLID_17366_" class="st1" d="M216.6,378.9c0.1-0.1-0.4-1-0.7-1.4c-0.5-0.5-0.9-0.5-1.1-0.5c-0.7,0-0.8,0.4-0.8,0.4
	c0.4,1.1,0.4,1.1,0.5,1.2c0.1,0,0.2,0.1,0.5,0.1C216.6,379,216.6,379,216.6,378.9z"/>
<path class="st2" d="M291.5,407.9c-0.3-0.2-0.3-0.2-1.4-0.5c0-0.1-0.1-0.3-0.1-0.4c0.2-0.1,0.5-0.2,0.8-0.2
	c-0.5-0.3-1.1-0.3-1.6-0.6c0-0.1,0.1-0.2,0.1-0.3c-1-1.8-3.3-2.2-4.3-4c-0.4-0.8,0.3-1.8-0.2-2.6c-0.5-0.9-2.2-0.2-2.4-1.6
	c0-0.2-0.1-1.1,0.3-1.4c0.5-0.4,1,0.2,1.5,0c0.4-0.2,0.3-1,0.1-1.2c-0.4-0.4-0.8-1-1.3-1.4c-1.4-1.2-3.5-1.2-4.9-2.7
	c-1.3-1.5-2-3.5-3.8-4.6c-0.3-0.2-7.8-3.2-12.4-5c-2.1-0.8-3.6-1.4-3.6-1.4l-8-1.7l-5.1,4.7c-2.2,2.5-2.2,2.5-5.3,0.3
	c0.1-0.3,0.2-0.6,0.3-0.9c-0.1-0.1-0.2-0.2-0.3-0.2c-0.5,0.1-0.9,0.5-1.4,0.4c0-0.1,0-0.3-0.1-0.4c0-0.1,0-0.3,0-0.4
	c0-0.1,0-0.2,0-0.3c0-0.1,0-0.2,0-0.3c0-0.1,0-0.2,0-0.3c0-0.1,0-0.1,0-0.2c0-0.1,0-0.1,0-0.2c0,0,0-0.1,0-0.1c0,0,0-0.1,0-0.1
	c1.8-1.8-1-5.1-1-5.1c-1.5-1.5-3.6-0.6-5.4-1.2c0,0-2.7,0.6-2.9,1.7c-0.2,1.3-1.2,0.7-1.7,0.4c-0.2,0.4-0.2,0.4-0.1,1.2l0,0.1
	c0.2,0.1,0.2,0.1,1.7,0.5c0.2,0.5,0.5,1.2,0.7,1.8c1.7,0.3,3.3,1.1,5.1,1.1c0,0,0,0,0,0c0,0,0,0,0,0c0,0,0,0,0,0c0,0,0,0,0,0
	c0,0,0,0,0,0c0,0,0,0,0,0c0,0,0,0,0,0s0,0,0.3,0c0.7,0.1,0.7,0.2,0.9,0.7c-0.4,0.7-0.7,0.7-1.3,0.6l-4.9,1.3c0,0.1,0,0.3,0,0.4
	c2.2,1.5,2.2,1.5,2.6,1.8c0,0.1,0,0.2,0,0.3c0.4,2.4,1.9,2,1.9,2c1.6-0.5,1.1-2.1,1.8-3.1c0.8,0.3,0.3,1.3,0.9,1.7
	c0.8,0.6,1.8,0.5,2.8,0.8c0,0,6.5,2.8,7.8,3.4c1.4,0.7,3,0.8,4.2,1.9c-0.3,0.5-0.6,1.1-0.5,1.4c0.5,1,1.8,0.7,2.5,1.5
	c0.4,0.5-0.3,1.1,0.2,1.6c0.1,0.2,0.4,0.3,0.5,0.5c-0.7,0.8-2,0.4-2.7,1.3c0.1,0.2,0.3,0.5,0.4,0.7c-0.5,0.8-1.5,0.7-2.3,1
	c0.3,0.3,0.3,0.3,5.7,0.5c2.4,0.1,3.2,1.2,3.5,1.9c0.9,0.3,1.8,0.6,2.7,0.8c3.1,0.9,5.3,1.2,5.3,1.2c0,0,2.4-1.1,0.3-2.6
	c-1-0.8-1-0.8-1-1.4c0.3,0,0.3,0,2.6,0.4c1.6-1.4,3.5-2.4,5.1-3.7c2.6,0.9,6.2,6.6,6.2,6.7c2.1,3.4,11,4.2,11,4.2
	C291.5,408.1,291.5,408,291.5,407.9z"/>
<path id="XMLID_17363_" class="st1" d="M226.5,373.2c-0.1,0-0.2,0-0.2,0c-0.1,0-1.3,0.4-1.3,0.6c0,0.2,0.8,0.9,1.1,1
	c0.3,0,0.3-0.2,0.3-0.2c-0.1-0.3,0.3-0.4,0.6-0.4c0.2,0,0.4,0,0.5,0.1c0.1,0.1,0.2,0.1,0.3,0.1c0,0,0,0,0.1,0
	c0.1-0.1,0.5-0.4,0.5-0.4c0,0,0.1-0.1,0.1-0.1c0,0,0,0,0-0.1c-0.3-0.1-0.5,0-0.8-0.1C227.2,373.5,226.9,373.3,226.5,373.2z"/>
<path id="XMLID_17362_" class="st1" d="M229.5,399.5C229.5,399.5,229.5,399.5,229.5,399.5c0.1-0.3,0.2-0.4,0.3-0.6
	c0.2-0.2,0.4-0.4,0.5-0.6c0.1-0.1,0.1-0.3,0.1-0.3c0-0.3-0.2-0.9-0.9-1c0,0,0,0-0.1,0c-0.2,0-0.4,0.2-0.4,0.2
	c-0.4,0.4-0.4,0.8-0.5,1c0,0.2-0.1,0.4-0.1,0.5c-0.2,0.2-0.5,0.3-0.9,0.4c-0.8,0.2-0.8,0.4-0.7,0.5
	C227.1,399.8,229.4,399.5,229.5,399.5z"/>
<path id="XMLID_17361_" class="st1" d="M238.8,394c-0.2,0.3-0.6,0.4-0.8,0.7c-0.1,0.1-0.1,0.3-0.2,0.4c0,0.2,0.1,1.4,0.3,1.7
	c0.1,0.2,0.3,0.2,0.5,0c0.2-0.1,0.2-0.4,0.4-0.5c0.3-0.3,0.8-0.4,1.1-0.7c0.1-0.1,0.2-0.2,0.2-0.3c0-0.4-0.3-0.6-0.4-0.9
	c0-0.1,0-0.2,0-0.2c0.1-0.1,0.2-0.3,0.2-0.7c0-0.3-0.1-0.4-0.1-0.5c-0.4-1-1-1.3-1-1.3c0,0,0,0,0,0c0,0,0.1,0.3,0.2,0.5
	c0.2,0.4,0.2,0.4,0.2,0.5c0,0.2-0.1,0.2-0.2,0.4C238.9,393.9,238.9,393.9,238.8,394z"/>
<path id="XMLID_17360_" class="st2" d="M288.6,390.5l-2,1c0,0.2,0.1,0.3,1,0.7c0,0,3.1,1.4,3.8,1.5c2.4,0.3,4.2,0.6,5.6-0.8
	c0.4-0.4,0.8-0.9,1.3-1.3c0.2-0.2,0.6-0.2,0.8-0.5c0,0,0.1-0.1,0.1-0.1c0.2-0.5-0.4-0.8-0.2-1.3c0.2-0.6,1-0.7,1.2-1.4l0,0
	c0,0,0.3-1.2-0.7-1c-0.7,0.3-1,1-1.2,1.3c-0.4,0.8-1.8,1.8-2,1.9c-0.5,0.2-1.2,0.2-1.6,0.6c-0.3,0.2-0.3,0.6-0.8,0.6
	c-0.2,0-0.2,0-1.3-1.2c-2.1,1.6-2.9,0.8-3.2,0.2C289.1,390.7,288.9,390.4,288.6,390.5C288.6,390.5,288.6,390.5,288.6,390.5z"/>
<polygon id="XMLID_17359_" class="st1" points="292.3,390.7 292.3,390.7 292.3,390.7 "/>
<path id="XMLID_17358_" class="st2" d="M296.7,383.9c0.1,0.1,0.7,0.1,1,0.1c2.8,0,3.4,0.7,3.5,0.9c0,0,0.4,1.8,0.4,2
	c0,0.3-0.1,0.9-0.2,1.6c-0.2,0.9-0.2,1.3-0.1,1.4c0.2,0.3,1.1-1,1.3-2.1c0.2-1-0.1-3.4-0.8-4c0,0-0.1-0.1-0.1-0.1
	c-0.3-0.1-0.6,0-0.9-0.1c-0.9-0.3-1.6-1-2.5-1.3c-0.8-0.3-1.7-0.4-2-0.4c-0.1,0-0.4,0.1-0.4,0.2c0.1,0.5,0.6,0.9,0.8,1.3
	C296.6,383.7,296.6,383.8,296.7,383.9z"/>
<path id="XMLID_17357_" class="st2" d="M309.8,393.3c-0.2-0.4-0.1-0.8-0.2-1.2c-0.1-0.3-0.3-0.5-0.6-0.6c-0.7,0.1-0.8,1.3-0.8,1.3
	c0,0.2,0.1,0.5,0.1,0.5c0,0.1,0,0.1,0,0.2c0.1,0.4,0.3,0.8,0.4,1.3c0.1,0.3,0,0.7,0.2,1c0.2,0.4,1.3,1.1,1.6-0.2
	c0.2-0.7,0.1-1,0-1.3C310.4,394,310,393.8,309.8,393.3z"/>
<path id="XMLID_17356_" class="st2" d="M314.5,395.9c-0.1-0.1-0.3-0.2-0.5-0.3c-0.2-0.2-0.4-0.4-0.6-0.5c-0.1,0-0.1-0.1-0.2-0.1
	c-0.4,0.1-0.3,1.3-0.2,1.4c0,0.1,0.1,0.1,0.1,0.1c0.1,0.1,0.3,0.2,0.5,0.3c0.3,0.2,0.5,0.5,0.8,0.7c0.2,0.1,0.3,0.2,0.5,0.3
	c0.2,0.1,0.6,0.3,0.7,0c0.1-0.3-0.1-0.7-0.5-1.2C314.9,396.2,314.7,396,314.5,395.9z"/>
<path id="XMLID_17355_" class="st2" d="M312.9,398.7C312.9,398.7,312.9,398.7,312.9,398.7c-0.2,0.1-0.2,0.3-0.2,0.3
	c0.1,0.3,0.2,0.3,0.4,0.6c0.1,0.1,0.2,0.2,0.2,0.3c0.1,0.2,0,0.5,0,0.7c0,0,0,0,0,0.1c0,0,0.3,0.4,1,0.6c0,0,0.1,0,0.1,0
	C313.9,399.9,313.5,398.7,312.9,398.7z"/>
<path id="XMLID_17354_" class="st2" d="M318.9,399.7c0.4,0.3,0.9,0.3,1.2,0.6c0.4,0.3,0.3,0.6,0.3,0.8c0,0.2-0.1,0.3,0,0.4
	c0.1,0.3,0.5-0.1,0.7-0.6c0,0,0.2-0.8,0-1.2l-1.8-0.9c-0.3,0-0.7,0-1,0C318.2,399.1,318.2,399.2,318.9,399.7z"/>
<path id="XMLID_17353_" class="st2" d="M321.2,405.6c0.2,0.1,0.4,0.1,0.6,0.2c0,0,0,0,0.3,0.3c0.3,0.4,0.7,0.4,0.7,0.4
	c0,0,0.1-0.1-1.1-1.7c-0.1-0.2-0.2-0.2-0.3-0.2c-0.2,0-0.3,0.3-0.3,0.5C321.1,405.2,321.1,405.5,321.2,405.6z"/>
<path id="XMLID_17352_" class="st2" d="M325.5,403.7c-0.1-0.1-0.3-0.3-0.5-0.9c-0.2-0.4-0.3-0.9-0.4-1.3c-0.1-0.2-0.1-0.3-0.2-0.3
	c-0.2,0.2-0.1,2.2-0.1,2.2c0.1,0.4,0.5,0.7,0.7,1c0.1,0.3,0.1,0.6,0.2,0.9c0.1,0.3,0.5-0.1,0.7-0.3c0.2-0.3,0-0.7,0-0.9
	C325.9,404.2,325.8,403.9,325.5,403.7z"/>
<path id="XMLID_17351_" class="st2" d="M325.4,407.5C325.4,407.5,325.3,407.5,325.4,407.5c-0.2,0.1-0.2,0.1-0.4,0.1
	c-0.1,0-0.3,0-0.4,0c0,0,0,0,0,0c0,0-0.1,0-0.1,0c-0.1,0.1-0.3,0.3-0.3,0.5c0.1,0.3,0.9,0.4,1.2,0.4c0,0,0.3-0.3,0.4-0.5l0,0
	C326,407.6,325.4,407.5,325.4,407.5z"/>
<path id="XMLID_17350_" class="st2" d="M322.7,445.8c-0.4-0.3-1.1-0.7-1.4-1.4c-0.4-0.8,0.3-1.7-0.2-2.5c-0.3-0.5-0.9-0.5-1.2-0.9
	c-0.6-0.8-1-1.6-1.7-2.3c-0.4-0.4-0.5-0.5-0.6-0.5c0,0-0.1,0-0.1,0.1c0,0.5,0.2,1,0.2,1.5c0,0.4-0.3,0.8-0.2,1.3
	c0,0.2,0,0.2,0.5,0.7c0.5,0.5,1.4,1.7,1.5,2c0.4,1.1,0.3,2.3,0.5,3.4c0,0.1,0.1,0.5,0.2,0.5c0.2,0.1,0.2-0.2,0.4-0.1
	c0.2,0,0.2,0.3,0.4,0.3c0,0,0,0,0.1,0c0.1,0,0.2,0,0.2,0c0.6-0.1,1.6-1.1,1.7-1.2l0,0c0.1-0.1,0.1-0.3,0.1-0.4
	C323,446,322.9,445.9,322.7,445.8z"/>
<path id="XMLID_17349_" class="st2" d="M269.3,481.7c2.1-1.3,14.2-18.8,14.3-18.9l0,0l-0.1-10c0-0.1-5.2-9.4-6.9-11.5
	c0.1-0.1,0.3-0.2,0.4-0.3c-0.3-3.7-5.3-4.8-4.8-8.9l-0.5-10.9c0-0.2-0.1-0.4-0.2-0.5c-0.5-1.2-1.8-1.1-2.7-1.7l-1.5-6.9
	c-0.1-0.4-5.8-5.8-4.8,1.4c0.7,5.5-3.5,16.8-3.6,16.9c-0.3,0.4-5.1,0.8-5.1,0.8c-2.1-1-1-5-3.9-4.8c-3.6,0.2-3.6,0.2-6.4-3.4
	c-2.1-2.7,1.1-5.2,1.8-5.2c0.3,0,0.8-3.5,0.8-3.6c-1.6-1.7-3.2,1.1-4.9,0.7c-1.3-0.3-0.7-2.1-2-2.4c-1.7-0.5-3.5-0.7-5.2-1.4
	c0,0-3.8-1.5-5.9-2c1.1,1.7,3.3,1.8,4.5,3.4c-0.1,0.2-0.1,0.5-0.2,0.7c-1.8,0.5-3.9-0.6-5.5,1c-1.2,1.2,0.3,2.4-0.1,3.6
	c-0.3,0.9-1.5,1-1.8,1.9c-0.1,0.2-0.1,0.5-0.1,0.7c0.5,0.1,1,0.2,1.5,0.3c0,0,1.5,3.7-3.9,2.8c-2.5-0.4-3.6-2.8-5.4-4.1
	c-3.3-2.3-3.6-2.3-5.3,1.3c-2,0.4-2.1,0.7-2.4,1.4c1.6,2.6-2.2,4.8-0.5,7.4c-0.1,0.2-0.1,0.5-0.2,0.6c-2.4,0.8-3.3-1.9-5.2-2.3
	c-1.6,2.2,1.4,4.5-0.2,6.7c-1,1.3-1,1.3-6.6,2.6c-1.6,2.8-1.6,2.8-3.9,2.5c0,0-3.7,0-5.1,0.5c-0.5,1.6-2.4,2.6-2.1,4.6
	c0.2,1.3,0.2,1.3,0.1,1.9c-0.1,0.2-0.2,0.4-0.3,0.5c-0.1,0.2,0,0.5,0,0.7c0.2,2.9,2.4,4.9,3.3,7.6c-0.2,0.2-0.6,0.5-0.8,0.7
	c11,14.7,11,14.7,10.3,16.4c3.3,7.4,9,6.4,9.1,6.4c0.3-2.4,0.3-2.4,0.3-2.5c1.3-0.3,2.6,0.3,3.9,0.1c0.1-0.1,0.2-0.3,0.3-0.4
	c2.5,0.3,2.5,0.3,3.3,0.1c0.2-0.5,0.2-0.5,1.9-1.3c0-0.3,0.1-0.8,0.1-1.1c0.4-0.1,0.9-0.3,1.4-0.4c0.6-1.3,2.1-0.8,3-1.4
	c0.3,0.1,1.1,0.4,3.1-0.7c3.1-1.8,10.2,1,10.3,1.1c0,0,4.1,3.6,4.4,4.3c0.6,1.1-0.7,1.9-0.6,3c0.9,0.4,1.8,0.9,2.7,1.3
	c0.4-0.8,0-1.5,0-2.3c0.4-0.4,1-1,3.6-2.3c0.1,0.1,0.2,0.3,0.3,0.4c-0.5,1.7-3,2.4-2.5,4.7c1.1,0.2,2.1-0.3,3.2-0.1
	c-2.1,1.5-2.1,1.5-2.2,1.6c1.6,0.9,3.4,1.4,4.8,2.6c0,0.2,0,0.2-0.6,1.5l2.6,3c1.4,0.6,2.2-1.1,3.5-1c1.4,0.2,2,1.7,3.4,1.9
	c0.2,0,0.4,0,0.5,0c1.6-1.7,4.3-1,5.8-2.8l4-5.7C268.6,482.2,269,481.9,269.3,481.7z"/>
<path id="XMLID_17348_" class="st2" d="M258.8,495.5c-0.4,0.4-0.4,0.4-0.6,0.4c-0.1,0-0.2,0-0.3,0c-0.3,0-0.6-0.1-0.9-0.1
	c-0.3,0-0.6,0.3-0.9,0.2c-0.2,0-0.2,0-1.2-0.6c-0.3-0.6-0.3-0.6-0.4-0.6c0,0-1.2,0.5-1.3,0.8c0.1,0.2,0.1,0.2,0.6,0.4
	c0.2,0.1,0.5,0.3,0.5,0.4c0.1,0.4-0.3,0.5-0.5,0.7c-0.2,0.3,0.1,0.5,0.1,0.7c0,0.3-0.1,0.5-0.1,0.8c0,0.2,0.1,0.4,0.1,0.6
	c0,0.4,0.3,0.8,0.3,1.3c0,0.1,1,0.8,1,0.8c0.1,0,0.1-0.1,0.1-0.6c0-0.3,0-0.4,0.1-0.5c0.1-0.1,0.4-0.1,0.5,0c0.1,0,0.1,0,0.1,0
	c0.1-0.1,0.2-0.3,0.3-0.4c0,0,0,0,0,0c0,0,0,0,0,0c0,0,0.3-0.5,0.3-0.9c0-0.2,0-0.2,0-0.3c0.2-0.3,0.7-0.3,0.9-0.6
	c0.5-0.6,1.2-2,1.2-2C259,496.2,259.1,495.8,258.8,495.5C258.9,495.5,258.9,495.5,258.8,495.5z"/>
<path id="XMLID_17347_" class="st2" d="M253.8,492.5l-0.3,0.1c-0.1,0.5-0.1,0.5-0.1,0.6c0,0.1,0.1,0.5,0.2,0.5c0,0,0,0,0.1-0.1
	c0-0.1,0-0.1,0.1-0.2c0,0,0.1,0,0.1-0.1c0,0,0.1-0.2,0.1-0.3c0-0.1,0-0.2-0.1-0.2c0,0,0-0.1,0-0.1
	C253.7,492.7,253.8,492.6,253.8,492.5C253.8,492.5,253.8,492.5,253.8,492.5z"/>
<path id="XMLID_17346_" class="st2" d="M259.6,494.9C259.6,494.8,259.6,494.8,259.6,494.9c0,0,0-0.1,0-0.1c0-0.1-0.1-0.1-0.1-0.2
	c-0.2-0.3-0.3-0.3-0.3-0.3c0,0,0,0,0,0c0,0,0,0,0,0.1c0,0,0.1,0.1,0.1,0.2c0,0.1-0.1,0.3,0,0.4c0,0.2,0.5,0.2,0.6,0.1c0,0,0,0,0-0.1
	C259.7,494.9,259.6,494.9,259.6,494.9z"/>
<path id="XMLID_17345_" class="st2" d="M259.6,493.9c0,0,0-0.1,0-0.1c0,0,0-0.1,0-0.1c0,0,0-0.1,0-0.2c0-0.2-0.2-0.2-0.2-0.2
	c0,0,0,0,0,0.1c0,0.1,0,0.1,0,0.2c0,0.1,0,0.1-0.1,0.1c-0.1,0.1-0.3,0.1-0.3,0.3c0,0,0,0,0,0c0,0,0,0,0,0c0,0-0.1,0.1,0,0.2
	c0,0,0.1,0,0.1,0c0,0,0.5-0.1,0.5-0.1C259.7,494,259.7,494,259.6,493.9C259.7,493.9,259.7,493.9,259.6,493.9z"/>
<path id="XMLID_17344_" class="st2" d="M287.3,499.7c-0.4-0.1-0.8,0.2-1.2,0.1c0.5-0.7,1.3-0.9,1.9-1.5c0,0,0-0.1,0-0.1
	c-0.2,0-3.6,1.6-3.6,1.6l-2.5,1.6c-0.2,0.1-0.2,0.2-1.3,0.7c-1,0.5-2.2,0.5-3.2,1c-0.6,0.3-1,1-1.8,0.9c-1.5-0.1-4.5,1.6-4.8,1.8
	c0,0-1.5,0.9-1.8,1.3l-0.5,1.2l10.5-4.4l4.1-1.9c1.3-0.9,2.8-1.3,4.1-2.2C287.3,499.8,287.3,499.8,287.3,499.7z"/>
<path id="XMLID_17343_" class="st2" d="M303.4,486.8c-1.1,1.6-2.1,1.9-2.2,1.9c-0.2,0-0.4,0.1-0.4,0.2c-1.2,1.4-1.5,2.2-1.6,2.6
	c-0.2,0.6-0.4,0.7-0.7,0.9c-4.2,2.8-4.3,2.8-4.5,2.6c-0.1-0.1-2,1-2,1c0,0-0.1,0.1,0,0.4c0.2,0.6,0.2,0.8-1.8,2.1
	c-1,0.7-2.3,0.9-3.2,1.9c0.4,0,4-1.5,5.4-2.4c0.7-0.5,1.7-0.4,2.4-0.9c0.4-0.3,0.6-0.8,1-1.1c0,0,0.1,0,0.1-0.1c0,0,0.7-0.3,1.1-0.3
	c0,0.1-0.1,0.1-0.1,0.2c0.9,0.6,1.3-0.8,2.1-0.9c0,0,0,0,0.1,0c0,0,0,0,0.1,0s0,0,0.1,0c0,0,0,0,0,0c0,0,0,0,0,0c0,0,0,0,0,0
	c0,0,0,0,0,0c0,0,0,0,0,0c0.3,0,0.4,0,1.6-0.9c0.5-0.4,0.9-0.9,1.5-1.2c0,0,0-0.1,0-0.1c-0.7-0.1-1.3,0.5-2,0.1
	c-0.1-0.7-0.1-0.7,0.3-1c0.6-0.4,2.5-2.4,2.5-2.4c0,0,0-0.1,0-0.1c-0.9,0.5-1.3,1.4-2.3,1.7c-0.2-0.2,0.2-0.9,0.3-1
	c0.7-0.9,1.8-1.5,2.6-2.3c0.2-0.2,0.2-0.2,0.3-0.5c0.1-0.7,0.1-0.7,1.3-2c0.5-1,0.7-1.4,0.5-1.7
	C305.6,483.7,305.6,483.7,303.4,486.8z"/>
<path id="XMLID_17342_" class="st2" d="M268.2,507.8c-0.3,0.1-0.5,0.3-0.8,0.4c-0.1,0.1-0.3,0.1-0.4,0.1c0,0-0.1,0-0.1,0.1
	c0,0,0,0.1,0.1,0c0,0,0,0,0,0c0.1-0.1,0.3-0.1,0.4-0.2c0.2-0.1,0.4-0.1,0.5-0.2c0,0,0,0,0,0C268.2,508,268.3,507.8,268.2,507.8
	C268.2,507.8,268.2,507.8,268.2,507.8z"/>
<path id="XMLID_17341_" class="st1" d="M173.5,13.3L173.5,13.3l0.4-0.1C173.7,13.2,173.6,13.3,173.5,13.3z"/>
<path id="XMLID_17340_" class="st1" d="M177,12.1C177.1,12.1,177.1,12.1,177,12.1c-0.1,0-0.4,0.1-0.6,0.2c-0.2,0-0.3,0.1-0.5,0.2
	l1.4-0.5C177.3,12.1,177.2,12.1,177,12.1z"/>
<path id="XMLID_17339_" class="st1" d="M175.1,12.8c-0.3,0.1-0.7,0.2-1,0.3c0.6-0.2,1.3-0.4,1.9-0.6L175.1,12.8z"/>
<path id="XMLID_17338_" class="st1" d="M172,13.8c0.1,0,0.1,0,0.2-0.1l0,0c0.8-0.3,1.7-0.6,2.5-0.8C174,13.1,172.2,13.7,172,13.8
	C171.9,13.9,171.9,13.9,172,13.8C172,13.8,172,13.8,172,13.8z"/>
<path id="XMLID_17337_" class="st1" d="M171.4,14l-0.3,0.1l-0.3,0.1C171,14.2,171.2,14.1,171.4,14L171.4,14z"/>
<path id="XMLID_17336_" class="st1" d="M185.6,9.5c-0.4,0.1-0.9,0.3-1.3,0.4c0,0,0.1,0,0.1,0c-0.3,0.1-0.6,0.2-0.9,0.3
	c0.1,0,0.1,0,0.2,0c-2.2,0.6-4.8,1.4-5.8,1.8c0.6-0.2,1.1-0.4,1.7-0.5C182.2,10.5,182.4,10.5,185.6,9.5z"/>
<path id="XMLID_17335_" class="st1" d="M185,9.7c0.6-0.2,1.2-0.3,1.7-0.5c0.3-0.1,0.6-0.2,0.9-0.3c-0.3,0.1-2,0.5-2.7,0.8
	C184.9,9.7,185,9.7,185,9.7C185,9.7,185,9.7,185,9.7z"/>
<path id="XMLID_17334_" class="st1" d="M188.8,8.7c2.4-0.7,2.4-0.7,4.2-1.1c-3.5,0.9-7.5,2-8.2,2.2C186.2,9.4,187.5,9,188.8,8.7z"/>
<path id="XMLID_17333_" class="st1" d="M334.8,12.1c-0.5-0.2-0.9-0.3-1.4-0.4c0,0,2.5,0.8,2.6,0.8C335.6,12.3,335.2,12.2,334.8,12.1
	z"/>
<path id="XMLID_17332_" class="st1" d="M339.9,13.8L339.9,13.8C339.9,13.8,339.9,13.8,339.9,13.8C339.9,13.8,339.9,13.8,339.9,13.8z
	"/>
<path id="XMLID_17331_" class="st1" d="M339.9,13.8c-0.5-0.2-0.9-0.3-1.4-0.5C339,13.5,339.5,13.6,339.9,13.8
	C339.9,13.8,339.9,13.8,339.9,13.8z"/>
<path id="XMLID_17330_" class="st1" d="M337.1,12.9c0.4,0.2,0.9,0.3,1.3,0.4C337.9,13.1,337.4,13,337.1,12.9z"/>
<path id="XMLID_17329_" class="st1" d="M347.1,16.4c0.4,0.2,0.8,0.3,1.2,0.5c0.8,0.3,1.5,0.6,2.3,0.9
	C349.6,17.3,347.6,16.6,347.1,16.4z"/>
<path id="XMLID_17328_" class="st1" d="M339.2,13.6c3.4,1.2,3.4,1.2,3.6,1.3c0,0-0.1,0-0.1,0c1.1,0.4,2.3,0.7,3.3,1.3
	c-0.1,0-0.3-0.1-0.4-0.1c0.6,0.3,6.7,2.7,7,2.7c-0.5-0.2-1-0.4-1.5-0.7c1.6,0.6,1.6,0.6,2.1,0.8c-0.1,0-0.2-0.1-0.2-0.1
	c1.1,0.5,1.5,0.6,1.7,0.8c-0.2-0.1-0.4-0.2-0.6-0.2c0.8,0.5,5.2,2.2,5.2,2.2c-0.7-0.4-1.7-0.8-2.5-1.2c-2.8-1.2-5.7-2.4-8.6-3.5
	c-2.3-0.9-5-1.9-8.3-3c0.2,0.1,0.5,0.2,0.7,0.3C340.2,13.9,339.7,13.8,339.2,13.6z"/>
<path id="XMLID_17327_" class="st1" d="M357.2,20.5c0,0,0.1,0,0.1,0C357.3,20.5,357.3,20.5,357.2,20.5c-0.3-0.1-0.7-0.3-1-0.4
	c0.2,0.1,0.4,0.2,0.7,0.3c0.6,0.3,1.2,0.5,1.8,0.7C358.1,20.9,357.7,20.7,357.2,20.5z"/>
<path id="XMLID_17326_" class="st1" d="M341.4,14.3c1.7,0.6,3.4,1.2,5,1.8C344.2,15.3,342.3,14.6,341.4,14.3z"/>
<path id="XMLID_17323_" class="st1" d="M336.5,12.9c-0.5-0.2-1.1-0.3-1.6-0.5c1,0.3,2,0.7,3,1c-0.6-0.2-1.2-0.4-1.8-0.7
	c0.5,0.2,1,0.4,1.6,0.5c-0.5-0.2-1-0.4-1.5-0.6c0.5,0.2,1.1,0.3,1.7,0.5c-0.8-0.3-1.7-0.6-2.5-0.9c0,0,0.1,0,0.1,0
	c-0.3-0.1-0.5-0.2-0.8-0.3l-0.6-0.2l-1-0.3l-0.2-0.1c-1.2-0.4-4-1.2-4.9-1.5l0,0c-0.9-0.3-2.9-0.8-3.2-0.9c0.7,0.2,1.4,0.4,2.1,0.6
	c0,0-2.2-0.6-2.9-0.8C323.9,8.9,336.3,12.8,336.5,12.9z M333.2,11.6c-1-0.3-2.1-0.6-3.1-1C330.5,10.8,330.6,10.8,333.2,11.6z"/>
<path id="XMLID_17322_" class="st1" d="M339.3,13.7c0.1,0.1,4.5,1.7,4.6,1.7c-0.9-0.4-4.1-1.6-4.2-1.6
	C339.6,13.8,339.5,13.7,339.3,13.7z"/>
<path id="XMLID_17321_" class="st1" d="M411.5,52.3c0.1,0.1,0.3,0.2,0.4,0.3c0.3,0.2,0.6,0.5,1,0.7C412.4,53,412,52.7,411.5,52.3z"
	/>
<path id="XMLID_17320_" class="st1" d="M411.9,52.6c-1.5-1.2-3.1-2.4-4.7-3.5c-0.9-0.7-1.8-1.3-2.7-2c2.6,1.8,5,3.9,7.6,5.6
	C412.1,52.8,412,52.7,411.9,52.6z"/>
<path id="XMLID_17319_" class="st1" d="M383.7,33.9c-1.3-0.9-2.8-1.7-4.2-2.4C380.9,32.2,382.3,33,383.7,33.9z"/>
<path id="XMLID_17318_" class="st1" d="M381.3,33.6c-0.1,0-0.2,0.1-0.2,0.1c0.2,0.2,3.8,2.8,5.2,2.8c0.2,0,4.2,2.1,5.2,3
	c-1.5-0.4-2.7-1.7-4.3-1.8c3.9,2.9,15.9,10.5,16,10.6c0.5,0.3,1.7,0.5,2.1,0.4c-1.3-0.9-1.9-1.3-2.6-2.1c1,0.7,1.9,1.5,3,2
	c-0.6-0.5-1.2-0.9-1.8-1.4c1.3,0.8,2.3,2,3.8,2.5c-1.1-1-6.2-4.6-6.2-4.7c-1.8-1.3-10.1-6.7-17.7-11.2c0.4,0.3,0.9,0.6,1.3,0.9
	c-2.6-1.5-5.1-3-7.8-4.4c2.2,1.3,2.2,1.3,2.4,1.4c-2.7-1-4.8-3.2-7.6-4c0,0,0.1,0.1,0.2,0.1c-1-0.5-2-1.2-3.1-1.6
	c0,0,6.4,4.3,9.5,5.7C381.1,33.3,381.2,33.4,381.3,33.6z"/>
<path id="XMLID_17317_" class="st1" d="M379.5,31.4c-2.4-1.3-4.6-2.5-6.3-3.2C375.2,29.4,377.4,30.4,379.5,31.4z"/>
<path id="XMLID_17316_" class="st1" d="M372.4,27.6c0,0-2.2-1.1-2.5-1.2c0,0,5,2.6,5.1,2.6C374.8,28.9,372.5,27.7,372.4,27.6z"/>
<path id="XMLID_17315_" class="st1" d="M355.1,20.2c-1.9-0.7-1.9-0.7-2.6-0.8c0.2,0.1,24.7,13.3,25.2,13.2c-0.6-0.5-6.4-4.3-7.7-4.9
	c-2.6-1.4-3.9-2.4-3.9-2.4c0.1,0,0.2,0,0.3,0c-0.3-0.2-2.2-1.2-4.8-2.4c-2.1-1-6.2-2.7-6.7-2.8C355.1,20.1,355.1,20.2,355.1,20.2z"
	/>
<path id="XMLID_17314_" class="st1" d="M511.7,260.4L511.7,260.4L511.7,260.4L511.7,260.4L511.7,260.4L511.7,260.4L511.7,260.4
	c-0.1,4.4-0.1,4.4-0.4,13.4c0.4-3.3,1.3-13.4,0.3-34.8c-0.6-8.5-1.5-16.7-2.8-24.8c-2.2-13.5-5.5-26.7-9.7-39.4
	c-4.2-12.7-9.4-25-15.5-36.7c-2.6-5-5.4-10-8.3-14.8l-0.2-0.3c-4.7-7.5-11.4-16.3-26-35.6c-1.1-1.3-2.2-2.5-3.3-3.7l-0.2-0.2
	c-0.4-0.5-1-1.1-1.4-1.5c-2.6-2.8-4.7-5-6.9-7.2c-4.6-4.6-9.3-9-14.3-13.2c-1.2-1-2.3-2-4.3-3.6l0,0c-0.5-0.5-1.1-0.9-1.7-1.3l0,0
	c-0.8-0.7-1.9-1.5-2.8-2.2c0.8,0.7,1.8,1.5,2.6,2.2c-3.6-2-6.7-4.9-10.2-7.1c3.1,3.1,6.7,5.7,10.1,8.5c-12.2-8.6-12.2-8.6-41.5-25
	c2.5,3,2.5,3,3,4.3c-2.3-0.9-3.4-3.3-5.5-4.4c-0.1,0.5-0.2,1.2-0.3,1.7c0.4,0.4,1,0.9,1.5,1.2c-16.7-3.2-30.2-14-45.8-19.6
	c0.5,0.3,1.1,0.7,1.5,1c-0.5,0.1-1.2,0.1-1.7,0.2c0.9,0.5,2,1.3,2.8,1.9c-0.5-0.2-1.1-0.4-1.6-0.5c0,1,0.3,2.4,0.7,3.4
	c-0.5,0-1.2,0-1.7-0.1c2.8,8,11.4,8.5,16.8,13.1c-0.4,0.3-0.8,0.8-1.2,1.1c-7.1-3-7.1-3-9.2-2.6c0,0.5,0,1.2,0,1.7
	c0.5,0.3,0.5,0.3,4.6,2.6c-0.4,0.4-0.9,0.8-1.3,1.2c4.8,3.5,6,4.3,9.5,2.9c4,2,4.1,4.6,4.3,7.1c-0.5-0.2-1.2-0.4-1.8-0.6
	c-1.4,1-3.2,0.9-4.7,1.7c0.4,0.4,0.9,0.9,1.4,1.2c-0.9,1.6-3.4,6,3.8,8.2l0,1.1c-0.5,0-1.2,0-1.8,0c0.4,2.3,0.5,2.8,2.6,4.6
	c0.5-0.1,1.2-0.3,1.7-0.4c0.2-0.5,0.4-1.1,0.5-1.6c3.1,2.1,1.7,6.5,4.5,8.8c-0.2,0.5-0.4,1.1-0.6,1.6c0.7-0.7,1.9-1.2,2.9-1.2
	c1,1.5,2.5,2.5,3.7,3.8c0-0.1,0-0.3,0-0.4c-0.1-0.5-0.2-1.2-0.3-1.7c1,0.3,2.4,0.8,3.4,1.2c0.9,4.3,0.9,4.3,0.6,5.3
	c-0.5,0.1-1.2,0.1-1.7,0.2c-0.6,0.9-1.4,2-2,2.9c-0.5,0.1-1.2,0.2-1.6,0.2c0,1.1,0.4,2.5,0.8,3.4c-0.9,0.5-2.2,1-3.2,1.1
	c-0.2,0.5-0.5,1.1-0.8,1.5c-2.3,0.7-3.7,2.8-6.1,3.5c0.5,0.3,1.1,0.6,1.6,0.8c0.4-0.4,0.8-0.9,1.2-1.3c5.9-0.2,9.2-5.2,13.9-7.4
	c1-3.6,6.8-6.5,3.5-10.6c0.8-0.7,1.7-1.9,2.2-2.9c-0.4-1-1.2-2.1-2-2.8c0-0.5,0-1.2,0-1.7c0.9-0.5,2.3-1,3.4-1.2
	c0.4,0.4,0.9,0.9,1.3,1.3c-0.4,2-0.4,2,0.2,6.8c0.3,0,0.3,0,5.2-0.7c-0.4-2-0.4-2-2.8-5c9.2,3,10,5.1,10.6,6.5
	c27.6,9,65,78,65.1,78.6c-2.8,0.4-3.1-0.3-3.8-2.5c-0.5,0.3-1.1,0.8-1.5,1.1c6.1,13.3,3.1,28.1,6.6,41.9l5.2,20.8
	c0.9,7.2,7.9,11,9.8,17.6c0.1,0.6,0.1,0.6,0.1,0.7c0,0.1,0,0.1,0,0.2c0,0.1,0,0.2,0,0.3c0,0.1,0,0.3,0,0.4c0,0.2,0,0.3,0,0.5
	c0,0.2,0,0.4,0,0.5c0,0.2,0,0.4,0,0.6c0,0.2,0,0.4,0,0.5c0.4,2.4,1.1,4.8,1.6,7.2c0.1,1.3,0.1,1.6,0.1,1.9c0,0.2,0,0.5,0,0.7
	c0,0.2,0,0.4,0,0.6c0,0.2,0,0.3,0,0.5c0,0.1,0,0.2,0,0.4c0,0.1,0,0.2,0,0.3c0,0.1,0,0.2,0,0.2c0,0.1,0,0.1,0,0.2l7.6,33.7
	c2.2-3.9-4.5-40.4-4.6-40.7c0.5,0.2,1.2,0.5,1.7,0.7c7.5,23.3,5.1,48.8,15.6,71.5c0.9-0.4,2-1.3,2.6-2.2c1.5,8.7,1.5,8.7,0,24.6
	c-1.7,6.1-1.7,6.1-1.6,7.3c0.5-1,1.1-2.4,1.5-3.4c-0.3,1-0.5,1.6-0.7,2.3c0.4-1.1,0.8-2.3,1.2-3.4l0.1-0.2
	c-0.4-9.1,7.1-16.4,5.6-25.8c-0.5,0-1.2-0.1-1.7-0.1c5.4-18.5,5.3-23.7,5.3-23.9c-0.5,0.2-1.1,0.4-1.6,0.6
	c-1.1,4.1-3.2,13.5-3.2,13.6c-0.9,0.3-2.3,0.3-3.3,0.1c-0.7-13.8-1.3-23.8,5.8-50.1c0.5-0.1,1.1-0.2,1.6-0.3c0.6,0.9,1.4,2,2,2.8
	c0.3-2.2,0.3-2.3,0.1-5.7c0.5,0.1,1.1,0.3,1.6,0.4c0.1,0.5,0.2,1.3,0.3,1.8c0.1-0.5,0.3-1.2,0.4-1.7c0.2,1.8,0.4,2.9,0.4,9.7
	C511.7,260.4,511.7,260.4,511.7,260.4L511.7,260.4z"/>
<path id="XMLID_17313_" class="st1" d="M497,342.4c-0.2,0.6-0.4,1.1-0.6,1.7C496.7,343.4,496.8,342.9,497,342.4z"/>
<path id="XMLID_17312_" class="st1" d="M486.1,368.1c-2.8,4.6-4.9,9.6-7.7,14.2c0.4-0.5,0.7-1.1,1-1.6c0,0.1-1.6,3-4.4,7.5
	c3-4.8,5.8-9.7,8.4-14.8c1.4-2.8,2.8-5.6,4.2-8.4c-1,2.1-1.6,3.3-1.7,3.4C486,368.3,486,368.1,486.1,368.1z"/>
<path id="XMLID_17311_" class="st1" d="M468.2,399c-1.2,1.8-2.4,3.6-3.7,5.4C465.8,402.5,467.1,400.7,468.2,399z"/>
<path id="XMLID_17310_" class="st1" d="M489.3,361.5l0.2-0.6c-0.6,1.3-1.2,2.7-1.9,4C488.1,364,488.7,362.8,489.3,361.5z"/>
<path id="XMLID_17309_" class="st1" d="M422.8,61.5C422.8,61.5,422.8,61.5,422.8,61.5c0.1,0,0.1,0.1,0.1,0.1L422.8,61.5z"/>
<path id="XMLID_17308_" class="st1" d="M496.4,344.1c-0.4,1-0.8,2.1-1.2,3.2C495.8,345.9,496.1,344.9,496.4,344.1z"/>
<path id="XMLID_17307_" class="st1" d="M462.7,407c0.1-0.1,0.1-0.2,0.2-0.3c-0.2,0.2-0.3,0.5-0.5,0.7
	C462.4,407.3,462.5,407.1,462.7,407z"/>
<path id="XMLID_17306_" class="st1" d="M349,97.8c-0.3-0.2-0.4-0.5-0.7-0.7c-0.1-0.1-0.1-0.1-0.2-0.1c0,0-0.1,0-0.1,0
	c-0.3,0.3-0.9,0.6-1.4,0.8c-0.6-0.3-1.3-0.6-1.5-0.4c0,0-0.1,0.5,1.2,1.5c0.3,0.3,0.3,0.3,0.1,0.5c-0.3,0.3-1.5,0.9-1.7,1
	c-0.2,0.1-0.5,0.2-0.5,0.3c0,0,0,0.1,0,0.1c0.4,0.4,2.2,1,2.6,0.8c0.7-0.2,0.4-1.2,0.4-1.3c-0.2-0.5,0.5-0.6,0.7-0.9c0,0,0,0,0,0
	c0,0,0,0,0.3-0.2c1-0.4,1.2-0.9,1.2-1c0-0.1,0-0.2-0.1-0.2C349.3,97.8,349.2,97.9,349,97.8z"/>
<path id="XMLID_17305_" class="st1" d="M341.1,100.6c-0.2,0.1-0.5,0.2-0.9,0.7c0,0.1-0.1,0.2-0.2,0.2c-0.1,0-0.2,0.1-0.3,0.1
	c-0.4,0.1-0.7,0.1-1,0.3c-0.1,0.1-0.3,0.3-0.2,0.5c0.1,0.4,0.9,0.6,1.6,0.4c0.2-0.1,0.6-0.3,0.6-0.4c0.4-0.3,0.7-0.6,1.1-0.9
	c0.2-0.1,0.3-0.2,0.5-0.3c0.3-0.1,0.5-0.3,0.6-0.4c0.2-0.3-1.1-0.3-1.1-0.3C341.6,100.4,341.3,100.5,341.1,100.6z"/>
<path id="XMLID_17304_" class="st1" d="M333.8,103.8c-0.1,0-0.1,0-0.2,0c0,0-0.9,0.2-1.1,0.3c-0.2,0.2,0.1,0.4,0.2,0.4
	c0.5,0.3,1.7,0.1,1.6-0.5C334.3,104,334.2,103.8,333.8,103.8z"/>
<path id="XMLID_17303_" class="st1" d="M325.3,104.7c0-0.1-0.1-0.5-0.6-0.5c0,0-0.1,0-0.1,0c-0.1,0-1.7,0.5-1.7,0.5
	c0,0-0.6,0.4-0.2,0.6c0.1,0,0.2,0.1,0.2,0.1c0.3,0.1,0.6,0.1,0.9,0.2c0,0,0.1,0,0.1,0c0.1,0,0.2,0,0.4,0
	C324.8,105.5,325.4,105.3,325.3,104.7z"/>
<path id="XMLID_17302_" class="st1" d="M318.4,105.6c0,0-0.2-0.6-1.6-0.7h0h0h0h0h0h0h0h0c-0.6,0.1-0.6,1-0.5,1.1
	C316.6,106.5,318.2,106.4,318.4,105.6z"/>
<path id="XMLID_17301_" class="st1" d="M326.6,105.6C326.6,105.6,326.6,105.6,326.6,105.6c-0.8,0.2-0.8,0.2-0.9,0.3
	c-0.1,0.1-0.2,0.4-0.1,0.5c0,0,0.1,0,0.3,0c0,0,0.5,0,0.7,0c0.1,0,0.1,0,0.2,0c0.3,0.1,0.4,0.3,0.7,0.3c0.1,0,0.1-0.2,0.1-0.2
	C327.6,106,326.8,105.6,326.6,105.6z"/>
<path id="XMLID_17300_" class="st1" d="M335.4,46c1.3,0.3,2.4,0.5,3.2,0.9c0-0.1-0.1-0.1-0.1-0.2v0c-0.2-0.2-0.5-0.6-1-1.1
	c-0.6-0.5-1.3-0.8-1.9-1.2c-0.7-0.5-1.2-1.1-1.9-1.6c-0.4-0.3-0.8-0.3-0.9-0.3c-0.8,0-1.3,0.3-1.3,0.3c-0.1,0.1-0.2,0.2-0.1,0.5
	c0,0,2,2.3,2.2,2.5c0.7,0.6,3.3,1.7,3.4,1.8c0,0,0,0,0-0.1C336.8,47.3,336.6,47,335.4,46z"/>
<path id="XMLID_17299_" class="st1" d="M508.1,300.8L508.1,300.8c-0.2,1.2-0.5,2.5-0.7,3.8C507.7,303.4,507.9,302.1,508.1,300.8z"/>
<path id="XMLID_17298_" class="st1" d="M509.8,290.3C509.8,290.3,509.8,290.3,509.8,290.3L509.8,290.3
	C509.8,290.3,509.8,290.3,509.8,290.3z"/>
<path id="XMLID_17297_" class="st1" d="M510.3,284.2c0-0.6,0.3-1.3,0-1.9c-0.1,0.1-0.6,1.9-0.6,2c-0.4,1.7-0.4,1.9-0.3,2.1l0,1.2
	c0.3-1.2,0.6-2.4,0.7-2.5c0,0,0,0.7-0.1,1.2c-0.1,0.4,0,0.4,0,0.5c0,0,0.1,0,0.1,0c0.1,0.2,0,1.4-0.2,3.5c0,0.1,0,0.2,0,0.3
	c0-0.1,0-0.3,0.1-0.4c0.1-1,0.3-1.9,0.4-2.9c0.1-0.7,0.1-1.4,0.2-2c0-0.5,0.1-1.1,0.1-1.6C510.4,283.9,510.4,284,510.3,284.2
	C510.3,284.2,510.3,284.2,510.3,284.2z"/>
<path id="XMLID_17296_" class="st1" d="M478.7,372.8c0,0-2.3,4.3-2.4,4.7c0,0,0,0,0,0c0.1,0,0.9-0.9,1.2-1.3l0,0
	c0,0,2.2-4.5,2.1-4.7C479.6,371.5,479.1,372.1,478.7,372.8z"/>
<path id="XMLID_17295_" class="st1" d="M478.3,375.3c0,0.2-0.1,0.4-0.1,0.6c0,0,0,0.1,0,0.1c0,0,0.4-0.4,0.7-0.9
	c0.2-0.4,0.4-1,0.4-1.1c0,0,0,0,0,0C479.1,374,478.8,374.5,478.3,375.3z"/>
</svg>
