<?xml version="1.0" encoding="utf-8"?>
<!-- Generator: Adobe Illustrator 21.1.0, SVG Export Plug-In . SVG Version: 6.00 Build 0)  -->
<svg version="1.1" id="Warstwa_1" xmlns="http://www.w3.org/2000/svg" xmlns:xlink="http://www.w3.org/1999/xlink" x="0px" y="0px"
	 viewBox="0 0 512 512" style="enable-background:new 0 0 512 512;" xml:space="preserve">
<style type="text/css">
	.st0{fill:#009543;}
	.st1{fill:#FFFFFF;}
	.st2{fill:#FC3D32;}
</style>
<g>
	<path class="st0" d="M256,512c103.3,0,192.3-61.2,232.7-149.3H23.3C63.7,450.8,152.7,512,256,512z"/>
	<path class="st1" d="M256,0C152.7,0,63.7,61.2,23.3,149.3h465.5C448.3,61.2,359.3,0,256,0z"/>
	<path class="st2" d="M0,256c0,38.1,8.4,74.2,23.3,106.7h465.5c14.9-32.5,23.3-68.6,23.3-106.7s-8.4-74.2-23.3-106.7H23.3
		C8.3,181.8,0,217.9,0,256z"/>
	<path class="st2" d="M0,256c0,103.3,61.2,192.3,149.4,232.7V23.3C61.2,63.7,0,152.7,0,256z"/>
</g>
</svg>
