<?xml version="1.0" encoding="utf-8"?>
<!-- Generator: Adobe Illustrator 21.1.0, SVG Export Plug-In . SVG Version: 6.00 Build 0)  -->
<svg version="1.1" id="Warstwa_1" xmlns="http://www.w3.org/2000/svg" xmlns:xlink="http://www.w3.org/1999/xlink" x="0px" y="0px"
	 viewBox="0 0 512 512" style="enable-background:new 0 0 512 512;" xml:space="preserve">
<style type="text/css">
	.st0{fill:#0050F0;}
	.st1{fill:none;}
	.st2{fill:#FFFFFF;}
	.st3{fill:#ED0000;}
</style>
<path class="st0" d="M52.4,410.6l1.3-1h-2C51.9,409.9,52.1,410.2,52.4,410.6z"/>
<g>
	<path class="st0" d="M52.4,101.5c-0.2,0.3-0.5,0.6-0.7,1h2L52.4,101.5z"/>
	<g>
		<path class="st1" d="M256,0.1c-0.2,0-0.3,0-0.5,0h1.1C256.4,0.1,256.2,0.1,256,0.1z"/>
		<path class="st2" d="M53.6,409.6h406.7c22.4-29.8,38.7-64.4,46.4-102.3H187.4L53.6,409.6z"/>
		<path class="st3" d="M460.4,409.6H53.6l-1.3,1C99.1,472.1,172.7,512,256,512C339.7,511.9,413.7,471.6,460.4,409.6z"/>
		<path class="st3" d="M254.3,256l-66.9,51.2h319.4c3.3-16.5,5.2-33.6,5.2-51.2s-1.8-34.6-5.2-51.2H187.4L254.3,256z"/>
		<path class="st3" d="M52.4,101.5l1.3,1h406.7C413.8,40.6,340,0.3,256.6,0.2h-1.1C172.5,0.3,99,40.1,52.4,101.5z"/>
		<path class="st2" d="M187.4,204.8h319.4c-7.7-37.9-24-72.6-46.4-102.4H53.6L187.4,204.8z"/>
		<path class="st0" d="M187.4,204.8L53.7,102.4h-2C29.2,132.2,12.9,167,5.3,204.8c-3.3,16.5-5.2,33.6-5.2,51.2s1.8,34.6,5.2,51.2
			c7.7,37.9,24,72.5,46.4,102.3h2l133.7-102.3l66.9-51.2L187.4,204.8z"/>
	</g>
	<polygon class="st2" points="88.8,208.2 100.7,244.8 139.1,244.8 108.1,267.2 119.8,303.8 88.8,281.2 57.8,303.8 69.7,267.2 
		38.6,244.8 77,244.8 	"/>
</g>
</svg>
