<?xml version="1.0" encoding="utf-8"?>
<!-- Generator: Adobe Illustrator 21.1.0, SVG Export Plug-In . SVG Version: 6.00 Build 0)  -->
<svg version="1.1" id="Warstwa_1" xmlns="http://www.w3.org/2000/svg" xmlns:xlink="http://www.w3.org/1999/xlink" x="0px" y="0px"
	 viewBox="0 0 512 512" style="enable-background:new 0 0 512 512;" xml:space="preserve">
<style type="text/css">
	.st0{fill:#009A63;}
	.st1{fill:#FF823D;}
	.st2{fill:#FFFFFF;}
</style>
<g>
	<path class="st0" d="M0.5,256c0,103.2,61.2,192.2,149.3,232.6V23.4C61.7,63.8,0.5,152.8,0.5,256z"/>
	<path class="st1" d="M512.4,256c0-103.3-61.2-192.2-149.3-232.7v465.3C451.1,448.2,512.4,359.2,512.4,256z"/>
	<path class="st2" d="M256.4,0.1c-38.1,0-74.2,8.3-106.7,23.3v465.3c32.4,14.9,68.6,23.3,106.7,23.3s74.2-8.4,106.7-23.3V23.4
		C330.6,8.4,294.5,0.1,256.4,0.1z"/>
</g>
</svg>
