<?xml version="1.0" encoding="utf-8"?>
<!-- Generator: Adobe Illustrator 21.1.0, SVG Export Plug-In . SVG Version: 6.00 Build 0)  -->
<svg version="1.1" id="Warstwa_1" xmlns="http://www.w3.org/2000/svg" xmlns:xlink="http://www.w3.org/1999/xlink" x="0px" y="0px"
	 viewBox="0 0 512 512" style="enable-background:new 0 0 512 512;" xml:space="preserve">
<style type="text/css">
	.st0{fill:#003F87;}
	.st1{fill:#FCD856;}
	.st2{fill:#D62828;}
	.st3{fill:#FFFFFF;}
	.st4{fill:#007A3D;}
</style>
<g>
	<path class="st0" d="M0.1,256c0,29.5,5.1,57.7,14.2,84.1l164-328C75,45,0.1,141.7,0.1,256z"/>
	<path class="st1" d="M14.3,340.2c7.1,20.5,16.7,39.7,28.5,57.4L397.5,42.7C357,15.8,308.4,0.1,256,0.1c-27,0-53.2,4.3-77.7,12.1
		L14.3,340.2z"/>
	<path class="st2" d="M82.1,443.6l429.8-191.1C510.8,165,465.7,87.9,397.6,42.7L42.8,397.5C54.1,414.4,67.3,429.9,82.1,443.6z"/>
	<path class="st3" d="M116,470.3l357.5-79.4c24.3-39.2,38.4-85.3,38.4-134.8c0-1.1-0.1-2.2-0.1-3.3l-429.7,191
		C92.6,453.4,103.9,462.4,116,470.3z"/>
	<path class="st4" d="M473.5,390.8L116,470.3c40.2,26.3,88.3,41.7,140,41.7C347.9,511.9,428.4,463.5,473.5,390.8z"/>
</g>
</svg>
