<?xml version="1.0" encoding="utf-8"?>
<!-- Generator: Adobe Illustrator 21.1.0, SVG Export Plug-In . SVG Version: 6.00 Build 0)  -->
<svg version="1.1" id="Warstwa_1" xmlns="http://www.w3.org/2000/svg" xmlns:xlink="http://www.w3.org/1999/xlink" x="0px" y="0px"
	 viewBox="0 0 512 512" style="enable-background:new 0 0 512 512;" xml:space="preserve">
<style type="text/css">
	.st0{fill:#215B33;}
	.st1{fill:#0051BA;}
	.st2{fill:#FCD116;}
	.st3{fill:#FFFFFF;}
</style>
<path class="st0" d="M256,256L256,256L256,256z"/>
<path class="st1" d="M256,256L256,256L256,256z"/>
<g>
	<g>
		<path class="st0" d="M256,512c141.4,0,256-114.6,256-256c0-43.3-10.8-84-29.8-119.7L58.5,418.9C105.4,475.8,176.4,512,256,512z"/>
		<path class="st1" d="M256,0C114.6,0,0,114.6,0,256c0,43.2,10.8,83.9,29.8,119.6L453.5,93.1C406.6,36.2,335.6,0,256,0z"/>
		<path class="st2" d="M469,114c-4.9-7.2-9.9-14.2-15.5-20.9L29.7,375.7c4.1,7.7,8.4,15.2,13.3,22.4c4.9,7.2,9.9,14.2,15.4,20.9
			l423.8-282.6C478.2,128.6,473.8,121.2,469,114z"/>
	</g>
	<g>
		<g>
			<polygon class="st3" points="46.8,140.4 53.3,160.4 74.4,160.4 57.4,172.8 63.8,192.8 46.8,180.4 29.8,192.8 36.3,172.8 
				19.3,160.4 40.3,160.4 			"/>
			<polygon class="st3" points="154.6,140.4 161,160.4 182.1,160.4 165.1,172.8 171.6,192.8 154.6,180.4 137.5,192.8 144,172.8 
				127,160.4 148.1,160.4 			"/>
			<polygon class="st3" points="154.6,32.6 161,52.6 182.1,52.6 165.1,65 171.6,85 154.6,72.7 137.5,85 144,65 127,52.6 148.1,52.6 
							"/>
		</g>
		<polygon class="st3" points="100.7,86.4 107.2,106.5 128.3,106.5 111.3,118.9 117.8,138.8 100.7,126.5 83.7,138.8 90.2,118.9 
			73.2,106.5 94.2,106.5 		"/>
	</g>
</g>
</svg>
