<?xml version="1.0" encoding="utf-8"?>
<!-- Generator: Adobe Illustrator 21.1.0, SVG Export Plug-In . SVG Version: 6.00 Build 0)  -->
<svg version="1.1" id="Warstwa_1" xmlns="http://www.w3.org/2000/svg" xmlns:xlink="http://www.w3.org/1999/xlink" x="0px" y="0px"
	 viewBox="0 0 512 512" style="enable-background:new 0 0 512 512;" xml:space="preserve">
<style type="text/css">
	.st0{clip-path:url(#SVGID_2_);}
	.st1{fill:#078930;}
	.st2{fill:#FFFFFF;}
	.st3{fill:#DA121A;}
	.st4{fill:#0F47AF;}
	.st5{fill:#FCDD09;}
</style>
<g>
	<defs>
		<path id="SVGID_1_" d="M512,256c0,141.3-114.6,256-256,256C114.7,512,0,397.3,0,256S114.7,0,256,0S512,114.7,512,256z"/>
	</defs>
	<clipPath id="SVGID_2_">
		<use xlink:href="#SVGID_1_"  style="overflow:visible;"/>
	</clipPath>
	<g class="st0">
		<rect x="-47.4" y="-3.8" class="st1" width="1039.5" height="519.7"/>
		<rect x="-47.4" y="-3.8" class="st2" width="1039.5" height="363.8"/>
		<rect x="-47.4" y="-3.8" width="1039.5" height="155.9"/>
		<rect x="-47.4" y="178" class="st3" width="1039.5" height="155.9"/>
		<polygon class="st4" points="-47.4,-3.8 402.7,256 -47.4,515.8 		"/>
		<polygon class="st5" points="19.5,256 169.9,304.8 76.9,176.9 76.9,335.1 169.9,207.2 		"/>
	</g>
</g>
</svg>
