<?xml version="1.0" encoding="utf-8"?>
<!-- Generator: Adobe Illustrator 21.1.0, SVG Export Plug-In . SVG Version: 6.00 Build 0)  -->
<svg version="1.1" id="Warstwa_1" xmlns="http://www.w3.org/2000/svg" xmlns:xlink="http://www.w3.org/1999/xlink" x="0px" y="0px"
	 viewBox="0 0 512 512" style="enable-background:new 0 0 512 512;" xml:space="preserve">
<style type="text/css">
	.st0{fill:#FFCE00;}
	.st1{fill:#9C1E3D;}
	.st2{fill:#007229;}
	.st3{fill:#FF7300;}
	.st4{fill:#FECE00;}
</style>
<g>
	<g>
		<path class="st0" d="M195.1,29h179C338.8,10.5,298.7,0,256,0s-82.8,10.5-118.2,29h24.8v454h-24.8c35.4,18.4,75.5,29,118.2,29
			s82.8-10.5,118.2-29H195.1V29z"/>
		<path class="st1" d="M512,256c0-98.8-56-184.3-137.9-227h-179v454h179C456.1,440.3,512,354.7,512,256z"/>
		<path class="st2" d="M49.2,406.5v-301C18.3,147.8,0,199.7,0,256S18.3,364.2,49.2,406.5z"/>
		<path class="st3" d="M162.7,29h-24.8c-35.2,18.3-65.5,44.7-88.7,76.5v301c23.2,31.9,53.5,58.2,88.7,76.5h24.8V29z"/>
	</g>
	<g>
		<path class="st4" d="M256.8,165.9c1.2-2.7,2.6-5.7,5.2-7.6c-0.2,0.7-0.2,1.3-0.4,1.9c-1.7,8.7-2.1,17.7-2.6,26.6
			c-0.4,2.5-0.1,5.2-0.3,7.8c-0.4,3.9,0.1,7.9-0.4,11.8c-0.2,12.7-0.2,25.3-0.1,38c0.1,2.8-0.2,5.7,0.3,8.4c0.1,2.4,0.1,4.8,0.2,7.2
			c-5,2.3-10.7,1.9-16,0.6c0.1-0.5,0.3-1,0.4-1.4c0-2.1,0.4-4.3,0.5-6.4c0.4-3.1,0.4-6.4,0.8-9.4c0.2-2.5,0.3-5.2,0.7-7.7
			c0-2,0.4-4.1,0.5-6.1c0.3-2.3,0.4-4.8,0.7-7c0.8-5.7,1.2-11.6,2.1-17.2c0.1-1.5,0.3-2.9,0.5-4.4c0.4-1.7,0.5-3.3,0.8-5.1
			c0.2-1.3,0.4-2.7,0.7-4.1c0.2-1.1,0.4-2.2,0.6-3.3c0.3-1.2,0.5-2.5,0.8-3.7c0.4-1.9,0.8-3.7,1.2-5.7c0.6-2.2,1.1-4.5,1.8-6.7
			c0.4-1.3,0.7-2.5,1.1-3.7c0.2-0.4,0.4-0.9,0.6-1.3C256.5,166.8,256.6,166.4,256.8,165.9L256.8,165.9z"/>
		<path class="st4" d="M279.2,213.6c5.8,1.8,11.9,2.1,18,2.4c3.1,0.1,6.3,0.3,9.3,0.1c1.6-0.5,3.4-1.4,5.2-0.7
			c2.3,1.1,4.4,2.9,5.8,5.1c0.7,1.4,1.2,2.9,1.6,4.5c0,0.3,0.1,1.1,0.1,1.4c-1.6-0.7-3.2-1.4-5-1.7c-3.9-0.7-7.8-0.2-11.6,0.9
			c0.1-1.5,0.1-3.1,0-4.7c-0.2-0.2-0.6-0.4-0.8-0.5c-4.8,1.2-9.8,2.1-14.7,0.8C283.6,220.4,280.3,217.4,279.2,213.6L279.2,213.6z"/>
		<path class="st4" d="M230.2,255.5c1.5-2.3,4.6-3.4,7.3-3c1,0,2,0.6,2.9,1.2c0,0.7,0,1.4-0.1,2.1c-0.4,0.5-0.9,1-1.3,1.6
			c-0.3,0.7,0.4,1.2,0.8,1.7c2.6,2.6,6.5,3.5,10.1,3.7c4.1,0,8.3-0.7,11.8-2.9c-0.7-1.4-1-2.9-0.8-4.4c2.3-2.8,7-0.6,7.7,2.5
			c0.1,0.8,0.1,1.6,0,2.4c-1.8,3.5-5.8,5-9.4,5.7c-6.6,1.3-13.5,1-20-0.8c-3-0.9-6.3-2.3-8.2-5C229.9,259,230.1,257.1,230.2,255.5
			L230.2,255.5z"/>
		<path class="st4" d="M265.6,268.1c2.7-0.3,5.6-0.2,8,1.2c3.4,2,5.3,5.8,6.9,9.3c0.9,2.1,1.7,4.3,2.6,6.4c0.4,1,0.8,1.9,1.3,2.9
			c1.2,2.4,2.5,4.9,4.5,6.9c3.4,3.4,6.7,7.2,9,11.6c1,1.9,0.9,4.1,0.7,6.1c-0.1,0.3-0.3,0.6-0.5,0.8c-1.3,2.2-3.9,3.6-6.5,3.4
			c-4.4-0.2-8-3-11-6c-2.2-2.3-4.3-4.9-6-7.5c-0.3-0.6-0.9-0.9-1.4-1.3c-0.1,1-0.2,1.9-0.3,2.8c-0.2,0.6-0.4,1.1-0.6,1.7
			c-0.9,1-2.4,1-3.6,0.6c-2-0.6-4-1.6-5.6-2.9c0-0.1,0-0.4,0-0.5c0.9-1.2,1.8-2.4,2.8-3.5c0.6-0.8,1.2-1.5,1.4-2.3
			c0-0.9-0.3-1.8-0.6-2.6c-0.2-0.7-0.4-1.4-0.7-2.1c-0.9-2.4-2.2-4.8-4-6.8c0.8-0.6,1.9-1.1,2.1-2.2c-0.3-1.2-1.2-2.1-2-3
			c0.6-0.4,1.2-0.8,1.8-1.2c0-0.7,0-1.4-0.1-2.1c-0.3-0.7-0.8-1.2-1.4-1.7c0.6-0.3,1.2-0.7,1.8-1.1c0.1-1.5-0.3-2.9-0.9-4.4
			c0.2,0,0.5,0,0.7-0.1C264.8,269.6,265.2,268.9,265.6,268.1L265.6,268.1z"/>
		<path class="st4" d="M235.8,269.5c1.8-0.8,3.7-0.6,5.6-0.4c2.8,0.5,5.8,1.1,8.7,1c2.8-0.1,5.6-0.8,8.4-1c0.9-0.1,1.8,0.3,2.6,0.8
			c0,0.5,0,1.1,0,1.7c-2,1.5-4.6,1.8-6.9,2.1c-4,0.5-8.1,0.5-12.1,0c-2.2-0.4-4.7-0.8-6.3-2.5C235.8,270.5,235.8,270,235.8,269.5
			L235.8,269.5z"/>
		<path class="st4" d="M236.4,276.5c0.8-0.4,1.7-0.8,2.6-0.7c2.9,0.2,5.8,1.1,8.7,1c3.2,0.1,6.5-1.1,9.8-0.9c1.1,0,1.9,0.8,2.6,1.7
			c-0.8,0.8-1.8,1.5-2.8,1.8c-4.3,1.3-8.8,1.2-13.2,0.8c-2.6-0.3-5.6-0.4-7.7-2.2C236.4,277.5,236.4,277,236.4,276.5L236.4,276.5z"
			/>
		<path class="st4" d="M245.5,282.9c4.2,0.5,8.1-0.7,12.2-1.1c1.1-0.1,2,0.2,3,0.6c-0.1,0.1-0.4,0.1-0.6,0.1c0.1,0.2,0.1,0.7,0.1,1
			c-2.1,1.8-4.9,2.4-7.6,2.9c-3.6,0.7-7.5,0.5-11.1-0.4c-1.3-0.3-2.6-0.8-3.4-2l-0.2-0.2c0.2-0.4,0.3-0.8,0.5-1.3
			C240.7,281.9,243.1,282.8,245.5,282.9L245.5,282.9z"/>
		<path class="st4" d="M257.1,287.3c1.2-0.3,2.3-0.3,3.6-0.2c0,0.5,0,0.9,0,1.3c-0.9,0.8-2,1.5-3.1,2c-4.4,1.5-8.9,2-13.5,1.7
			c-2.1-0.2-4.3-0.3-6-1.4c-0.6-0.3-0.5-1.1-0.6-1.7c3.2-0.8,6.6-0.3,9.9-0.4C250.7,288.7,254,288,257.1,287.3L257.1,287.3z"/>
		<path class="st4" d="M401.6,290.2c4.9-2,10.3-3.5,15.7-2.5c2.9,0.5,5.6,2.3,7.2,4.9c0.7,1.1,1.1,2.3,1.6,3.6
			c0.1,0.4,0.2,0.9,0.3,1.4c0.1,0.9,0.1,1.9-0.2,2.9c-0.2,1.1-0.4,2.2-0.5,3.3c-1,4.2-2.2,8.2-3.6,12.2c-0.1,0.3-0.2,0.7-0.3,1
			c-0.3,0.8-0.6,1.7-0.7,2.6c1.8-0.4,3.3-1.6,5.1-2.3c2.6-1.2,5.6-1.3,8.4-0.8c-1.9,5.2-6.7,8.4-11.4,10.9c0,0.9,0,1.7-0.2,2.6
			c-0.1,1.3-0.3,2.5-0.6,3.6c-0.4,1.6-0.8,3.1-1.3,4.8c-0.2,0.7-0.4,1.5-0.7,2.2c-1.2,3.9-2.6,7.6-4,11.4c-7,0-13.9,0-20.8,0
			c0.9-2.2,2.5-4.3,2.9-6.7c-2.1,2-3.4,4.7-5.5,6.7c-2.4,0-5,0-7.4,0c2.2-2.6,4.4-5.3,6.5-8c-0.2,0-0.6,0-0.8-0.1
			c-2.9,3.1-6.2,6.1-10.1,7.9c-1,0.5-2.2,0.7-3.4,0.8c0-0.8,0.1-1.6,0.1-2.4c0.8-2.8,1.8-5.8,4.2-7.7c2.5-2.2,6.2-2.4,9.4-1.8
			c2.4,0.4,4.8,1.5,7.1,2.1c0.1-0.3,0.3-0.9,0.4-1.3c0.3-1.2,0.7-2.4,1-3.7c0.1-0.3,0.2-0.7,0.3-1c0.4-1.3,0.7-2.7,1-4.1
			c0.1-0.7,0.2-1.5,0.4-2.3c0.3-2.8,0.2-5.7-0.7-8.4c-0.9-2.1-2.6-3.5-4.1-5.4c-2.8-3-5.8-6.1-7.6-9.8c-0.2-0.4-0.4-0.8-0.6-1.3
			c-0.5-2.3-0.9-5.2,0.8-7.1C392.7,294.7,397.1,292.2,401.6,290.2L401.6,290.2z"/>
		<path class="st4" d="M235.3,294.4c0.8-0.5,1.6-1.2,2.6-1.1c1.2,0.1,2.5,0.3,3.7,0.8c1.2,0.5,1.6,1.8,2.2,2.8
			c0.2,0.3,0.5,0.6,0.7,0.9c0.2,0,0.4,0,0.5,0c1.8-1.5,3.7-3.2,6.2-3.6c2.1-0.2,3.7,1.5,4.9,3.1c1.2-0.9,2.2-2.2,3.6-2.9
			c1.1-0.6,2.4-0.7,3.6-0.8c0.2,0.1,0.5,0.3,0.7,0.4c0.2,0.5,0.5,0.9,0.7,1.4c0.3,1.3,0.7,2.7,0.1,4.1c-0.9,1.5-2.6,2.1-4.3,2.5
			c-2.3,0.4-4.9,0.3-7.2,0c1.9,1.4,2.6,4,2.4,6.2c0.1,1.8-0.9,3.3-1.3,5c0.4,2.7,3.5,3.4,5.8,4.1c-0.4-1.2-0.7-2.4-1-3.6
			c0-0.8,0-1.6-0.1-2.3c0.5-0.9,1-2,2.2-1.9c3.1,0,5.7,2.6,6.9,5.3c0,0.7,0,1.4,0,2.1c-1.1,2.1-3.4,3-5.7,3.3
			c-3.3,0.6-6.6,0.4-9.9,0.3c0,0.9,0,1.7,0.1,2.6c2,0.4,4.2,1.1,5.3,2.9c0.2,0.4,0.3,0.8,0.5,1.2c-1.4,1.8-4,1.5-5.9,0.9
			c0.2,1.4,0.2,2.9,0.1,4.5c-0.6,0.5-1,1.6-1.9,1.4c-1.2-0.8-1.8-2.1-2.4-3.4c-0.1-0.4-0.1-0.9-0.1-1.3c-0.3,0.1-0.8,0.4-1.1,0.5
			c-1.7,0.3-3.1-0.8-4.6-1.6c1.1-2.6,4.2-2.9,5.7-5.1c0.2-0.9,0.4-1.8,0.5-2.7c-3.6,0.4-7.4,0.6-10.9-0.3c-1.6-0.4-3.4-1.3-4.1-2.9
			c-0.4-0.9-0.2-1.8,0-2.6c0-0.2,0.1-0.6,0.2-0.8c0.6-1.1,1-2.3,1.9-3.3c1.6-0.9,3.6-1.2,5.4-0.3c1.4,1,1.1,2.9,1.1,4.5
			c-0.1,1-0.6,1.9-1.1,2.8c-0.2,0.1-0.6,0.3-0.8,0.4c3.2,0.8,6.6-1.9,6.6-5.3c-0.2-1-0.8-1.8-1.3-2.6c-0.3-1.4-0.2-2.8,0.2-4.2
			c0.7-1.1,1.5-2.1,2.3-3.1c-3.7,0.6-7.8,1.1-11.2-0.8c-1.3-0.7-2.2-1.9-2.8-3.2c0-0.7,0-1.5,0-2.3
			C234.8,295.3,235.1,294.8,235.3,294.4L235.3,294.4z"/>
		<path class="st4" d="M313.7,197.5c-0.5-0.7-1.2-1-1.6-1c-0.1,0-0.1,0-0.2,0c-0.3,0.1-0.7,0.4-0.9,0.9c-0.3,0.5-0.4,1.3-0.4,2.1
			c0,0.6,0.1,1.3,0.3,1.9c0.3,1.2,0.8,2.1,1.3,2.8c0.6,0.7,1.2,1,1.6,1c0.1,0,0.2,0,0.3,0c0.4-0.1,0.7-0.4,0.9-0.9
			c0.3-0.5,0.4-1.2,0.4-2.1c0-0.6-0.1-1.3-0.3-1.9C314.8,199.2,314.2,198.2,313.7,197.5z M466.2,314.4c-2.4-1.6-3.6-4.4-4.4-7.1
			c-0.1-2.4-0.1-4.8,0-7.2c0.3-2.3,0.7-4.6,1.4-6.8c0.2-0.5,0.4-1.1,0.6-1.7c0.2-0.5,0.5-1.1,0.7-1.7c1.1-2.7,2.3-5.4,3.5-8
			c1.6-3.6,3.2-7.4,4.6-11.2c0.8-2.2,1.5-4.7,2-7.1c0.7-3.2,1.2-6.7,0.7-10c-0.4-3.2-1.9-6.4-4.5-8.6c-1.7-1.8-4.1-2.6-6.3-3.7
			c2.2-2.4,4.2-5.2,5.3-8.2c1.8-4.3,3.1-9.1,2-13.8c0-0.2-0.1-0.5-0.2-0.7c-0.6-1.9-1.6-3.7-2.9-5.3c-3.5-4.2-8.8-6.4-14-7.9
			c-8.6-2.4-17.6-2.8-26.6-2.4c-1.1,0-2.2,0.2-3.3,0.6c-4.2,1.4-8.4,2.7-12.9,2.8c-2.5,0.1-4.9-1.1-7-2.3c-3.1-2-5.8-4.9-8.5-7.5
			c-0.3,0-0.5,0-0.7,0c-0.1,1.3-0.4,2.6-0.5,3.9c-0.3,1.4-0.4,2.7-0.7,4.2c-1.4-0.9-2.6-2.3-3.4-4l-0.1-0.1
			c-0.2-0.6-0.4-1.2-0.7-1.8c-0.1-1,0-2,0-3c0.6-1.3,1.3-2.5,2.1-3.7c0.2-0.1,0.7-0.2,0.8-0.3c-2.7-1-5.9-2.1-8.8-0.8
			c-2.3,1.2-4.1,3.2-5.8,5.2c0.1-0.7,0.2-1.5,0.3-2.2c0.8-1.7,1.3-3.4,2.2-5.1c1.1-2.1,2.4-4.5,4.9-5.4c2.2-0.3,4.5,0.6,6.5,1.6
			c2.3,1.3,4.6,2.8,6.5,4.6c0.2,0,0.4,0.1,0.6,0.1c0-3.6-0.1-7.3,0-10.9c2.6,3.1,4.8,6.6,7.2,9.8c0.3,0.4,0.7,0.7,1.1,1
			c0.4-3,1.2-6,1.2-9c0.2-0.1,0.5-0.1,0.7-0.1c0.8,1.1,1.5,2.3,2.1,3.4c0.1,1,0.1,2,0,3c-0.7,1.6-1.6,3.1-2.6,4.6
			c2.4,0,5.2,0.1,7.3-1.2c1.8-1.6,2.1-4.2,2.6-6.4c1.2,0.4,1.8,1.6,2.7,2.5c2,2.4,4.3,4.9,7.2,6.2c2.6,1.3,5.6,1.8,8.4,2.3
			c-0.8-2.3-2.3-4.4-2.9-6.6c0.1,0.1,0.3,0.3,0.4,0.4c6.5,3.2,12.8,7.4,20,8.9c3,0.6,6.4,0.6,8.8-1.4c1.4-1.3,2.5-3.1,2.3-5.2
			c0.1-3.4-4.2-6.1-7.2-4.3c-1.5,0.7-2.3,2.3-2.9,4c-0.1,1.3-0.1,2.6-0.1,4.1c-1.9-0.9-3.5-2.1-5.3-3.1c-11.5-7-23.5-13.1-36.4-17
			c-6.5-1.9-13.4-3.5-20.2-2.7c-5.4,1.1-10.6,2.7-15.3,5.5c-3.7,2.2-7,5.4-8.8,9.3c-1.4,3.5-1.8,7.5-1.2,11.1
			c0.2,1.2,0.5,2.5,0.7,3.7c-2.1,1.6-3.6,3.9-4.2,6.6l-0.2,0.3c-0.1,1.6-0.2,3.2,0.2,4.9c0.3,1.3,0.7,2.5,1.3,3.7
			c0.3,0.5,0.6,1,0.9,1.5c0.1,0,0.3,0,0.5-0.1c0.4-1.3,0.8-2.5,1.3-3.9c1.2-2.6,2.8-5.2,5.4-6.6c0.9-0.5,2-1,3-0.5
			c1.9,1,3.5,2.5,5.4,3.7c1.8,1.2,3.7,1.9,5.9,2.5c4.3,1.2,8.5,1.9,12.8,2.6c2.2,0.2,4.4,0.1,6.6,0.1c5.8-0.1,11.5-0.3,17.1-1.5
			c4.5-1.3,8.7-3.1,13.3-4.3c2.5-0.6,5.2-1.2,7.7-0.2c4.9,1.5,8.9,5.6,10.5,10.4c0.2,1,0.4,2,0.4,3c0,3,0,6,0,9
			c-3.2-0.1-6.6-0.3-9.6-1.3c-2-0.6-4-1.6-6.1-2.3c-3-1.2-6.5-1.5-9.7-1.2c-11.4,0.2-22.3,3.5-33.3,5.7c-2.5,0.5-5.2,0.7-7.7,1.4
			c-8.1,2-16.4,1.8-24.5,3.5c-2.5,0.6-5.2,1.1-7.7,0.9c0.2,0,0.5-0.2,0.7-0.3c0.7-1.1,1.3-2.1,2-3.1c-0.9-1.6-1.3-3.3-1.8-5.1
			c-0.5,0.6-1.1,1-2,1c-0.2,0-0.5,0-0.8-0.1c-0.9-0.3-1.7-1.5-2.7-3.2c-0.9-1.7-1.9-4-2.8-6.1c-1.3-3-2.3-6-2.8-7.5l-1.4,12.2
			l-8.4-12.1c0.6,2.3,1.7,7.5,1.7,9.5c0,0.3,0,0.5-0.1,0.7c0,0.2-0.1,0.4-0.4,0.4h-0.1c-0.4,0-1.1-0.3-1.9-0.7
			c-0.8-0.4-1.8-1-2.7-1.6c-1.3-0.8-2.5-1.6-3.1-2c0,1.3-0.1,5.4-0.3,8c-0.1,1-0.2,1.8-0.4,2.2c-0.1,0.1-0.1,0.2-0.3,0.2l0,0
			c-0.1,0-0.1,0-0.2,0c-0.3-0.1-0.8-0.7-1.5-1.5c-0.7-0.8-1.5-1.8-2.3-2.9c-1.6-2-3.2-4.1-3.2-4.1l0.4-0.3c0,0,3.4,4.6,5.5,7
			c0.5,0.6,1,1.1,1.2,1.3c0,0,0.1-0.1,0.1-0.2c0.1-0.3,0.1-0.7,0.2-1.2c0.1-1,0.2-2.3,0.3-3.6c0.1-2.7,0.1-5.4,0.1-5.4v-0.5l0.4,0.3
			c0,0,3.9,2.6,6.2,3.9c0.8,0.4,1.4,0.7,1.6,0.7l0,0c0-0.1,0.1-0.3,0.1-0.6c0-1.3-0.5-4-1-6.4c-0.5-2.3-1-4.4-1-4.4l0.4-0.2l8.4,12
			l1.4-12l0.5-0.1c0,0,0.8,2.3,1.9,5.4c1.2,3,2.6,6.7,4.2,9.2c0.9,1.7,1.9,2.8,2.4,3c0.2,0.1,0.4,0.1,0.6,0.1c0.7,0,1.3-0.5,1.7-1.1
			c0,0-0.2,0-0.2,0.1l2.3-21.1c-0.8-0.2-2-1-3.1-2c-1.3-1.1-2.9-2.6-4.5-4.1c-2.3-2.2-4.5-4.5-5.4-5.5l0.5,12.6l-4.5-4.1
			c0.1,0.6,0.2,1.6,0.2,2.5c0,0.6-0.1,1.1-0.2,1.6c-0.1,0.4-0.4,0.8-0.9,0.8l0,0c-0.5,0-1.1-0.4-2-0.9c-0.8-0.6-1.8-1.2-2.7-1.9
			c-1.2-0.9-2.3-1.8-2.9-2.3c0.1,0.9,0.3,2.4,0.3,3.7c0,0.7,0,1.4-0.2,2c-0.1,0.5-0.4,1-0.9,1.1c0,0-0.1,0-0.2,0
			c-0.6,0-1.3-0.4-2.2-0.9c-0.9-0.5-1.9-1.3-2.8-2c-0.9-0.7-1.7-1.3-2.4-1.9c0.4,0.8,1,1.7,1.6,2.8c1.2,2.2,2.4,4.7,2.4,5.9
			c0,0.2-0.1,0.4-0.2,0.6c-0.1,0.2-0.3,0.3-0.5,0.3l0,0l0,0c-0.7,0-1.7-0.6-3-1.4c-1.2-0.9-2.6-2-4-3.1c-2.6-2.2-5-4.5-5.1-4.5l0,0
			l0.4-0.4c0,0,1.3,1.2,3.1,2.8c1.7,1.5,4,3.4,5.9,4.8c1.2,0.8,2.2,1.3,2.7,1.3l0,0c0.1,0,0.1,0,0.1-0.1c0.1,0,0.1-0.1,0.1-0.3
			c0-0.9-1.2-3.4-2.3-5.7c-1.2-2.2-2.4-4.1-2.4-4.1l0.4-0.3c0,0,0.9,0.8,2.2,1.8c1.2,1,2.8,2.2,4.2,3c0.9,0.5,1.7,0.8,2,0.8
			c0.1,0,0.1,0,0.1,0c0.2,0,0.4-0.3,0.5-0.7c0.1-0.5,0.2-1.2,0.2-1.9c0-2-0.4-4.4-0.4-4.4l-0.1-0.7l0.5,0.4c0,0,0.9,0.8,2.1,1.7
			c1.2,1,2.7,2.1,4,2.9c0.8,0.5,1.5,0.8,1.7,0.8l0,0c0.2,0,0.3-0.1,0.4-0.5c0.1-0.4,0.2-0.9,0.2-1.4c0-1.5-0.3-3.2-0.3-3.2l-0.1-0.7
			l4.7,4.3l-0.5-12.8l0.5,0.5c0,0,1.6,1.7,3.6,3.7c2,2.1,4.6,4.6,6.6,6.3c1.2,1,2.3,1.5,2.9,1.7l0.8-6.8c-0.6-3.1-2-6.1-4.1-8.6
			c0-0.1,0-0.2,0-0.3c2.4-1.1,4.9-2.4,6.1-4.9c0.9-1.7,1.3-3.5,1.7-5.4c0.1-0.4,0.2-0.8,0.3-1.2c-5,2-10.2,4.9-15.7,3.2
			c-0.1-1.4-0.6-2.7-1.5-3.9c-2-2.4-4.7-4.3-7-6.3c-0.1,0-0.4,0-0.6-0.1c0,1.9,0,3.7-0.1,5.7c-0.6,1.8-1.4,4.5-4,4.3
			c-1.2-1.7-2.4-3.5-4.1-5c-2.1-2-5.1-3-8-2.9c0.1,0.4,0.3,0.8,0.5,1.2c0.1,1.8,0.1,3.6,0,5.5c-1,2.4-3.1,4.7-6,4.7
			c-0.9-1.8-2-3.9-3.6-5.3c-1.7-1.5-4.2-2-6.4-1.3c-2.3,0.5-4.2,2.1-6.2,3c3.5,0.5,7.6,2,9.3,5.6c-3.5,0.3-7.1,1.2-10.4,2
			c-4.6,1.2-9.1,2.4-13.6,3.9c-0.8,0.2-1.5,0.3-2.3,0.3c0.2-0.1,0.5-0.2,0.8-0.3c0.9-1.3,1.8-2.6,1.8-4.3c-0.7-0.7-1.5-1.4-2.5-1.6
			c-2.7-0.5-6.1-0.3-7.9,2c-0.2,1.7-0.2,3.4,0.5,5c1,2,2.3,3.9,4,5.5c1.5,1.5,3,3,5.1,3.9c1.8-0.8,3.1-2.3,5.1-2.9
			c1.2,2.4,2.5,5,4.7,6.8c1.9,1.6,4.5,2.3,6.9,2.9c0-2.1-0.1-4.1,0-6.2c2.2,2.1,4.3,4.4,6.4,6.4c1.8,1.6,3.4,3.4,5,5.2
			c0.8,1,1.4,2.2,2,3.4c0.2,0.5,0.3,0.9,0.5,1.4c0.1,0.4,0.3,0.9,0.4,1.4c0.1,0.4,0.2,0.9,0.3,1.3c0.1,0.6,0.2,1.3,0.3,1.9
			c-3.1-1.1-6.3-2.4-9.6-2.6c-2.9-0.2-5.8,0.6-8.6,1c0-1.7,0-3.3,0.1-5.1c-1.9,0.2-3.7,0.9-5.7,1.1c-2.2,0.2-4.5,0.3-6.6,0.1
			c-3.3-0.5-6.5-1.5-9.7-2.2c1.1,2.2,1.7,4.7,2.4,7.1c0.4,2.3,1.1,5.2-0.5,7.1c-1.3,1.4-2.7,2.7-4.1,4.1c1.8,1,4.1,0.7,5.9-0.2
			c3.2-1.6,6-4.2,8.3-6.9c-0.4,3.9-0.9,7.8-2,11.6c0.2,0,0.5,0,0.6,0c2-1.2,3.1-3.3,3.9-5.6c0.2-0.9,0.4-1.8,0.6-2.7
			c0.2-1,0.2-2.1,0.3-3.2c1-0.1,2.1-0.1,3.1,0c-0.1,0.5-0.2,1-0.4,1.6c-0.1,0.5-0.2,0.9-0.4,1.4c0,0.7,0,1.5,0,2.2
			c0.2,0.7,0.5,1.4,0.7,2.1c0.8,1.4,2,2.8,3.6,3.4c0-1.6,0-3.2,0-4.9c0.4-1.3,0.6-2.5,1.3-3.7c0.7-1.3,2-1.9,3.3-2.3
			c0,0.4-0.1,1-0.1,1.4c-0.3,1-0.6,2.2-0.8,3.2c-0.2,1-0.4,2-0.5,2.9c-0.1,0.2-0.3,0.5-0.4,0.6c0.9,0,1.9,0,2.7-0.5
			c1.9-1.1,3-3.1,4.1-5.1c0.1-0.1,0.5-0.4,0.6-0.5c1.2,0.5,3,1.2,2.9,2.8c0,2.4-0.2,5,0,7.4c-3.9,1.4-7.7,3.3-11.1,5.7
			c-2.8,1.9-5.6,4.1-8.4,6c-4.6,3.2-8.4,7.7-10.5,13c-2.1,5.2-2.3,11-0.6,16.4c0,0.2,0.1,0.5,0.1,0.7c0.2,0.4,0.3,0.8,0.5,1.3
			c0.1,0.4,0.3,0.9,0.5,1.4c1,2,1.9,4.1,3.4,5.7c2.3,2.4,4.8,4.9,6.7,7.8c4,3.3,8.4,6,12.7,9c0-2,0-4-0.1-6
			c-0.4-2.8-0.1-5.7-0.6-8.4c0-3.2-0.4-6.4-0.4-9.5c-0.4-1.6-0.2-3.2-0.1-4.9c0.1,2.8,1,5.5,1.4,8.3c0.1,2.1,0.4,4.3,0.4,6.4
			c0,1.7-0.1,3.3,0.1,5c0.2,1.3,0.6,2.5,0.9,3.7c0.5,2.1,1.1,4.2,1.5,6.2c0.3,1.3,0.7,2.6,1.1,4c0.5,2.2,0.9,4.5,1.4,6.8
			c0.5,3.5,0.7,7.2,0,10.7c-0.8,2.6-2.2,5.4-4.8,6.7c-2.9,1.1-6.1,0-9.1,0.6c-1.8,0.4-3.9,0.3-5.5,1.5c-1.6,1.2-2.3,3.3-3,5.3
			c-0.1,0.7-0.3,1.4-0.5,2.1c-0.2,0.9-0.5,1.8-0.7,2.7c-0.1,0.1-0.4,0.2-0.7,0.3c1.9,0.3,4.1,0.4,5.9-0.6c2.7-1.4,4.6-4,6.9-5.8
			c-0.3,1.6-1.3,2.8-2.3,4.1c-0.1,0.3-0.3,0.6-0.5,0.9c-0.2,0.5-0.4,0.9-0.6,1.5c1.9,0.1,3.9,0,5.6-0.8c3.2-1.3,5.4-4.3,8-6.5
			c0,0.2,0,0.6,0,0.8c-0.1,0-0.2,0.1-0.2,0.1c-1.1,2.2-2.5,4.3-4,6.3c8.5,0.1,17,0,25.6,0c1.7,0.2,3-1.3,3.7-2.7
			c0.6-2.7-0.7-5.4-1.7-7.9c-0.2-0.8-0.6-1.6-0.9-2.3c-0.1-0.8-0.1-1.6-0.1-2.4c1.9-2.7,5.4-3.2,8-4.9c1.8-1.1,3.3-2.8,4.3-4.8
			c0.4-0.9,0.6-2,0.7-3.1c-1.6,0.2-3.3,0.4-5,0.7c-4.4,0.8-8.3,2.5-12.4,4.3c0.3-0.8,0.8-1.7,1.1-2.5c0.7-1.6,1.4-3.3,2-5.1
			c0.2-0.8,0.5-1.6,0.6-2.3c0.4-1.5,0.6-3.1,1.6-4.6c3.1-4.3,6.8-8,9.7-12.4c3.4-4.7,6.3-9.7,8.6-15c0-0.2,0.1-0.6,0.1-0.9h0.4
			c0-0.2-0.1-0.5-0.2-0.7h0.4c0-0.2,0-0.7-0.1-1l0.3,0.1c0.2-0.9,0.5-1.9,0.7-2.9c0,0.7,0.1,1.5,0.1,2.2l-0.3-0.1
			c0,0.2,0,0.7-0.1,0.8c-0.1,0.5-0.2,1-0.3,1.6h-0.2c-0.3,1.3-0.8,2.6-1.3,3.9c-0.4,1-0.8,2-1.3,3c-0.2,0.3-0.3,0.7-0.5,1.1
			c-1.5,2.9-3.2,5.9-5.3,8.6c-2.9,4.4-6.6,8.1-10.1,12c0,0.7,0,1.3,0,2c-0.2,0.1-0.4,0.3-0.6,0.4c2,0,3.7-0.5,5.7-0.9
			c14.8-3.2,28.8-9.6,42-17.3c3.3-2.1,7-3.6,10.1-6c3.3-2.2,7-4,10.9-5.2c4.7-1.4,9.8-2.3,14.5-0.4c2.5,0.9,4.6,2.9,5.9,5.2
			c2.6,2.3,5,5,7.7,7.1c1.8,1.4,3.3,3.1,5.1,4.7c2.4,2.2,5.4,4.6,6.1,8c0.2,0.7,0.3,1.3,0.5,2c0.1,2.9,0.1,5.9-0.1,8.8
			c0.1,2.8,0.1,5.6,0.3,8.4c-0.2,2-0.2,4.1-0.6,6.1c-0.2,0.3-0.3,0.7-0.4,1c-1.7,1.6-4.3,0.8-6.2-0.1c-3-1.4-6.6-2.5-9.9-1.5
			c-3.7,1.2-6.1,4.7-7.3,8.2c-0.4,1.2-0.7,2.4-0.9,3.7c-0.1,1-0.2,2.1-0.2,3.1c1.4,0,2.8,0,4.1-0.6c1.5-0.7,2.4-2,3.9-2.7
			c-0.4,1-0.8,2-1.2,3c-0.2,0-0.4,0.1-0.6,0.2c2.7,0.5,5.7,0.5,8.2-0.8c1.7-0.8,2.8-2.3,4.3-3.6c-0.2,1.7-1,3.2-2.1,4.6
			c1.3,0.4,2.6,0.6,4,0.7c3,0.2,6.2,0.6,9.2,0.7c0.1-1.4,0.1-3,0.2-4.5c1.7,0.5,3.3,1.3,5.2,1.8c3.6,1,7.6,1.4,11.1-0.1
			c1.2-0.6,1.3-2,1.7-3.1c-0.1-0.5-0.2-1.1-0.2-1.6c-0.1-1-0.3-2.1-0.6-3c-0.2-0.7-0.4-1.4-0.6-2.1c-0.4-1.8-0.8-3.7-0.8-5.7
			c0.4-2,1.3-3.9,2.7-5.4c-2.4-1.1-4.4-3.2-5-5.8c2.8,0,5.7-0.2,8.3-1.1c3.1-1,5.5-3.5,7-6.5C474.2,316.8,469.7,316.9,466.2,314.4z
			 M315.8,204.8c-0.3,0.7-0.9,1.2-1.6,1.4c-0.2,0-0.3,0-0.5,0c-0.9,0-1.7-0.5-2.4-1.4c-0.7-0.8-1.2-2-1.5-3.2
			c-0.2-0.7-0.2-1.5-0.2-2.1c0-0.9,0.2-1.8,0.5-2.5c0.3-0.7,0.9-1.3,1.6-1.4c0.2,0,0.3,0,0.5,0c0.9,0,1.7,0.6,2.4,1.4
			c0.7,0.8,1.2,2,1.5,3.2c0.2,0.7,0.3,1.5,0.3,2.2C316.2,203.3,316.1,204.2,315.8,204.8z M313.3,193.2l0.4-0.3c0,0,0.5,0.6,1.5,1.5
			c1,0.9,2.3,2.2,4,3.5c3.2,2.5,7.5,5.1,11.4,5.1h0.1c-1-1.2-3.7-4.5-3.9-7.2c0-0.2,0-0.3,0-0.4l0.1-0.4l0.3,0.2c0,0,2.1,1.4,5,2.7
			s6.4,2.7,9.2,2.7c0.7,0,1.4-0.1,1.9-0.3c-0.4-0.4-1.3-1.2-2.2-2c-1.3-1.3-2.5-2.7-2.6-3.9c0-0.1,0-0.2,0-0.2v-0.2h0.2
			c0,0,1.2,0.2,2.8,0.3c1.7,0.2,3.9,0.4,6,0.4c2.9,0,5.9-0.4,7-1.4l0.3,0.4c-1.4,1.2-4.3,1.5-7.3,1.5c-3.7,0-7.6-0.6-8.6-0.7
			c0.1,0.8,1.2,2.2,2.4,3.3c1.2,1.2,2.5,2.2,2.5,2.2l0.3,0.3l-0.3,0.2c-0.7,0.4-1.6,0.5-2.5,0.5c-5.1,0-12.3-4.4-14-5.4
			c0,1.4,1,3.2,2,4.7c1,1.4,2,2.5,2,2.5l0.3,0.4l-0.5,0.1c-0.2,0-0.4,0-0.6,0C322.2,203.4,313.3,193.2,313.3,193.2z M328.9,247.8
			c-1.6-0.5-3.4-3.1-5-5.7c-0.9-1.6-1.7-3.1-2.2-4.2l-0.3,5.7l0,0l0,0l0,0h-0.5l0.4-6.6l0.5-0.1c0,0,1.1,2.4,2.5,5
			c1.3,2.2,2.9,4.7,4.3,5.4c-0.2-1.7-0.9-8-0.9-11.4c0-0.8,0-1.4,0.2-1.8l0.5,0.2c-0.1,0.2-0.1,0.8-0.1,1.6c0,1.9,0.2,4.9,0.5,7.3
			s0.5,4.5,0.5,4.5l0.1,0.4L328.9,247.8z M358.9,247.5h-0.1h-0.1c-2.2-0.4-4.8-3.6-7.1-6.8c-0.8-1.2-1.6-2.4-2.2-3.4
			c1.5,5.1,1.9,12,1.9,12v0.4l-0.3-0.1c-5.3-1.3-9.9-9.3-11.5-12c0.1,5.3,3.1,9.1,4.8,10.8c0.5,0.6,0.9,0.8,0.9,0.8l0.3,0.3
			l-0.4,0.1c-0.3,0.1-0.6,0.1-0.8,0.1c-1.3,0-2.7-0.9-4.2-2.2c-1.4-1.4-2.9-3.1-4.3-5c-2.6-3.5-4.7-7.2-4.7-7.2l0.4-0.2
			c0,0,1.1,1.9,2.7,4.5c1.6,2.5,3.9,5.5,6,7.5c1.4,1.3,2.8,2.1,3.9,2.1c0.1,0,0.1,0,0.3,0c-1.2-1.2-5.5-5.7-5.5-12.1
			c0-0.2,0-0.4,0-0.7l0.1-0.9l0.4,0.8c0,0,0.4,0.7,1,1.8c0.6,1,1.5,2.5,2.6,4c2,2.8,4.8,5.9,7.6,6.7c0-0.8-0.2-2.9-0.6-5.5
			c-0.4-3-1.2-6.7-2.4-8.9c-0.1-0.1-0.1-0.2-0.1-0.2l0.4-0.2l0,0l0,0v0.1l0,0c0.3,0.5,1.8,3.3,3.9,6.3c2.1,3.1,4.9,6.4,6.7,6.6
			c0.1,0,0.1-0.1,0.2-0.1c0.2-0.1,0.4-0.4,0.6-0.7c0.5-0.7,0.9-1.7,0.9-3.4c0-0.3,0-0.5-0.1-0.8l0.5-0.1c0,0.3,0,0.6,0,0.9
			C361,246.3,359,247.5,358.9,247.5z"/>
	</g>
	<path class="st4" d="M205.5,40.8c0.6-0.5,1.3-1,2-1.4c3.3,2.6,6.1,5.8,9.1,8.6c2.8-3.2,7.5-3.6,11.5-3.2c2.4,0.4,5.3,1.2,6.5,3.5
		c4.3,6.8,7.4,14.2,10.7,21.4c1,2.1,1.9,4.3,3,6.3c0.1,0.3,0.2,1,0.2,1.3c-3.3-1.1-6.8-1.3-10.2-1.7c-5.9-0.5-11.9-0.9-17.5-2.7
		c-4.2-1.4-8.6-3.9-10.1-8.2c-0.2-2.6-0.4-5.2,0.1-7.7c0.2-0.8,0.5-1.6,0.7-2.4c0.2-0.5,0.4-1,0.6-1.5c0.4-0.8,1-1.5,1.3-2.4
		C212.3,46.3,208.6,43.7,205.5,40.8L205.5,40.8z"/>
	<path class="st4" d="M205.5,471.2c0.6,0.5,1.3,1,2,1.4c3.3-2.5,6.1-5.8,9.1-8.6c2.8,3.2,7.5,3.6,11.5,3.2c2.4-0.4,5.3-1.2,6.5-3.5
		c4.3-6.7,7.4-14.2,10.7-21.4c1-2.1,1.9-4.3,3-6.3c0.1-0.3,0.2-1,0.2-1.3c-3.3,1.1-6.8,1.3-10.2,1.7c-5.9,0.5-11.9,0.9-17.5,2.7
		c-4.2,1.5-8.6,3.9-10.1,8.2c-0.2,2.6-0.4,5.2,0.1,7.7c0.2,0.8,0.5,1.6,0.7,2.4c0.2,0.5,0.4,1,0.6,1.5c0.4,0.8,1,1.5,1.3,2.4
		C212.3,465.7,208.6,468.3,205.5,471.2L205.5,471.2z"/>
</g>
</svg>
