<?xml version="1.0" encoding="utf-8"?>
<!-- Generator: Adobe Illustrator 21.1.0, SVG Export Plug-In . SVG Version: 6.00 Build 0)  -->
<svg version="1.1" id="Warstwa_1" xmlns="http://www.w3.org/2000/svg" xmlns:xlink="http://www.w3.org/1999/xlink" x="0px" y="0px"
	 viewBox="0 0 512 512" style="enable-background:new 0 0 512 512;" xml:space="preserve">
<style type="text/css">
	.st0{fill:#378E01;}
	.st1{fill:#E0012E;}
	.st2{fill:#FFFFFF;}
	.st3{fill:#FFCC00;}
</style>
<g>
	<g>
		<path class="st0" d="M256,512c95.5,0,178.7-52.4,222.7-129.9H33.3C77.3,459.6,160.5,512,256,512z"/>
		<path class="st1" d="M256,0C160.5,0,77.3,52.4,33.3,129.9h445.3C434.7,52.4,351.5,0,256,0z"/>
		<path class="st2" d="M33.3,382.1h445.3C499.7,344.9,512,301.9,512,256s-12.3-88.9-33.3-126.1H33.3C12.2,167.1,0,210.1,0,256
			S12.2,344.9,33.3,382.1z"/>
	</g>
	<g>
		<path id="_x3C_Path_x3E__15_" class="st3" d="M209.6,311.3l5,7l9.6-0.3l-7.4,8.4l-14.5,0.4l-4.6-6.1l8.4-1.3L209.6,311.3z"/>
		<path id="_x3C_Path_x3E__14_" class="st3" d="M243.8,315.8h6.6l5.6-4.6l5.5,4.6h6.6l-5.9,8.7h-12.4L243.8,315.8z"/>
		<path id="_x3C_Path_x3E__13_" class="st3" d="M327.3,346.8c-25.6-5.3-42.9-7.9-71.4-7.9s-45.7,2.6-71.2,7.8v-11
			c25.5-5.3,42.7-7.9,71.2-7.9s45.9,2.6,71.4,7.9V346.8z"/>
		<path id="_x3C_Path_x3E__12_" class="st3" d="M302.1,311.3l-5,7l-9.6-0.3l7.4,8.4l14.6,0.4l4.6-6.1l-8.4-1.3L302.1,311.3z"/>
		<path class="st3" d="M330.7,310c-18.3,0.4-22.5-13.1-24.9-19c-6.5,8.5-10.1,12-21,11.8c-10.9,0.2-18-4.2-23.3-12.8V253
			c7.9-1.8,13.8-7.4,13.8-14.1c0-8.1-8.6-14.7-19.2-14.7c-10.6,0-19.3,6.6-19.3,14.7c0,6.6,5.8,12.2,13.7,14v37
			c-5.3,8.5-12.4,13-23.4,12.8c-10.7,0.2-14.5-3.2-21-11.8c-2.4,6-6.6,19.5-24.9,19.1c-10.3,0.3-16.7-3.1-21-13
			c5,14,9.9,21.8,25,22.3c13.9,0.2,20.3-7.9,23.3-13.4c10,5.3,11,6.5,25.2,6.1c10.6-0.4,16.7-7.3,22.2-13.8
			c5.5,6.6,11.6,13.5,22.2,13.8c14.2,0.3,15.2-0.8,25.2-6.1c3,5.5,9.3,13.6,23.2,13.4c15.2-0.5,20.2-8.4,25.6-22.2
			C347.4,306.8,341,310.3,330.7,310z M246,239c0-3.2,4.5-5.9,10-5.9c5.5,0,10,2.6,10,5.9c0,3.1-4.5,5.7-10,5.7
			C250.5,244.6,246,242.1,246,239z"/>
		<polygon class="st3" points="255.9,165.2 259.3,175.6 270.3,175.6 261.4,182.1 264.8,192.6 255.9,186.1 247,192.6 250.4,182.1 
			241.5,175.6 252.5,175.6 		"/>
		<polygon class="st3" points="306.6,178.4 310,188.8 321,188.8 312,195.3 315.5,205.7 306.6,199.2 297.7,205.7 301.1,195.3 
			292.2,188.8 303.2,188.8 		"/>
		<polygon class="st3" points="344,218 347.3,228.5 358.4,228.5 349.4,234.9 352.8,245.4 344,239 335,245.4 338.5,234.9 
			329.6,228.5 340.5,228.5 		"/>
		<polygon class="st3" points="354.8,266.2 358.2,276.6 369.1,276.6 360.3,283.1 363.6,293.5 354.8,287.1 345.9,293.5 349.2,283.1 
			340.3,276.6 351.4,276.6 		"/>
		<polygon class="st3" points="205.6,178.4 209.1,188.8 220,188.8 211.1,195.3 214.5,205.7 205.6,199.2 196.7,205.7 200.2,195.3 
			191.2,188.8 202.2,188.8 		"/>
		<polygon class="st3" points="168.3,217.8 171.7,228.3 182.6,228.3 173.8,234.7 177.2,245.2 168.3,238.7 159.4,245.2 162.8,234.7 
			153.9,228.3 164.9,228.3 		"/>
		<polygon class="st3" points="157.3,266.2 160.6,276.6 171.7,276.6 162.8,283.1 166.1,293.5 157.3,287.1 148.4,293.5 151.7,283.1 
			142.9,276.6 153.8,276.6 		"/>
	</g>
</g>
</svg>
