<?xml version="1.0" encoding="utf-8"?>
<!-- Generator: Adobe Illustrator 21.1.0, SVG Export Plug-In . SVG Version: 6.00 Build 0)  -->
<svg version="1.1" id="Warstwa_1" xmlns="http://www.w3.org/2000/svg" xmlns:xlink="http://www.w3.org/1999/xlink" x="0px" y="0px"
	 viewBox="0 0 512 512" style="enable-background:new 0 0 512 512;" xml:space="preserve">
<style type="text/css">
	.st0{fill:#1EB53A;}
	.st1{fill:#00A3DD;}
	.st2{fill:#FCD116;}
</style>
<g>
	<path class="st0" d="M256,0C114.6,0,0,114.6,0,256c0,14.8,1.5,29.2,4,43.3L393,39.9C353.3,14.8,306.5,0,256,0z"/>
	<path class="st1" d="M256,512c141.4,0,256-114.6,256-256c0-14.8-1.5-29.2-4-43.3L119,472.1C158.6,497.2,205.5,512,256,512z"/>
	<path class="st2" d="M119,472.1L508,212.7c-1.9-11.5-4.5-22.8-7.9-33.7l-409,272.7C99.9,459.1,109.3,465.8,119,472.1z"/>
	<path class="st2" d="M393,39.9L4,299.3c1.9,11.5,4.5,22.8,7.9,33.7l409-272.7C412.1,52.9,402.7,46.1,393,39.9z"/>
	<path d="M469,114c-13.5-20.1-29.7-38.1-48.1-53.7L11.9,333c7.3,23.3,17.9,45.1,31.2,65c13.4,20.1,29.7,38.1,48,53.6l409-272.6
		C492.8,155.7,482.3,133.9,469,114z"/>
</g>
</svg>
