<?xml version="1.0" encoding="utf-8"?>
<!-- Generator: Adobe Illustrator 21.1.0, SVG Export Plug-In . SVG Version: 6.00 Build 0)  -->
<svg version="1.1" id="Warstwa_1" xmlns="http://www.w3.org/2000/svg" xmlns:xlink="http://www.w3.org/1999/xlink" x="0px" y="0px"
	 viewBox="0 0 512 512" style="enable-background:new 0 0 512 512;" xml:space="preserve">
<style type="text/css">
	.st0{fill:#01247D;}
	.st1{fill:#FFFFFF;}
	.st2{fill:#CF142B;}
</style>
<g>
	<path class="st0" d="M19.6,157.7c-2.9,7-5.6,14.2-7.9,21.5h40.2L19.6,157.7z"/>
	<path class="st0" d="M492.1,354.6c2.9-7.2,5.7-14.5,8-21.9h-40.8L492.1,354.6z"/>
	<path class="st0" d="M74.3,436.2c28.9,29.1,64.7,51.4,104.9,63.9V366.4L74.3,436.2z"/>
	<path class="st0" d="M179.1,11.8c-40.2,12.6-76.2,34.9-105.1,64.1L179.1,146V11.8z"/>
	<path class="st0" d="M500.1,179.1c-2.3-7.3-5-14.5-7.9-21.5l-32.3,21.5H500.1z"/>
	<path class="st0" d="M332.8,500.1c40.1-12.6,76-34.9,104.9-63.9l-104.9-69.9V500.1z"/>
	<path class="st0" d="M11.8,332.8c2.3,7.5,5,14.8,8,21.9l32.8-21.9H11.8z"/>
	<path class="st0" d="M437.8,75.9C409,46.6,373,24.3,332.8,11.8V146L437.8,75.9z"/>
	<path class="st1" d="M507.9,300.7H300.7v207.2c10.8-1.9,21.6-4.5,32-7.7V366.4l104.9,69.9c11.9-12,22.5-25,31.8-39.2l-96.8-64.3
		h60.8l52.7,35.1c2.1-4.4,4.1-8.7,6-13.2l-32.8-21.9h40.8C503.5,322.3,506,311.7,507.9,300.7z"/>
	<path class="st1" d="M179.1,11.8V146L74.1,75.9C62.5,87.5,52.1,100.3,43,114l98,65.2H80.1l-54-35.9c-2.3,4.7-4.5,9.5-6.5,14.4
		L52,179.1H11.8c-3.2,10.4-5.8,21.1-7.7,32h207.2V4C200.2,5.9,189.6,8.4,179.1,11.8z"/>
	<path class="st1" d="M4,300.7c1.9,10.9,4.5,21.6,7.7,32h40.8l-32.8,21.9c6.3,15,13.9,29.2,22.7,42.6l96.8-64.4H179v13.9L62.9,423.9
		c3.6,4.3,7.5,8.3,11.3,12.4l104.9-69.9v133.8c10.4,3.2,21.1,5.8,32,7.7V300.7H4z"/>
	<path class="st1" d="M500.1,179.1h-40.2l32.3-21.5c-6.4-15.4-14.3-30.1-23.5-43.8l-98.3,65.4h-37.8v-15.3l115.5-76.8
		c-3.3-3.7-6.8-7.5-10.3-11.1l-105.1,70.1V11.8c-10.4-3.2-21.1-5.8-32-7.8v207.2h207.2C506,200.2,503.5,189.6,500.1,179.1z"/>
	<path class="st2" d="M507.9,211.2H300.7V4c-14.6-2.5-29.5-4-44.8-4s-30.3,1.4-44.8,4v207.2H4c-2.6,14.6-4,29.5-4,44.8
		s1.4,30.2,4,44.8h207.2v207.2c14.5,2.6,29.5,4,44.8,4s30.2-1.4,44.8-4V300.7h207.2c2.6-14.6,4.1-29.5,4.1-44.8
		C511.9,240.6,510.5,225.8,507.9,211.2z"/>
	<path class="st2" d="M372.8,332.8l96.8,64.3c6.2-9.3,11.9-19.2,16.8-29.3l-52.7-35.1H372.8z"/>
	<path class="st2" d="M332.8,179.1h37.8l98.3-65.4c-6.3-9.4-13.2-18.2-20.6-26.8l-115.5,76.8V179.1z"/>
	<path class="st2" d="M179.1,332.8h-39.9l-96.8,64.4c6.3,9.4,13.1,18.3,20.5,26.8l116.2-77.3L179.1,332.8L179.1,332.8z"/>
	<path class="st2" d="M140.9,179.1L43,114c-6.3,9.3-11.9,19.2-16.8,29.3l54,35.9L140.9,179.1L140.9,179.1z"/>
</g>
</svg>
