<?xml version="1.0" encoding="utf-8"?>
<!-- Generator: Adobe Illustrator 21.1.0, SVG Export Plug-In . SVG Version: 6.00 Build 0)  -->
<svg version="1.1" id="Warstwa_1" xmlns="http://www.w3.org/2000/svg" xmlns:xlink="http://www.w3.org/1999/xlink" x="0px" y="0px"
	 viewBox="0 0 512 512" style="enable-background:new 0 0 512 512;" xml:space="preserve">
<style type="text/css">
	.st0{clip-path:url(#SVGID_2_);}
	.st1{fill:#FFFFFF;}
	.st2{fill:#0038A8;}
	.st3{fill:#FCD116;}
</style>
<g>
	<defs>
		<path id="SVGID_1_" d="M511.7,255.7c0,141.3-114.5,255.7-255.7,255.7C114.7,511.4,0.3,397,0.3,255.7S114.7,0,256,0
			S511.7,114.4,511.7,255.7z"/>
	</defs>
	<clipPath id="SVGID_2_">
		<use xlink:href="#SVGID_1_"  style="overflow:visible;"/>
	</clipPath>
	<g class="st0">
		<g>
			<rect x="-5.9" y="340.8" class="st1" width="770.7" height="57"/>
			<rect x="-5.9" y="455" class="st1" width="770.7" height="57"/>
		</g>
		<rect x="-5.9" y="397.8" class="st2" width="770.7" height="57.1"/>
		<rect x="-5.9" y="283.7" class="st2" width="770.7" height="57.1"/>
		<rect x="-5.9" y="169.5" class="st2" width="770.7" height="57.1"/>
		<rect x="-5.9" y="112.4" class="st1" width="770.7" height="57"/>
		<rect x="-5.9" y="55.3" class="st2" width="770.7" height="57.1"/>
		<rect x="-5.9" y="226.6" class="st1" width="770.7" height="57"/>
		<rect x="-5.9" y="-1.8" class="st1" width="770.7" height="57.1"/>
		<rect x="-5.9" y="-1.8" class="st1" width="285.4" height="285.4"/>
		<path class="st3" d="M133.8,95.1c40.3-25,18-43.1,45.8-50.1c-19.4,18.1,10.6,25-19.4,59.8l-14.4,17.7L133.8,95.1z"/>
		<path d="M133.8,95.1l0.3,0.5C154.4,83,159,72.1,162,63.5c3-8.6,4-14.3,17.8-17.8l-0.2-0.7l-0.4-0.4c-5.7,5.3-7.3,9.8-7.3,14.3
			c0,5,1.9,9.8,1.9,16c0,7.2-2.6,16.2-14,29.6L146,121.3l-11.6-26.4L133.8,95.1l0.3,0.5L133.8,95.1l-0.6,0.3l12,27.4l0.4,0.9
			l15.1-18.5c11.6-13.5,14.4-22.9,14.4-30.4c0-6.4-2-11.3-1.9-16c0-4.1,1.4-8.2,6.9-13.3l1.8-1.7l-2.4,0.6
			c-14.1,3.5-15.8,10.3-18.7,18.7c-2.9,8.5-7.3,19-27.3,31.5l-0.5,0.3l0.2,0.5L133.8,95.1z"/>
		<path d="M145.1,114.9c26.3-20.5,16.9-61.3,34.8-69.3l-0.6-1.1c-19.1,9.4-9.2,49.8-35,69.5L145.1,114.9L145.1,114.9z"/>
		<path class="st3" d="M167,106.3c46.3,10.5,43.1-17.9,67.8-3.3c-26.6-0.9-10,25.1-55.9,28.8l-22.7,2.5L167,106.3z"/>
		<path d="M167,106.3l-0.1,0.6c7.6,1.7,13.8,2.4,19.1,2.4c20.4,0,26.4-10.1,36.1-10c3.3,0,7.2,1.1,12.4,4.2l0.3-0.5l0-0.7l-1.3,0
			c-12.7-0.1-15.4,6.7-20.2,13.4c-4.9,6.6-12,13.7-34.5,15.5l-21.6,2.3l10.4-26.9L167,106.3l-0.1,0.6L167,106.3l-0.6-0.2L155.6,134
			l-0.4,1l23.7-2.6c22.6-1.8,30.4-9.1,35.4-16c5-6.9,7.1-12.8,19.2-12.9l1.2,0.1l2.5,0.1l-2.2-1.3c-5.3-3.2-9.4-4.4-13.1-4.4
			c-10.7,0.1-16.2,10-36.1,10c-5.2,0-11.3-0.7-18.8-2.4l-0.5-0.1l-0.2,0.5L167,106.3z"/>
		<path d="M161,128.3l5.4,0.3c27.4-0.1,46.9-26.1,63.3-25.9l4.9,0.8l0.5-1.2l-5.4-1c-17.5,0.2-36.6,26-63.3,25.9l-5.2-0.4L161,128.3
			z"/>
		<path class="st3" d="M182.7,138c25.4,40,43.3,17.7,50.5,45.4c-18.3-19.3-24.8,10.8-60-18.9l-17.8-14.2L182.7,138z"/>
		<path d="M182.7,138l-0.5,0.3c12.8,20.1,23.8,24.7,32.4,27.6c8.6,2.9,14.4,3.9,18,17.6l0.6-0.1l0.5-0.5c-5.3-5.5-9.8-7.2-14.2-7.1
			c-5.2,0-10.1,2-16.4,2c-7.2,0-16.2-2.6-29.5-13.8l-17-13.6l26.3-11.8L182.7,138l-0.5,0.3L182.7,138l-0.3-0.6l-27.3,12.3l-1,0.4
			l18.6,14.9c13.4,11.4,22.8,14.1,30.3,14.1c6.6,0,11.6-2.1,16.4-2c4.1,0,8.1,1.4,13.2,6.8l1.7,1.8l-0.6-2.4
			c-3.6-14.1-10.4-15.7-18.8-18.6c-8.5-2.8-19.1-7.1-31.7-27l-0.3-0.5l-0.5,0.2L182.7,138z"/>
		<path d="M162.9,149.4c20.7,26.2,61.4,16.4,69.6,34.2l1.1-0.5c-9.5-19-49.9-8.8-69.8-34.5L162.9,149.4L162.9,149.4z"/>
		<path class="st3" d="M171.5,170.9c-10.2,46.4,18.3,43,3.9,67.8c0.6-26.5-25.3-9.8-29.3-55.6l-2.6-22.7L171.5,170.9z"/>
		<path d="M171.5,170.9l-0.6-0.1c-1.6,7.4-2.3,13.5-2.3,18.7c0,20.9,10.4,26.8,10.3,36.6c0,3.3-1.1,7.2-4,12.3l0.6,0.3h0.6l0-0.9
			c0-12.9-6.7-15.6-13.4-20.4c-6.7-4.8-13.9-11.9-15.9-34.4l-2.5-21.6l27,10.2L171.5,170.9l-0.6-0.1L171.5,170.9l0.2-0.6l-28-10.5
			l-1-0.3l2.7,23.7c1.9,22.7,9.5,30.4,16.4,35.3c6.9,5,12.8,7,12.9,19.3v0.9l-0.1,2.5l1.2-2.2c3.1-5.3,4.2-9.3,4.2-12.9
			c-0.1-10.8-10.3-16.2-10.3-36.6c0-5.1,0.6-11.1,2.2-18.4l0.1-0.6l-0.5-0.2L171.5,170.9z"/>
		<path d="M149.4,165l-0.3,5c0.1,27.6,26.6,47.1,26.4,63.5l-0.8,4.8l1.2,0.4l0.9-5.2c-0.2-17.7-26.5-36.6-26.4-63.5l0.3-4.8
			L149.4,165z"/>
		<path class="st3" d="M140.6,186.1c-39.8,25.8-17.3,43.4-44.9,50.9c19.1-18.4-11.1-24.7,18.4-60.1l14.1-18L140.6,186.1z"/>
		<path d="M140.6,186.1l-0.4-0.5c-20,12.9-24.5,24-27.3,32.6c-2.9,8.7-3.8,14.4-17.5,18.2l0.2,0.6l0.5,0.4c5.5-5.2,7-9.7,7-14
			c0-5.3-2.2-10.3-2.2-16.7c0-7.1,2.5-16.1,13.6-29.3l13.4-17.1l12.1,26.2L140.6,186.1l-0.4-0.5L140.6,186.1l0.6-0.2l-12.5-27.2
			l-0.4-1l-14.7,18.8c-11.1,13.4-13.8,22.7-13.8,30.2c0,6.8,2.2,11.9,2.2,16.7c0,4-1.4,8-6.7,13.1l-1.8,1.7l2.4-0.7
			c14-3.7,15.6-10.5,18.3-19c2.8-8.5,7-19.1,26.8-31.9l0.5-0.3l-0.2-0.5L140.6,186.1z"/>
		<path d="M129,166.5c-26,20.9-15.9,61.6-33.6,69.9l0.6,1.1c18.9-9.6,8.4-49.9,33.8-70L129,166.5z"/>
		<path class="st3" d="M107.2,175.5c-46.4-9.8-42.8,18.6-67.7,4.4c26.6,0.4,9.6-25.4,55.4-29.7l22.6-2.8L107.2,175.5z"/>
		<path d="M107.2,175.5l0.1-0.6c-7.1-1.5-13.1-2.1-18.2-2.1C67.8,172.8,62,183.5,52,183.4c-3.3,0-7.1-1.1-12.2-4l-0.3,0.6v0.7H40
			c13.1,0.1,15.9-6.8,20.5-13.5c4.8-6.8,11.7-14.1,34.4-16.2l21.6-2.7l-9.9,27.1L107.2,175.5l0.1-0.6L107.2,175.5l0.6,0.2l10.3-28.1
			l0.4-1l-23.7,3c-22.8,2.1-30.4,9.8-35.3,16.7c-4.9,7-6.9,12.9-19.5,13h-0.6l-2.5,0l2.1,1.3c5.2,3,9.3,4.1,12.8,4.1
			c11.1-0.2,16.3-10.6,37.2-10.6c5,0,10.9,0.6,17.9,2.1l0.5,0.1l0.2-0.5L107.2,175.5z"/>
		<path d="M112.8,153.4l-4.7-0.3c-27.9,0.1-47.3,27.1-63.8,27l-4.7-0.8l-0.4,1.2l5.1,0.8c17.8-0.2,36.7-27.1,63.8-27l4.5,0.2
			L112.8,153.4z"/>
		<path class="st3" d="M91,144.1c-26.1-39.6-43.5-16.9-51.2-44.5c18.6,18.9,24.7-11.2,60.3,17.9l18,14L91,144.1z"/>
		<path d="M91,144.1l0.5-0.4c-13.1-19.9-24.2-24.3-32.8-27c-8.7-2.8-14.4-3.7-18.3-17.3l-0.6,0.2l-0.5,0.4c5.2,5.3,9.7,6.9,14,6.9
			c5.4,0,10.5-2.3,17.2-2.3c7,0,16,2.5,29.2,13.3l17.3,13.3l-26.1,12.2L91,144.1l0.5-0.4L91,144.1l0.3,0.6l27.1-12.7l1-0.4
			l-18.9-14.6c-13.3-10.9-22.6-13.6-30-13.6c-7,0-12.1,2.3-17.2,2.3c-4,0-7.9-1.3-13.1-6.6l-1.7-1.8l0.7,2.4
			c3.8,14,10.6,15.5,19.2,18.2c8.5,2.7,19.2,6.8,32.1,26.5l0.3,0.5l0.5-0.3L91,144.1z"/>
		<path d="M110.6,132.3c-21.1-25.7-61.7-15.3-70.3-33l-1.1,0.6c9.8,18.8,50,7.9,70.4,33.2L110.6,132.3z"/>
		<path class="st3" d="M102.2,111.7c9.4-46.5-19-42.7-5-67.7c-0.2,26.5,25.4,9.4,30.2,55.1l3,22.6L102.2,111.7z"/>
		<path d="M102.2,111.7l0.6,0.1c1.4-6.8,2-12.7,2-17.6c0-21.9-11.1-27.6-10.9-37.8c0-3.2,1.1-7.1,3.9-12.1L97.2,44h-0.6v0.2
			c-0.1,13.4,6.7,16.1,13.6,20.7c6.9,4.7,14.2,11.5,16.6,34.3l2.8,21.6l-27.2-9.7L102.2,111.7l0.6,0.1L102.2,111.7l-0.2,0.6l28.2,10
			l1,0.3L128,99.1c-2.4-22.9-10.2-30.4-17.2-35.2c-7.1-4.9-13-6.8-13-19.6V44l0-2.5l-1.2,2.2c-2.9,5.2-4,9.2-4,12.7
			c0.1,11.2,11,16.3,10.9,37.8c0,4.9-0.6,10.6-1.9,17.4l-0.1,0.5l0.5,0.2L102.2,111.7z"/>
		<path d="M124.4,117.1l0.2-4.3C124.5,84.6,96.9,65.4,97,48.8l0.7-4.6l-1.2-0.4l-0.8,4.9c0.2,17.8,27.6,36.6,27.5,64.1l-0.2,4.1
			L124.4,117.1z"/>
		<polygon class="st3" points="149.7,110 209,69 167.8,128.2 239,141.3 167.8,153.9 209,213.4 149.7,172.1 136.8,243.1 124,172 
			64.6,212.9 105.8,153.7 34.7,140.6 105.8,128 64.6,68.5 124,109.9 136.8,38.9 		"/>
		<polygon points="149.7,110 150,110.5 206.5,71.6 166.7,128.7 235.3,141.3 166.7,153.5 206.5,210.9 149.2,171 136.8,239.5 
			124.4,170.9 67.2,210.4 106.8,153.3 38.3,140.6 106.8,128.4 67.1,71 124.4,111 136.8,42.5 149.2,111.1 150,110.5 149.7,110 
			150.3,109.9 136.8,35.2 123.5,108.8 62.1,65.9 104.7,127.5 31.1,140.6 104.7,154.2 62.1,215.4 123.5,173.1 136.8,246.7 
			150.1,173.1 211.6,216 168.9,154.4 242.6,141.3 168.9,127.8 211.5,66.5 149.3,109.4 149.7,110 150.3,109.9 		"/>
		<polyline points="136,39.2 136.2,242.5 137.5,242.5 137.3,39.2 		"/>
		<polyline points="64.1,68.9 208.6,213.9 209.5,213 65,68 		"/>
		<polyline points="34.7,141.3 239,142 239,140.7 34.7,139.9 		"/>
		<polyline points="65.1,213.4 209,70 208.1,69 64.2,212.5 		"/>
		<path class="st3" d="M170.2,142c0,18.5-15,33.5-33.5,33.5c-18.5,0-33.5-15-33.5-33.5c0-18.5,15-33.5,33.5-33.5
			C155.2,108.5,170.2,123.4,170.2,142z"/>
		<path d="M170.2,142h-0.6c0,18.2-14.7,32.8-32.8,32.8c-18.2,0-32.9-14.7-32.9-32.8c0-18.2,14.7-32.9,32.9-32.9
			c18.1,0.1,32.8,14.7,32.8,32.9H170.2h0.6c0-18.9-15.3-34.1-34.1-34.1c-18.9,0-34.1,15.3-34.1,34.1c0,18.9,15.3,34.1,34.1,34.1
			c18.8,0,34.1-15.3,34.1-34.1H170.2z"/>
		<path d="M112.1,127.5l1.3,0.5l10.4-2.1c3.5,1.1,8.3,3.9,8.9,3.4l-7-5.6l-7.5,0.3L112.1,127.5"/>
		<path d="M119.7,154.6c-0.8,1.3-2.4,4.9,0.4,0.3C122.9,150.3,120.4,153.3,119.7,154.6"/>
		<path d="M118.7,129.7l0.2,5.6L118.7,129.7z"/>
		<path d="M126.9,132.7l-3.2,3.2l-4.1-2.4c0-1.5,1.7-3.9,5.4-3.8L126.9,132.7z"/>
		<polygon points="114,131.9 123.4,128.8 130.5,130.8 125.2,130.5 		"/>
		<polygon points="115.1,132.9 121.3,135.6 129.3,134.8 123,136.8 		"/>
		<path d="M161.3,127.5l-6.1-3.5l-7.5-0.3l-6.9,5.6c0.6,0.5,5.3-2.3,8.8-3.4L160,128L161.3,127.5"/>
		<polygon points="136.7,149.5 131.2,148 124,150.2 127.7,147.2 131.5,142.7 130.3,145.4 133.5,145.4 136.7,147.8 139.9,145.4 
			143.1,145.4 142,142.7 145.7,147.2 149.4,150.2 142.2,148 		"/>
		<path d="M153.9,154.6c-0.8-1.3-3.2-4.3-0.4,0.3C156.2,159.5,154.7,155.9,153.9,154.6"/>
		<path d="M154.9,129.7l-0.2,5.6L154.9,129.7z"/>
		<path d="M146.5,132.7l3.2,3.2l4.1-2.4c0-1.5-1.7-3.9-5.4-3.8L146.5,132.7z"/>
		<polygon points="159.4,131.9 150,128.8 142.9,130.8 148.2,130.5 		"/>
		<polygon points="158.3,132.9 152.1,135.6 144.1,134.8 150.4,136.8 		"/>
		<path d="M141.4,153.3l-4.7,0.9l-4.7-0.9c-2,0-6.1,2-11.3,2.1c9.9,4.2,8.6,5.2,16.1,5.2c7.5,0,6.2-1,16-5.2
			C147.4,155.3,143.4,153.3,141.4,153.3z M136.6,158.2c-4.4,0-6.7-0.6-9.3-1.4c1.6-0.1,4.1-0.5,9.3-0.5c5.3,0,7.7,0.4,9.4,0.5
			C143.4,157.5,141,158.2,136.6,158.2z"/>
		<polygon points="138.9,164 136.7,164.5 134.6,164 136.7,163.5 		"/>
	</g>
</g>
</svg>
