<?xml version="1.0" encoding="utf-8"?>
<!-- Generator: Adobe Illustrator 21.1.0, SVG Export Plug-In . SVG Version: 6.00 Build 0)  -->
<svg version="1.1" id="Warstwa_1" xmlns="http://www.w3.org/2000/svg" xmlns:xlink="http://www.w3.org/1999/xlink" x="0px" y="0px"
	 viewBox="0 0 512 512" style="enable-background:new 0 0 512 512;" xml:space="preserve">
<style type="text/css">
	.st0{fill:#D21034;}
	.st1{fill:#009543;}
	.st2{fill:#FFCE00;}
	.st3{fill:#FECE12;}
</style>
<g>
	<path class="st0" d="M507.6,209.6C485.8,90.4,381.6,0,256,0C194.4,0,137.8,21.8,93.6,58.1l264.5,151.5H507.6z"/>
	<path class="st1" d="M93.6,453.9C137.8,490.2,194.4,512,256,512c125.6,0,229.8-90.4,251.6-209.6H358.2L93.6,453.9z"/>
	<path d="M69.4,81.1L351,242.3h160.3c-0.6-11-1.7-22-3.7-32.7H358.2L93.6,58.1C85,65.2,77,72.9,69.4,81.1z"/>
	<path d="M52,101.8C19.5,144.7,0,198,0,256s19.5,111.3,52,154.2L321.3,256L52,101.8z"/>
	<path d="M69.4,430.9c7.6,8.1,15.6,15.9,24.2,23l264.5-151.5h149.5c1.9-10.6,3.1-21.7,3.7-32.7H351.1L69.4,430.9z"/>
	<path class="st2" d="M511.3,242.3H351.1L69.4,81.1c-6.2,6.6-12,13.5-17.4,20.7L321.3,256L52,410.2c5.5,7.2,11.2,14.2,17.4,20.8
		L351,269.7h160.3c0.2-4.6,0.7-9,0.7-13.7C512,251.4,511.6,246.9,511.3,242.3z"/>
	<g>
		<path class="st3" d="M96.1,183.3c6.2-0.5,12.5,0.7,18.4,2.3c5.6,1.5,10.9,3.7,16,6.5c10.3,5.8,19.1,14.2,24.6,24.7
			c5.9,11,8,23.6,8,36.1c0,12.8-2.5,25.6-8.2,37.2c-5.1,10-12.5,18.6-21.6,25.1c-9.5,6.8-20.8,11.4-32.3,13c-1.6,0.3-8,0.6-8,0.6
			v-27.3c0,0,3.9-0.2,4.7-0.3c11.7-1.3,21.8-7.8,29.1-16.8c3.7-4.6,6.7-9.8,8.8-15.3c1.1-2.9,2-6,2.7-9.1c0.6-3,1-6.2,1.1-9.2
			c0-3.2-0.2-6.5-0.9-9.6c-0.6-3.1-1.6-6.2-2.8-9.1c-2.1-4.9-5-9.4-8.6-13.4c-7.7-8.3-18.3-13.7-29.7-14.2
			c-6.1-0.2-12.1,0.9-17.6,3.4c-5,2.2-9.3,5.7-13,9.6c-3.6,4.2-6.7,9-8.6,14.2c-2,5.8-3.2,11.7-2.5,17.7c1.3,11.7,9.1,22,19.6,27.4
			c5.1,2.5,10.7,4.1,16.4,4.4c6.1,0.3,12.1-0.4,17.6-2.9c4.8-2.1,9-5.4,12.5-9.3c1.7-2,3.2-4.2,4.5-6.4c0.7-1.2,1.3-2.3,1.8-3.5
			c0.3-0.7,0.6-1.5,0.8-2.2c0.2-0.7,0.4-1.5,0.7-2.2c0.3-0.6,0.3-1.5,0.4-2.1c0.2-0.8,0.2-1.5,0.3-2.3c0.2,1.7,0.2,3.3,0.2,5
			c0,1.6,0,3.2-0.2,5c-0.3,2.9-0.9,5.9-1.9,8.7c-1.9,5.3-5.2,10.1-9.3,13.9c-4.3,3.7-9.3,6.6-14.6,8.4c-2.8,1-5.8,1.8-8.8,2.2
			c-3.1,0.5-6.4,0.3-9.5-0.1c-11.9-1.4-23.9-5.9-32.8-14c-4.2-3.7-7.5-8.3-9.9-13.4c-2.7-5.8-4.3-12.1-4.9-18.4
			c-0.3-3.2-0.3-6.6-0.1-9.8c0.2-3.1,0.6-6.4,1.2-9.4c1.2-6.1,3.5-12,6.8-17.2c6-9.5,15-16.6,25.1-21.3
			C79.3,186.3,87.7,183.9,96.1,183.3z"/>
		<path class="st3" d="M116.6,220c0.4-0.4,0.8-0.7,1.4-0.7c0.4,0.1,0.7,0.5,0.6,0.9c0.1,0.7-0.5,1.3-0.9,1.7
			c-1.6,1.4-3.5,2.3-5.5,3.3c1.9-0.5,3.7-1.5,5.8-1.7c0.7,0,1.5-0.1,2,0.5c0,0.1,0,0.3,0,0.4c-0.6,0.6-1.4,0.9-2.3,1.2
			c-2.4,0.7-5.1,1-7.6,1.3c-0.9,0.1-1.5,0.9-2.3,1.2c1.9-0.3,3.9-0.9,5.8-0.9c0.4,0,0.6,0.2,1,0.3c-0.1,0.3-0.2,0.6-0.4,0.8
			c-0.6,0.5-1.3,0.6-2,0.8c-1.8,0.3-3.5,0.4-5.4,0.3c-0.3,0-0.6-0.1-0.9,0.1c-0.5,0.3-0.9,0.7-1.5,1c1.6-0.3,3.1-0.7,4.8-0.7
			c0.6-0.1,1.3-0.1,1.8,0.2c0,0.2,0,0.3,0,0.5c-0.3,0.3-0.6,0.6-1,0.7c-1.3,0.5-2.8,0.6-4.3,0.8c-1,0.1-2,0-3.1,0.1
			c-0.7,0.3-1.2,1-1.9,1.4c1.8-0.3,3.6-0.8,5.5-0.6c0.3,0.1,0.5,0.2,0.8,0.3c0,0.2,0,0.4,0,0.6c-0.2,0.3-0.4,0.7-0.8,0.8
			c-0.9,0.6-1.9,0.8-3,1c-1.8,0.3-3.6,0.4-5.5,0.4c-0.7,0.5-1.2,1.2-1.9,1.7c0.8-0.1,1.5-0.5,2.3-0.6c1.4-0.3,2.8-0.8,4.3-0.4
			c0.1,0,0.2,0.2,0.2,0.3s0,0.2,0,0.4c-0.6,0.9-1.6,1.3-2.6,1.6c-2.2,0.8-4.6,1.1-6.9,1.5c-0.7,0.4-1.2,1.1-1.7,1.6
			c-0.1,0.1-0.2,0.1-0.3,0.2c1.7-0.4,3.4-1,5.3-1.2c0.4-0.1,0.7,0,1.1,0.1c0,0.3-0.2,0.7-0.4,0.9c-1,1-2.4,1.6-3.7,2.1
			c-1.5,0.6-3.2,0.9-4.9,1.2c-0.8,0.9-1.4,1.8-2.2,2.7c0.7-0.3,1.4-0.8,2.1-1.1c1.2-0.6,2.4-1.2,3.7-1.6c0.4-0.2,0.9-0.1,1.3,0
			c0,0.2,0,0.4,0,0.6c-0.4,1-1.2,1.7-2.1,2.2c-2.2,1.3-4.8,2.1-7.3,2.7c-0.3,0.5-0.7,1-1.1,1.4c-0.1,0-0.2,0.1-0.3,0.2
			c0.6,0,1.1-0.4,1.6-0.6c1.1-0.6,2.2-1.2,3.5-1.5c0.5-0.1,0.9-0.1,1.4,0c0.1,1-0.8,1.7-1.6,2.3c-2.1,1.5-4.7,2.4-7.2,3.3
			c-0.3,0.5-0.7,1.1-1.1,1.6c0.7-0.3,1.4-0.8,2.1-1.1c1.4-0.7,2.9-1.4,4.5-1.9c0.4-0.1,0.9-0.1,1.3,0c0,0.4,0,0.7-0.2,1
			c-0.5,0.8-1.3,1.3-2.1,1.8c-2.1,1-4.5,1.7-6.8,2.3c-0.3,0.4-0.6,0.8-0.8,1.3c-0.1,0.1-0.2,0.1-0.4,0.2c0.6,0,1.2-0.5,1.7-0.7
			c1.5-0.7,3-1.4,4.7-1.9c0.5-0.1,1.1-0.1,1.6-0.1c0.1,0.1,0.2,0.3,0.3,0.5c0,0.1,0,0.2,0,0.3c-0.2,0.3-0.4,0.7-0.7,0.9
			c-0.9,0.7-1.9,1.1-2.9,1.5c-1.9,0.7-3.9,1.3-5.8,1.7c-0.6,1.1-1.2,2.1-1.6,3.3c-0.5-0.1-1-0.5-1.4-0.7c0-0.1,0-0.2,0-0.3
			c0.9-1.3,1.6-2.8,2.6-4.1c0-0.3-0.1-0.6-0.2-0.8c-0.3-0.7-0.5-1.5-0.8-2.2c-0.1-0.3-0.1-0.7-0.2-1c-0.4-1.6-0.5-3.3,0-5
			c0.3-0.8,0.8-1.5,1.5-1.9c0.3-0.2,0.5,0,0.8,0c0.7,1.4,0.6,3.1,0.6,4.8c0,0.6-0.1,1.1-0.1,1.6c0,0.7-0.2,1.4-0.1,2.1
			c0-0.1,0.1-0.3,0.1-0.4c0.3-0.4,0.6-0.8,0.9-1.2c0-0.4,0-0.6-0.1-0.9c-0.3-1.3-0.5-2.7-0.6-4.2c0-1.4-0.1-2.7,0.2-4.1
			c0.2-0.7,0.5-1.5,1.3-1.7c0.3-0.1,0.6,0.2,0.7,0.4c0.5,1.2,0.3,2.5,0.4,3.7c0,0.9,0.1,1.7-0.1,2.6c-0.1,0.6-0.1,1.1,0,1.7
			c0-0.1,0.1-0.2,0.1-0.3c0.4-0.4,0.7-0.9,1.1-1.3c0-0.3-0.1-0.5-0.1-0.8c-0.3-2.1-0.5-4.4-0.2-6.6c0.1-0.9,0.3-2,1.1-2.6
			c0.3-0.2,0.6-0.1,0.9,0c0.1,0.5,0.2,0.9,0.3,1.4c0.1,1.6,0,3.1-0.1,4.8c-0.1,0.5-0.1,1.1-0.1,1.7c0.4-0.6,0.9-1.2,1.4-1.8
			c-0.1-2.6-0.4-5.4,0.3-7.9c0.1-0.3,0.3-0.6,0.4-1c0.3-0.4,0.6-0.8,1.1-1.1c0.2-0.1,0.5,0,0.7,0c0.1,0.1,0.2,0.4,0.3,0.6
			c0.2,1.8-0.2,3.7-0.5,5.6c-0.1,0.5-0.2,1-0.3,1.5c0.5-0.7,1.1-1.4,1.7-2c-0.1-1.4-0.2-2.8-0.1-4.3c0.1-0.7,0.1-1.4,0.3-2.1
			c0.2-0.9,0.5-1.9,1.3-2.5c0.3-0.3,0.6-0.2,1-0.1c0.5,2.3-0.2,4.7-0.5,6.9c0-0.1,0.1-0.2,0.1-0.3c0.5-0.5,1-0.9,1.3-1.4
			c0-2.3-0.1-4.8,0.8-6.9c0.3-0.8,0.9-1.7,1.8-1.6c0.1,0.3,0.2,0.6,0.3,0.9c0,0.3,0,0.6,0,1c-0.1,0.7-0.2,1.4-0.3,2.2
			c-0.1,0.4-0.1,0.9-0.2,1.3c-0.1,0.3-0.1,0.6-0.1,0.9c0.5-0.5,1-1,1.5-1.5c0-2.3,0-4.8,1.1-6.9c0.4-0.7,1.3-1.6,2.3-1.2
			c0.1,0.7,0.1,1.3,0,2l-0.1,0.1c-0.1,0.2-0.1,0.4-0.1,0.6c-0.1,0.3-0.2,0.5-0.3,0.8c-0.2,0.6-0.4,1.2-0.6,1.7
			c-0.1,0.2-0.1,0.4-0.2,0.7c-0.1,0-0.2,0.1-0.2,0.2c0.4-0.1,0.6-0.4,0.9-0.6c0.3-0.3,0.7-0.6,1-0.9c0.1-0.7,0.1-1.3,0.2-2
			c0.1-0.5,0.2-1.1,0.3-1.6c0.2-0.7,0.4-1.4,0.5-2.1c0.4-0.9,0.7-2,1.6-2.6c0.3-0.2,0.7-0.1,1,0c0.2,1.5-0.3,2.8-0.8,4.2
			c0,0.1-0.1,0.2-0.1,0.3c-0.3,0.7-0.6,1.4-0.8,2.1c0.5-0.4,1-0.7,1.5-1.1c0.2-1.4,0.6-2.9,1-4.3c0.1-0.3,0.2-0.5,0.3-0.8
			c0.4-0.9,0.9-1.9,1.8-2.4c0.4-0.2,0.8-0.1,1.2-0.1c0,0.3,0,0.7,0,1c-0.4,1.3-1,2.5-1.7,3.7c-0.2,0.3-0.3,0.7-0.4,1
			c0.4-0.3,0.9-0.6,1.3-1c0.3-0.7,0.5-1.5,0.7-2.2c0-0.1,0.1-0.4,0.2-0.6c0.6-1.4,1.2-2.8,2.2-4c0.5-0.5,1.1-0.9,1.9-0.8
			c0,0.4,0,0.9-0.2,1.3c-0.6,1.4-1.4,2.7-2.2,4c-0.2,0.3-0.4,0.6-0.6,0.8c0.5-0.3,1.1-0.5,1.5-1c0.9-1.8,1.8-3.5,3-5.2
			c0.6-0.7,1.4-1.5,2.4-1.3c0,0.2,0,0.4,0,0.6c-0.7,1.5-1.7,2.9-2.7,4.3c0.6-0.2,1.3-0.5,1.8-1.1C114.7,222.6,115.5,221.2,116.6,220
			L116.6,220z"/>
		<path class="st3" d="M75.7,220c-0.4-0.4-0.8-0.7-1.4-0.7c-0.4,0.1-0.7,0.5-0.6,0.9c-0.1,0.7,0.5,1.3,0.9,1.7
			c1.6,1.4,3.5,2.3,5.5,3.3c-1.9-0.5-3.7-1.5-5.8-1.7c-0.7,0-1.5-0.1-2,0.5c0,0.1,0,0.3,0,0.4c0.6,0.6,1.4,0.9,2.2,1.2
			c2.5,0.7,5.1,1,7.6,1.3c0.9,0.1,1.5,0.9,2.3,1.2c-1.9-0.3-3.9-0.9-5.8-0.9c-0.4,0-0.6,0.2-0.9,0.3c0.1,0.3,0.2,0.6,0.4,0.8
			c0.6,0.5,1.3,0.6,2,0.8c1.8,0.3,3.5,0.4,5.4,0.3c0.3,0,0.6-0.1,0.9,0.1c0.5,0.3,0.9,0.7,1.5,1c-1.6-0.3-3.1-0.7-4.8-0.7
			c-0.7-0.1-1.3-0.1-1.9,0.2c0,0.2,0,0.3,0,0.5c0.3,0.3,0.6,0.6,1,0.7c1.3,0.5,2.8,0.6,4.3,0.8c1,0.1,2,0,3,0.1
			c0.7,0.3,1.2,1,1.9,1.4c-1.8-0.3-3.6-0.8-5.5-0.6c-0.3,0.1-0.6,0.2-0.8,0.3c0,0.2,0,0.4,0,0.6c0.2,0.3,0.4,0.7,0.7,0.8
			c0.9,0.6,2,0.8,3,1c1.8,0.3,3.6,0.4,5.5,0.4c0.7,0.5,1.2,1.2,2,1.7c-0.8-0.1-1.5-0.5-2.3-0.6c-1.4-0.3-2.8-0.8-4.3-0.4
			c-0.1,0-0.2,0.2-0.2,0.3s0,0.2,0,0.4c0.6,0.9,1.6,1.3,2.6,1.6c2.2,0.8,4.6,1.1,6.9,1.5c0.6,0.4,1.1,1.1,1.7,1.6
			c0.1,0.1,0.2,0.1,0.3,0.2c-1.7-0.4-3.4-1-5.3-1.2c-0.4-0.1-0.7,0-1.1,0.1c0.1,0.3,0.2,0.7,0.4,0.9c1,1,2.4,1.6,3.7,2.1
			c1.6,0.6,3.2,0.9,4.9,1.2c0.8,0.9,1.4,1.8,2.3,2.7c-0.7-0.3-1.4-0.8-2.1-1.1c-1.2-0.6-2.4-1.2-3.7-1.6c-0.4-0.2-0.9-0.1-1.3,0
			c0,0.2,0,0.4,0,0.6c0.4,1,1.2,1.7,2.1,2.2c2.2,1.3,4.8,2.1,7.3,2.7c0.4,0.5,0.7,1,1.1,1.4c0.1,0,0.2,0.1,0.3,0.2
			c-0.6,0-1.1-0.4-1.6-0.6c-1.1-0.6-2.3-1.2-3.5-1.5c-0.4-0.1-0.9-0.1-1.4,0c-0.1,1,0.8,1.7,1.5,2.3c2.2,1.5,4.8,2.4,7.2,3.3
			c0.4,0.5,0.7,1.1,1.1,1.6c-0.8-0.3-1.4-0.8-2.1-1.1c-1.4-0.7-2.9-1.4-4.5-1.9c-0.4-0.1-0.9-0.1-1.3,0c0,0.4,0,0.7,0.2,1
			c0.5,0.8,1.3,1.3,2.1,1.8c2.1,1,4.5,1.7,6.8,2.3c0.3,0.4,0.6,0.8,0.8,1.3c0.1,0.1,0.2,0.1,0.4,0.2c-0.7,0-1.2-0.5-1.7-0.7
			c-1.5-0.7-3-1.4-4.6-1.9c-0.5-0.1-1.1-0.1-1.6-0.1c-0.1,0.1-0.2,0.3-0.3,0.5c0,0.1,0,0.2,0,0.3c0.2,0.3,0.4,0.7,0.7,0.9
			c0.9,0.7,1.9,1.1,2.9,1.5c1.9,0.7,3.9,1.3,5.8,1.7c0.6,1.1,1.2,2.1,1.6,3.3c0.5-0.1,1-0.5,1.4-0.7c0-0.1,0-0.2,0-0.3
			c-0.9-1.3-1.6-2.8-2.6-4.1c0-0.3,0.1-0.6,0.2-0.8c0.3-0.7,0.5-1.5,0.8-2.2c0.1-0.3,0.1-0.7,0.2-1c0.4-1.6,0.5-3.3,0-5
			c-0.3-0.8-0.8-1.5-1.5-1.9c-0.3-0.2-0.6,0-0.8,0c-0.7,1.4-0.6,3.1-0.6,4.8c0,0.6,0.1,1.1,0.1,1.6c0,0.7,0.2,1.4,0.1,2.1
			c-0.1-0.1-0.1-0.3-0.2-0.4c-0.3-0.4-0.6-0.8-0.9-1.2c0-0.4,0-0.6,0.1-0.9c0.3-1.3,0.5-2.7,0.6-4.2c0-1.4,0.1-2.7-0.2-4.1
			c-0.2-0.7-0.5-1.5-1.3-1.7c-0.3-0.1-0.6,0.2-0.7,0.4c-0.4,1.2-0.3,2.5-0.3,3.7c0,0.9-0.1,1.7,0.1,2.6c0,0.6,0.1,1.1,0,1.7
			c0-0.1-0.1-0.2-0.1-0.3c-0.4-0.4-0.7-0.9-1.1-1.3c0-0.3,0.1-0.5,0.1-0.8c0.3-2.1,0.5-4.4,0.2-6.6c-0.1-0.9-0.3-2-1.1-2.6
			c-0.3-0.2-0.6-0.1-0.9,0c-0.1,0.5-0.2,0.9-0.3,1.4c-0.1,1.6,0,3.1,0.2,4.8c0.1,0.5,0.1,1.1,0.1,1.7c-0.5-0.6-0.9-1.2-1.4-1.8
			c0.1-2.6,0.5-5.4-0.3-7.9c-0.1-0.3-0.3-0.6-0.4-1c-0.3-0.4-0.7-0.8-1.1-1.1c-0.2-0.1-0.5,0-0.7,0c-0.1,0.1-0.2,0.4-0.3,0.6
			c-0.2,1.8,0.2,3.7,0.5,5.6c0.1,0.5,0.2,1,0.3,1.5c-0.5-0.7-1.2-1.4-1.7-2c0.1-1.4,0.2-2.8,0.1-4.3c-0.1-0.7-0.1-1.4-0.3-2.1
			c-0.2-0.9-0.5-1.9-1.3-2.5c-0.3-0.3-0.6-0.2-1-0.1c-0.5,2.3,0.2,4.7,0.5,6.9c-0.1-0.1-0.1-0.2-0.1-0.3c-0.4-0.5-1-0.9-1.3-1.4
			c0-2.3,0-4.8-0.8-6.9c-0.3-0.8-0.8-1.7-1.8-1.6c-0.1,0.3-0.2,0.6-0.3,0.9c0,0.3,0,0.6,0,1c0.1,0.7,0.1,1.4,0.3,2.2
			c0.1,0.4,0.2,0.9,0.2,1.3c0.1,0.3,0.1,0.6,0.1,0.9c-0.5-0.5-1-1-1.6-1.5c0-2.3,0-4.8-1.1-6.9c-0.4-0.7-1.3-1.6-2.3-1.2
			c-0.1,0.7,0,1.3,0,2l0.1,0.1c0.1,0.2,0.1,0.4,0.1,0.6c0.1,0.3,0.2,0.5,0.2,0.8c0.2,0.6,0.4,1.2,0.6,1.7c0.1,0.2,0.1,0.4,0.2,0.7
			c0.1,0,0.2,0.1,0.3,0.2c-0.4-0.1-0.6-0.4-0.9-0.6c-0.3-0.3-0.7-0.6-0.9-0.9c-0.1-0.7-0.1-1.3-0.2-2c-0.1-0.5-0.2-1.1-0.3-1.6
			c-0.2-0.7-0.3-1.4-0.5-2.1c-0.4-0.9-0.7-2-1.6-2.6c-0.3-0.2-0.7-0.1-1,0c-0.2,1.5,0.3,2.8,0.8,4.2c0,0.1,0.1,0.2,0.1,0.3
			c0.3,0.7,0.6,1.4,0.8,2.1c-0.5-0.4-1-0.7-1.5-1.1c-0.2-1.4-0.5-2.9-1-4.3c-0.1-0.3-0.2-0.5-0.3-0.8c-0.5-0.9-0.9-1.9-1.8-2.4
			c-0.4-0.2-0.8-0.1-1.2-0.1c0,0.3,0,0.7,0,1c0.4,1.3,1,2.5,1.6,3.7c0.2,0.3,0.3,0.7,0.4,1c-0.4-0.3-0.9-0.6-1.3-1
			c-0.3-0.7-0.5-1.5-0.8-2.2c-0.1-0.1-0.1-0.4-0.2-0.6c-0.6-1.4-1.2-2.8-2.2-4c-0.5-0.5-1.1-0.9-1.9-0.8c0,0.4,0.1,0.9,0.2,1.3
			c0.6,1.4,1.4,2.7,2.2,4c0.2,0.3,0.4,0.6,0.6,0.8c-0.5-0.3-1.1-0.5-1.5-1c-0.9-1.8-1.8-3.5-3-5.2c-0.6-0.7-1.4-1.5-2.4-1.3
			c0,0.2,0,0.4,0,0.6c0.6,1.5,1.7,2.9,2.7,4.3c-0.6-0.2-1.3-0.5-1.8-1.1C77.7,222.6,76.9,221.2,75.7,220L75.7,220z"/>
	</g>
</g>
</svg>
