<?xml version="1.0" encoding="utf-8"?>
<!-- Generator: Adobe Illustrator 21.1.0, SVG Export Plug-In . SVG Version: 6.00 Build 0)  -->
<svg version="1.1" id="Warstwa_1" xmlns="http://www.w3.org/2000/svg" xmlns:xlink="http://www.w3.org/1999/xlink" x="0px" y="0px"
	 viewBox="0 0 512 512" style="enable-background:new 0 0 512 512;" xml:space="preserve">
<style type="text/css">
	.st0{fill:#CF142B;}
	.st1{fill:#F7D117;}
	.st2{fill:#0033AB;}
	.st3{fill:#FFFFFF;}
</style>
<g>
	<path class="st0" d="M256,512c103.3,0,192.3-61.2,232.7-149.4H23.3C63.7,450.8,152.7,512,256,512z"/>
	<path class="st1" d="M256,0C152.7,0,63.7,61.2,23.3,149.3h465.5C448.3,61.2,359.3,0,256,0z"/>
	<path class="st2" d="M0,256c0,38.1,8.4,74.2,23.3,106.7h465.5c14.9-32.4,23.3-68.6,23.3-106.7s-8.4-74.2-23.3-106.7H23.3
		C8.4,181.8,0,217.9,0,256z"/>
	<g>
		<polygon class="st3" points="113.1,283.1 118.9,300.5 136.5,300.2 122.5,311.3 128.3,328.9 113.8,318.2 99.8,329.5 104.9,311.6 
			90.4,301.1 108,300.8 		"/>
		<polygon class="st3" points="147.2,237.1 146.4,255.6 163.1,261.4 145.9,266.9 145.3,285.4 135.4,270.4 118.4,275.9 129.4,261.1 
			119.6,246.1 136.2,251.9 		"/>
		<polygon class="st3" points="195.3,206.1 188,223.2 201.6,234.5 183.6,233.7 176.4,250.6 172.5,233.2 154.7,232.3 170.2,222.4 
			166.3,204.8 179.8,216.2 		"/>
		<polygon class="st3" points="251.1,194.2 238.5,207.6 247,223 230.6,215.8 217.9,229.1 220.4,211.4 203.9,204.3 221.9,200.5 
			224.5,182.7 233.1,198 		"/>
		<polygon class="st3" points="307.7,202.7 291.1,210.7 293.7,228.1 280.8,215.7 264.2,223.7 272.8,208 260,195.5 278.2,198.2 
			286.8,182.5 289.4,200 		"/>
		<polygon class="st3" points="357.5,230.6 339.2,232.2 335.6,249.4 327.9,233.2 309.5,234.8 323.1,223.2 315.5,206.9 331.5,216 
			345.2,204.3 341.5,221.5 		"/>
		<polygon class="st3" points="394.5,274.2 376.7,269.3 367.2,284.1 365.8,266.2 347.9,261.3 364.8,255.2 363.3,237.3 375.3,251.4 
			392.1,245.3 382.6,260.2 		"/>
		<polygon class="st3" points="413.6,328.1 398.7,317.2 384.5,327.7 389.5,310.4 374.6,299.6 392.5,299.8 397.5,282.6 403.7,299.9 
			421.6,300.2 407.4,310.7 		"/>
	</g>
</g>
</svg>
