<?xml version="1.0" encoding="utf-8"?>
<!-- Generator: Adobe Illustrator 21.1.0, SVG Export Plug-In . SVG Version: 6.00 Build 0)  -->
<svg version="1.1" id="Warstwa_1" xmlns="http://www.w3.org/2000/svg" xmlns:xlink="http://www.w3.org/1999/xlink" x="0px" y="0px"
	 viewBox="0 0 512 512" style="enable-background:new 0 0 512 512;" xml:space="preserve">
<style type="text/css">
	.st0{fill:#007900;}
	.st1{fill:#FFFFFF;}
	.st2{fill:#FE0000;stroke:#FE0000;stroke-width:3.775000e-03;stroke-miterlimit:10;}
</style>
<g>
	<path class="st0" d="M256,511.9c141.3,0,255.9-114.6,255.9-255.9H0.1C0.1,397.3,114.7,511.9,256,511.9z"/>
	<path class="st1" d="M256,0.1C114.7,0.1,0.1,114.6,0.1,256H512C511.9,114.6,397.3,0.1,256,0.1z"/>
</g>
<g>
	<path d="M443.6,204.2c-1.4-7.4-2.1-14.9-2.5-22.4c-0.3-8-0.1-16,0.9-23.9c0-0.5,0.4-1.6-0.5-1.5c-1.5,1.4-2.6,3.1-4,4.7
		c-10.2,12.2-21.4,23.5-32.8,34.5c-2.2,2.1-4.6,4.3-6.7,6.5c0.7,0.7,1.7,0.7,2.7,0.9c5.7,1,11.3,0.3,16.9-0.4c0.5-0.1,1.2,0,1.6-0.5
		c0,0.2,0.1,0.4,0.1,0.6c-0.8,0.6-1,1.6-1.4,2.5c-1.4,2.8-2.6,5.7-4.2,8.5c-8.5-4.9-18.9-6.6-28.4-3.8c-5.1,1.5-9.9,4.4-12.9,8.9
		c-2.1,3.1-2.9,7.2-2.3,11c0.5,4.6,2.4,9.2,6.2,12c4.3,3.1,9.7,3.8,15,3.8c4.8-0.1,9.6-0.8,14.4-1.7c-0.6,2.8-2.7,5.1-5.4,6.4
		c-4.1,2.2-8.8,2.7-13.3,3c-6.3,0.3-12.6-0.3-18.7-1.2c-2.5-0.3-5-1.4-7.5-2c-11.3-2.8-23.1-2.3-34.6-2.2c2.2-5,6.9-8.2,11.7-10.3
		c5.7-2.6,12.4-3.8,18.5-2.3c0.5,0.1,1.4,0.5,1.4-0.3c-0.7-1.2-1.7-2.1-2.4-3.2c-2.5-3.6-4.2-8.1-4.2-12.7c-0.1-6.6,2.9-12.9,7-17.8
		c5.8-7.2,13.8-12.6,22.4-15.9c1.2-0.5,2.6-0.8,3.8-1.4c0-0.1-0.1-0.5-0.1-0.6c-3.8-1.4-8-3-10.3-6.5c-1.7-2.4-1.7-5.6-0.8-8.2
		c1.4-4.2,4.4-7.6,7.2-10.7c5.9-6.2,12.7-11.5,19.6-16.6c0.4-0.2,0.8-0.7,0.4-1.2c-0.9,0-1.7,0.5-2.5,0.8c-9,3.8-18.1,7.5-27.2,11.1
		c-9.2,3.7-18.4,7.4-27.9,10.5c-1.9,0.5-3.8,1.4-5.9,1c-2.7-0.4-5.5-1.6-7.1-4c-2-2.8-2.3-6.6-2-9.9c0.5-5.4,2.4-10.5,5.1-15.2
		c0.3-0.4,0.3-0.9,0.4-1.3h-0.8c-27.2,14.9-53.4,31.6-77.5,51c-4.1,3.3-8.5,6.5-11.7,10.7c-2.4,3.1-4.2,7-4.7,10.9
		c-0.6,4.8,0,9.6-0.1,14.4c0.2,5.7-1,12-5.3,16c-3.7,0.9-7.6,1.5-11.4,2.4c-5.5,1.1-10.9,2.2-16.4,3.2c-0.8-2.4-1.7-4.9-2.4-7.3
		c0.2-2,1.8-3.6,3.8-4c2.4-0.4,4.8,0.5,7.1,1c0.4-1.9,0-4-1.1-5.6c-1.6-2-4.1-3.2-6.4-4.2c-2.1-0.8-4.2-2.5-4.4-5
		c-0.1-1.3-0.2-2.7,0.3-4.2c0.5-1.3,2-1.5,3.2-1.3c4.2,0.6,7.7,2.9,11.2,4.9c0.8,0.5,0.9-0.7,0.7-1.2c-0.5-4.1-2.1-8.3-5.6-10.7
		c-1.4-1.1-3.4-1.2-4.9-2.4c-1.9-1.4-2.9-4.2-2.1-6.5c0.5-1.4,1.7-3,3.4-2.9c3.8,0.1,6.9,3.6,10.8,3.4c0.1-3.8-1.3-7.6-4.1-10.4
		c-1.9-2.4-5.3-2.3-7.5-4.2c-0.6-0.4-0.5-1.3,0-1.9c0.8-0.9,2.1-1.2,3.3-1.4c2.3-0.4,4.7-0.2,7,0c0.3-1.2-0.6-2.2-1.1-3.1
		c-2.5-3.2-6.6-4.7-10.2-6c-1-1.2-1.6-2.7-2.4-4c-0.8-1.6-2-3-2.3-4.8c0.3-2,1.5-3.7,2.7-5.4c3-2.1,6.1-4.2,9.2-6.2
		c0.8-0.6,1.7-0.9,2.3-1.6c0-0.1-0.1-0.4-0.1-0.5c-1.1-0.5-2.3-0.3-3.5-0.6c0.3-3.8,0.8-7.6,1.3-11.4c0.1-0.5-0.1-0.9-0.4-1.2
		c-1,0.9-1.7,2.1-2.9,2.8c-2,1.4-4.6,1.9-7,2.5c-1.2,0.3-2.3,0.9-3.6,1.2c-3.6,0.8-7.2,1.9-10.6,3.6c-1.5,0.8-2.9,1.8-4.1,3.1
		c-9.8-0.3-19.7-1-29.5-1.4c-3.3,0.4-6.8,1.1-9.6,3.1c-1.8,1.3-3,3.4-3.5,5.7c-6.2,0.5-12.6,0.7-18.6,1.8c-5,0.9-9.8,2.5-14.1,5.3
		c-2.6,1.7-5,3.8-7,6.3c-0.3,0.4-0.7,0.8-0.5,1.4c1,0.2,2.1,0,3.1,0c6.5-0.7,13.1-1.8,19.6-0.9c2.8,0.2,5.6,1.6,7,4.2
		c0.7,1,0.9,2.3,1.4,3.5c0.8,0.5,1.7,0.3,2.6,0.5c0.9,0.6,2.1,1.1,2.9,1.6c0,0,0.9-1.4,1.1-2.1c0.8,0.4,1.6,0.9,2.4,1.3
		c0.4-0.9,0.5-1.7,0.8-2.7c0.9,0.2,1.1,0.8,2.4,1.1c0.3-1.1,0.1-2,0.3-3c1,0.5,1.9,1.2,3.2,1.5c0.1-0.8-0.1-3.2-0.1-4.8
		c4,0.2,8,1.1,11.2,3.5c1.1,0.8,2,1.8,2.7,2.9c-7.8,1.4-15.7,2.2-23.6,2.9l-1.1,0.1c-12.4,0.9-24.8,1.2-37.2,0.3
		c2.3-1.2,4.9-2.3,7.2-3.5c0.4-0.1,0.8-0.6,0.3-0.9c-1.4-0.5-3-0.7-4.6-1c-8.8-1.8-17.6-4.3-25.2-9.3c-1.1-0.7-2-1.6-3.1-2.2
		c-0.5-0.2-0.7,0.5-0.6,0.8c0.8,2.9,2.1,5.7,3.6,8.3c3,5,6.8,9.5,10.9,13.7c3,3,6.3,5.9,9.9,8.2c1.3,0.7,2.7,1.8,4.4,1.5
		c0-0.1,0-0.5,0-0.6c-1.1-2.1-2.3-4.2-3.4-6.3c11.1,0.5,22.2,0.9,33.2,1.4c1,3.6,0.8,8,3.5,11c-0.3,2.2-0.6,4.6,0.4,6.7
		c0.5,1.1,1.3,2,2.4,2.6c0.6,0.2,0.8-0.5,1-0.9c1.4-3.6,2.8-7.3,4.3-10.9c0.8,1.5,1.5,3.1,2.4,4.6c0.2,0.5,1.1,0.3,1.1-0.3
		c0.7-3.4,2.7-6.6,5.5-8.7c2.3-1.9,5.2-3.1,8.1-3.7c0.7,1.7,1.5,3.3,2.1,5.1c-2.6,1.1-4.4,3.4-5.6,6c-0.9,2-1.4,4.6-0.6,6.8
		c-2.5,1.5-4.1,4.3-5.1,7.1c-0.5,1.6-0.7,3.3-0.5,5c-2.1,1.8-4.3,3.7-5.4,6.4c-1.1,2.3-1,5-0.9,7.5c-2.2,0.8-3.4,2.8-4.3,5
		c-1.4,3.8-1.5,8.1-1,12.2c-6.1,5.8-5.4,16.5,0.6,22.1c-1.6,1.5-3.2,3.3-3.5,5.7c-1.8-0.3-3.6,0-5.1,1.3c-1.6-1.6-3.6-3.1-5.9-3.5
		c-1.2-0.2-2.4,0.1-3.5,0.6c-1.6-3.8-5.7-6.4-9.8-6.5c-0.1-2.7-1.1-5.5-3.2-7.3c-1-0.9-2.3-1.6-3.6-2.1c-0.5-5.4-1.2-10.6-2.8-15.8
		c-0.7-2-1.4-4.1-2.7-5.8c-1.2-1.4-0.8-3.5,0.2-5c1.9-2.7,5.9-3.3,7.5-6.3c1.3-2.3,0.9-5,1.1-7.4c0.6-2,1.4-4,1.3-6.1
		c0-2.5-1.7-5.1-4.2-6.1c-0.2,0-0.5,0-0.6,0c0.1,3.4-0.6,7.1-3.1,9.5c-0.7,0.2-1.6,0.3-2.2,0.8c-1,0.8-1.6,1.9-2.5,2.8
		c-0.2-1.9,0.9-3.5,1.4-5.4c0.7-2,0.8-4.4,0-6.4c-0.5-1.3-1.4-2.4-2.1-3.6c-1.5-2.9-3.8-5.6-7-7c-1.6-0.7-3.5-1.2-5.4-1
		c-0.9,0.4,0.1,1.1,0.6,1.3c3,2,4.9,5.7,4.8,9.3c-1.3,4.1-2.6,8.1-2.7,12.3c-0.1,1.9,0.1,4,0.3,5.8c-1.4-3.2-2.5-6.7-4.1-10
		c-0.7-1.3-1.4-2.8-2.8-3.5c-1.3-0.7-2.2-1.9-3.3-2.8c-2.9-2.4-7.2-2.7-10.8-1.8c0,0.2,0,0.5,0,0.7c1.1,0.5,2.3,0.8,3.2,1.6
		c1.6,1.3,2.5,3.2,3.3,5.1c-0.6,0.7-1.3,1.4-1.3,2.4c-0.2,2,1,3.8,2,5.6c0.1,1.8,0.2,3.7,1.1,5.4c1.5,2.8,4.3,4.8,7.2,6
		c-0.7,7.6-1.6,15.2-2.4,22.8c-2.9,1.7-3.7,5.4-5.9,7.9c-1.6,1.2-3.5,2.4-4,4.6c-0.2,1.1,0.8,1.7,1.7,2.2c-0.5,1.8-1.2,3.7-2.6,5
		c-1.7,1.3-3.8,1.7-6,2v0.7c2.7,1.6,6.4,1.8,9.3,0.5c1.6-0.6,2.7-1.9,4-3c1.2-0.3,2.5-0.5,3.3-1.5c2.4-2.6,1.5-6.8,3.8-9.4
		c1.5-1.7,2.5-3.8,3.4-6c1.2,4.6,2.9,8.9,5.2,13.1c3.4,6.6,8.1,12.7,14.3,16.9c1.5,1.2,2.6,2.7,4,4.1c4.6,5.1,8.9,10.4,12.2,16.5
		c2.7,5.1,4.5,10.6,4.9,16.3c0.1,1.2,0.1,2.5,0.3,3.7c0.6,0.3,1.1-0.4,1.5-0.8c4.4-4.6,6.6-10.5,8.5-16.3c7-2.2,14.5-2.7,21.9-2.5
		c-1,2-2.2,4.5-1.1,6.7c-1.9,0.9-3.8,2.1-4.7,4.3c-0.8,1.8-0.3,4,0.4,5.8c-2.1,1.5-4.3,3.3-5.3,5.9c-0.9,2.3-0.8,4.8-0.9,7.2
		c-1.3,2-3,3.7-4.8,5.6c-2.9,2.9-6.6,5.6-10.8,6.1c-4,0.5-8-0.7-11.7-2c-3-1.6-6.1-3.5-9.6-4c-1-0.2-2,0.5-2.9-0.1
		c-2.4-1.4-5.5-2.1-8.2-1.2c-2.2,0.8-3.6,3-4,5.3c-0.1,0.4,0.1,0.8,0.4,1.1c1.2-0.9,2.4-2,4.1-2c1.4-0.1,2.5,1,3.6,1.8
		c-0.1,0.8-0.4,1.5-0.3,2.3c0.1,0.6,0.6,1,1.1,1.5c-0.7,0.7-1.3,1.4-2,2.1c-3.1-0.4-6.5-0.5-9.4,0.9c-2.2,1.1-3.7,3.4-4.4,5.9
		c-0.2,0.5,0.3,1,0.8,0.6c2.2-1.5,5.1-1.9,7.8-1.6c2.3,0.2,4.6,1.1,6.7,2c0.4,0.7,0.2,1.6,0.3,2.4c-2.4,0.1-4.7,1.5-6,3.5
		c-1.4,2.2-2.3,4.9-2.5,7.5h0.8c2.2-2.2,4.8-4.4,7.9-5.1c0.9-0.1,2.1-0.3,2.7,0.5c1.5,1.4,3.6,1.9,5.7,1.9c3.7,0,7.3-1.4,10.4-3.5
		c1-0.6,1.9-1.6,3-2.1c1.9-1,4.2-1.6,6.5-1.3c2.2,0.2,4.3,1.2,6.5,0.9c1.4-0.1,2.7-0.9,3.8-1.7c1.6-1.3,3.8-1.9,5.9-1.6
		c2.6,0.4,5.1,1.7,7,3.5c0.6,0.5,1.1,1.2,1.9,1.4c2,0.7,4.1,1.3,6.1,1.6c2.2,0.3,4.6-0.2,6.4-1.5c1.5-1.1,3.5-1.4,5.4-0.9
		c1.5,0.4,2.8,1.5,4,2.6c0.1-0.1,0.5-0.3,0.6-0.4c0-2.1-0.5-4.3-1.8-5.9c-1.6-2-4.3-2.9-6.9-3.1c-1,0.1-1.5-0.9-2-1.5
		c-4.7-1-9.7-0.6-14.2-2.7c1.6-6.3,4.3-12.5,8.4-17.5c3.4-4.1,7.4-7.6,11.1-11.2c4-3.8,7.5-7.9,10.9-12.2c0.5,6,3.8,11.1,6.3,16.5
		c0.5,1,0.6,2.2,1.6,2.9c1.5-2,2.5-4.5,3.6-6.7c1.3-2.8,2.2-5.8,2.8-8.8c3-1.7,6.2-3.4,8.8-5.9c2.5,1.1,5.5,1,8.1,0.1
		c4.8-1.6,9-4.8,12.9-8c0.3-0.2,0.7-0.6,1.1-0.3c3,1.1,6.4,0.9,9.4,0c-1.1,2.8-0.8,6.1,0.8,8.7c2.3,3.7,6.4,6.1,10.5,7.5
		c0.4,2.4,1.9,4.7,4.3,5.8c4,1.9,8.4,1.9,12.8,2.1c0.6,2.2,2.8,3.3,4.9,4c-2.4,1.2-4.3,3.6-4.3,6.5c-1.5,0.1-2.9,0.2-4.3,0.9
		c-1.7,0.8-2.7,2.5-3.1,4.4c-4.7,0.1-9.5,0.4-13.8,2.6c-0.8,0.6-1.8,0.1-2.7,0c-4.8-1.1-9.5-3.2-12.8-7c-1-1.4-2.1-2.8-3.8-3.4
		c-1.4-0.5-2.2-1.9-3.7-2c-1.3-0.2-2.5,0.7-3.2,1.7c-2.5-1-5.5-1.1-8,0.1c-2.3,1.1-3.7,3.5-4.1,6.1c0,0.8,0.9,0.3,1.2,0.1
		c1.5-1.1,3.2-2.1,5.1-2.2c1.3-0.1,2.3,0.7,3.1,1.5c-0.3,1,0,2.1,0.9,2.7c2.5,1.7,5.6,2.2,8.4,2.8c2.9,0.9,5.6,2.9,6.9,5.8
		c-3.2,0.7-6.8,0.4-9.8-1c-1.3-0.6-2.4-1.7-3.7-2.3c-2.5-1.2-5.7-1-8.1,0.4c-3-1-6.2,0.3-8.4,2.2c-2,1.7-3.5,4.3-3.3,7
		c0.1,0.1,0.4,0.1,0.5,0.2c2.2-1.7,4.7-4.2,7.7-3.2c-0.1,0.6,0,1.2,0.2,1.8c2.2,1.2,4.4,2.6,6.7,3.8c-1.5,0.6-3.1,1.2-4.1,2.6
		c-1.4,1.9-1.2,4.6-0.7,6.7c0,0.4,0.6,1.1,0.9,0.5c0.8-1.1,1.6-2.2,2.8-2.9c1.7-1.1,4.1-1.3,6.1-0.7c0.7,0.4,1.2,1.3,2.1,1.3
		c1.5,0,2.3-1.6,3.5-2.2c4.3-2.6,9.3-3.3,14.3-3.8c3.1-0.4,6.4-1.2,9.5-0.5c1.1,0.2,2,0.8,3,1.3c2.4-0.9,4.9-2.2,7.6-1.9
		c2,0.2,3.5,1.5,5.4,2.1c2.4,1.1,4.5,2.9,6.9,4.1c1.6,0.8,3.6,1.1,5.5,0.6c1.7-0.3,2.9-1.6,4.6-1.8c2.5-0.5,5,1,6.7,2.7
		c0.4,0.3,0.8,0.9,1.3,0.6c0.4-2.4-0.6-5.1-2.5-6.6c-2.1-1.7-4.8-2.3-7.3-2.9c-1.6-0.6-2.9-1.9-4.6-2.5c-3.1-0.5-6.5-0.1-9.5-1
		c8.7-2.5,17-6.4,24.2-11.9c7-5.3,12.9-12,17.5-19.5c3.5,1.1,7,2.7,10.7,3.4c2,0.7,3.7,1.7,5.9,1.9c0.4-4.3-0.8-8.8-4.2-11.7
		c-3-2.6-7.1-3.4-10.9-3.8c-4.9-1.7-9.5-3.5-14.3-5.4c-0.7-0.3-1.4-0.5-1.8-1.1c-2.4-3.3-3.2-7.9-1.6-11.8c1-2.4,3.3-3.7,5.2-5.4
		c1.7-1.3,2.9-3,4.1-4.8c3.2,0.2,5.8,2.8,8.9,3.2c1,2,2.7,3.5,4.7,4.7c3.3,1.9,7.2,3,11,2.4c4.8,3.7,11.4,4.1,17,2.2
		c3.6,3.3,9.1,4.5,13.9,2.8c0.6-0.1,1.3-0.7,1.9-0.2c2.5,1.7,5.7,2.2,8.6,1.7c1.4,2.3,3.2,4.4,5.7,5.6c-0.5,1.3-0.6,2.6-0.6,4.2
		c0.1,2.8,0.7,5.8,2,8.3c-1.1,2.9-1.5,6.2-0.6,9.3c-1.6,1.1-3.4,2.4-4,4.5c-0.5,1.6,0,3.3,0.6,5c0.3,0.5-0.1,0.8-0.3,1.2
		c-1.9,2.8-4.5,5.5-7.6,6.7c-2.6,1.1-5.6,1-8.2,0.1c-2-0.6-3.5-1.9-5.3-2.9c-1.4-0.9-2.9-1.6-4.2-2.8c-2.1-2.1-4.4-4.3-6.6-6.4
		c-0.9-0.9-2.3-1.4-3.5-1c-0.8,0.2-1.2,1-1.7,1.6c-2.2-0.1-4.6-0.2-6.6,0.8c-2.2,0.9-3.6,3.3-3.7,5.7c-0.1,0.3,0.1,0.6,0.5,0.6
		c0.8-0.5,1.5-1.2,2.4-1.5c2-0.8,4.4-0.2,6.2,0.7c-0.4,0.9-0.5,2.1,0.2,2.8c1.2,0.7,2.6,1.1,3.8,1.7c-1.9,0.1-4.2-0.3-6,0.6
		c-1,0.4-1.6,1.5-2.6,1.9c-2.3,0.9-4.9,1.8-6.6,3.8c-1.4,1.6-1.8,3.8-1.7,6.1c0.2,0.1,0.5,0.2,0.7,0.3c0.8-1.1,1.6-2.3,2.8-2.9
		c1.8-1,4.1-0.7,6.1-0.7c0.2,0.4,0.2,1.1,0.8,1c4.4,0.2,8.7,0.4,13.1,0.6c-1,0.8-2.5,0.8-3.5,1.7c-0.9,0.9-2.2,1.5-2.3,2.9
		c-1.3,0.3-2.6,0.7-3.6,1.5c-2.4,1.7-3.7,4.4-4.4,7.2c-0.1,0.5-0.5,1.5,0.4,1.4c1.8-1,3.6-2.1,5.6-2.8c2.7-1,5.8-1.9,8.7-0.9
		c1.9-1.3,3.8-2.5,5.9-3.8c1.1-0.7,2.2-1.6,3.6-2.1c2.4-0.8,5.2-1.4,7.7-0.6c1,0.2,1.8,1.1,2.7,1.6c2.7,1.3,6,1.3,8.7,0
		c2.5-1.3,5.2-2.2,8-2.4c3.1-0.3,6.3,0.4,9,1.9c2.3,1.3,4.6,2.8,7,4.2c1.2-0.2,1.9-1.4,3-1.6c3.1-0.6,6.6,0.5,8.7,2.9
		c0.4,0.4,1.1,1.3,1.5,0.4c-0.6-4.4-3.3-8.8-7.8-9.9c-1.2-0.1-1.9-1.4-3-1.8c-2.8-1.1-5.7-2.2-8.6-3.3c-0.8-2-2.5-3.8-2.6-6.1
		c-0.1-1.3,0.8-2.3,1.3-3.4c0.4-1.5,0.7-3,1-4.6c1.7-8.3,3.7-16.6,3.6-25.2c0-5.9-1.2-11.7-3.1-17.2c2.8,1.5,5.2,4,7.9,5.8
		c2.8,2.1,6.7,3.1,10,1.8c0.7-0.1,0.5-0.9,0.4-1.4c-0.6-2.3-2.4-4-4.1-5.5c-2.8-2.5-6-4.8-9.2-6.8c-10-6.4-20.6-11.9-31-17.6
		c8-0.6,15.9-2.4,23.3-5.3c9.3-3.5,18.3-8.6,25.3-15.9c4.3-4.5,7.6-9.7,9-15.7c1.6-6.6,0.4-13.7-2.5-19.7c2.2-6.8,4.4-13.8,6.7-20.6
		c2.6,4.5,6.5,8.2,10.9,10.8c1.7,1,3.5,2,5.6,2.4v-0.9C445.3,212.1,444.4,208.2,443.6,204.2z M400.7,232.6c-3.4,1.4-7.3,1.7-10.9,1
		c-2-0.4-4.5-1.4-5.2-3.5c-0.4-1.1,0.4-2.2,1.2-3c2.4-2.2,6-2.9,9.1-2.4c3.4,0.4,6.6,2.1,9.2,4.4C404,230.8,402.2,232,400.7,232.6z"
		/>
	<path class="st2" d="M331.1,134.8c-1.9,2.2-4.4,4-6.7,5.8c-8.6,6.4-17.4,12.4-26,18.7c-10.4,7.8-20.8,16-29.9,25.3
		c-3.6,3.6-7.1,7.6-10,11.9c-3.2,4.6-6.1,9.5-7.6,15c-2.1,5.8-4.7,11.5-8.2,16.6c-2,2.7-4.4,5.5-7.4,7.1c3.4-4.4,4.5-10.1,4.3-15.6
		c0.2-5.3-0.7-10.6,0.5-15.9c1.1-5.4,4.7-9.9,8.8-13.5C274.1,169,302.1,150.8,331.1,134.8L331.1,134.8z"/>
	<path class="st2" d="M202.9,139.9c3.3-1,7.2-1.4,9.6-4.3c-0.5,3.6-1,7.3-1.2,10.8c0.7,0.5,1.8,0.4,2.6,0.5
		c-3.3,2.3-6.8,4.5-10.1,6.9c-1.4,2.1-3.4,4.6-2.8,7.3c-4.6,2.4-10,2.4-15,1.2c-0.5-0.1-1.1-0.4-1.5,0.1c-0.1,0.4,0.1,0.8,0.6,0.9
		c1,0.3,2,0.5,3.1,0.7c-0.7,1.5-1.7,2.9-2.6,4.4c-0.2,0.4,0.3,0.8,0.7,0.7c2,0.1,4.1,1,5.6,2.4c-1.6,1-3.2,2.1-4.8,3.2
		c-0.3,0.3-0.9,0.6-0.6,1.1c0.3,0.3,0.8,0.3,1.2,0.4c1.9,0.4,3.6,1.6,4.7,3.3c-1.6,0.3-3.1,0.1-4.8,0.5c-0.5,0.1-0.2,0.7-0.1,1
		c0.6,2,1.2,4.1,1.9,6.1c-1.8-1-3.4-2.2-5.2-3.2c-0.4-0.3-0.8,0.1-0.9,0.4c-1,1.8-1.9,3.6-3.1,5.4c-0.7-1.2-1.2-2.5-2-3.7
		c-0.5-0.3-0.8,0.2-1,0.5c-1.2,1.7-2.3,3.5-3.5,5.2c0,0-0.1,0.1-0.2,0.1c-2.7-5.3-5.5-10.5-8.3-15.8c-1.1-2.1-2.6-4.2-4.8-5.4
		c-3.5-2.1-7.6-3-11.8-3c-2.7,2.3-5.9,4.3-9.2,5.6c-1.7,0.6-3.5,1-5.4,0.8c-0.6-2.2-1.9-4.3-3.8-5.7c1.4-0.8,3.5-1.5,3.6-3.4
		c0.3-1.4,0.6-2.7,0.9-4.1c-0.2,0-0.7,0-0.9,0c-0.4,1.6-0.7,3.3-1.2,4.9c-1,0.9-2.2,1.6-3.4,2c-1.4-0.4-2.8-1-4.4-1.1
		c-7-0.9-14,0.5-21,1c1.3-1.4,2.6-2.7,4.1-4c3.5-2.9,7.9-4.9,12.3-6.1c4.6-1.1,9.2-1.6,13.8-1.9c0.8-0.1,1.6-0.2,2.5-0.1
		c1.4,1.8,2.8,3.7,3.5,6c0.6,2-0.9,3.7-2.3,5c0.1,0.2,0.3,0.5,0.4,0.7c1.9-1.2,3.4-3.4,2.9-5.8c-0.6-2.2-2-4.3-3.4-6.2
		c1.9-0.1,3.8-0.2,5.8-0.5c0.4-1.9,1.1-4,2.7-5.2c2.7-2.3,6.4-3,9.8-3.4c9.1,0.4,18.2,0.9,27.4,1.4c-0.4,1.9-1.2,3.7-2.3,5.4
		c0.2,0.1,0.6,0.2,0.7,0.3c1.4-1.5,2.1-3.6,2.5-5.6c0.5-0.1,1.1,0.1,1.5-0.3c2.5-2.8,6.3-4.3,9.7-5.5
		C198,141.2,200.6,141,202.9,139.9L202.9,139.9z"/>
	<path class="st2" d="M314.4,148.9c5.2-3.7,10.5-7.3,15.4-11.4c-2.1,4.8-3.5,9.8-3.3,15c0.1,3.1,1,6.3,3.2,8.5
		c1.9,1.9,4.6,2.9,7.3,3.3c-11.1,4.6-22.5,8.8-33.7,13.2c-11.9,4.8-23.8,9.3-35.6,14.5c-2.5,1.1-5,2.2-7.3,3.5
		c6.6-8.8,14.7-16.3,23.1-23.4C293.4,163.9,303.8,156.4,314.4,148.9L314.4,148.9z"/>
	<path class="st2" d="M367.2,155.8c9.5-4.5,19-9,28.6-13.4c-6.7,5.1-13.4,10.4-18.7,16.9c-2.7,3.3-5.3,7.1-5.8,11.5
		c-0.3,3.3,1.4,6.6,4.1,8.6c1.6,1.3,3.4,2.1,5.2,3.1c-4.7,0.3-9.4,1.1-14.1,1.7c-12.9,1.9-25.8,4.1-38.6,6.3
		c-13.9,2.4-27.7,5-41.4,7.9c-4.6,1-9.2,2-13.8,3.1c-0.2,0.1-0.5,0.3-0.7,0.4c-0.1-0.5,0.7-0.5,1-0.7c9.5-5.2,19.3-9.8,29.1-14.6
		C323.7,176.4,345.5,166,367.2,155.8L367.2,155.8z"/>
	<path d="M202.9,145.5c1.3-0.8,2.4-2,3.6-2.9c0.1,0.1,0.7,0.4,0.6,0.5c-1.6,1.2-2.7,2.1-4.3,3.2c-2.1,1.5-4.4,3.2-6.7,4.8
		c-2.4,1-5.3,2-7.1,4.3c-0.6,0.7-0.3,2.3,0.6,2.8c1.7,1,2.9,0.7,5.3,1c0.2,0,0,0.6,0,0.8c-2.2-0.1-4.6-0.3-6.4-1.6
		c-1.2-0.9-0.8-2.7,0.1-3.7c1.8-2.1,4.5-3.1,7-4.2c1.4-0.8,2.8-1.8,4.3-2.7c0.6-0.4,1.3-0.8,1.7-1.4c-1.2,0-2.4-0.4-3.5,0.3
		c-0.5,0.2-1.2,1.2-1.6,0.7c-0.2-0.7,0.7-0.9,1.2-1.2C199.3,145.1,201.2,145.3,202.9,145.5L202.9,145.5z"/>
	<path class="st2" d="M377.4,149.7c0.1-0.3,1,0,0.5,0.2c-0.6,0.4-1.4,0.6-2.2,0.7c-21.2,10-42.4,20.1-63.5,30.2
		c-10.7,5.2-21.4,10.3-31.9,15.7c-3.5,1.8-7,3.5-10.4,5.6c-0.4,0.3-1.1,0.6-1,1.3c1,0.3,2-0.4,3-0.5c14.1-3.6,28.5-6.2,42.9-8.9
		c20.3-3.7,40.6-7.2,61.1-10c0.5-0.2,1.1-0.3,1.6-0.2c-0.4,0.1-0.7,0.3-1,0.4c-0.7-0.2-1.5,0.2-2.2,0.4
		c-24.8,5.8-49.5,11.8-74.2,18.2c-9.9,2.6-19.8,5.3-29.5,8.6c-2.5,0.9-5.3,1.7-7.5,3.3c-0.4,0.1-0.7,1.1,0,1
		c13.5-0.2,26.9,1.2,40.2,3c8,1.2,15.9,2.6,23.7,4.4c6.6,1.5,13.3,3.1,19.7,5.6c2.7,1,5.4,2.2,7.8,3.8c-11.7-2.4-23.5-4.3-35.3-5.9
		c-13.4-1.7-26.8-3.2-40.3-3.7c-5.9,0-12-0.3-17.7,1l-0.1,0.2c0.1,0.1,0.2,0.3,0.2,0.4c5.2,1.5,10,4.2,14.8,6.7
		c11.1,6.1,21.9,12.9,32.2,20.2c4.9,3.4,9.8,6.9,14,11.2c-4.9-3.1-10.1-5.7-15.3-8.1c-11.4-5.4-23.1-10.3-35-14.8
		c-5.2-1.9-10.2-3.8-15.6-5.1c-0.8-0.1-2.2-0.5-2.5,0.5c0.5,0.7,1.4,1,2.1,1.6c4.2,3,7.7,6.8,11,10.6c4.2,5,8,10.2,11.4,15.7
		c3.1,5.2,6.4,10.3,8.1,16.1c-7.5-9.2-15.7-17.9-24.1-26.4c-3.6-3.6-7.4-7.4-11.3-10.7c-1.1-0.9-2.2-1.9-3.6-2.4
		c-0.5-0.2-0.8,0.2-1,0.6c1.4,2.3,1.9,5.1,2.6,7.6c2.5,10.4,4.3,21.1,5.3,31.7c0.2,3.2,0.5,6.6,0,9.8c-1.5-6.8-3.7-13.4-5.9-20.1
		c-2.5-7.4-5-14.9-7.9-22.2c-0.2-0.6-0.6-1.6-1.4-1.1c-1,1-1.6,2.3-2.2,3.6c-2.4,5.1-4.4,10.2-6.4,15.5c-2.9,8-5.7,16.1-7.5,24.5
		c-0.4-10,0-20.2,1.6-30.1c0.5-2.5,0.9-5.1,2.1-7.3c0.2-0.7,1.8-0.4,1.3-1.4c-1.1-0.5-2.1,0.6-3,1c-3.8,2.5-7.1,6-10.1,9.4
		c-5.4,6.2-10.3,12.8-14.3,19.9c1.4-5.3,3.6-10.3,6-15.3c2.4-5.4,5.2-10.5,7.9-15.8c0.2-0.3,0.4-1-0.2-1c-1.5,0-3,0.3-4.6,0.7
		c-4.8,1.1-9.2,2.9-13.7,5c-6.2,2.9-12.3,6.3-18,9.9c-4.7,3-9.3,6.1-13.4,9.8c2.2-4.3,5.4-7.8,8.6-11.1c4.9-5,10.1-9.4,15.9-13.3
		c4.5-2.9,8.9-5.7,14-7.2c9.9-2,20-4.1,29.9-6c1.9-0.8,3.8-1.5,5.4-2.9c3.8-3.2,6.5-7.5,8.8-11.9c1.7-3.4,3.3-7,4.7-10.7
		c1.4-5.2,4.1-9.9,7.2-14.3c1.4-1.1,3.1-1.7,4.8-2.5c10.1-4.8,20.6-8.9,30.9-13c13.8-5.5,27.7-10.7,41.4-16.2
		c2.1-0.8,4.2-1.7,6.4-2.3c10-3.2,19.9-7.3,29.7-11.2C373.9,151.4,375.6,150.7,377.4,149.7L377.4,149.7z"/>
	<path d="M148.3,156.7c2.3-0.6,4.7-1,7.1-1c1.1,0,2.1,0.6,3.3,0.8c2.1,0.3,4.3,0.7,6.4,1.1c1.4,0.3,2.9,0.9,4.5,0.6
		c2.5-0.5,5.2-0.9,7.5-2.2c0.1,0.2,0.3,0.6,0.4,0.7c-2.5,1.5-5.5,1.9-8.3,2.4c-1.4,0.4-2.7-0.7-4.1-0.4c-1.5,2.1-3.5,4.3-6.3,4.5
		c-3.4,0.1-6.5-2.8-6.8-6.2c-1.1,0.1-2.2,0.3-3.3,0.6C148.5,157.3,148.4,156.9,148.3,156.7L148.3,156.7z"/>
	<path class="st2" d="M153,156.8c0.5,0,1.1-0.2,1.5,0.1c0.5,1.3,0.9,2.8,2.2,3.4c1.2,0.6,2.6,0.1,3.6-0.7c0.7-0.4,1.1-1.2,1.8-1.6
		c0.6,0.1,1.2,0.2,1.8,0.3c-1,1.6-2.4,3-4.3,3.7C156.5,163.1,153,160.1,153,156.8L153,156.8z"/>
	<path class="st2" d="M400,201.8c14.4-13.6,28.4-27.6,40.9-42.9c-0.9,7.3-1,14.7-0.8,22.1c0.3,7.6,1,15.3,2.3,22.7
		c0.7,3.8,1.6,7.6,3.1,11.2c-6-2.6-11.3-7.2-14.3-13c1.2-3.4,1.5-6.9,2-10.4c0.3-2.6,0.7-5.2,0.7-7.8c-0.2,0-0.6,0.1-0.8,0.2
		c-0.5,4-0.8,7.9-1.4,11.9c-0.4,2.2-0.7,4.6-1.9,6.5c-2.2,6.8-4.5,13.6-6.6,20.5c-2.1-3.3-5.1-6.1-8.4-8.2c2-4.4,4.2-8.6,6.2-13
		c2-5.3,4-10.6,6-15.9c0.3-0.5,0.1-1.4-0.7-1.2c-0.4,0.6-0.6,1.3-0.8,2c-1.7,4.8-3.5,9.5-5.3,14.3c-0.1,0.3-0.2,0.7-0.6,0.7
		C413,202.1,406.4,203.2,400,201.8L400,201.8z"/>
	<path class="st2" d="M189.5,164.3c4.2,0.4,8.4-0.1,12.1-2c1.4,2.5,2.7,5.1,4.4,7.5c4,1.4,8.6,3,10.8,7c-2.3,0-4.8-0.2-7.1,0.5
		c-1.4,0.4-3,1.3-3.3,2.8c-0.3,1,0.4,1.9,1.2,2.5c1.7,1.2,3.8,1.6,5.7,2.6c2.9,2.3,4.9,5.9,5,9.6c-3.2-0.6-5.9-3-9.2-3.4
		c-1.7-0.2-3.4,0.7-4.4,2.2c-1.6,2.3-1.4,5.6,0.3,7.8c1.1,1.6,2.9,2.6,4.9,3.1c4.1,1.7,5.9,6.2,6.5,10.2c-3-1.7-6.1-3.4-9.5-4.3
		c-1.4-0.3-3-0.5-4.4,0.3c-1.1,0.7-1.5,2-1.6,3.3c-0.1,2,0,4.4,1.2,6.1c1,1.3,2.4,2.2,4,2.8c2.2,0.9,4.5,1.9,5.9,4
		c0.7,0.9,0.8,2.1,0.9,3.2c-2.4-0.7-5.1-1.3-7.5-0.5c-2,0.7-3.4,2.6-3.6,4.8c0.6,2.6,1.9,5.1,2.4,7.7c-4.1,0.7-7.7,2.8-11.2,4.8
		c-0.7-0.3-1.1-0.9-1.5-1.5c-1.5-2.1-2.6-4.6-3.6-7c-2.9-7-4.8-14.4-6-21.9c-1.2-7.9-1.6-16-0.7-23.9c0.1-0.8,0-1.8,0.5-2.5
		c0.8-1.5,1.7-2.9,2.5-4.5c2.1,1,4,2.5,6,3.6c0.4,0.3,1,0.1,0.9-0.5c-0.6-2.5-1.5-5-2.2-7.4c1.7-0.1,3.5-0.1,5.2-0.5
		c-0.4-2.7-3-4.5-5.4-5.4c1.4-1.1,2.9-2,4.4-3c0.4-0.2,0.8-0.7,0.3-1.1c-1.5-1.5-3.5-2.7-5.8-3.1C188,166.9,188.8,165.6,189.5,164.3
		L189.5,164.3z"/>
	<path class="st2" d="M76.9,163.5c0.6,0.4,1.2,0.7,1.8,1.2c4.5,2.9,9.4,5.2,14.6,6.7c4.5,1.4,9.1,2.3,13.7,3.3
		c-3.7,1.6-7.4,4-11.4,5.1c1.2,2.5,3,4.8,4.2,7.3c1,1.8,2,3.6,2.9,5.5c-1.9-0.9-3.6-2.1-5.4-3.4c-3.5-2.8-6.9-6.1-9.9-9.4
		C83.1,175,79.1,169.6,76.9,163.5L76.9,163.5z"/>
	<path class="st2" d="M146.3,170.7c0.6-0.5,1.3-1,1.9-1.4c0,0.9,0,1.8,0,2.7C147.6,171.6,146.9,171.2,146.3,170.7L146.3,170.7z"/>
	<path class="st2" d="M143.3,172.6c0.5-0.4,1-0.7,1.6-1c0,0.7-0.1,1.3,0,2C144.5,173.2,143.9,172.9,143.3,172.6L143.3,172.6z"/>
	<path class="st2" d="M140.1,174c0.8-0.4,1.6-0.7,2.3-1c-0.1,0.7-0.3,1.4-0.4,2C141.3,175.2,140.7,174.3,140.1,174L140.1,174z"/>
	<path class="st2" d="M136.7,175c0.9-0.2,1.8-0.4,2.7-0.7c-0.2,0.7-0.5,1.3-0.7,2C137.9,176.3,137.3,175.4,136.7,175L136.7,175z"/>
	<path class="st2" d="M162.9,176.5c0.4,0,0.9-0.3,1.2,0.2c1,1.9,2.1,4,3,6c-1.1-0.1-2.2-0.1-3.4-0.1c-0.4-0.9-0.8-2-1.6-2.7
		c-0.7,0.8-0.9,1.8-1.3,2.7c-1.1-0.3-1.7-1.8-2.9-1.8c-0.5,1-0.8,2-1.1,3c-1-0.5-1.5-1.7-2.6-2.2l-0.2,0.1c-0.5,1.1-0.6,2.3-0.9,3.5
		c-0.9-0.8-1.5-2-2.4-2.8c-0.5-0.1-0.7,0.5-0.9,0.8c-0.6,1.1-1.3,2.2-2,3.4c-0.5-0.8-0.7-1.8-1.4-2.5h-0.3c-0.8,0.8-1.1,2-1.6,3
		c-0.2,0-0.5,0-0.7,0c-0.4-0.7-0.4-2.1-1.3-2.2c-0.9,0.7-1.7,1.4-2.6,2.2c-1.6,0.1-1-2.3-2.2-2.5c-0.7,0.8-0.9,1.9-1.3,2.9
		c-12-0.6-24-1-36-1.6c-1-1.8-2.3-3.5-3.2-5.5c0.9-0.3,1.8-0.7,2.7-0.8c11.3,0.9,22.7,0.8,34,0.2
		C143.4,179.1,153.2,178.1,162.9,176.5L162.9,176.5z"/>
	<path class="st2" d="M162.2,181.5c0.2,0.3,0.4,0.7,0.5,1.1c-0.4,0.1-0.8,0.1-1.2,0.2C161.8,182.5,162,181.9,162.2,181.5
		L162.2,181.5z"/>
	<path class="st2" d="M158.3,181.9c0.6,0.4,1.1,0.9,1.6,1.4c-0.8,0.2-1.5,0.5-2.3,0.7C157.8,183.3,158.1,182.7,158.3,181.9
		L158.3,181.9z"/>
	<path class="st2" d="M154.5,183.1c0.6,0.4,1.1,1,1.6,1.6c-0.7,0.3-1.4,0.6-2.1,0.9C154,184.8,154.2,183.9,154.5,183.1L154.5,183.1z
		"/>
	<path class="st2" d="M154.5,186.3c3.7-1.6,7.7-3.2,11.9-2.8c0.5,0.1,1.2,0,1.5,0.6c0.6,1.2,1.3,2.4,1.9,3.6c-2.3,0.1-4.8-0.1-7.1,0
		c-6.4,1.2-12.6,5.6-14.3,12.1c-1.1-1.4-1.5-3.3-2.6-4.9c-0.1,0-0.4,0.1-0.5,0.1c-1.7,4.1-3.1,8.2-4.8,12.3
		c-0.4,0.2-0.5-0.3-0.8-0.5c-1.3-1.6-1.5-3.8-1.2-5.9c0.1-0.8,0.6-1.7-0.1-2.3c-2.4-2.8-2.2-6.8-3.1-10.2c4.3-0.1,8.5-0.2,12.8-0.2
		C150.3,188.1,152.5,187.2,154.5,186.3L154.5,186.3z"/>
	<path class="st2" d="M150.3,183.7c0.7,0.7,1.6,1.5,1.9,2.5c-1.2,0.6-2.6,1.1-4,1C148.9,186,149.6,184.9,150.3,183.7L150.3,183.7z"
		/>
	<path class="st2" d="M324,197.6c18.1-4.6,36.4-8.9,54.7-13.2c-8.5,3.6-16.3,9-22,16.3c-3.8,4.9-6.6,10.9-6.7,17.3
		c-0.1,4.7,1.3,9.2,3.7,13.1c-4.4-2.6-9.3-4.2-14.1-5.6c-13-3.7-26.2-6.2-39.5-8c-11.9-1.5-23.7-2.7-35.7-2.6
		c4.6-2.2,9.5-3.6,14.4-5.2C293.8,205.2,308.9,201.5,324,197.6L324,197.6z"/>
	<path class="st2" d="M145.2,187.3c0.2-0.6,0.5-1.2,0.8-1.7c0.3,0.5,0.5,1.1,0.7,1.7C146.3,187.3,145.8,187.3,145.2,187.3
		L145.2,187.3z"/>
	<path class="st2" d="M140.6,187.4c0.5-0.5,1-0.9,1.5-1.3c0.2,0.4,0.4,0.8,0.6,1.3C142,187.3,141.4,187.4,140.6,187.4L140.6,187.4z"
		/>
	<path class="st2" d="M137.4,186.2c0.2,0.4,0.4,0.8,0.5,1.2c-0.3,0-0.8,0-1,0C137.1,186.9,137.3,186.6,137.4,186.2L137.4,186.2z"/>
	<path class="st2" d="M177.7,187.8c0.6,1.1,1.2,2.2,1.8,3.4c0.3,0.5-0.2,0.9-0.4,1.3c-1,1.7-1.8,3.6-2.6,5.6c-0.9,0.4-2,0.1-2.9,0
		c-2.7-0.6-5.2-2.1-7.1-4.1c-0.9-1.7-1.5-3.5-2.3-5.4c2.1,0,4.3,0,6.4,0c0.7,1.4,1.5,2.8,2.2,4.3c0.2,0.4,0.4,1,1,0.9
		c0.4-0.3,0.6-0.7,0.9-1.2C175.6,191,176.7,189.4,177.7,187.8L177.7,187.8z"/>
	<path class="st2" d="M174.1,208.6c1.3-5.4,3.1-10.6,5.8-15.6c-0.4,4.8-0.6,9.6-0.2,14.4c0,0.5,0.3,1.2-0.2,1.6
		c-0.9,1.1-1.9,2.1-3,2.9C175.7,210.8,174.9,209.7,174.1,208.6L174.1,208.6z"/>
	<path class="st2" d="M164.4,195.3c0.5-0.3,1.2-0.8,1.7-0.2c2.7,2.4,6.2,4.3,9.9,4.2c-1.6,4-2.6,8.2-3.7,12.4l-0.1,0.1
		c-4.1-0.2-8.3-1.2-11.3-4c-1.4-1.4-1.6-3.6-1.1-5.6C160.5,199.5,162.1,196.8,164.4,195.3L164.4,195.3z"/>
	<path class="st2" d="M88.9,198.4c4.3,0.8,7.4,4.2,9.3,7.8c-1.3,1-2.6,1.9-4.3,2.2c-0.9,0.1-0.8-1-0.9-1.6
		C92.9,203.5,91.3,200.5,88.9,198.4L88.9,198.4z"/>
	<path class="st2" d="M92.9,209.1c2.2,0.8,4.1-1,5.9-2c1.5,1.7,2.1,4.2,1.7,6.5c-0.4,2.6-2.4,5.1-1.7,7.9c-0.9,3.4-1.9,6.9-1.5,10.5
		c0.2,1.8,1,3.7,2.7,4.7c0.6,0.3,0.4,1.1,0.8,1.6c2.3,2.9,3.3,6.6,4.3,10.2c0.8,3.7,1.3,7.5,1.6,11.2c-2.1,1.5-2.4,4.5-1.9,6.9
		c1.1,5.3,4.6,9.7,8.4,13.3c8.4,7.7,19.8,11.5,31,12.4c-0.6,4.7,1.1,9.4,4.1,13c1.6,2.1,3.6,3.7,5.8,5.3c-5.1,0.2-10.2,0.9-15,2.6
		c-1.6,4.4-3.1,8.8-5.7,12.8c-0.8,1.1-1.5,2.4-2.6,3.2c-0.1-6.7-2.1-13.3-5.4-19.1c-3.6-6.7-8.7-12.6-13.8-18
		c-0.8-0.9-1.5-1.7-2.4-2.4c-6-4.1-10.4-9.9-13.8-16.2c-2.5-4.8-4.5-9.8-5.6-15l-0.3-0.2c-0.2,0-0.4,0.1-0.6,0.1
		c-1.2,2.6-2.2,5.5-4.2,7.6c-2,2.3-1.6,5.8-3.1,8.5c-0.5,0.9-1.3,1.5-2.2,1.7c0-2.4-2.1-4.2-4.3-4.8c-0.6-0.2-1.5-0.2-1.8-1
		c0-0.9,0.7-1.6,1.3-2.3c0.8-0.9,2.1-1.3,2.8-2.4c1.4-2,2.3-4.3,4-6.1c0.4-0.5,1-0.7,1.5-0.9c0.1-0.7,0.3-1.3,0.3-2
		c0.7-7.2,1.5-14.4,2.3-21.5c0.1-0.5,0.1-1-0.5-1.1c-2.7-1.2-5.4-2.8-6.8-5.5c-0.9-1.6-1-3.5-1-5.4c-0.8-1.6-2.1-3.2-1.9-5.2
		c0.1-0.6,0.6-1.7,1.3-1.3c1.9,0.6,4-0.5,5.2-2c0.3-0.3,0.5-0.8,0.9-0.9c1.1,0.7,1.7,1.9,2.2,3.1c2,4.4,3.2,8.9,5.7,13.1
		c0.3,0.5,0.6,1.3,1.3,0.9c0-0.2,0.1-0.4,0.1-0.6c-0.7-2.7-1.4-5.5-1.4-8.3C90.3,217.4,91.4,213.1,92.9,209.1L92.9,209.1z"/>
	<path class="st2" d="M155.1,213.1c0.9-2.2,2.1-4.5,4.4-5.7c3.1,3.6,8.2,4.8,12.8,5.2c-1,4.2-1.8,8.4-2.5,12.7
		c-5.8,0.7-11.2-2.4-15-6.5C153.8,217,154.5,215,155.1,213.1L155.1,213.1z"/>
	<path class="st2" d="M71.4,208.5c1.8,0,3.6,0.1,5.3,0.8c1.8,0.8,3.2,2.3,4.7,3.7c-1.1,1.6-2.9,2.9-5,2.4
		C75.5,212.8,74,210.1,71.4,208.5L71.4,208.5z"/>
	<path class="st2" d="M108.6,208.9c1.1,0.9,2.2,2.1,2.4,3.5c0.5,2.7-0.8,5.2-1.5,7.7c-0.6,0.3-1.3,0.5-2,0.2
		c-1.1-0.5-1.7-1.5-2.3-2.4C107.4,215.6,108.6,212.2,108.6,208.9L108.6,208.9z"/>
	<path class="st2" d="M385.1,211.1c7.1-2.2,14.8-1.8,21.8,0.7c4.5,1.6,8.7,3.8,12.2,7.2c1.6,1.7,3.2,3.5,4.2,5.9
		c1.5,3.2,2.6,6.8,2.8,10.4c0.5,5.9-1.2,11.9-4.3,16.8c-3.2,5.3-7.9,9.7-13,13.3c-9.7,6.8-21.1,11.1-32.7,13.2c-3,0.5-6,0.8-9,1
		c-0.7,0.1-1.2-0.6-1.8-0.9c-6.5-5.9-11.5-13.2-18.6-18.3c-2.3-1.7-5.2-3.3-8.1-3c0,0.2,0.1,0.7,0.1,0.9c3-0.2,5.7,1.5,8.1,3.2
		c4,3.1,7.3,6.8,10.7,10.4c2.7,2.8,5.3,6.1,8.5,8.4c6.6,3.4,13.1,7,19.5,10.5c7.2,4.1,14.5,8.2,21,13.3c2.2,1.9,4.9,3.8,5.7,6.8
		c-2,0.5-4.2,0.5-6.1-0.3c-4.2-1.8-7.2-5.6-11.2-7.7c-0.5-0.2-0.9-0.6-1.4-0.3c-0.2,0.5,0.1,0.9,0.2,1.4c2.2,5.8,3.3,12.1,3.2,18.2
		c0,8.5-2.1,16.9-3.7,25.2c-0.2,1-0.3,2.1-0.7,3.1c-0.7,1.2-1.5,2.4-1.4,3.8c0.1,2.6,2,4.7,2.9,7c3,1.2,6.1,2.3,9.1,3.5
		c0.4,0.2,0.8,0.4,0.9,0.8c-0.6,0.9-1.4,1.6-1.7,2.6c-0.4,1.1-0.2,2.3,0.1,3.4c-0.5,0.3-0.9,0.6-1.4,0.8c-2.3-1.4-4.6-2.7-6.8-4.2
		c-4.4-2.3-9.7-2.4-14.4-0.7c-2.1,0.6-4,2.1-6.2,2.2c-2.1,0.2-4.6-0.2-6.3-1.7c-2.7-1.8-6.4-1.2-9.3-0.3c-2.1,0.4-3.7,1.9-5.5,3
		c-1.4,0.9-2.9,1.8-4.4,2.8c-0.3,0-0.7,0-1,0c-0.2-1-0.4-2-1-2.8c-0.8-1.2-2.1-1.8-3.4-2.3c0.7-0.9,1.6-1.7,2.6-2.3
		c2.7-1.3,5.9-1,8.6-1.9c0.6-0.1,0.5-0.7,0.5-1.1c-6.4-0.3-12.9-0.7-19.2-0.9c1.3-2.1,0.3-4.7-1-6.4c1.6-1.8,4.3-1.6,6.4-1.5
		c1.5,0,2.9,0.7,4.4,1.2c4.1,1.5,8,3,12.1,4.5c1,0.3,1.9,0.8,3,0.9c0.2-0.6,0.1-0.9-0.4-1.2c-7.2-2.9-14.4-6-21.5-9.1
		c-0.9-0.3-0.4-1.4,0.1-1.9c1.2-0.9,2.5-2.1,2.5-3.8c0-1-0.8-1.8-1.6-2.4c0.5-1.4,2.3-1.2,3.2-0.4c2.1,2,4.2,4.2,6.3,6.1
		c1.7,1.9,4.3,2.9,6.4,4.5c3.6,2.6,8.5,3.5,12.8,1.9c3.7-1.4,6.5-4.5,8.7-7.7c1.6,0.8,3.4,1.5,5.2,0.7c2.4-0.9,3.5-3.5,4.4-5.9
		c1.6-5.1,2-10.3,2.6-15.7c0.3-2.1-0.1-4.3-0.2-6.4c-0.7-6.4-1.9-13.1-5.9-18.2c-3.1-4.2-8-6.6-12.9-8c-7.2-2.2-14.7-3.4-22-5.3
		c-2.1-0.5-4.3-1.2-6.5-1.5c-5.7-1-11.3-2.9-15.9-6.5c-4.7-3.5-7.9-9.2-8.3-15.1c2.8-0.3,5.8-0.1,8.6-0.4c-2.2-3-3.8-6.8-3.1-10.6
		c0.4-2.1,1.3-4.3,2.9-5.7c5.6-0.1,11.2-0.2,16.8-0.1c8.1,0.1,16.2,1.1,23.8,3.7c4.8,1,9.6,1.4,14.5,1.7c4.9,0.1,9.7,0,14.5-0.9
		c3.3-0.7,6.8-2,9.3-4.5c1.5-1.4,2.4-3.4,2.8-5.5c1-1.1,1.5-2.6,1.4-4.2c-0.2-3.7-1.5-7.4-3.2-10.6c-2.5-2.3-5.7-4.1-9.1-4.8
		c-3.2-0.7-6.9-0.1-9.7,1.8c-1.3,0.9-2.4,2.1-2.5,3.7c0.2,2.2,2.1,3.7,4.1,4.5c3.4,1.2,7.3,1.2,10.7,0.4c2.5-0.6,5.3-1.7,6.4-4.2
		c1.2,2.7,2.3,5.5,2.5,8.5c0.1,1.3,0,2.7-0.9,3.7c-4.8,1-9.6,1.8-14.5,1.9c-5.2,0.1-10.7-0.5-14.9-3.6c-3.5-2.6-5.3-7-5.8-11.2
		c-0.5-3.5,0.2-7.2,2.2-10.2C376.1,215.3,380.5,212.5,385.1,211.1L385.1,211.1z"/>
	<path class="st2" d="M173.7,209.9c0.1,0.1,0.3,0.1,0.3,0.2c0.5,0.8,1.2,1.5,1.5,2.4c-0.4,0.4-0.8,0.6-1.3,0.8
		c-0.4,0.2-1.2,0.5-1.3-0.2C173.1,212.1,173.4,211,173.7,209.9L173.7,209.9z"/>
	<path class="st2" d="M176.8,212.9c1-0.9,2-1.9,3-2.8c0.1,1.1,0.3,2.3,0.4,3.4c0.1,0.4-0.2,0.8-0.4,1c-0.8,1-1.6,2-2.5,2.9
		C176.9,216,176.7,214.5,176.8,212.9L176.8,212.9z"/>
	<path class="st2" d="M172.6,214.5c1.2,0.1,2.2-0.2,3.1-0.8c0.1,1.6,0.3,3.2,0.8,4.8c-1.7,1.8-3.5,3.5-5.6,5
		C171.3,220.4,172,217.4,172.6,214.5L172.6,214.5z"/>
	<path class="st2" d="M175.4,220.8c1.7-1.8,3.5-3.6,5.1-5.6c0.2,1.4,0.5,2.6,0.6,4.1c-0.7,2-2,4-3.2,5.8
		C177.1,223.7,176.1,222.4,175.4,220.8L175.4,220.8z"/>
	<path class="st2" d="M99.5,222.3c1.7-0.9,2.3-3.1,4.1-3.8c0.9-0.5,1.2,0.6,1.6,1.1c1,1.5,2.9,2.4,4.6,1.6c0,2.4-0.1,5.3-2.2,6.8
		c-2.1,1.6-4.9,2.6-6.4,5c-0.6,0.8-0.8,1.8-1,2.7c-1.2-0.7-1.8-2.1-2-3.5C97.7,228.8,98.5,225.5,99.5,222.3L99.5,222.3z"/>
	<path class="st2" d="M153.7,219.7c0.3-0.3,0.6,0.2,0.9,0.4c3.8,4,9.2,6.8,14.9,6.2c-0.6,4.3-1.3,8.4-1.7,12.6
		c-4.6,0-9.2-0.5-13.6-1.9c-2.1-0.8-4.6-1.9-5.8-4c-0.5-2.6-0.4-5.5,0.7-8C150.1,222.9,151.9,221.2,153.7,219.7L153.7,219.7z"/>
	<path class="st2" d="M176.9,227.9c1.7-2.1,3.2-4.4,4.6-6.8c0.4,1.6,0.7,3.1,1.1,4.7c0.4,1.1-0.1,2.3-0.5,3.3
		c-0.6,1.4-1.4,2.7-2.4,3.8C178.6,231.4,177.6,229.7,176.9,227.9L176.9,227.9z"/>
	<path class="st2" d="M171.2,224.5c1.2-0.9,2.3-1.9,3.4-2.9c0.8,1.4,1.7,2.8,2.5,4.3l-0.1,0.2c-1,1.5-2.4,2.8-3.6,4.3
		c-1-1.1-2-2.2-3-3.3C170.3,226.1,170.3,224.9,171.2,224.5L171.2,224.5z"/>
	<path class="st2" d="M263.3,224.4c6.6-0.8,13.1-0.6,19.7-0.3c15.7,0.9,31.3,2.7,46.9,5.1c8,1.2,15.9,2.4,23.8,4.3l0.3-0.3
		c0.3,0.2,0.6,0.5,1,0.6c-1,0.1-2-0.4-3-0.4c-6.4-0.3-12.7,1.5-18.1,4.8c-3.7,2.2-7.3,5.4-8.9,9.4c-0.8,1-1.7,1.8-2.3,2.9
		c-2,3.2-2.2,7.4-0.5,10.8c-4.5-4.2-9.4-7.8-14.4-11.2c-9.1-6.3-18.4-12.3-28.1-17.6C274.3,229.5,269,226.6,263.3,224.4L263.3,224.4
		z"/>
	<path class="st2" d="M170.1,228c0.9,1,1.7,1.9,2.6,2.9c-0.9,1-2.1,1.9-3.3,2.5C169.5,231.7,169.9,229.9,170.1,228L170.1,228z"/>
	<path class="st2" d="M183.2,228.5c0.6,1.8,1.3,3.6,1.6,5.6c-0.7,2-1.8,4-2.9,5.8c-1.4-1-2.6-2.4-3.4-4
		C180.3,233.7,182.2,231.4,183.2,228.5L183.2,228.5z"/>
	<path class="st2" d="M176.1,228.8c1,1.6,1.8,3.3,2.8,5c-1.2,1.8-3,3.2-4.7,4.9c-0.8-2-1.2-4.2-1.6-6.3
		C173.8,231.2,175.1,230.1,176.1,228.8L176.1,228.8z"/>
	<path class="st2" d="M169.2,234.7c0.8-0.5,1.7-1.1,2.6-1.6c0.4,2.1,0.7,4.2,1.6,6.1c-1.6,1.4-3.3,2.7-5.3,3.6
		C168.5,240.1,168.8,237.4,169.2,234.7L169.2,234.7z"/>
	<path class="st2" d="M143.9,237.5c0.7-1.6,1.7-3.2,3.4-4c0.6,0.3,0.8,1,1.4,1.4c2.1,2,5,3,7.8,3.6c3.6,0.9,7.4,1.2,11,1.3
		c-0.5,5-1.1,9.9-1.3,15c-7.2,1.1-15,0.2-21.4-3.5c-0.6-0.5-1.5-0.8-2-1.5C142.2,245.6,142.4,241.3,143.9,237.5L143.9,237.5z"/>
	<path class="st2" d="M185.4,235.2c0.7,2,1.6,3.8,2.3,5.9c-0.5,2.2-1.8,4.3-3.3,5.9c-0.8-1.6-1.6-3.3-2.4-5c-0.3-0.4,0.1-0.7,0.3-1
		C183.5,239.2,184.5,237.3,185.4,235.2L185.4,235.2z"/>
	<path class="st2" d="M255.8,235.6c2.7,0.3,5.4,1.3,8,2.2c11.5,4,22.8,8.6,34,13.6c5.8,2.5,11.5,5.3,17.1,8.1
		c2.7,1.4,5.5,2.9,7.9,4.8c-6.3,0.1-12.6,0.9-18.5,3c-4.4,1.5-8.6,3.7-12.1,6.9c-1.9,1.8-3.5,4-4.5,6.4c-0.2-2-1-3.8-1.8-5.7
		c-2.2-4.9-4.9-9.4-7.8-13.9c-3.6-5.6-7.5-10.8-12-15.8C263.1,241.7,259.7,238.3,255.8,235.6L255.8,235.6z"/>
	<path class="st2" d="M177.6,236.7c1.1,1.4,2.2,2.9,3.6,4.1c-1.5,1.9-3.2,3.7-5.2,5.3c-1.1-1.6-1.6-3.5-2.2-5.5
		c-0.2-0.4,0.2-0.7,0.4-0.9C175.6,238.7,176.6,237.7,177.6,236.7L177.6,236.7z"/>
	<path class="st2" d="M168.1,243.9c1.8-0.8,3.3-2,5-3.1c0.5,2,1.3,4,2.2,5.8c-1.5,1-3,2.1-4.8,2.7c-0.7-1.3-1.6-2.4-2.4-3.7
		C167.9,245.1,168.1,244.5,168.1,243.9L168.1,243.9z"/>
	<path class="st2" d="M247.9,241c2.5,1.5,4.7,3.6,6.9,5.6c7.9,7.5,15.4,15.5,22.7,23.6c3.3,3.7,6.8,7.5,9.7,11.7
		c-3.3-0.1-6.7-0.4-10-0.2c-4.2,0.2-8.3,0.5-12.2,2.2c-2.1,0.9-3.8,2.4-5.5,4.1c-1.3,1.3-2.9,2.5-4.7,3.1c0.9-2.5,0.6-5.3,0.6-8
		c-0.4-7.8-1.6-15.6-2.9-23.3C251.3,253.5,250,247.1,247.9,241L247.9,241z"/>
	<path class="st2" d="M184.6,248.3c1.6-1.8,2.9-3.7,3.8-6c1,1.8,1.9,3.7,3.4,5.2c-1.8,1-3.4,2.3-5.3,3.4
		C185.8,250.1,185.2,249.2,184.6,248.3L184.6,248.3z"/>
	<path class="st2" d="M176.9,246.6c1.5-1.2,2.9-2.5,4.2-4.1c0.6,0.7,0.9,1.5,1.3,2.3c0.4,1,1,1.9,1.3,2.9c-1.3,1.8-3,3.2-4.8,4.7
		C178.2,250.5,177.5,248.6,176.9,246.6L176.9,246.6z"/>
	<path class="st2" d="M167.8,246.7c0.6,1.1,1.4,2.1,2,3.2c-0.8,0.3-1.5,0.6-2.3,0.7C167.6,249.3,167.7,248,167.8,246.7L167.8,246.7z
		"/>
	<path class="st2" d="M171.1,250.2c1.8-0.8,3.3-1.9,5-2.9c0.6,2,1.5,4,2,6.1c-1.2,0.9-2.4,2-3.7,2.8c-0.6,0-0.9-0.6-1.3-1.1
		C172.2,253.6,171.5,251.8,171.1,250.2L171.1,250.2z"/>
	<path class="st2" d="M238.3,249.1c0.4-0.6,0.6-1.4,1.2-1.7c2.3,5.5,4.3,11.1,6.2,16.8c2.3,7,4.7,14.1,6.7,21.1
		c0.5,1.9,1.1,3.6,1.2,5.7c-4.2-3.1-9.2-5.1-14.4-5.1c-4.4-0.1-8.8,0.9-12.3,3.6c-1.7,1.3-2.9,3.2-3.6,5.3c0.1-2.3,0.7-4.7,1.2-7
		c1.8-7.2,4.2-14.3,6.7-21.3C233.3,260.6,235.4,254.7,238.3,249.1L238.3,249.1z"/>
	<path class="st2" d="M183.8,249.2h0.2c0.6,0.8,1.3,1.4,1.7,2.3c-1.6,1.3-3.3,2.6-5.1,4c-0.4-0.7-0.9-1.3-1.3-2.1
		C180.9,252,182.3,250.6,183.8,249.2L183.8,249.2z"/>
	<path class="st2" d="M203.4,253c3.2-1.2,6.6-2.2,10-2.6c-4.2,8.5-8.7,16.8-12,25.6c-0.8,2.1-1.4,4.3-2,6.4c0.1-1.1,0.1-2.1,0.1-3.2
		c-1.5,0.5-2.9,1.3-4.3,2.1c-3.8,2.2-7.4,5-10.3,8.2c0.1-4.8,0-9.4,0-14.2c-6.8,1.3-13.9,1.6-20.8,1.4c1.7-2.1,4-3.6,6.1-5.4
		c5.2-3.8,10.6-7.3,16.2-10.3C192,257.9,197.5,255.2,203.4,253L203.4,253z"/>
	<path class="st2" d="M139.5,265c-1.7-4.8-0.9-10.6,2.7-14.5c4.5,3.2,10,5.2,15.6,5.6c2.8,0.3,5.6,0,8.4-0.2c-0.1,3-0.2,6.2-0.1,9.2
		c0,1.5,0.1,3,0.6,4.5c-6.6,4.1-15.2,5.3-22.4,2.1C141.9,270.1,140.4,267.7,139.5,265L139.5,265z"/>
	<path class="st2" d="M167.5,251.7c0.9-0.3,1.8-0.7,2.7-1.1c0.7,2.2,1.5,4.6,3.2,6.2c-2.1,1.5-4.3,3-6.5,4.4
		C167.1,258,167.1,254.9,167.5,251.7L167.5,251.7z"/>
	<path class="st2" d="M218.7,258.7c2-2,4.2-4.2,6.6-5.7c-2,6-2.4,12.4-3,18.6c-0.3,6.3-0.6,12.5-0.2,18.7c0,1.6,0.3,3.2,0.1,5
		c-2.8-3-6.8-5.2-11-5.4c-4.1-0.2-8.4,1-11.4,4c-0.3-2.9-0.5-6,0.1-8.9c1.5-3.7,3.7-7.2,6-10.5C209.7,269.1,214.1,263.7,218.7,258.7
		L218.7,258.7z"/>
	<path class="st2" d="M178.6,254c0.5,0.7,0.9,1.3,1.3,2.1c-1.6,1.4-3.2,2.8-4.8,4.3c-0.5-0.8-1.1-1.6-1.7-2.4
		C175.3,256.7,177,255.4,178.6,254L178.6,254z"/>
	<path class="st2" d="M170.3,260.3c0.8-0.6,1.6-1.2,2.5-1.7c0.5,0.8,1.2,1.6,1.6,2.4c-0.9,0.9-1.8,1.9-2.8,2.7
		c-0.7,0-0.9-0.8-1.1-1.3C170.3,261.8,170,261,170.3,260.3L170.3,260.3z"/>
	<path class="st2" d="M106.7,260.8c3.7,0.7,6.7,4.4,6.7,8.2c0.2,1.6-1,2.8-1.7,4.1c-0.6,0.6-1.1,1.5-1.9,1.7
		c-1.9-2.3-3.3-5.1-4.2-7.9C105.1,264.9,105,262.3,106.7,260.8L106.7,260.8z"/>
	<path class="st2" d="M167,262.3c0.7-0.5,1.4-0.9,2.2-1.3c0.2,1.3,0.6,2.7,1.7,3.7c-1.2,1.2-2.3,2.6-3.4,4c0,0-0.1-0.1-0.2-0.1
		C167.1,266.5,166.8,264.4,167,262.3L167,262.3z"/>
	<path class="st2" d="M310.8,266.5c1.6-0.3,3.3-0.7,5.1-0.7c0.4,7.3,5.1,13.9,11.2,17.4c-0.8,5.6-5.3,10.6-11,11.4
		c-3.1-0.1-5.6-2.5-8.5-3.1c-0.9-0.1-1.4-0.9-2.1-1.4c-1.8-1.3-4.2-1.7-6.3-1.3c-1.2,0.2-2.4,0.7-3.6,0.3c-2.8-0.9-4.9-3.2-6.6-5.6
		c-0.3-0.5-0.9-1.1-0.7-1.8c0.9-3.2,3.3-5.9,6-8C299.2,269.9,304.8,267.8,310.8,266.5L310.8,266.5z"/>
	<path class="st2" d="M113.8,271.3c0.3-0.2,0.3-0.8,0.8-0.8c3-0.1,6.1,1.6,7.9,4.3c0.4,0.7,1.1,1.6,0.9,2.5c-1.1,2.2-2.2,4.6-3,6.9
		c-3.7-2-7.1-5-9.8-8.2c-0.3-0.3,0.3-0.6,0.4-0.8C112.1,274,113.1,272.7,113.8,271.3L113.8,271.3z"/>
	<path class="st2" d="M143.4,272.2c7.1,3.2,15.6,2.5,22.4-1.2c-1.3,2-2.7,4.1-3.2,6.5c2,0.4,4.1,0.1,6.1,0.2
		c-2.2,4-3.8,8.4-3.5,13.1c0.1,2.2,0.9,4.3,2.2,6c-2.4,1-4.6,2.8-5.5,5.4c-1,2.6-0.7,5.6,0.2,8.1c-1.9,0-3.8,0-5.8,0
		c-1,0.1-1.9-0.7-2.7-1.2c-3.3-2.3-6.2-5.6-7.7-9.4c-0.9-2.3-1.4-4.9-0.9-7.4c0.3-0.9-0.5-1.5-0.9-2.3c-2.1-3.3-4.1-6.9-4.4-10.8
		c0.4-1.3,0.4-2.8,1.2-4C141.4,274,142.4,273,143.4,272.2L143.4,272.2z"/>
	<path class="st2" d="M74.7,272.1c1.6,0.6,3.4,1.9,3.4,3.8c-1.1,0.8-1.9,2-3.1,2.7c-2.1,1.5-5,1.8-7.5,1.1c1.9-0.5,4.1-1.3,5.3-3
		C73.6,275.3,74.2,273.7,74.7,272.1L74.7,272.1z"/>
	<path class="st2" d="M125.8,276.3c1.6-0.5,3.4,0.2,4.8,1.1c1,0.7,2.1,1.5,2.8,2.5c0.8,2.6,1.2,5.4,1,8.1c-0.1,0.5-0.1,1.1-0.5,1.5
		c-0.7,0-1.4-0.2-2-0.4c-3.6-1.1-7.3-2.5-10.6-4.5c0.4-2,1.5-3.8,2.3-5.8C124,277.8,124.6,276.6,125.8,276.3L125.8,276.3z"/>
	<path class="st2" d="M169.6,277.7c4.9,0,9.7-0.5,14.5-1.2c0,5.1,0.1,10.1,0,15.3c0.8-0.5,1.3-1.2,1.9-1.9c3.6-3.8,8-6.9,12.7-9.3
		c-0.2,2.6,0.1,5.4-0.4,7.9c-1.3,0.6-2.6,1-4.2,1.1c-1.6,0.7-2.2,2.6-2.3,4.2c-0.7,0.4-1.6,0.6-2.2,0.1c-0.5-0.3-1.1-1.1-1.8-0.5
		c-1,1.1-1.4,2.6-1.6,4.1c-1.3,0.2-2.5,0.7-3.4,1.7c-1.4-0.8-3-1.9-4.8-1.3c-1.4,0.5-1.6,2.1-1.7,3.3c-2.9-0.9-6-2.2-7.9-4.7
		c-1.8-2.1-2.4-5.1-2.2-7.8C166.2,284.8,167.7,281,169.6,277.7L169.6,277.7z"/>
	<path class="st2" d="M134.3,279.7c0.9-1.2,2.6-1.7,4.1-1.3c0.4,0.6,0.1,1.5,0.3,2.2c0.7,3.8,2.7,7.4,4.9,10.6
		c-2.9-0.2-5.9-0.7-8.8-1.3C136,286.6,135.2,282.9,134.3,279.7L134.3,279.7z"/>
	<path class="st2" d="M271.4,283.2c1.6-0.4,3.2-0.4,4.8-0.5c3.7-0.1,7.5-0.1,11.2,0.3c0.8,1.2,1.6,2.4,2.6,3.6
		c-2.8,2.7-6.6,4.5-10.5,4.8c-3.2,0.3-6.5-0.2-9.5-1.4C271,287.7,271.5,285.4,271.4,283.2L271.4,283.2z"/>
	<path class="st2" d="M264.4,285.2c1.9-1,4.1-1.7,6.2-1.9c-0.1,3.8-1.6,7.5-4.2,10.3c-3.2,3.6-7.6,6.2-12.3,7.3
		c-1.3,0.3-2.7,0.4-4.1,0.3c1.5-2.9,2.8-5.9,4.1-8.9c0.8-0.4,1.7-0.6,2.5-1.1C259.6,289.6,261.5,286.7,264.4,285.2L264.4,285.2z"/>
	<path class="st2" d="M327.9,283.9c3.2,1.7,6.8,2.9,10.3,3.8c0.8,1,0.2,2.4-0.2,3.5c-1.7,3.8-4.5,7.2-7.3,10.3
		c-2.5,0.7-5.3,0-7.7-0.8c-2.6-1-5.3-2.6-6.7-5.1c3.2-0.6,6.3-2.3,8.4-5C326.4,288.6,327.4,286.3,327.9,283.9L327.9,283.9z"/>
	<path class="st2" d="M233.7,287.3c6.8-1.5,14.1,0.2,19.5,4.6c0.1,0.5-0.2,0.9-0.3,1.4c-2,4.9-4.4,9.8-8.1,13.6
		c-0.9,1-2.2,1.1-3.4,1.4c-2.4,0.6-5.1,0.4-7.3-0.4c2-2.4,2.8-5.7,2.7-8.8C236.5,295,235.3,291,233.7,287.3L233.7,287.3z"/>
	<path class="st2" d="M289.4,288.3c0.5-0.3,0.9-0.9,1.5-1.1c1.7,1.5,3.7,3,6.2,2.8c1.4-0.3,2.8-0.6,4.3-0.5c1.6,0,3,0.7,4.3,1.8
		c-1,1.7-2.1,3.4-3.8,4.7c-2,1.8-4.7,3.3-5.8,6c-1.9,4.5-0.9,10.1,2.4,13.7c4.3,1.8,8.5,3.2,12.9,5c1.5,0.5,2.8,1.3,4.5,1.3
		c3.7,0.3,7.8,1.5,10.3,4.5c2,2.3,2.8,5.5,2.8,8.5c-2.1-0.5-4-1.8-6.3-2c-3.1-1-6.2-2.2-9.4-3.2c-0.4-0.2-0.6,0.4-0.9,0.7
		c-4.6,7.2-10.2,13.8-17,18.9c-7.6,5.8-16.3,9.7-25.5,12.2c-0.5,0-0.9,0.6-0.5,1c3.5,1.8,7.5,1.3,11.3,1.7c1,0.5,2,1,2.8,1.7
		c-0.4,0.9-1.2,1.7-1.3,2.7c-0.4,1.3,0.1,2.6,0.7,3.8c-1.3,0.2-2.7,0.2-4-0.2c-3-1-5.3-3.4-8.3-4.7c-1.3-0.5-2.5-1.5-4.1-1.8
		c-2.8-0.8-5.9,0-8.5,1.2c-0.7,0.5-1.3-0.2-2-0.5c-3.5-1.4-7.3-0.6-10.9-0.1c-5.4,0.6-11,1.2-15.6,4.3c-1,0.5-1.6,2-2.9,1.7
		c-0.8-0.3-0.3-1.2-0.3-1.8c0.3-1.2-0.2-2.6-1.3-3.3c-1-0.8-2.2-0.9-3.4-1.3c-0.3-0.2-1-0.6-0.4-0.9c1.9-1.3,4.1-2.7,6.5-2.5
		c1.4,0.4,2.4,1.8,4.1,1.7c4.6,0.1,9-1.6,13.3-3.2c0.6,0,0.9-0.9,0.2-1c-4.4,1.6-8.8,3.4-13.6,3.2c-1.6,0.1-2.4-1.6-4-1.6
		c-2.6-0.2-4.9,1.2-6.9,2.6c-0.4,0.2-0.8,0.7-1.3,0.4c-1.7-1-3.5-2-5.3-3c0.5-1,2.1-1.3,2.6-2.4c0.7-1.2,0.3-2.5,0.2-3.7
		c2-1.1,4.6-1.4,6.7-0.6c1.4,0.5,2.4,1.6,3.8,2.3c3,1.6,6.6,2,9.9,1.5c1.9-0.2,3.5-1.5,5.3-2.3c2.7-1.3,5.3-3,8.2-4.1
		c4.3-2.2,9.2-2.6,13.9-2.6c1.3,0.9,2.5,2,4,2.5c1.9,0.8,4.3,0.8,6.1-0.2c1.7-1,2.9-2.6,4.1-4.3c3.3-1.1,6.3-3.1,9.1-5
		c1.5-1.1,3.2-2,4.8-3.2c2.1-2,4.5-4.1,5.9-6.7c0.7-1.2,1.2-2.7,0.7-4.2c-0.5-1.2-1.6-2.1-2.8-2.6c-2.5-1-5.3-1.2-7.9-1.2
		c-5.1-0.3-10.4-1.2-14.5-4.6c-3.2-2.7-4.6-7.1-4.5-11.2c0.3-6,2.4-11.9,5.3-17C280.2,292.8,285.5,291.5,289.4,288.3L289.4,288.3z"
		/>
	<path class="st2" d="M225.7,291.9c1.8-2.1,4.4-3.6,7.1-4.4c1.8,4.3,3.2,8.7,2.9,13.4c-0.1,1.8-0.7,3.7-1.7,5.4
		c-0.7,1.2-2,1.8-3,2.8c-3.3,2.7-6.9,5.2-10.8,6.8c-2.4,0.9-5.2,1.5-7.7,0.4c-0.1-0.5,0.3-0.8,0.4-1.2c1.3-2.7,1.6-5.9,1.9-8.9
		c0.3-4.9,0.1-9.6-0.3-14.5c3.6,0.9,6.5,3.5,8.6,6.5c0.2-0.1,0.6-0.2,0.7-0.3C223.8,295.7,224.4,293.5,225.7,291.9L225.7,291.9z"/>
	<path class="st2" d="M339.6,287.8c4.9,0.9,9.6,2.4,14.6,3.3c-0.4,4.6-2.2,8.9-5.6,12.1c-0.8,0.8-1.9,0.8-2.9,1.2
		c-4.7,1-10,0.5-13.8-2.5c2.1-2.3,4.1-5,5.8-7.6C338.7,292.4,339.8,290.1,339.6,287.8L339.6,287.8z"/>
	<path class="st2" d="M194.9,290.3c1.2-0.1,2.4-0.6,3.6-1c0,1.8,0.1,3.6,0.4,5.5c-0.9,1.2-1.7,2.5-2.7,3.6c-1.1,0.3-2.2-0.6-2.7-1.5
		c-0.8-1.4-0.9-3.1-0.5-4.8C193.3,291.4,193.9,290.4,194.9,290.3L194.9,290.3z"/>
	<path class="st2" d="M261,299.2c3.6-2,6.7-5,8.8-8.5c1.4,0.6,2.9,1,4.5,1.3c-2.2,4.6-4.3,9.3-4.9,14.3c-0.7-0.1-1.3-0.6-1.9-0.8
		c-2.5-0.9-5.3-1.2-7.9-1.5c-3.5-0.3-7.1-0.6-10.6-0.5c0.2-0.4,0.5-0.9,0.7-1.3C253.5,302.5,257.4,301.1,261,299.2L261,299.2z"/>
	<path class="st2" d="M204.9,292c2.7-0.9,5.8-1.2,8.6-0.5c0.5,6,0.8,12.1-0.1,18c-0.4,2.1-0.8,4.4-2,6.2c-2.6,2.5-5.8,4.5-9,6.1
		c-1.3-3.2-2.4-6.8-1.8-10.4c0.3-1.8,1.9-2.9,2.4-4.7C205,302,205,296.8,204.9,292L204.9,292z"/>
	<path class="st2" d="M355,291.5c4,0.8,7.9,1.6,11.8,2.7c-0.1,3.1-0.5,6.5-1.8,9.4c-0.5,0.9-0.9,1.9-1.8,2.5
		c-2.8,1.3-6.2,1.7-9.2,0.9c-1.8-0.5-3.5-1.5-5-2.6C352.3,301,354.6,296.3,355,291.5L355,291.5z"/>
	<path class="st2" d="M201.9,293.5c0.7-0.5,1.4-0.8,2.1-1.1c0.1,3.2,0,6.6-0.5,9.8c-0.5,2.2-0.9,4.5-2.3,6.3
		c-1.5,1.8-1.8,4.4-1.5,6.7c0.3,2.2,0.9,4.5,1.8,6.6c0.3,0.7,0,1.4-0.1,2.1c-0.9,4.5-2.8,8.7-5.1,12.7c-0.1,0-0.2,0-0.2,0
		c-2.1-5.1-5.3-9.9-6.4-15.4c-0.3-1.2-0.1-2.5-0.4-3.7c-0.4-0.5-0.9,0-1.2,0.4c-4.2,5.4-8.7,10.3-13.7,14.9c-3.3,3.2-6.8,6.4-9.6,10
		c-4,5.1-6.4,11-8,17.2c-0.4,0.8,0.6,1.1,1.2,1.4c4.2,1.9,8.8,1.6,13.2,2.4c0.5,0.3,1,0.8,1.2,1.3c-0.8,2-1.2,4.3-0.5,6.4
		c-2.8,1.7-6.3,1.2-9.2,0.3c-1-0.4-2.2-0.5-3-1.4c-2.5-2.5-5.9-4.5-9.5-4.4c-2.2,0-4.4,1.1-6.2,2.5c-1.9,1.5-4.6,1-6.8,0.4
		c-3.5-1-7.4-0.2-10.3,1.8c-3,2.6-7,4.6-11,4.8c-2,0.1-4.3-0.2-5.7-1.8c0.5-1,1-2.3,0.3-3.4c-0.6-0.9-1.6-1.3-2.5-1.7
		c-0.2-0.9-0.2-2-0.3-3c2.3-1.7,5.2-3.4,8.3-3.1c1.2,0,1.9,1.1,3,1.4c1.7,0.5,3.4,0.9,5.3,0.8c0-0.2-0.1-0.7-0.1-0.9
		c-1.7-0.1-3.5-0.3-5.3-0.9c-0.9-0.5-1.8-1.3-2.9-1.3c-3.1-0.3-6,1.4-8.5,3.1c-0.6,0.3-1.2-0.2-1.8-0.4c0.4-0.8,1.3-1.5,1.3-2.5
		c0.2-1.1-0.6-2-1.1-2.9c0.7-1,1.5-1.9,2.4-2.7c3-0.4,5.7,1.7,8.6,1.8c5.2,0.3,10.1-1.7,15-3c2-0.8,4.4-0.7,6.4-1.6
		c4.7-1.9,8.3-5.7,11.4-9.4c0.2-0.2,0.3-0.7,0.7-0.5c0.4,1.4,1.1,2.9,2.7,3.3c1.9,0.2,3.6-1.2,4.8-2.6c6.4-12.9,13.3-25.5,19-38.8
		c0.3,0.9,1,1.5,1.4,2.3c0.4,1.7,1,3.6,2.6,4.7c1.4,0.7,2.7-0.4,3.2-1.7c0.5-1.6,0.4-3.4-0.2-5.1c1.6-0.4,3-1.3,4.5-2.1
		c0.8,0.3,1.6,0.6,2.4,0.6c0.4-0.4,0.6-1,0.9-1.4c0.9-1.2,2.1-2,3.5-2.5c0.5-0.2,1.1-0.1,1.6-0.4c1-1,1.8-2.4,2.8-3.5
		C200.5,295.1,201,294.1,201.9,293.5L201.9,293.5z"/>
	<path class="st2" d="M187.7,294.9c0.1-0.3,0.4-1,0.8-0.6c0.9,0.7,2.1,1.2,3.2,0.6c0.3,1.6,1,3.1,2.3,4.2c-1.6,0.8-3.1,2-4,3.6
		c-1.2-0.3-2.6-1-2.9-2.3C186.7,298.5,186.9,296.5,187.7,294.9L187.7,294.9z"/>
	<path class="st2" d="M367.5,294.5c1,0,2,0.5,3,0.8c2.6,0.9,5.3,2.1,7.6,3.8c-1.5,3.1-3.2,6.3-5.5,9c-2.6,0.5-5.5,0.4-7.8-1.1
		c-0.3-0.2-0.8-0.4-0.5-0.8C366.8,302.9,367.4,298.5,367.5,294.5L367.5,294.5z"/>
	<path class="st2" d="M162.3,303.9c0.5-2.9,2.8-5.4,5.7-6.4c2.2,2.2,5.2,3.7,8.2,4.5c0,0.6,0.2,1.4-0.1,2c-1.2,3.1-2.6,6.2-4.2,9.1
		c-3.3,0-6.7-1.2-9.1-3.5C162.2,307.8,162,305.8,162.3,303.9L162.3,303.9z"/>
	<path class="st2" d="M178.2,298.5c1.4-0.3,2.6,0.6,3.7,1.3c-0.7,1.3-1.5,2.9-0.7,4.4c0.3,0.6,1.1,0.6,1.5,1.2
		c0.7,1.3,0.6,3,0.3,4.5c-0.3,0.7-1.1,1.7-1.9,1.2c-1.4-1-1.9-2.8-2.2-4.5c-1.5-1.1-1.9-2.9-1.8-4.7
		C177.2,300.7,177,299.2,178.2,298.5L178.2,298.5z"/>
	<path class="st2" d="M181.9,302.2c0.5-1.8,2-3.5,4-3.7c0,1.4,0.5,2.8,1.3,4c-1.4,0.8-2.8,1.9-4.6,1.7
		C181.8,303.9,181.7,302.9,181.9,302.2L181.9,302.2z"/>
	<path class="st2" d="M373.3,308.8c2.3-2.6,3.8-6,5.7-9c3.6,3,5.8,7.6,6.9,12.2c-0.6,1.6-2.4,2.3-4.1,2.4
		C378.1,314.9,375,311.8,373.3,308.8L373.3,308.8z"/>
	<path class="st2" d="M248.1,304.3c3.3-0.1,6.8,0.1,10.1,0.4c2.9,0.3,5.9,0.6,8.7,1.5c0.8,0.3,1.6,0.7,2.1,1.3
		c-0.1,3.1,0,6.4,1.4,9.2c0.2,0.5,0.8,1.2,0.3,1.7c-0.8,1-2,1.7-3.1,2.3c-3,1.5-6.4,2.2-9.8,2.8c-1,0.1-2.1,0.6-3.1,0.4
		c-3.3-1.1-6.7-2.9-8.9-5.7c-1.8-2.1-2.7-5-2.1-7.7c0.3-1.1,0.6-2.4,1.5-3.1C246.3,306.7,247.2,305.4,248.1,304.3L248.1,304.3z"/>
	<path class="st2" d="M162.8,311c2.4,1.6,5.3,2.8,8.2,3c0.4,0,0.3,0.5,0.1,0.8c-0.7,1.5-1.5,3-2.2,4.6c-0.2,0.5-0.8,0.3-1.2,0.3
		c-1.9-0.2-3.7-0.9-5.6-1.6c-1-0.3-1.3-1.6-1-2.5C161.4,313.9,162.2,312.5,162.8,311L162.8,311z"/>
	<path class="st2" d="M379,315.3c2.4,0.3,5.5,0.2,7.2-1.9c0.7,3.2,1.1,6.4,1.3,9.6c-1.1,2.7-4.3,4.4-7.1,3.8
		c-1.2-2.2-1.7-4.9-1.9-7.5C378.3,318,378.4,316.6,379,315.3L379,315.3z"/>
	<path class="st2" d="M156.7,322.7c0.8-1.8,2.6-2.9,4.5-3.6c0.5-0.2,0.9,0.1,1.4,0.2c1.8,0.7,3.7,1.2,5.7,1.4
		c-1.7,3.3-3.4,6.7-5.2,10.1c-0.4,1.1-1.7,0.8-2.5,0.6c-1.6-0.7-3-2.1-3.5-3.8C156.3,326,156,324.3,156.7,322.7L156.7,322.7z"/>
	<path class="st2" d="M266.4,322.4c2-0.7,3.8-1.8,5.4-3.3c1.5,2,3.6,3.5,6,4.7c0.9,0.3,0.7,1.5,0.4,2.2c-1,2.1-3,3.6-4.9,5.1
		c-0.7,0.4-1.4,1.2-2.3,1c-4.1-0.2-8.2-0.2-12-1.9c-1.9-0.9-3.3-2.7-3.6-4.9C259.2,324.5,262.9,323.8,266.4,322.4L266.4,322.4z"/>
	<path class="st2" d="M279.4,324.3c3.6,1.3,7.6,1.7,11.4,1.7c-1.2,5.8-6.8,9.9-12.6,10.1c-2.3-0.3-5.1-1-6-3.4
		c2.3-1.7,4.8-3.3,6.3-5.8C279.2,326.1,279.4,325.2,279.4,324.3L279.4,324.3z"/>
	<path class="st2" d="M384.8,327c1.1-0.5,2-1.4,2.8-2.2c-0.1,3.4-0.6,6.8-1,10.1c-0.1,1.3-1.1,2.2-2.2,2.8c-1.4,0.6-3,0.1-4.3-0.7
		c-1.1-2.9-0.8-6.2,0.3-9C381.8,327.8,383.4,327.8,384.8,327L384.8,327z"/>
	<path class="st2" d="M291.9,326.1c2.1,0.3,4.5,0.6,6.2,2.1c1.1,0.9,0.9,2.6,0.3,3.7c-1.3,2.6-3.4,4.7-5.6,6.6
		c-3.7-1.1-7.6-1.5-11.5-1.9c3.4-0.9,6.7-2.9,8.6-6C290.8,329.3,291.5,327.7,291.9,326.1L291.9,326.1z"/>
	<path class="st2" d="M152.1,334c0.9-2,2.7-3.6,4.7-4.9c1.1,1.9,3.1,3.3,5.5,3.3c-1.7,3.5-3.5,7-5.3,10.5c-0.6,1-1.5,1.7-2.5,2.2
		c-0.7,0.4-1.6,0.3-2.2-0.3c-0.8-1-1.3-2.2-1.1-3.5C151.1,339,151,336.3,152.1,334L152.1,334z"/>
	<path class="st2" d="M277.9,337.3c0.4-0.3,0.9-0.1,1.4-0.1c4.3,0.5,8.4,1,12.5,1.9c-0.2,0.4-0.6,0.7-1,0.9
		c-3.3,2.2-6.7,4.6-10.3,6.3c-1.3,0.6-3,1.1-4.3,0c-1-0.9-2-1.8-3-2.7c-0.2-1.4,0.3-2.8,1.3-4C275.5,338.7,276.7,338,277.9,337.3
		L277.9,337.3z"/>
	<path class="st2" d="M375.8,341.3c0.6-1.6,1.9-2.9,3.4-3.5c0.9,0.5,1.9,1,3,1.2c1.3,0.3,2.6-0.3,3.7-1.1c-0.7,3.1-1.3,6.6-3.7,8.8
		c-1.5,1.5-4,1-5.6,0C376.1,344.8,375.2,343,375.8,341.3L375.8,341.3z"/>
	<path class="st2" d="M225.8,340.6c0.5-0.8,1.6-0.9,2.4-0.6c0.7,0.3,1.1,0.9,1.7,1.3c0.7,0.4,1.6,0.6,2.2,1.1c1.3,1,2,2.4,3.2,3.5
		c2.5,2.6,5.8,4.4,9.2,5.5c1.2,0.4,2.4,0.6,3.6,1.1c-2.9,1.5-5.9,3.1-8.9,4.6c-1.6-3.3-4.9-5.8-8.4-6.7c-2-0.4-4.2-0.9-6.1-1.7
		c-0.8-0.4-1.8-0.8-2-1.8c1.4-0.3,2.7-1.2,2.8-2.7C226.1,342.9,224.9,341.7,225.8,340.6L225.8,340.6z"/>
	<path class="st2" d="M214,345.4c0.7-2.3,2.7-4.1,5.2-4.4c1.6-0.2,3.3-0.1,4.8,0.6c0.9,0.4,0.9,1.5,1,2.3c0.1,0.9-0.7,1.7-1.5,2
		c-0.9-0.5-1.4-1.6-2.4-1.9C218.6,342.8,216,344,214,345.4L214,345.4z"/>
	<path class="st2" d="M331.7,344.4c2-0.9,4.3-0.9,6.4-0.6c1,0.1,2,1.3,1.5,2.3c-0.4,0.9-1.1,1.6-1.9,2.1c-2.6-1.6-6.1-2-8.9-0.5
		C329.3,346.4,330.3,345,331.7,344.4L331.7,344.4z"/>
	<path class="st2" d="M267.6,345.7c1.5-1,3.4-1.2,5.3-1.2c1.4,1.3,2.7,3.1,4.9,3.4c-1.2,2-3,3.8-5.6,4.1c-2.5,0.2-4.9-1.3-6.7-2.8
		C265.9,347.8,266.5,346.5,267.6,345.7L267.6,345.7z"/>
	<path class="st2" d="M99.3,349.9c0.5-1.5,1.7-2.9,3.3-3.4c2.6-0.6,5.4,0.3,7.6,1.7c0.5,0.3,0.4,1,0.4,1.5c0,1.6-2.1,2.1-3.4,1.8
		c-1.2-1.1-2.4-2.3-4.1-2.6C101.8,348.6,100.4,349.2,99.3,349.9L99.3,349.9z"/>
	<path class="st2" d="M111.5,348.1c0.7-0.1,1.4-0.1,2.1,0c3,0.6,5.7,2.2,8.3,3.6c2.7,1,5.6,1.8,8.5,2.1c-4.5,1.3-9,3-13.8,2.7
		c-2.4-0.1-4.6-1.5-7-1.7c-0.9-0.1-2,0.2-2.6-0.5c-0.6-0.5-0.3-1.2-0.1-1.8c1.4,0,3.1,0,4.1-1.2
		C111.7,350.4,111.6,349.2,111.5,348.1L111.5,348.1z"/>
	<path class="st2" d="M206.1,361.9c1-3.1,3.7-5.7,7-6.5c0.9-0.2,1.9-0.3,2.7,0.1c0.8,1.1,1,3.1-0.2,4.1c-0.4,0.3-0.9,0.6-1.4,0.3
		c-1.4-0.6-3-0.6-4.5-0.1C208.4,360.2,207.3,361.2,206.1,361.9L206.1,361.9z"/>
	<path class="st2" d="M326.8,360.1c1.7-1.6,4.2-2.4,6.4-3.2c1,1.3,1.8,3,1.3,4.8c-2.3,0-4.8-0.4-7,0.4c-1,0.3-1.7,1.1-2.6,1.7
		C325.3,362.4,325.8,361.1,326.8,360.1L326.8,360.1z"/>
	<path class="st2" d="M95.4,360c2.5-1.5,5.6-1.5,8.4-1.2c1,0.1,1.6,1,2,1.9c0.4,1.2-0.6,2.1-1.4,2.9c-3.3-1.3-7.2-1.7-10.7-0.6
		c-0.5,0.1-0.8,0.5-1.3,0.5C93.2,362.3,94,360.9,95.4,360L95.4,360z"/>
	<path class="st2" d="M173.3,365.4c2.3-0.1,4.9,0.7,6.5,2.5c0.9,1,1.5,2.3,1.7,3.6c-1.5-0.9-3.1-1.7-5-1.7c-1.3-0.1-2.5,0.5-3.8,0.7
		C172.2,368.9,172.7,367,173.3,365.4L173.3,365.4z"/>
	<path class="st2" d="M283,370c-0.1-1.3,0.7-2.4,1.4-3.4c2.7,0.6,5.6,1.2,7.8,2.9c1.2,0.9,2,2.2,2.2,3.7c-1.8-1.6-4.2-2.8-6.6-2.5
		c-1.4,0.1-2.7,0.8-4.1,1.5C283.5,371.5,283,370.8,283,370L283,370z"/>
	<path class="st2" d="M404.6,366.6c3.8,0.3,6.9,3.5,7.8,7.2c-2.4-2.3-6.2-3-9.4-2.3C402.4,369.7,403.3,367.8,404.6,366.6
		L404.6,366.6z"/>
	<path class="st2" d="M217.2,369.2c1.1-1,2.6-1.7,4.1-1.9c1.4,0.1,3.1,0.5,4.1,1.7c0.5,0.7,0.3,1.7,0.2,2.5
		c-1.8-0.3-3.6-0.6-5.5,0.1c-1.6,0.5-2.9,1.6-4.2,2.9C215.8,372.6,215.9,370.6,217.2,369.2L217.2,369.2z"/>
	<path class="st2" d="M102.8,370.9c1.3-1.3,3.5-2,5.4-1.4c0.6,0.2,1.3,0.6,1.6,1.3c0.3,0.7-0.1,1.5-0.4,2.1c-3.7-0.5-7.1,1.5-9.7,4
		C100.2,374.7,101,372.5,102.8,370.9L102.8,370.9z"/>
	<path class="st2" d="M340,370.5c1.1-0.4,2.5-0.9,3.6-0.2c1.2,0.7,2.3,1.9,2.2,3.3c-4.1,0-7.7,1.7-11.2,3.5
		C335.4,374.4,337.1,371.7,340,370.5L340,370.5z"/>
</g>
</svg>
