<?xml version="1.0" encoding="utf-8"?>
<!-- Generator: Adobe Illustrator 21.1.0, SVG Export Plug-In . SVG Version: 6.00 Build 0)  -->
<svg version="1.1" id="Warstwa_1" xmlns="http://www.w3.org/2000/svg" xmlns:xlink="http://www.w3.org/1999/xlink" x="0px" y="0px"
	 viewBox="0 0 512 512" style="enable-background:new 0 0 512 512;" xml:space="preserve">
<style type="text/css">
	.st0{fill:#6ABD51;}
	.st1{fill:#FFE131;}
	.st2{fill-rule:evenodd;clip-rule:evenodd;fill:#FF222F;}
	.st3{fill-rule:evenodd;clip-rule:evenodd;fill:#7D4B23;}
</style>
<path class="st0" d="M512,256c0,141.4-114.6,256-256,256S0,397.4,0,256S114.6,0,256,0S512,114.6,512,256z"/>
<path class="st1" d="M399.2,256.2c0,78.9-64,142.9-142.9,142.9c-78.9,0-142.9-64-142.9-142.9s64-142.9,142.9-142.9
	C335.2,113.3,399.2,177.3,399.2,256.2L399.2,256.2z"/>
<path class="st2" d="M198.7,242.4c0,0-8,2-8.8-14.6c-0.8-16.5-0.1-18.1-0.1-18.1s7.1,13.9,12.5,14.5c5.5,0.6-7.4-3.6-2.4-17.9
	c5-14.3,17.8-17.3,24.1-20c6.2-2.7,20.7-12.7,24.6-20.7c3.9-7.9,5.2-9.1,5.2-9.1s-2.6,15.8-5.2,19.7s-3.6,6.7-3.6,6.7
	s12.2,0.4,17.7-9.6c5.6-10,8.2-12.6,14.1-15.7c5.9-3.1,12.6-5.1,12.6-5.1s-5.6,8-5.9,12.7c-0.3,4.6,1.2,6.1,1.2,6.1s9.7-5.9,14.3-12
	c4.5-6,8.2-8.5,14.2-7c5.9,1.5,16.9,2.7,19.5,0.6c2.6-2.1,5-4.6,5-4.6s-0.3,7.8-6.5,10.4c-6.2,2.6-11.7-1.1-17.5,3.3
	c-5.9,4.4-9.3,8.4-9.3,8.4s3.9,2.6,11.7-0.1c7.9-2.7,13.9-5.3,13.9-5.3l-6.6,9.6l-7.6,4c0,0,7.1,1.2,13.1-0.5c6-1.7,14-3.4,14-3.4
	s2.3,5.9-3.6,8.4c-5.9,2.5-17.4,4.1-22.3,5.3c-4.8,1.2-11.9,4.4-13.6,8c-1.7,3.6,10.3-1.5,10.3-1.5s-3.6,3.4-5.5,9.9
	c-1.9,6.5,5.6-4.6,11.1-0.4c5.5,4.2,14.5,10.9,14.5,10.9l15.3-4.8c0,0-1.3,10.7-7.8,14c-6.5,3.4-14-0.4-20-0.3
	c-5.9,0.1-10.2,3.6-10.2,3.6s8.9-1.5,12.7,2.4c3.8,4,17.9,6.3,17.9,6.3s-3.6,9.5-7.9,9s-17.3-4-17.3-4s1.1,6.2,6.1,7.4
	c5,1.2,14.8,0.3,14.8,0.3s-6.2,7.4-10.9,7.7c-4.8,0.3-26.6-3.1-26.6-3.1l-13.7-5c0,0-1.5,5.1,4.5,6.5c6,1.4,11.5,2.8,11.5,2.8
	s-9.8,7-13.4,6.5c-3.6-0.4-15.5-7.6-23.2-7.5c-7.6,0.1-20.3,5.8-20.3,5.8l-11.7,0.9c0,0-9.7-13.2-18.2-15.9
	C207,245.3,198.6,243.8,198.7,242.4L198.7,242.4z"/>
<path class="st3" d="M194,237.9c-0.3,0-0.5,0-0.5,0l2.2,8.3c0.7-0.2,12.1,1.1,16.3,1.6c4.2,0.5,21.7,15.1,21.7,15.1l5.4-1.4
	c0,0-13.7-13.2-23.8-18.9C206.4,237.8,196.4,237.8,194,237.9L194,237.9z M201.7,249l5.4,6.6l-7.6,0.4l-0.1,3.8l14.8,6.1l7.9,4
	l8.1-4.6l-20.8-15L201.7,249L201.7,249z M199.6,264.1l-0.6,5.1l17.9,7.2l6.3-3.1L199.6,264.1L199.6,264.1z M196.8,272l-8.5,21.3
	l4.8-0.5l7.1-19.9L196.8,272L196.8,272z M203.7,275.8l-4.1,13.4l14-0.2l2.1-9.4L203.7,275.8L203.7,275.8z M200.5,295.3l-3,5.5
	l13.6,6.5l-6.8,12.1l2.7,7.8l10.1,7.9l5.8-14.5l-5.9-23.4L200.5,295.3L200.5,295.3z M178,298.6l1.6,4.7l12.6,0.3l-3.1-4.7L178,298.6
	L178,298.6z M196,303.8l0.3,2.8l4,0.6l0.3-3.1L196,303.8L196,303.8z M177,307.3l-0.9,5.1c0,0,5.7,1.4,6.5,1.4
	c0.8,0,18.3,1.8,18.3,1.8l0-2.9l-9.1-4.5L177,307.3L177,307.3z M174.9,316.8l-1.2,5.4l14.5,2.1l10.8,0.2l-1.3-4.5l-8.3-2.7
	L174.9,316.8L174.9,316.8z M171,326.1l1,5.5l17.6,1.8l1.7-3.6l-5.8-3.6L171,326.1L171,326.1z M226,329.1l1.6,13.6l63.4,42.1
	l20.6-8.2l-35.5-21.8l11.7,13.5l-0.2,7.5l-12.2-7l-16.3-19.4c0,0-12.8-8.3-17.9-9.4c-5-1-8.1-10.9-8.1-10.9L226,329.1L226,329.1z
	 M172.5,332.9l-6.6,17.5l2.5,0.7l7-16.8L172.5,332.9L172.5,332.9z M201.4,334l-7.4,1.8l-4.3,9.1l8.1,11.5l10.8-1.1l5.7-8.3
	L201.4,334L201.4,334z M177,334.7l-6.3,17.1l2.7,1l7.6-16.2L177,334.7L177,334.7z M182.7,337.3l-7.7,16.5l2.4,1.2l7.9-16.4
	L182.7,337.3L182.7,337.3z M216.2,342.9l10.4,14.5l-9.9-0.3l-2.4,2.7c0.1,0.1,8.4,5.7,12.2,9c3.8,3.3,23.6,19,23.6,19l7.3,0.2
	c0,0-8.5-8.5-12.6-11.6c-4.2-3.1-22.5-32.2-22.5-32.2L216.2,342.9L216.2,342.9z M252.4,369.1l-5.4,1.7l17.1,15.6l4.8-2.3
	L252.4,369.1L252.4,369.1z"/>
</svg>
