<?xml version="1.0" encoding="utf-8"?>
<!-- Generator: Adobe Illustrator 21.1.0, SVG Export Plug-In . SVG Version: 6.00 Build 0)  -->
<svg version="1.1" id="Warstwa_1" xmlns="http://www.w3.org/2000/svg" xmlns:xlink="http://www.w3.org/1999/xlink" x="0px" y="0px"
	 viewBox="0 0 512 512" style="enable-background:new 0 0 512 512;" xml:space="preserve">
<style type="text/css">
	.st0{clip-path:url(#SVGID_2_);}
	.st1{fill:none;}
	.st2{fill:#16005E;}
	.st3{fill:#ED1C24;}
	.st4{fill:#FFFFFF;}
	.st5{fill-rule:evenodd;clip-rule:evenodd;fill:#8F3814;}
	.st6{fill-rule:evenodd;clip-rule:evenodd;fill:#F4C034;}
	.st7{fill-rule:evenodd;clip-rule:evenodd;fill:#FFFFFF;}
</style>
<g>
	<defs>
		<path id="SVGID_1_" d="M512,256c0,141.4-114.6,256-256,256S0,397.4,0,256S114.6,0,256,0S512,114.6,512,256z"/>
	</defs>
	<clipPath id="SVGID_2_">
		<use xlink:href="#SVGID_1_"  style="overflow:visible;"/>
	</clipPath>
	<g class="st0">
		<g>
			<polygon class="st1" points="-244.1,0 -252.9,0 -252.9,512 -244.1,512 -244.1,277.8 			"/>
			<polygon class="st2" points="-244.1,512 523.9,512 -244.1,277.8 			"/>
			<polygon class="st2" points="523.9,0 -244.1,0 -244.1,277.8 			"/>
			<polygon class="st3" points="-164.8,277.8 523.9,28.7 523.9,0 -244.1,277.8 523.9,512 523.9,487.8 			"/>
			<polygon class="st4" points="523.9,487.8 523.9,28.7 -164.8,277.8 			"/>
		</g>
		<g>
			<g>
				<path class="st5" d="M378.7,318.6c0,0-5.8-4.7,1.1-12.3c-3.7-3.1-0.3-9.2-0.3-9.2s-6.3-2.4,0.3-12.1c-4.7-3.2-2.6-10.2-2.6-10.2
					s-15.5-5.8-0.8-11.3c-12,5.2-23.3-7.1-23.3-7.1l-17.6,0.5c-3-14.6-26.1-1.9-8.9-43.8c-4.5-0.8-9.4-2.1-14.4,1.6
					c-5,3.7-19.1,11.5-27.5,3.7c-8.4-7.8,5.5-19.1,5.8-19.4c0.3-0.3,18.6-9.7,21.2-16c-0.3-4.7-6.1-8.4-0.8-18.6
					c6-9.7,43-18.9,59.8-22c8.1-3.7,11.8-10.8,11.8-10.8l1.9,6.8c0,0,37.2-11,39-16.3c1.8-5.2,0.8,4.7,0.8,4.7
					c14.7-1.3,33.3-13.9,35.9-8.1c12.3-2.3,35.9-12.8,35.9-12.8s8.1-0.2,2.4,8.7c3.7,5.8-1.1,10.7-1.3,10.7c-0.3,0,1.6,5.8-3.1,8.9
					c1.6,5-2.9,8.9-2.9,8.9s2.1,6-6.3,9.2c0.8,5.2-4.7,6.3-4.7,6.3s0.8,5.5-2.9,7.9c0,4.2-4.2,6.3-4.2,6.3s2.6,1.6-1,4.2
					c-3.7,2.6-41.7,26-41.7,25.7c0-0.3,27.8,5,29.6,6c1.8,1.1,22.8,14.9,22.8,14.9L461.2,250c0,0-23.6-2.6-24.6-1.3
					c-1,1.3,5,1.8,6.3,3.9c1.3,2.1,3.4,7.1,7.6,6.6c4.2-0.5-7.9,7.6-15.7,8.4c0,2.9,10,3.2,12.6,0.8c2.6-2.3-6.3,6.8-7.4,8.1
					c-1.1,1.3,11.8-1.8,11.8-1.8s-2.1,8.6-13.4,11.3c4.5,7.3,2.6,12.1,2.4,12.1c-0.3,0-7.4-7.3-14.2-6c1.8,7.1,7.4,13.6,8.9,14.7
					c1.6,1.1-12.3,0.8-14.2-3.2c-1.8-3.9-3.4,9.4,1.6,13.6c-5.8,0.3-10.7-3.1-10.7-3.1s-3.4,7.9-1.1,11.8c2.4,3.9-8.1-7.9-8.1-7.9
					l-19.9,8.4L378.7,318.6z"/>
				<g>
					<path d="M411.4,327.3c-0.4,0-1.1-0.1-9-8.9l-19,8.6c-0.3,0.2-0.8,0-1-0.3L378,319c0,0,0,0,0,0c-0.1,0-2.1-1.8-2.4-4.9
						c-0.2-2.5,0.8-5.1,3-7.7c-2.6-2.9-1-7.2-0.3-8.9c-0.7-0.5-1.7-1.3-2.2-2.9c-0.8-2.5,0-5.6,2.4-9.3c-3.6-3-2.9-8.1-2.5-9.9
						c-1.9-0.8-6.9-3.2-7-6.5c0-1.1,0.5-2.2,1.6-3.2c-10.1,0.2-18.1-8.3-18.4-8.6l-17,0.8c-0.4-0.1-0.7-0.3-0.8-0.6
						c-0.9-4.5-3.9-6.2-7.1-8c-6.6-3.7-13.4-7.6-2.2-35.3l-0.2,0c-4.4-0.8-9-1-12.6,1.7c-4.5,3.3-12.2,7.2-18.9,7.2
						c-3.8,0-7.1-1.2-9.6-3.6c-2-1.9-3-4.1-2.9-6.6c0.1-6.2,6.7-12.2,8.7-13.9c0.1-0.1,0.2-0.2,1.2-0.7c14.6-8.1,18.9-12.7,19.9-15
						c-0.1-0.9-0.7-2.1-1.3-3.6c-1.5-3.4-3.3-7.6,0.5-15.1c7.7-12.4,59.8-22.3,60.3-22.4c7.6-3.5,11.2-10.3,11.2-10.3
						c0.2-0.3,0.5-0.5,0.8-0.4c0.3,0,0.6,0.3,0.7,0.6l1.6,6c14.3-4.3,36.5-12.1,37.7-15.5c0.5-1.4,0.9-2.1,1.6-2.1
						c0.8,0.5,1.3,1.1,0.9,6.2c6.2-0.7,13-3.4,19-5.7c8.1-3.1,14.4-5.2,16.4-2.5c12.2-2.5,35-12.6,35.2-12.7c1-0.1,3.9,0,5.1,2.2
						c1,1.8,0.4,4.3-1.7,7.6c2.6,3.2,1.3,6.8,0.3,8.6c0,0.1-0.8,1.4-1.5,2c0.2,2,0.5,6.1-3,8.9c1.2,4.9-2.6,8.6-3.2,9.1
						c0.4,0.1,1.8,5.9-6,9.2c0.3,3.8-2.6,5.7-4.7,6.4c0.1,1.7,0,5.8-3.3,7.9c0.3,2.9-2,4.9-3.3,5.8c0.2,0.3,0.4,0.8,0.4,1.3
						c0,1.1-0.7,2.3-2.3,3.4c-2.7,1.9-31.6,19.8-39.7,24.6c6.7,1.1,25.9,4.8,27.6,5.8c1.8,1.1,22,14.4,22.8,15
						c0.2,0.1,0.3,0.3,0.4,0.5c0,0.2,0,0.4-0.2,0.6l-21.2,26.2c-0.8,0.2-15.8-1.4-22.3-1.4c-0.9,0-1.5,0-1.9,0.1
						c0.4,0.1,1,0.3,1.5,0.4c1.7,0.6,3.6,1.3,4.4,2.6l0.6,1c1.2,2.1,3.4,5.3,6,5.2c1.6,0,2,0.5,2,1c0.1,2.1-9.6,7.6-16.1,8.8
						c1.7,1.1,9.1,1.1,10.8-0.4c0.1-0.1,0.8-0.6,1-0.6c1,1,1,1-3.4,5.7c-1,1.1-2.1,2.2-2.8,3c3.4-0.4,10-2,10-2
						c0.3-0.1,0.5,0,0.7,0.2c0.2,0.2,0.3,0.5,0.2,0.7c-0.1,0.4-2.2,8.6-12.9,11.6c3.5,6.2,2.6,10.7,1.9,11.8
						c-0.1,0.3-0.5,0.5-0.8,0.5c-0.2,0-0.9-0.5-1.1-0.6c-1.7-1.4-6.8-6-12.1-5.5c2,6.4,6.9,12.4,8.3,13.4c0.3,0.2,0.5,0.7,0.4,1.1
						c-0.2,0.6-0.7,0.9-3.1,0.9c-3,0-11.1-0.7-12.7-4.1c0,0.1-0.4,2.1-0.2,4.7c0.1,1.7,0.6,5.9,3,7.9c0.2,0.2,0.3,0.6,0.2,0.9
						c-0.1,0.3-0.4,0.5-0.7,0.5c0,0,0,0,0,0c-4.9,0-8.7-1.8-10.4-2.8c-0.8,2.1-2.5,7.4-0.8,10.2c0.1,0.2,0.5,1.3,0.3,1.6
						L411.4,327.3L411.4,327.3L411.4,327.3z M375.6,264.7L375.6,264.7c-3.2,1.3-4.8,2.7-4.8,4.1c0,2.3,4.9,4.7,6.6,5.3
						c0.4,0.1,0.6,0.6,0.5,1c0,0.1-1.9,6.6,2.3,9.4c0.2,0.1,0.3,0.3,0.3,0.5c0,0.2,0,0.4-0.1,0.6c-2.4,3.5-3.3,6.5-2.6,8.6
						c0.5,1.7,2,2.3,2,2.3c0.2,0.1,0.4,0.3,0.5,0.5c0.1,0.2,0.1,0.5-0.1,0.7c0,0.1-3,5.5,0.1,8.2c0.2,0.1,0.3,0.3,0.3,0.6
						c0,0.2-0.1,0.4-0.2,0.6c-2.3,2.5-3.3,4.9-3.1,7.1c0.2,2.6,2,4,2,4l4.3,7.2l19.3-8.1c2.9,2.7,5.6,5.5,7.3,7.1
						c-1.2-4.3,1.3-10.3,1.5-10.6c0.1-0.2,0.3-0.4,0.5-0.4c0.2-0.1,0.5,0,0.7,0.1c0,0,3.8,2.6,8.5,3c-2.7-3.9-2.7-10.6-1.8-13
						c0.7-2,2.5-0.6,2.8-0.1c1,2.1,7.1,3.2,11.2,3.2c0.3,0,0.5,0,0.7,0c-2.4-2.4-6.6-8.2-8.2-14.2c-0.1-0.2,0-0.4,0.1-0.6
						c0.1-0.2,0.3-0.3,0.5-0.4c6.1-1.2,12.4,4.1,14.3,5.8c-0.1-0.2,0.7-4.5-3-10.6c-0.1-0.2-0.2-0.5-0.1-0.7
						c0.1-0.2,0.3-0.4,0.5-0.5c8.2-1.9,11.3-7,12.3-9.4c-2.6,0.6-8.1,1.8-10,1.8c-0.3,0-1.2-0.3-1.3-0.6c-0.1-0.3,0-0.8,0.1-1
						c0.4-0.5,2.1-2.3,3.8-4.1c0.5-0.5,0.9-1,1.4-1.5c-4.7,1.1-10.7,0.4-10.7-2.8c0-0.4,0.3-0.7,0.7-0.8c6.3-0.6,15.3-6.2,15.9-7.5
						l-0.7,0.7c-3.7,0-5.8-3.8-7.1-6l-0.6-1c-0.5-0.8-2.2-1.4-3.6-1.9c-1.6-0.6-2.7-1-2.9-1.8c-0.1-0.2,0.1-0.9,0.3-1.1
						c0.3-0.4,1-0.7,3.6-0.7c6.5,0,21.1,1.6,21.7,1.7l20-25.2c-3.7-2.4-20.4-13.5-22-14.4c-1.5-0.8-27.2-5.9-29.2-5.9
						c-0.3,0-0.6-0.2-0.7-0.4c-0.1-0.3-0.2-0.6,0-0.8c1.6-0.9,37.8-23,41.9-25.9c1.1-0.8,1.6-1.5,1.6-2c0-0.5-0.5-0.8-0.5-0.8
						c-0.2-0.1-0.4-0.4-0.4-0.7c0-0.3,0.2-0.5,0.4-0.7c0,0,3.7-1.9,3.7-5.6c3.6-2.7,2.9-7.7,2.9-7.8c-0.1-0.4,0.2-0.8,0.6-0.9
						c0.2,0,4.7-1,4.1-5.4c-0.1-0.4,0.2-0.7,0.5-0.9c7.5-2.8,5.9-8,5.8-8.2c0.3-0.9,4.3-4.5,2.9-8.9c-0.1-0.3,0-0.7,0.3-0.9
						c3.4-2.3,3-6.2,2.8-7.6c0-0.2,0-1,0.2-1.1c0.3-0.2,4.6-4.5,1.3-9.8c1.8-3.6,2.3-5.7,1.7-6.9c-0.8-1.4-3-1.4-3.3-1.4
						c-0.7,0.4-23.6,10.5-35.8,12.8c-0.4,0-0.7-0.1-0.9-0.5c-0.2-0.4-0.6-1-2.2-1c-2.8,0-7.3,1.7-12.5,3.8
						c-6.4,2.5-13.7,5.3-20.4,5.9c-0.3,0-0.5-0.1-0.6-0.2c-0.2-0.2-0.2-0.4-0.2-0.6c0.1-1.2,0.2-2.5,0.3-3.6
						c-4.5,5.6-35.4,14.9-39.1,16c-0.2,0.1-0.4,0-0.6-0.1c-0.2-0.1-0.3-0.3-0.4-0.5l-1.4-5.1c-1.6,2.4-5.2,6.8-11.2,9.5
						c-21,4-54,13-59.4,21.7c-3.5,6.8-1.9,10.4-0.4,13.7c0.7,1.5,1.3,2.9,1.3,4.5c-1.7,4.2-8.4,9.4-20.6,16.1l-0.9,0.5
						c-3.9,3.3-8,8.4-8.1,12.8c0,2.1,0.8,3.8,2.4,5.4c2.3,2.1,5.1,3.2,8.5,3.2c8.4,0,17-6.2,18-6.9c3.9-2.9,9.1-2.8,13.8-1.9
						l1.2,0.2c0.2,0,0.4,0.2,0.6,0.4c0.1,0.2,0.1,0.5,0,0.7c-11.2,27.3-5.2,30.7,1.1,34.3c3.2,1.8,6.5,3.7,7.7,8.4l16.9-0.5
						c0.7,0.3,8.2,8.4,17.1,8.4c1.7,0,3.3-0.3,4.9-0.8l1-0.4c0.4-0.1,0.9,0.1,1,0.4c0.2,0.4,0,0.9-0.4,1L375.6,264.7L375.6,264.7
						L375.6,264.7z"/>
				</g>
				<path class="st6" d="M224.7,303c0.4,0,28.9-0.5,42-8c6.5,10.3,15.4,17.3,15.4,17.3l4.2-14.9c0,0,10.2,0.5,11.2,2.8
					c-1.4,2.8-1.9,6.5-1.9,6.5s7,0.5,7.5,1.4c0.4,0.9-1.9,8.9-1.9,8.9l29.9,7c0,0,2.3-11.7,4.7-10.3c2.3,1.4,12.6,15.9,27,16.8
					c14.5,0.9,15.4-12.1,15.4-12.1l3.3,1.9c0,0,6.1-13.1,7-13.1c0.9,0,2.3,1.9,10.3,1.9c2.3,2.8,3.3,9.3,3.3,9.3s-8.8,8.9-6.1,15.9
					c2.8,7,3.2,5.1,3.2,5.1l64.4,15.4c0,0,3.2,5.1-2.4,7.9c0,0.5-64.9-14.9-64.9-14.9s-6.1,7-10.7,5.6c-4.7-1.4-1.4,2.8-1.4,2.8
					l70,5.6c0,0,5.2,6.5,1.4,8.4c-4.7,0.5-75.6-4.7-75.6-4.7s-4.2,8.9-8.9,1.4c-3.2,5.1-7-1.4-7-1.4s-6,4.7-7-0.5
					c-5.1,3.7-8.4-2.3-8.4-2.3l-29.8-1.9l-1.9,2.8c0,0,5.1,1.4-2.8,4.7c-7.9,3.3,47.6,1.9,49,2.3c1.4,0.5-3.7,4.6-3.7,4.6
					s28.4,1.9,33.6-4.2c5.1-6.1-1.9,7.9-1.9,7.9s22.4-0.9,22.4-1.8c0-1-0.5,7-15.9,6.1c9.4,6.1,21,9.8,21,9.8s-11.6,2.8-25.2-0.5
					c2.4,6.1,12.6,11.7,12.6,11.7s-7.4,6.5-24.3-9.3c4.6,8.4,0.9,11.7,0.4,10.7c-0.4-0.9-8.4-12.6-27-16.8
					c11.6,7.5,6.5,10.7,6.5,10.7s-6.1-10.7-15.9,0c-3.7-9.8-18.2-15.4-35.9-16.3c-5.6-6.5-8.9-4.7-22-8.4
					c-7.4-8.4-18.2-17.7-18.2-17.7s0.5-12.6,13.1-11.2c1.4,4.2,1.4,2.8,1.4,2.8s14-5.1,18.2,1.8c6.1-10.7,14.5-1.6,15.9,2.1
					c4,0.6,24.3,1.2,24.3,1.2s-2.4-4.2-0.9-3.7c1.4,0.5,12.6-4.2,12.2-5.6c-0.5-1.4-1-6.1,0.9-5.6c1.9,0.5-15.9-2.3-25.7,5.1
					c-3.2-3.3-0.9-12.1-0.9-12.1l-29-6.1l-1.4,7.5c0,0-8.4,1.4-7.9-0.5c0.5-1.9-1.9,6.5-1.9,6.5s-11.2-2.8-11.2-3.3
					c0-0.5,3.3-16.8,3.3-16.4c0,0.5-9.3,1-22.4,10.8C254.1,318.9,224.7,303.5,224.7,303L224.7,303z"/>
				<g>
					<path d="M382.7,406.7C382.7,406.7,382.7,406.7,382.7,406.7l-0.5,0l-0.5-0.6c-0.1-0.1-6.4-10.3-22.3-15.3
						c2.9,2.4,4.4,4.6,4.4,6.6c0,1.9-1.4,2.9-1.5,2.9l-0.7,0.5l-0.4-0.7c0,0-2.3-3.9-6-4.3c-2.7-0.3-5.6,1.2-8.6,4.5l-0.9,1
						l-0.5-1.2c-3.4-8.9-16.6-14.8-35.2-15.8c-4.2-4.5-6.7-5-12.2-6.1c-2.6-0.5-5.8-1.1-9.9-2.3c-7.7-8.5-18.4-17.8-18.5-17.9
						c-0.3-0.9,0-6.6,4.1-10.1c2.4-2.1,5.7-2.9,9.6-2.5c1,1.9,1.4,2.7,1.6,3c3.4-1.5,13.5-4.2,17.9,1c2.5-3.9,5.4-4.5,7.3-4.4
						c4.6,0.4,8.4,5.2,9.3,7.7c2.8,0.1,17.6,0.5,22.2,0.6c-1.3-2.6-0.8-3.1-0.6-3.4l0.3-0.4l0.9,0.1c1.2,0.2,10.4-3.6,11.2-4.9
						c-0.2-0.4-0.7-3.1-0.3-4.8c-12.9-0.6-19.8,2.4-23.2,5l-0.6,0.4l-0.5-0.5c-2.9-3-1.8-9.7-1.3-12.1l-27.4-5.7l-1.2,6.7
						c-2.8,0.9-6.5,1.5-8.3,0.9c-0.6,2-1.5,5.3-1.5,5.3l-0.2,0.7l-0.7-0.2c-11.8-3-11.8-3.3-11.8-4c0-0.3,0.5-3.2,1.6-8.5
						c0.7-3.4,1.1-5.4,1.4-6.7c-3,0.7-10.7,2.6-20.9,10.2l-0.9,0.7l-0.3-1.1c-3-9.3-23.5-21.5-30.2-25.5c-2.9-1.7-2.9-1.7-2.9-2.3
						v-0.8h0.8c0.3,0,28.8-0.5,41.6-7.8l0.7-0.4l0.4,0.6c5.2,8.1,11.9,14.2,14.3,16.3l4-14.4l0.6,0c2.5,0.1,10.8,0.7,11.9,3.3
						c-1,2.3-1.5,4.8-1.7,6.1c6.6,0.5,7.1,1.4,7.3,1.8c0.4,0.8-0.2,3.7-1.6,8.6l28.3,6.6c0.6-2.9,2.2-9.2,4.2-10.1l0.4-0.2l1.1,0.3
						c0.6,0.4,1.4,1.2,2.6,2.5c4.2,4.4,12.9,13.5,24,14.2c13.6,0.8,14.5-10.9,14.6-11.4l0.1-1.3l3.6,2.1c6-12.8,6.8-12.8,7.4-12.8
						l1.2,0.4c1.1,0.5,3.3,1.5,9.1,1.5c3,3.2,4,9.7,4.1,10c-0.3,0.8-8.7,9.3-6.1,15.7c1.7,4.3,2.4,4.9,2.5,4.9l64.6,15.1
						c0.5,0.5,2.1,2.9,1.3,5.5c-0.5,1.6-1.6,2.9-3.5,3.9c-0.1,0.1-0.2,0.2-6.1-1.1c1.2,1.6,2.7,4.3,2.2,6.4
						c-0.2,0.9-0.8,1.7-1.7,2.1c-4.9,0.6-71.8-4.3-75.9-4.6c0.3,0.3-1.8,4.2-4.8,4.4c-1.5,0.1-2.9-0.7-4.2-2.4
						c-0.8,0.9-1.9,1.4-2.8,1.4c-2,0-3.6-1.9-4.4-3c-1.2,0.8-3.6,2.1-5.5,1.4c-0.8-0.3-1.4-0.9-1.7-1.8c-1.3,0.7-2.7,0.9-4,0.6
						c-2.9-0.7-4.6-3.7-4.7-3.9l-29.2-1.4l-0.8,1.6c0.6,0.3,1.3,0.9,1.4,1.7c0.1,1.4-1.4,2.6-4.9,4.1c1.5,0.8,25.8,0.8,37.5,0.7
						c8.9,0,11,0,11.5,0.1l0.4,0.2l0.3,0.7c0.1,0.8-0.8,2.1-2.7,3.9c8.9,0.4,27.3,0.4,31-4c1-1.2,2-2.2,2.8-1.6
						c0.6,0.4,1.3,0.9-2.8,9.2c9-0.4,18.5-1,20.4-1.5l0.1-0.3l1.4,0.1l0,0.8c0,0.2,0,0.4-0.2,0.5c-0.9,2.2-3.8,6.3-13.6,6.4
						c8.6,5,18.2,8.1,18.3,8.2l2.7,0.9l-2.8,0.7c-0.5,0.1-11.1,2.6-23.9-0.1c3.1,5.2,11.4,9.8,11.5,9.8l1,0.5l-0.8,0.7
						c-0.3,0.3-7.3,6.1-22.5-6.8c1.5,4.3,0.5,6.7,0,7.4C383.9,406.3,383.3,406.7,382.7,406.7L382.7,406.7z M351.2,387.2l4.4,1
						c16.9,3.8,25.6,13.9,27.3,16.8c0-0.2,0.2-0.5,0.3-0.9c0.3-1,0.8-3.7-2-8.7l-2.5-4.5l3.7,3.5c12.4,11.8,19.5,10.9,22.1,9.9
						c-2.9-1.7-9.8-6.3-11.7-11.4l-0.6-1.4l1.5,0.4c9.2,2.2,17.6,1.6,21.9,1c-4.1-1.5-11.8-4.6-18.3-8.9l-2.5-1.6l3,0.2
						c9.1,0.5,12.8-2.1,14.2-4.1c-2.7,0.5-8.5,0.9-20.8,1.4L390,380l0.6-1.2c1.2-2.4,2.5-5.2,3.2-7c-5.4,6.3-33.1,4.5-34.2,4.4
						l-2-0.1l1.6-1.3c1.9-1.5,3.6-3.3,3.7-3.8c-0.2,0.4-5.3,0.4-10.6,0.4c-35.1,0.1-39-0.6-39.4-2.2c-0.2-0.9,0.9-1.4,1.3-1.5
						c3.9-1.6,3.9-2.5,3.9-2.5c0-0.2-0.6-0.5-1-0.7l-1.1-0.3l2.5-3.7l30.6,1.5c0.7,0.4,2.1,3,4.3,3.5c1.1,0.3,2.3-0.1,3.6-1l1-0.7
						l0.2,1.2c0.3,1.4,0.8,1.6,1,1.7c1.4,0.6,3.9-1.1,4.7-1.7l0.7-0.6l0.5,0.8c0.5,0.8,2,2.9,3.5,3c0.8,0.2,1.4-0.5,2.1-1.6l0.7-1.1
						l0.7,1.1c1.1,1.8,2.3,2.6,3.4,2.6c1.9-0.1,3.6-2.9,4.1-3.9c1.4-0.4,65.7,4.2,75.3,4.3c0.4,0,0.8,0,1,0c0.2-0.2,0.5-0.5,0.6-1
						c0.4-1.9-1.7-5.1-2.5-6.1l-69.4-5.3c-1.1-1-2.4-2.9-1.6-4c0.7-1,2.2-0.7,3.3-0.4c3.5,1.1,8.3-3.5,9.9-5.4c0,0,0,0,0,0l1.7-7.6
						l0.3,0.1c-0.6-0.7-1.4-2.2-2.6-5.2c-2.9-7.2,5.5-15.9,6.2-16.7c-0.3-0.1-1.2-5.8-3.3-8.3c-5.5,0.3-7.9-0.8-9.1-1.4
						c-0.9,0.3-4.2,6.6-6.8,12.4l-0.4,0.8l-3-1.7c-0.7,3.4-3.6,12.5-16.1,11.7c-11.7-0.8-20.7-10.2-25.1-14.7c-1-1.1-1.9-2-2.3-2.2
						c-0.8,0.2-2.5,4.8-3.5,9.8l-0.1,0.5l0.1,0l-2.8,8.4l-0.2-0.1c-0.5,2.6-1.1,7.5,0.5,9.9c4-2.8,11.4-5.7,24.9-4.8l0.1,0.1
						l0.7-0.1c0.8,0.2,0.8,0.8,0.7,0.9l-0.1,0.7l-1-0.1c-0.5,0.5-0.4,3.1,0,4.5l0.2,0.5l-0.7,1c-1.7,1.7-10,5.5-12.4,5.2
						c0.5,0.3,1.1,1.5,1.7,2.5l0.7,1.2l-1.4,0c-0.8,0-20.4-0.6-24.4-1.2c-1.5-2.7-4.9-6.9-8.6-7.1c-2.4-0.1-4.6,1.4-6.5,4.6
						l-0.7,1.2L302,351c-3.8-6.3-17.1-1.6-17.3-1.5c-1,0.4-1.4-0.2-2.4-3.3c-2.8,0.1-5.7,0.8-7.7,2.6c-3.4,3-3.8,8-3.8,8.3
						c0-0.4,10.7,9,18,17.2c3.7,0.9,6.9,1.6,9.4,2.1c5.5,1.1,8.6,1.7,12.6,6.4c18,0.7,31.3,6.5,35.6,15.4c3.1-3.1,6.1-4.4,9.1-4.1
						c3.4,0.4,5.6,2.9,6.6,4.2c0.1-0.3,0.2-0.6,0.2-1c0-1.2-1-3.8-7.3-7.8L351.2,387.2L351.2,387.2z M397.4,347.7
						c25.8,5.7,62.2,14.2,63.9,14.3c1.1-0.7,2-1.6,2.4-2.8c0.6-1.9-0.7-3.9-0.7-3.9l-63.5-14.9l-0.4,0.1c0,0,0,0-0.1,0L397.4,347.7
						L397.4,347.7z M384.2,354c-0.2,0-0.3,0-0.3,0c0,0.2,0.5,1.1,1,1.8l61.9,4.7c-9.4-2.2-25-5.8-50.6-11.9
						c0.4,0.2-5.7,7.1-10.8,5.6C384.8,354,384.4,354,384.2,354L384.2,354z M277.9,336.2c1,0,5.4,1.2,9.7,2.3
						c0.6-1.9,0.9-3.3,1.2-4.3l-0.1,0l6-26.6h0l0.1-0.8c0-0.2,0.5-3.9,2-6.8c-0.5-0.4-5.4-1.4-9.9-1.6l-4.3,15.5l-0.9-0.7
						c-0.1-0.1-8.7-6.9-15.2-16.9c-11.1,5.9-31.8,7.3-39.1,7.6c0.1,0.1,0.2,0.1,0.3,0.2c7.3,4.4,26.4,15.7,30.6,25.4
						c10-7.3,17.7-9.2,20.6-9.9c0.4-0.1,0.7-0.2,0.9-0.2c0.1-0.2,0.3-0.2,0.5-0.2h0.8l0,0.8c0,0.2,0,0.3-0.1,0.4
						c-0.4,1.8-3.1,15.2-3.2,16C277.8,336.2,277.8,336.2,277.9,336.2L277.9,336.2z M290.9,332l0.2,0l-0.3,1c0.4,0.1,3.8,0,7-0.5
						l0.9-7.6l0.1,0l1.6-7.3l-0.1,0l0.2-0.8c1-3.5,2-7.7,1.9-8.4c-0.4-0.2-3.3-0.6-6-0.8L290.9,332L290.9,332z M300.4,325.3
						l27.7,5.8l2.2-6.5L302,318L300.4,325.3L300.4,325.3z M389.8,393.6h-1.6c-0.1-0.7-2.4-2.9-20.7-9.3c-2.4-0.9-2.5-0.9-2.3-1.6
						l1-0.5c1.4,0.3,11.2-0.8,14.5-1.2c1.2-0.1,2-0.2,2.2-0.2l0,1.6c-0.2,0-0.9,0.1-2,0.2c-4.3,0.5-7.9,0.9-10.6,1.1
						C386.4,389.3,389.8,391.8,389.8,393.6L389.8,393.6z M356.4,385.4c-5.3-3.4-11.4-6.9-14.4-8c-1.3,0-2.1,0-2.4-0.1l-0.5-0.8
						l0.7-0.9c0.5-0.2,1.3-0.1,2.4,0.3c4-0.2,12.2-1.2,13.2-1.9l1.1,1.1c-0.9,0.9-6.5,1.8-11,2.2c4.1,2,9.1,5.1,11.8,6.9
						L356.4,385.4L356.4,385.4z M327.5,383.2c-2.3,0-7.5-3.1-15-8.1c-0.7-0.5-1.3-0.8-1.7-1.1c-0.4-0.1-0.7-0.3-0.8-0.4l-0.5-0.5
						l0.4-0.7c0.4-0.5,0.5-0.6,1.8,0.2c2.1,0.6,9.1,0.7,15.3,0.5l0,1.6c-2.9,0.1-8.3,0.2-12.3-0.1c7.6,5,12,7.3,12.9,7l0.5,1.5
						C327.9,383.2,327.7,383.2,327.5,383.2L327.5,383.2z M299.2,374.3c-7.8-1.6-11.2-5.4-14.2-8.8c-0.7-0.8-1.3-1.5-2-2.2l-1.9-1.9
						l2.6,0.6c2.8,0.6,7.9,2.4,11.3,3.6c1.6,0.6,2.8,1,3.1,1.1l-0.1,1.6c-0.3,0-0.5-0.1-3.5-1.1c-2.4-0.9-5.8-2-8.5-2.8
						c0.1,0.1,0.1,0.1,0.2,0.2c3,3.4,6.1,6.8,13.4,8.3L299.2,374.3L299.2,374.3z M301.1,361.9c-0.4-0.3-2.8-1.3-5-2.1
						c-9.6-3.7-13.9-5.7-13.9-7.8V351l1.1,0.3c4.8,1.6,10.3,3.2,15.4,1.9l0.4,1.5c-4.3,1.1-8.7,0.3-12.8-0.8c3,1.6,7.8,3.4,10.4,4.4
						c4.8,1.9,5.5,2.2,5.8,2.7L301.1,361.9L301.1,361.9z"/>
				</g>
				<path class="st6" d="M261.1,264.8c0,0-19.6,16.8,0,26.6c0.9-6.5,2.3-7.5,2.3-7.5s16.3,6.1,26.1-8.4c-4.2-6.1-11.6-3.7-11.6-3.7
					S262.5,271.8,261.1,264.8L261.1,264.8z"/>
				<g>
					<path d="M371.9,367.6l-0.7-1.4c0.6-0.4,1.4-4.5,1.7-8.8v0c-0.3-0.7-1.5-2.9-2.2-4.3l-3.7,4.6c0,2-0.5,7.9-2.3,8.9l-0.7-1.4
						c0.6-0.4,1.4-4.1,1.6-8l0.1-0.1l-0.1,0c-0.1-0.4-1-2.9-1.5-4.2c-2,1.2-4.3,2.9-4.6,4c-0.1,0.6-0.3,1.6-0.4,2.6
						c-0.5,3.6-0.9,5.8-2.1,6.3l-0.6-1.5c0.5-0.4,0.9-3.5,1.2-5.1c0.2-1.1,0.3-2.1,0.5-2.8c0.1-0.3,0.2-0.6,0.4-0.9l-0.4,0
						c0.2-1.7,0-3.6-0.3-3.9c-1.3,0.2-7.8,6.2-8,11.6l-1.6-0.1c0.1-2.4,1.4-5,2.9-7.2l-8.2-1.2l0.2-1.6l9.1,1.4
						c2.2-2.6,4.6-4.4,5.7-4.4h0.4l0.8,0.5c0.7,0.7,0.8,2.3,0.8,3.5c1.6-1.5,3.9-2.8,4.5-3.1l0.8-0.4l0.3,0.9
						c0.8,2.1,1.2,3.4,1.5,4.2l3-3.9c-0.8-0.2-1.4-0.6-2-1c-0.7-0.6-1.2-1.3-1.2-2.1c-2.4,0.3-4.3-0.3-5.6-1.5
						c-0.5-0.5-0.9-1-1.3-1.6c-0.9,0-5.3,0.3-5.3,0.3l-0.1-1.6c0,0,3.2-0.2,4.7-0.2c-0.5-1.6-0.5-3.2-0.5-4c-2.8-0.1-3.4,0-3.5,0.1
						l0-0.1l0,0.3l-1.1-1c0.1-0.8,0.1-1,6.5-0.8c1.8,0.1,3.4-0.5,4.5-1.6c2.4-2.4,2.3-6.7,2.3-6.8l1.6,0c0,0.2,0.1,5.1-2.8,8
						c-1.4,1.4-3.3,2.1-5.6,2c-0.1,0-0.2,0-0.3,0c0,1.2,0.1,4.2,2,5.9c1.3,1.1,3.2,1.5,5.8,0.9c6.7-4.9,7.2-10,7.5-13.1
						c0.1-0.9,0.1-1.6,0.3-2.1c0.5-1.6-1.8-2.4-1.9-2.4l0.5-1.5c1,0.3,2.6,1.3,3,2.8c0.8-0.4,3.4-1.6,5.4-0.7c1,0.5,1.7,1.4,2,2.8
						c1-0.6,3-1.7,4.8-1.1c1.1,0.4,1.9,1.2,2.5,2.6c0.9-0.4,3.2-1,5,0.5l-1,1.2c-1.3-1.1-3.1-0.4-3.5-0.2c0.7,4.5-2.1,12-4.7,15.8
						c-1,1.5-1.9,2.3-2.7,2.4l-0.2-1.6c0.2,0,0.8-0.5,1.9-2.1c2.3-3.7,5.1-11.1,4-14.9c-0.4-1.2-0.9-1.9-1.6-2.2
						c-1.4-0.5-3.3,0.7-3.9,1.2l-0.2-0.2c0.3,5.5-4.1,13.9-8,16.7l0.2-0.1c1.4,2.9,5.4,2.6,6.2,2.4l0.4,1.5c-0.7,0.2-3,0.4-5.1-0.5
						l1.6,2.3l4.6-0.4l0.1,1.6l-4.7,0.4l0.6,7.3l-1.6,0.1l-0.5-8.7l-1.4-1.7l-3,3C374.3,360.9,373.7,366.7,371.9,367.6L371.9,367.6z
						 M371.8,352c0.6,1.1,1.6,3.1,2.2,4.2l2.9-3.1c-0.5-0.4-1-1-1.3-1.7c0,0,0,0-0.1,0C374.4,351.8,373.1,352,371.8,352L371.8,352z
						 M371,350.3c1.2,0.2,2.6,0.2,4-0.4c3.5-1.4,8.9-11.3,8.1-16.4c-0.2-1.2-0.6-1.9-1.3-2.3c-1.3-0.6-3.4,0.3-4.1,0.7l-0.5-0.9
						c0,0.3-0.1,0.6-0.2,1c-0.1,0.4-0.2,1-0.3,1.8c-0.3,3.1-0.8,8.9-8.4,14.4c-0.1,0-0.2,0-0.3,0.1c0,0.4,0.3,0.8,0.7,1.2
						C369.3,349.8,370,350.1,371,350.3L371,350.3L371,350.3L371,350.3z M320.1,361.4l-1.3-0.9c2.4-3.6-0.1-6.5-0.2-6.7l1.2-1.1
						C320.9,354.1,322.6,357.6,320.1,361.4L320.1,361.4z M261.8,292.6l-1-0.5c-5.5-2.8-8.5-6.3-9.1-10.6c-1.1-8.7,8.5-17,8.9-17.3
						l1-0.9l0.3,1.3c1,5.2,11.9,6.4,16,6.4c-0.1,0,7.8-2.4,12.3,4.1c-9.4,14.7-24.8,10.4-26.8,9.7c0.1,0.4-0.8,2-1.5,6.8
						L261.8,292.6L261.8,292.6z M260.8,266.2c-2.3,2.2-8.3,8.7-7.5,15.1c0.4,3.5,2.9,6.5,7.2,8.9c0.9-5.4,2.1-6.7,2.5-6.9
						c0.1,0,0.2,0,0.4,0.1l0,0l12.6-10.8C271.8,272.2,263,271.1,260.8,266.2L260.8,266.2z M265.3,283.8c4.9,1,16.2,2.3,23.6-8.7
						c-3.8-4.6-10.7-2.6-10.8-2.5c-0.1,0-0.2,0-0.5,0l0.3,0.3L265.3,283.8L265.3,283.8z"/>
				</g>
				<path class="st7" d="M261.8,264.9L261.8,264.9c0,0,2.6-2.6,3.4-5.8c0.8-3.2-1.1-6.6,2.1-9.4c3.2-2.9,44.6-20.4,48-23.9
					c3.4-3.4,9.7-10.8,10.5-12.3c0.8-1.6,3.2,7.9-4,12.1c7.6-2.1,12.6-4.5,15.7-3.4C334.4,226.6,326,234,322,234
					c9.2-3.4,17.6-6.3,19.9-4.5c2.4,1.8-11.3,11-16.8,11.5c9.2-2.3,21.5-6,23.1-2.1c-5,1.6-3.4,2.9-13.6,8.6c-1.3,1-7.9,1.3-7.9,1.3
					c7.9-0.8,18.6-3.9,19.6,1.8c-6.3,2.3-8.6,5.5-13.9,6.8c-5.2,1.3-17.3,3.7-24.6,6.5c-7.4,2.9-18.1,11.3-18.1,11.3
					s-23.3,0.8-23.3,0.5C266.5,275.7,262,265.2,261.8,264.9L261.8,264.9z"/>
				<g>
					<path d="M267.9,276.8c-1.5,0-2.2,0-2.2-0.9c-0.2-0.6-4.2-9.9-4.6-10.6c-0.3-0.3-0.2-0.7,0.1-1c0,0,2.5-2.5,3.2-5.4
						c0.3-1,0.2-2,0.2-3.1c-0.1-2.2-0.2-4.6,2.2-6.7c1.5-1.4,9.3-5,22.1-11c11.3-5.2,24.1-11.1,25.8-12.9
						c3.4-3.4,9.6-10.7,10.4-12.1c0.1-0.3,0.6-0.6,0.9-0.6c0.9,0,1.2,1.1,1.3,1.5c0.7,2.4,0.4,6.5-2.2,9.7c0.8-0.2,1.6-0.5,2.3-0.7
						c4.6-1.5,8.1-2.4,10.4-1.6c0.2,0.1,0.4,0.3,0.5,0.5c0.1,0.2,0,0.5-0.1,0.7c-1.4,2-4.1,4.9-7.1,7.3c5.2-1.6,9.6-2.5,11.4-1.1
						c0.2,0.2,0.6,1.2,0.6,1.5c-0.3,1.9-4.1,5-8.2,7.4c7.2-1.6,13-2,14.1,0.9c0.1,0.2,0.1,0.4,0,0.6c-0.1,0.2-0.3,0.4-0.5,0.4
						c-2.3,0.7-3.1,1.4-4.5,2.6c-1.2,1-2.9,2.4-6.2,4.4c0.8-0.1,1.6-0.1,2.4-0.1c1.6,0,6.3,0,7,4.1c0.1,0.4-0.1,0.8-0.5,0.9
						c-2.9,1.1-4.9,2.3-6.8,3.5c-2.2,1.3-4.2,2.6-7.1,3.3l-4.6,1.1c-6.1,1.4-14.4,3.3-19.9,5.4c-7.2,2.8-17.8,11.1-17.9,11.2
						C289.8,276.2,272.9,276.8,267.9,276.8L267.9,276.8z M267,275.2c3.3,0.1,22.7-0.6,22.7-0.6c0-0.2,10.5-8.3,17.8-11.2
						c5.7-2.2,14-4.1,20.1-5.5l4.6-1.1c2.7-0.7,4.5-1.8,6.7-3.2c1.8-1.1,3.7-2.3,6.4-3.4c-0.4-1.1-1.6-2.1-5.3-2.1
						c-1.8,0-3.9,0.2-6,0.5c-1.9,0.8-7.2,1-7.4,1c-0.7,0-0.8-0.3-0.8-0.7c0-0.4,0.3-0.8,0.7-0.8c1.6-0.2,3.3-0.4,5.1-0.7l2.2-0.3
						c5.4-3.1,7.5-4.8,9-6.1c1.2-1,2.1-1.8,3.9-2.5c-2.3-1.5-11.3,0.6-18.6,2.5c-1.1,0.4-2.2,0.7-3,0.8c-0.4,0.1-0.8-0.2-0.9-0.7
						c-0.1-0.4,0.2-0.8,0.6-0.9l2.8-0.7c6.3-2.3,13.8-8.1,13.7-9.5c-0.2-0.1-0.7-0.3-1.8-0.3c-3.1,0-8.7,1.8-13.2,3.4
						c-1.7,1-3.3,1.6-4.5,1.6c-0.4,0-0.7-0.3-0.8-0.7c-0.1-0.4,0.1-0.8,0.5-0.9l4.2-1.5c3.6-2.1,7.8-6.1,10.1-9
						c-1.9,0-4.7,0.7-8.3,1.9c-1.7,0.6-3.7,1.2-5.8,1.8c-0.4,0.1-0.8-0.1-0.9-0.5c-0.1-0.4,0-0.8,0.3-1c2.9-1.7,4-4.3,4.3-6.2
						c0.5-2.4,0-4.4-0.2-4.7c0.1,1.6-6.3,9.1-9.7,12.5c-1.8,1.8-11.5,6.4-26.2,13.2c-10,4.6-20.3,9.4-21.7,10.7
						c-1.8,1.6-1.7,3.4-1.6,5.5c0,1.2,0.1,2.4-0.2,3.6c-0.7,2.6-2.5,4.9-3.3,5.7C263.6,267.1,266.3,273,267,275.2L267,275.2z"/>
				</g>
				<g>
					<path d="M273.6,263.1L272,263c0-0.2,0.3-5.6,2.9-7.7c0.9-0.7,2.7-1.5,5-2.7c4.2-2.1,10-4.9,11.6-7.3c0.7-1,1-1.5,1.7-1.1
						c0.7,0.4,0.5,0.8-0.2,2.2c-0.9,1.8-3.5,7.2-2.9,8.7l-1.5,0.5c-0.5-1.5,0.3-4.1,1.7-7.1c-2.8,2.1-6.5,3.9-9.6,5.5
						c-0.6,0.3-1.2,0.6-1.7,0.8c2.2,1.1,4.9,3.6,3.8,7l-1.5-0.4c1.1-3.7-3.8-5.5-4-5.6l0.1-0.2c-0.6,0.3-1.1,0.6-1.4,0.9
						C274.2,257.9,273.6,261.8,273.6,263.1L273.6,263.1z"/>
				</g>
				<g>
					<path d="M280,263.2c-2.8,0-5-2.2-5-5c0-2.8,2.2-5,5-5c2.8,0,5,2.3,5,5C285,261,282.7,263.2,280,263.2L280,263.2z M280,254.6
						c-2,0-3.6,1.6-3.6,3.7c0,2,1.6,3.6,3.6,3.6c2,0,3.6-1.6,3.6-3.6C283.6,256.2,282,254.6,280,254.6L280,254.6z"/>
				</g>
				<path class="st7" d="M461.8,248.9l45.3,8.7c0,0,5-5.8,2.4-8.9c6.8-1.6,5-10.5,5-10.5s7.9-3.4,1.3-11.3c4.5-4.5-1-7.8-1-7.8
					s1.8-7.9-3.9-8.6c1.6-6.3-10-8.4-10-8.4s-23.9,6.5-40.6,7.1c5.5,5.5-2.1,8.9-2.1,8.9s4.5,3.2,3.1,5.8c-1.3,2.6,0.8,5.5-5,7.3
					c7.6,3.4-0.8,9.2-0.8,9.2S463.9,246,461.8,248.9L461.8,248.9z"/>
				<g>
					<path d="M411.4,315c-7.6-7.8-4.8-20.1-4.6-20.7l1.5,0.4c0,0.1-2.7,12,4.3,19.2L411.4,315L411.4,315z M399,310.9
						c-0.2-0.4-0.3-1,0.1-6l1.7-0.7l-0.1,0.8c-0.3,3.1-0.3,4.8-0.2,5.2L399,310.9L399,310.9z M388.1,308c-6-5.4-1.9-13.3-1.3-14.5
						c-2.4-4.8,2.5-11.4,2.7-11.7l0.3,0.2c-1.2-4.9,2.7-12,3.5-13.3c-0.8-1.1-1.6-2.3-2.5-3.6c-1.5-2.2-3-4.5-4.4-6.2
						c-2.9-3.4-14.5-4.6-16.2-4.7l0-0.3c-0.8,1.6-2.8,2.5-3.1,2.6l-14.4,0.8l-0.1-1.6l14.2-0.8c0.3-0.2,1.9-1,2.1-2.1
						c0.1-0.6-0.2-1.3-1-2l1.1-1.2c1,1,1.6,1.9,1.6,2.9c1.9,0.2,13.7,1.3,17.1,5.2c1.4,1.7,3,4,4.5,6.3c2,2.9,4,6,5.2,6.6
						c0.6,0.3,1.1,0.5,1.4,0.3l1.9,0.1c0,0.1-0.3,1-1.3,1.4c-0.8,0.3-1.7,0.2-2.8-0.4c-0.7-0.4-1.4-1.1-2.2-2.1
						c-2,3.6-5.1,11.4-1.4,13.9l-0.9,1.3c-0.8-0.5-1.3-1.2-1.7-1.9c-1.3,2-4.6,7.8-1,10.9l-1,1.2c-0.2-0.2-0.4-0.3-0.5-0.5
						c-1,2.1-3.2,7.8,1.3,11.9L388.1,308L388.1,308z M420,303.9c-6.8-3.6-8.7-13-8.8-13.4l1.6-0.3c0,0.1,1.8,9.1,8,12.3L420,303.9
						L420,303.9z M382.9,300.6l-3.8-2.6l0.9-1.3l3.8,2.6L382.9,300.6L382.9,300.6z M425.8,292c-0.1-1.4-3.6-4.5-6-6.2l0.9-1.3
						c1.1,0.8,6.4,4.8,6.6,7.4L425.8,292L425.8,292z M383.3,287.9c-2.2,0-4.3-2.1-4.6-2.3l1.1-1.1c0.6,0.6,2.4,2.1,3.7,1.8l0.3,1.6
						C383.6,287.9,383.4,287.9,383.3,287.9L383.3,287.9z M437.2,287.3c-5.8,0-13-4.7-13.4-5l0.9-1.3c0.1,0.1,8.5,5.6,13.8,4.6
						l0.3,1.6C438.3,287.3,437.8,287.3,437.2,287.3L437.2,287.3z M433.5,278.3c-7,0-12.2-2.3-12.5-2.4l0.7-1.4
						c0.1,0,8.5,3.8,18.4,1.5l0.4,1.6C438,278,435.7,278.3,433.5,278.3L433.5,278.3z M378,276.5c-0.4,0-0.8-0.1-1.1-0.2l0.7-1.4
						c1.3,0.7,6.4-2.5,7.2-3.2l1.1,1.1C385.9,272.8,381,276.5,378,276.5L378,276.5z M429.4,269.3c-7.3,0-12.5-4.4-12.8-4.6l1-1.2
						c0.1,0.1,7.4,6.2,16.6,3.5l0.4,1.5C432.9,269.1,431.1,269.3,429.4,269.3L429.4,269.3z M507.7,258.1l-47.3-8.6l0.7-1
						c0.1-0.1,0.2-0.4,0.2-0.8c-0.4-2.1-4.1-5.1-5.9-6.4l-0.2,0.2c-1-0.8-11.5-3.3-21.1-5.3l0.3-1.6c4.1,0.9,16.5,3.5,20.6,5.1
						c1.1-0.7,3.8-3.1,3.6-5.1c-0.1-1-1-1.9-2.7-2.7l0,0.3c0,0-13.7-0.5-14.1-0.5V230c0.2,0,10.9,0.4,13.6,0.5l0.6-0.2
						c3-1,3.6-2.1,3.8-3.5c-2.1-3.4-17.1-3.7-26.6-3l-0.1-1.6c2.3-0.2,21.4-1.3,26.9,2.7c0.1-0.5,0.2-1,0.5-1.5
						c0.8-1.6-1.6-3.8-2.7-4.7l-0.3,0.3c-1.5-1-19-2.2-34.8-2.9l0.1-1.6c9.2,0.4,29.3,1.3,34.7,2.8l0.3-0.1c0,0,3.2-1.4,3.6-3.7
						c0.2-1.2-0.4-2.5-1.7-3.9l-1.3-1.3l1.8-0.1c16.5-0.5,40.2-7,40.5-7c0.7,0,7.8,1.4,10.3,5.2c0.7,1,0.9,2.1,0.8,3.3
						c1.2,0.3,2.2,1,2.9,2c1.5,2.2,1.2,5.4,1,6.8c0,0,0,0,0,0l0,0c0,0.2-0.1,0.3-0.1,0.4c0.3-0.2,2.5,1.4,2.7,3.8
						c0.2,1.4-0.3,2.8-1.5,4.1c2,2.6,2.7,5,2.2,7.2c-0.6,2.5-2.6,3.9-3.7,4.5c0.5,3.3,0,8.7-4.6,10.5
						C512.2,252.8,507.9,257.9,507.7,258.1L507.7,258.1z M462.9,248.3l44.4,8.5c0.5-1.2,3.4-5.5,1.6-7.6l-0.7-0.8
						c-2-1.8-7.4-3.6-8.9-3.6c-1.9,0-40.4-4.5-42-4.7l0-0.2c-0.1,0.1-0.3,0.3-0.4,0.4c1.8,1.3,5.6,4.5,6.1,7.1
						C462.9,247.7,462.9,248,462.9,248.3L462.9,248.3z M458.5,238.6c11.8,1.4,39.3,4.6,40.7,4.6c1.8,0,8.4,2.1,10.6,4.6
						c4.6-1.4,4.2-7,3.9-8.8l-54.4-1.3l0-0.3C459.1,237.8,458.8,238.2,458.5,238.6L458.5,238.6z M462.7,236.2l51.6,1.2
						c0.6-0.3,2.7-1.5,3.2-3.6c0.4-1.6-0.2-3.4-1.6-5.4C508.6,232.8,473.8,235.4,462.7,236.2L462.7,236.2z M458.1,231.2
						c1.3,0.9,2,1.9,2.1,3.2c0,0.1,0,0.2,0,0.3c19.2-1.2,49.1-4.2,54.6-7.6l-0.2-0.3l0.5-0.5c1.1-1.1,1.6-2.2,1.5-3.3
						c-0.2-1.9-2.4-3.3-2.4-3.3c0-0.1,0-0.1-0.1-0.2c-2.2,0-32.4,3.1-52.6,5.3c-0.1,0.5-0.2,1-0.2,1.5
						C461.3,227.9,461.1,229.8,458.1,231.2L458.1,231.2z M459.6,218.2c1.2,1.1,2.8,2.9,2.6,4.9c38-4.1,48.8-4.8,52-4.8
						c0-1.6,0.2-4-0.9-5.6c-0.6-0.8-1.4-1.3-2.6-1.5l-0.9-0.1l0-0.1C504.1,211.5,477.6,215.4,459.6,218.2L459.6,218.2z M461.8,209.8
						c1,1.3,1.3,2.7,1.1,4c-0.2,1-0.7,1.8-1.3,2.5c33.2-5.2,44.5-6.4,48.5-6.5c0.1-0.9,0-1.8-0.6-2.6c-2.1-3.2-8.8-4.5-8.9-4.5
						C500.8,202.8,478.4,208.9,461.8,209.8L461.8,209.8z M430.5,250.7l-0.4-1.5c4.1-1.1,6.6-1.3,7.3-0.6l-1.1,1.1
						C435.8,249.5,432.9,250.1,430.5,250.7L430.5,250.7z M402.3,247.2c-5,0-7.5-2-7.7-2.2l0.4-0.5c-5.9,1.4-10.4-0.9-10.5-0.9
						l0.1-0.2c-2.5,1.1-4.9,1.6-7.3,1.3c-7.4-0.6-11.8-6.9-12-7.2l0.1-0.1c-3,0-5.9-0.6-8.6-1.7c-3.3-1.4-5.7-3.6-6.3-5.7
						c-0.5-2.3,0.8-3.1,1.8-3.8c1.1-0.7,1.8-1.2,1.4-3.4c-0.8-5.8-12.4-7.6-18-8.5c-1.7-0.3-2.6-0.4-3.1-0.6
						c-1.4-0.5-3.9-3.5-5.7-5.8c0.5,2.2,0.7,4.3,0.5,6.2l-1.6-0.2c1.5-11.5-14.3-29.1-14.5-29.2l1.2-1.1c0.5,0.6,9.6,10.6,13.4,20.8
						l0.3-0.2c2,2.9,5.6,7.6,7,8.1c0.3,0.1,1.4,0.3,2.7,0.5c6,1,18.4,2.9,19.3,9.8c0.7,3.1-0.9,4.2-2.1,5c-0.9,0.6-1.4,0.9-1.1,2.1
						c0.4,1.6,2.6,3.4,5.4,4.6c6.1,2.6,13.7,2,20.4-1.5l0.7,1.4c-3.7,1.9-7.6,3-11.4,3.3c1.4,1.6,5,5.3,10.2,5.7
						c5,0.4,10.1-2.3,15.2-7.9l1.2,1.1c-2.6,2.8-5.1,4.8-7.7,6.2c3.1,1.2,13.4,3.5,22.4-11.4l1.4,0.8c-4.5,7.5-9.4,10.9-13.7,12.2
						c1.8,1,8,3.5,18.7-2.3l0.7,1.4C410.1,246.3,405.7,247.2,402.3,247.2L402.3,247.2z M414.4,214.2l-1.3-0.9
						c2.4-3.4,5.6-4.5,8.3-5.4c1.8-0.6,3.4-1.2,4.2-2.3c1.3-1.4,1.9-2.5,1.7-3.3c-0.1-0.7-0.8-1.1-1.2-1.3l0,0
						c-0.2-0.1-0.4-0.2-0.4-0.2l0.1-0.3l-0.1-0.2l-0.2,0.8c-1.6-0.4-3,0.5-3.8,1.2l0.1,1c-0.5,2.5-4.6,5.7-12.1,9.6l-0.7-1.4
						c8.6-4.5,10.7-7.1,11.1-8.2l-0.1,0c-0.1-0.1-2.9-1.1-5.5,1.2l-0.5,0.4l0.1,0.2c-0.3,0.2-7,5.3-12.8,7.8l-0.6-1.5
						c5.4-2.3,11.8-7.1,12.4-7.6c-1-1.3-2.9-1.4-3.5-1.4l-0.1,0c-3.4,2.8-12.2,9.6-15,9.1l0.3-1.6c1.4,0.3,8.3-4.4,14-9
						c0-0.6-0.1-1.6-0.6-2.1c-0.5-0.5-1.4-0.6-2.6-0.3l-0.1,0c-1.6,1.1-5.7,3.5-16.5,9.8l-0.8-1.4c5.8-3.4,14.4-8.4,16.5-9.8
						c0.3-2.5-0.1-4.3-1.1-5.1c-1.5-1.2-4.2-0.2-4.2-0.2l0.1,0.2L380,204.2l-0.8-1.3l19.2-11.9c0.1-0.6,0.3-2.4-0.6-3.2
						c-0.8-0.7-2.4-0.4-3.6,0l-0.2,0.1c-2,1.4-7.9,4.8-25.3,14.5l-0.8-1.4c9.1-5,22.6-12.6,25.3-14.4c0.1-1.5-0.2-2.7-0.9-3.5
						c-1-1.1-2.6-1.2-3.1-1.3c0,0,0,0,0,0.1c-5.5,4.2-27.3,15.1-28.2,15.6l-0.7-1.4c0.2-0.1,22.6-11.3,27.7-15.1
						c0.7-1.7,0.7-3.3-0.2-4.3c-1.4-1.7-4.8-1.8-5.9-1.8c-0.3,1-0.9,2-1.6,3c-5.5,1.6-18.8,9.8-24.4,13.3c-2.7,1.7-2.7,1.7-3,1.7
						l-0.3-1.5c0.2-0.1,1.1-0.7,2.4-1.5c5.7-3.5,19.1-11.8,24.4-13.2c1.2-2,1.7-4.5,0.7-6.1c-0.8-1.3-2.5-1.8-4.7-1.4l-0.1-0.5
						c-1.5,2.4-3.9,4.5-5.6,5.1c-3.8,1.3-28,13.9-28.3,14l-0.7-1.4c1-0.5,24.6-12.7,28.5-14.1c2.2-0.8,6.4-5.3,5.9-8.2
						c-0.4-2.2-3.6-2.6-6.2-2.6V161c-9.7,4.1-30.2,14.6-35.1,17.8c-5.8,3.8-12.9,0.2-13.2,0l0.7-1.4c0.1,0,6.5,3.3,11.6,0
						c5.8-3.7,32.3-17.2,39.1-19.4c6.5-2.1,10.3-14.6,11.6-19.8l1.5,0.4c-1,3.8-2.6,9.2-5.1,13.6l37.5-11c-0.1,0,5.8-5.1,6.1-14.1
						l1.6,0c-0.1,3.9-1.2,7.1-2.4,9.5c6.5-0.8,36.6-5.2,36.6-17.2h1.6c0,3.4-2,6.2-5,8.6c12.4-3.4,39.1-11.3,42-14.4l1.2,1.1
						c-3.8,4-38.2,13.6-44.2,15.2c1.9,1.8,2.7,3.6,2.4,5.4l39.3-11l0.4,1.5l-40.3,11.2c0,0.1-0.1,0.2-0.1,0.3c0.7,0.3,2.2,1,2.9,2.6
						c0.5,1.1,0.5,2.3,0.1,3.7l33.9-10.3l0.5,1.5l-35.1,10.7c-0.1,0.2-0.1,0.3-0.2,0.5c0.9,0.5,2.6,1.7,2.8,3.5
						c0.1,0.5,0,0.9-0.1,1.4l29.1-8.8l0.5,1.5l-30.7,9.2c-0.1,0.1-0.2,0.2-0.3,0.3c0.6,0.2,3,1.2,3.5,3.3c0.1,0.2,0.1,0.5,0.1,0.8
						c8.4-2.6,20.6-6.3,21.4-6.3l0.1,1.6c-0.9,0.1-13.2,3.8-21.8,6.5c-0.3,0.7-0.8,1.4-1.5,2.2l0.7-0.3c1.3,0.5,3,1.1,3.4,2.5
						l13.9-5.6l0.6,1.5l-14.3,5.8l-0.1-0.3c-0.3,1.1-1.4,2.4-3.3,3.8c-6.7,3-21.8,9-25.1,10.3l-1.3,2.2c0.7,0.2,1.5,0.6,2,1.4
						c0.3,0.5,0.4,1.1,0.4,1.8c1.1-0.4,14.5-5.6,20.8-9c2-1.3,3.3-2.7,3.5-4.1c0.2-1.1-0.4-1.9-0.4-1.9l1.2-1c0,0,0.7,0.9,0.8,2.3
						c11.4-5,11.9-5,12.1-5l0.1,1.6c-0.7,0.2-7.9,3.3-12.2,5.2l-0.2-0.4c-0.4,1.5-1.6,3-3.6,4.4c0.4,0.4,0.9,1.1,1,2.1
						c0,1.2-0.7,2.4-2.3,3.5c-1,0.5-2.6,1.3-4.5,2.3c0.6,0.5,1.2,1.4,1,2.7l-1.6-0.3c0.2-0.9-0.5-1.3-0.6-1.3l0.2-0.6
						c-5.7,3-13.5,7-15.7,8.2c0,0,0,0.1,0,0.1l0,0c-0.3,0.2-0.5,0.3-0.5,0.3l-9.8,6.4c0.5,0.4,1.1,1.1,1.3,1.9
						c0.3,1.4-0.4,3-2.1,4.7c-1,1.4-2.9,2.1-4.8,2.8C419.3,210.2,416.5,211.2,414.4,214.2L414.4,214.2z M411.8,201
						c0.8,0.2,1.6,0.5,2.2,1c0.2,0.2,0.3,0.3,0.4,0.5c2.3-1.5,4.6-1.2,5.6-1c0.8-0.9,2.8-2.6,5.4-2.1l11-7.2c0,0,0,0,0.1,0
						c-0.1-1-0.4-1.5-0.9-1.9l0,0.1C434.5,190.5,417.7,196.7,411.8,201L411.8,201z M406.8,196.8c1,0,1.9,0.3,2.5,0.9
						c0.7,0.7,1,1.6,1.1,2.4c5.1-4,20.7-10.1,24.4-11.2l0.1-0.1c2.2-3.2,2-4.6,1.7-5.2c-0.4-0.8-1.9-0.8-1.8-0.8l-1,0l-27.4,11.9
						c0.1,0.6,0,1.3,0,2.1C406.5,196.8,406.7,196.8,406.8,196.8L406.8,196.8z M401.6,189.9c1,0,2.1,0.2,3,0.9
						c0.7,0.6,1.2,1.3,1.5,2.3l28.3-12.1l1.3-2.7c0,0,0.1,0,0.1-0.1c-0.3-0.7-1.2-2.3-4.9-3.2l-0.2-0.1c-1,0.9-2.7,2.1-4.9,2.8
						c-3.3,1-23.1,9.1-26,10.3c0.2,0.7,0.3,1.4,0.2,1.9C400.5,190,401,189.9,401.6,189.9L401.6,189.9z M436.6,189
						c0.9,0.6,1.4,1.3,1.6,2.1c0,0,0,0.1,0,0.1c4.6-2.4,16.5-8.6,20.1-10.4c1-0.7,1.5-1.5,1.5-2.1c0-0.7-0.8-1.2-0.8-1.2l0.1-0.1
						c-6.9,3.6-20.2,8.7-20.3,8.8l-0.5-1.3C438.2,185.9,437.7,187.3,436.6,189L436.6,189z M396.4,185.8c1,0,1.8,0.3,2.5,0.9
						c0.1,0,0.1,0.1,0.1,0.1c2.3-0.9,22.9-9.4,26.4-10.4c2.5-0.8,4.3-2.4,5-3.2c-0.2-3-3.3-5.3-4.3-5.9c-0.1,0.7-0.5,1.9-1.3,2.5
						c-1.1,0.8-23,8.2-32.4,11.3c0.4,0.2,0.8,0.5,1.1,0.9c0.9,1,1.4,2.4,1.4,4C395.4,185.8,395.9,185.8,396.4,185.8L396.4,185.8z
						 M389.7,180.2c0,0,0.1,0,0.1,0v0c13-4.3,32.8-11.1,34-11.8c0.5-0.4,0.9-1.8,1-2.5c0.1-0.1,0.3-0.2,0.6-0.3c0-0.9-0.3-3-3.1-5
						l-0.4-0.3c-0.6,0.7-1.8,1.7-3.4,2.6c-2.6,1.4-26.3,8.2-34.1,10.4c1.5,0.2,3.1,0.8,4.1,1.8C389.5,176.1,390.4,177.6,389.7,180.2
						L389.7,180.2z M432.2,173.8c3.3,1,4.5,2.7,5,3.9c4.6-1.9,18.3-7.4,24.5-10.1c2.5-2,2.6-3,2.6-3.3c-0.1-0.7-1.5-1.2-2.5-1.5
						l-0.9-0.3l0.1-0.2c0,0,0,0,0,0C454.4,166.1,435.8,172.6,432.2,173.8L432.2,173.8z M427.5,166.3c1.4,1,3.9,3.2,4.4,6
						c4.6-1.7,22.1-7.8,28-11.4c0.8-0.8,1.4-1.6,1.7-2.3l-0.2-0.5c0.1,0,0.2-0.1,0.4-0.1c0.1-0.3,0.1-0.6,0-0.9
						c-0.4-1.5-2.6-2.2-2.6-2.2l0.4-1.2c-0.4,0.4-0.8,0.7-1.3,1.1C452.1,158.5,433.3,164.5,427.5,166.3L427.5,166.3z M376.7,167.3
						c2.1,0,3.7,0.8,4.7,2.3c0.5,0.8,0.8,1.7,0.8,2.7c11.7-3.3,33.3-9.5,35.6-10.8c2.8-1.5,3.8-3.3,3.8-3.3c0.1,0,0.3-0.1,0.8-0.3
						c-0.1-2.5-2-4.6-2.8-5.5l-0.4-0.7l-42.8,14.5c-0.1,0.4-0.3,0.8-0.4,1.1C376.2,167.3,376.5,167.3,376.7,167.3L376.7,167.3z
						 M423.8,159.7c2.5,2,3.1,4,3.2,5.4c6.3-2.3,24.6-8.2,30.5-11.5c1.1-0.9,2.6-2.2,2.4-3.5c-0.1-1.3-1.7-2.2-2.2-2.4
						c-10.3,4-28.6,9.8-33.7,11.4C423.9,159.2,423.8,159.5,423.8,159.7L423.8,159.7z M371.6,160c3.6,0.6,4.8,2.3,5,3.8
						c0,0.2,0.1,0.5,0.1,0.7l42.1-14c0.1-0.7,1.2-3.9,0.3-5.7c-0.3-0.7-1-1.1-1.9-1.3l0.1-0.5l-38,11.2l-0.1-0.5
						c-1.8,2.9-4.1,5.1-6.7,6C372.1,159.7,371.9,159.8,371.6,160L371.6,160z M420.5,151.1c1,1.1,3.2,3.5,3.5,6.3
						c6.3-2.1,23.7-7.5,33.1-11.1c1-2.1,1.5-4.1,0.9-5.5c-0.6-1.4-2.2-1.8-2.2-1.8l0.1-0.5c-6.6,3.9-33.9,10.4-35.1,10.7l-0.1-0.5
						c-0.3,1.4-0.8,2.5-0.9,2.8h0.9h-0.8L420.5,151.1L420.5,151.1z M418.6,142.2c0.8,0.4,1.5,1,1.8,1.8c0.5,1.1,0.6,2.3,0.4,3.5
						c3.6-0.9,28.6-7,34.1-10.3c1.9-2.9,0-5.1-1.9-6.6l-0.4-0.5c-10.9,6.1-29.1,8.1-31,8.3C420.5,140.3,419.3,141.6,418.6,142.2
						L418.6,142.2z M462.1,178.9l-0.7-1.4l11-5.2l0.7,1.4L462.1,178.9L462.1,178.9z"/>
				</g>
			</g>
		</g>
	</g>
</g>
</svg>
