<?xml version="1.0" encoding="utf-8"?>
<!-- Generator: Adobe Illustrator 21.1.0, SVG Export Plug-In . SVG Version: 6.00 Build 0)  -->
<svg version="1.1" id="Warstwa_1" xmlns="http://www.w3.org/2000/svg" xmlns:xlink="http://www.w3.org/1999/xlink" x="0px" y="0px"
	 viewBox="0 0 512 512" style="enable-background:new 0 0 512 512;" xml:space="preserve">
<style type="text/css">
	.st0{fill:#D81E05;}
	.st1{fill:#FFFFFF;}
</style>
<g>
	<path class="st0" d="M256.1,512c103.1,0,192-61.1,232.3-149.1H23.7C64.1,450.9,152.9,512,256.1,512z"/>
	<path class="st0" d="M256.1,0.8C152.9,0.8,64.1,61.9,23.7,150h464.7C448.1,61.9,359.2,0.8,256.1,0.8z"/>
	<path class="st1" d="M0.5,256.4c0,38,8.3,74.1,23.2,106.5h464.7c14.9-32.4,23.2-68.5,23.2-106.5s-8.3-74.1-23.2-106.5H23.7
		C8.8,182.3,0.5,218.4,0.5,256.4z"/>
</g>
</svg>
