<?xml version="1.0" encoding="utf-8"?>
<!-- Generator: Adobe Illustrator 21.1.0, SVG Export Plug-In . SVG Version: 6.00 Build 0)  -->
<svg version="1.1" id="Warstwa_1" xmlns="http://www.w3.org/2000/svg" xmlns:xlink="http://www.w3.org/1999/xlink" x="0px" y="0px"
	 viewBox="0 0 512 512" style="enable-background:new 0 0 512 512;" xml:space="preserve">
<style type="text/css">
	.st0{fill:#FFFFFF;}
	.st1{fill:#CE1126;}
</style>
<g>
	<path class="st0" d="M1,256.1C1,365,69.1,457.8,165,494.7l71.3-31.1l-118.8-51.9l118.8-51.9L117.5,308l118.8-51.9l-118.8-51.9
		l118.8-51.9l-118.8-51.9l118.8-51.9L165,17.5C69.1,54.5,1,147.3,1,256.1z"/>
	<path class="st1" d="M117.5,100.5l118.8,51.9l-118.8,51.9l118.8,51.9L117.5,308l118.8,51.9l-118.8,51.9l118.8,51.9L165,494.7
		c28.6,11,59.5,17.3,92,17.3c141.4,0,256-114.6,256-256C512.9,114.8,398.4,0.2,257,0.2c-32.4,0-63.5,6.3-92,17.3l71.3,31.1
		L117.5,100.5z"/>
</g>
</svg>
