<?xml version="1.0" encoding="utf-8"?>
<!-- Generator: Adobe Illustrator 21.1.0, SVG Export Plug-In . SVG Version: 6.00 Build 0)  -->
<svg version="1.1" id="Warstwa_1" xmlns="http://www.w3.org/2000/svg" xmlns:xlink="http://www.w3.org/1999/xlink" x="0px" y="0px"
	 viewBox="0 0 512 512" style="enable-background:new 0 0 512 512;" xml:space="preserve">
<style type="text/css">
	.st0{fill:#CF142B;}
	.st1{clip-path:url(#SVGID_2_);}
	.st2{fill:#00247D;}
	.st3{fill:#FFFFFF;}
	.st4{fill:#2F8F22;}
	.st5{fill:#D40000;}
	.st6{fill:#64B4D1;}
	.st7{fill:#784421;}
	.st8{fill:#F5CE00;}
	.st9{fill:#E4CB5E;}
	.st10{fill:none;stroke:#000000;stroke-width:0.2077;stroke-miterlimit:2.613;}
</style>
<path d="M512,256c0,141.4-114.6,256-256,256C114.6,512,0,397.4,0,256C0,114.6,114.6,0,256,0C397.4,0,512,114.6,512,256z"/>
<path class="st0" d="M508.6,256.7c-0.4,139.5-113.8,252.4-253.3,252C115.8,508.3,2.9,394.9,3.3,255.4C3.7,115.9,117.1,3,256.7,3.4
	C396.2,3.8,509,117.2,508.6,256.7z"/>
<g>
	<defs>
		<path id="SVGID_1_" d="M508.6,256.7c-0.4,139.5-113.8,252.4-253.3,252C115.8,508.3,2.9,394.9,3.3,255.4
			C3.7,115.9,117.1,3,256.7,3.4C396.2,3.8,509,117.2,508.6,256.7z"/>
	</defs>
	<clipPath id="SVGID_2_">
		<use xlink:href="#SVGID_1_"  style="overflow:visible;"/>
	</clipPath>
	<g class="st1">
		
			<sodipodi:namedview  id="base" inkscape:current-layer="svg1" inkscape:cx="17.366654" inkscape:cy="249.82398" inkscape:window-height="1004" inkscape:window-maximized="1" inkscape:window-width="1280" inkscape:window-x="-8" inkscape:window-y="-8" inkscape:zoom="0.322" showgrid="false">
			</sodipodi:namedview>
		<g id="rect2414">
			<g>
				<rect x="-119.6" y="79.1" class="st0" width="711.1" height="355.6"/>
			</g>
		</g>
		<g id="rect124">
			<g>
				<rect x="-119.6" y="79.1" class="st2" width="355.6" height="177.8"/>
			</g>
		</g>
		<g id="g584" transform="scale(8.333333,8.333333)">
			<g id="path146">
				<g>
					<path class="st3" d="M-14.3,9.5v2.4l37.9,18.9h4.8v-2.4L-9.6,9.5H-14.3z M28.3,9.5v2.4L-9.6,30.8h-4.8v-2.4L23.5,9.5H28.3z"/>
				</g>
			</g>
			<g id="path136">
				<g>
					<path class="st3" d="M3.4,9.5v21.3h7.1V9.5H3.4z M-14.3,16.6v7.1h42.7v-7.1H-14.3z"/>
				</g>
			</g>
			<g id="path141">
				<g>
					<path class="st0" d="M-14.3,18v4.3h42.7V18H-14.3z M4.9,9.5v21.3h4.3V9.5H4.9z"/>
				</g>
			</g>
			<g id="path150">
				<g>
					<path class="st0" d="M-14.3,30.8l14.2-7.1h3.2l-14.2,7.1H-14.3z M-14.3,9.5l14.2,7.1h-3.2l-11-5.5V9.5z M10.9,16.6l14.2-7.1
						h3.2l-14.2,7.1H10.9z M28.3,30.8l-14.2-7.1h3.2l11,5.5V30.8z"/>
				</g>
			</g>
		</g>
		<g>
			<g>
				<path class="st3" d="M495.8,154.9v150.6c0,40.2-80.4,53.3-80.4,53.3S335,345.7,335,305.5V154.9H495.8z"/>
			</g>
		</g>
		<g>
			<g>
				<path class="st4" d="M495.8,305.5c0,40.2-80.4,53.3-80.4,53.3S335,345.7,335,305.5c0,0,0-3.2,1.6-5.1c0,0-0.9,6.7,4.3,11.7
					c0,0-4-7.1-0.1-14.2c0,0-1.5,9,4.2,14.2c0,0-3.1-7.4,0.4-15.6c0,0-1.7,13.4,4.4,16.1c0,0,1.7-7.7-0.8-12.7c0,0,4.2,1.7,4,12.9
					c0,0,1.3-1.7,1.7-9.7c0,0,0.2,9.2,3.4,11.4c0,0,1-0.9-0.4-5.1c-1.3-4.2,0.6-5.7,0.9-5.6c0,0-0.7,4.6,3.2,8.1
					c0,0-1.7-7.3,0.7-8.3c0,0-0.5,6.2,4.4,7.6c0,0,0.4-1.8-0.7-3.8c0,0-0.9-2.4-0.2-4.2c0,0,1.6,5.6,3.7,6.5c0,0-1.3-3.3-0.1-6.5
					c0,0,0.3,4.7,4.4,6.6c0,0-2.7-3.6-1.7-7.6l26.8,1.3l13.9,0.7l41.6-2.9l7.2-6.2c0,0,2.8,3.9-1.6,10.1c0,0,4.4-0.8,5.8-7.7
					c0,0,1.8,3.8-0.7,8.1c0,0,4.9-4.9,5.6-10.5c0,0,1.9,5.4-2.7,11.2c0,0,4.2-1.4,5.9-7.6c0,0,1.4,3.7-2.6,9c0,0,7.5-4,7.3-12.3
					c0,0,3.1,4.6-0.4,10.8c0,0,3.9-3.4,4.2-8.6c0,0,2.1,2.3-0.2,8.7c0,0,4.7-4.4,5.4-9.2c0,0,1,4.4-3,10c0,0,2.7-0.7,5.4-6.1
					c0,0,0.7,2.1-1.7,6.1c0,0,2.6-0.4,4.3-5.4c0,0,0.3,2.9-0.4,5.6c0,0,2-1.3,2.4-6.9c0,0,1.1,1.8,1.1,4.1
					C495.8,307,495.8,305.5,495.8,305.5z"/>
			</g>
		</g>
		<g>
			<g>
				<path class="st5" d="M454.4,218.5c0,0-2.8,0.5-6.4-0.6c-3.6-1.1-5-0.6-6.2,0c0,0,1.5-2.9-2.1-5.2c0,0,1.2,2.9-0.4,4.3
					c0,0-0.7,0.7-1.6-0.3c0,0-1.2-1.3-2.5-2.3c0,0,3-1,2.5-4.1c-0.6-3.1-2.2-3.5-3.1-3.8c0,0,0.3,1.4,0,2.3c0,0-3.3-1.8,1.2-4.4
					c4.5-2.6,3.6-4.1,2.8-5.4c-0.8-1.3-2.5-2.8-3.3-3.3c0,0,0.9,1.4,0.7,2.6c-0.2,1.2-2.2,1.9-1.8-0.1c0.4-2.1,0-1.7-0.1-3.9
					c0,0,4,1.3,5.5-2.5c0,0,1.5-4-3.5-6c0,0,1.2,1.6,0.6,2.9c0,0-1.1,2-2.3,0.4c-1.3-1.6-2.1-1.9-1.9-3.9c0,0,4.5,0.6,3.3-4.3
					c0,0-0.7,3.3-6.6-1.1c0,0,3.8-3.9,2.3-7.1c0,0-0.5-1.5-4.6-0.6c0,0,3.6-2.3,2.1-4.2c0,0-0.8-1.3-4.1,0.4c0,0,1.3-2.3-2-4.7
					c0,0-2.2,1.2-3.4,2.2c0,0-2.3-2.9-3.7-4c0,0-2.6,1-3.3,4c0,0-1.2-1.5-4-2.1c0,0-1.3,2.5,0.4,4.6c0,0-1.3,0-3.6-1.1
					c0,0-2.7-1.3-2.3,1c0.4,2.3,0.6,2.8,1.1,3.9c0,0-6-1.4-5.8,1.9c0.2,2.3,1,4.2,2.9,5.8c0,0-3.4,4.4-6.2,1.1c0,0-1,1.1,1.2,3.9
					c0,0,2.1,2.4,0.4,3.9c0,0-2.4,1.9-3.5-1.8c0,0-3.8,3.8,0.7,6.7c0,0,2.9,1.7,5.9-0.9c0,0-0.9,7.3-3.7,5.9c0,0-1.7-1.3,1.4-2.7
					c0,0-4.4-0.6-5.1,3.7c0,0-0.5,3.4,3.3,4.6c0,0,3,1.1-0.1,3.4c0,0-2.2,1.7-0.8,4.1c0,0,1.7,2.7-2.6,3c0,0-2.3,0-3.2-0.3
					c0,0-0.9,1.8-0.3,3.8c0,0-2.2-1.6-7,0.2c-4.9,1.8-4.5,0.5-4.9,1.1c-0.4,0.5-1.4,2.3-1.4,2.3s2.6,3.1,2.6,3.1
					c0-0.1-0.5,3.6-0.5,3.6l1.3,0.6l10.1-4.5l10.2-5.3l8.2,0.5l5.2,1.2l6.9,0.5l4.9-2.6h7.1l7.8,3.9l8.9,5.3l4.7,0.8l3.6-0.2v-7.2
					L454.4,218.5z"/>
			</g>
			<g>
				<path d="M378.5,229c0,0-0.1,0-0.1,0l-1.3-0.6c-0.1-0.1-0.2-0.2-0.2-0.3c0.2-1.1,0.4-2.9,0.5-3.4c-0.3-0.3-0.9-1-2.5-3
					c-0.1-0.1-0.1-0.2,0-0.3c0-0.1,1-1.8,1.4-2.4c0.2-0.3,0.4-0.3,0.6-0.2c0.3,0.1,1.2,0.3,4.4-0.9c3.6-1.3,5.7-0.8,6.7-0.5
					c-0.3-1.8,0.4-3.3,0.5-3.4c0.1-0.1,0.2-0.2,0.4-0.1c0.7,0.2,2.5,0.3,3.1,0.3c1.4-0.1,2.2-0.4,2.5-1c0.3-0.7-0.2-1.5-0.2-1.5
					c-1.5-2.7,0.8-4.5,0.8-4.5c0.9-0.7,1.3-1.3,1.3-1.8c-0.1-0.7-1.1-1-1.1-1c-4-1.3-3.5-4.9-3.5-4.9c0.7-4.5,5.4-4,5.4-4
					c0.1,0,0.2,0.1,0.3,0.2c0,0.1,0,0.3-0.2,0.3c-1.3,0.6-1.6,1.2-1.7,1.5c0,0.4,0.3,0.7,0.4,0.7c0.3,0.2,0.7,0.2,1,0
					c1.2-0.6,1.9-3.4,2.2-5c-2.9,2-5.6,0.5-5.6,0.5c-1.4-0.9-2.2-2-2.3-3.3c-0.2-2.1,1.5-3.9,1.6-3.9c0.1-0.1,0.2-0.1,0.3-0.1
					c0.1,0,0.2,0.1,0.2,0.2c0.4,1.1,0.9,1.8,1.5,2c0.8,0.2,1.6-0.4,1.6-0.4c0.4-0.3,0.6-0.7,0.6-1.1c0.1-1.1-1-2.3-1-2.3
					c-2.3-2.9-1.3-4.2-1.2-4.3c0.1-0.1,0.2-0.1,0.2-0.1c0.1,0,0.2,0,0.2,0.1c0.7,0.8,1.4,1.2,2.2,1.1c1.5,0,2.9-1.5,3.4-2
					c-1.7-1.6-2.6-3.5-2.8-5.8c-0.1-0.7,0.2-1.3,0.7-1.7c1.2-1,3.7-0.7,4.9-0.5c-0.4-0.8-0.6-1.5-0.9-3.4c-0.1-0.7,0-1.2,0.4-1.5
					c0.8-0.6,2.2,0.1,2.3,0.1c1.3,0.6,2.3,0.8,2.9,1c-1.2-2.1-0.1-4.3,0-4.4c0.1-0.1,0.2-0.2,0.3-0.1c2,0.5,3.2,1.3,3.8,1.8
					c0.8-2.7,3.2-3.7,3.3-3.7c0.1,0,0.2,0,0.3,0c1.2,1,3,3.1,3.6,3.8c1.2-1,3.1-2,3.2-2.1c0.1-0.1,0.2,0,0.3,0
					c2.4,1.7,2.5,3.4,2.3,4.4c3-1.3,3.8-0.1,3.9,0c0.3,0.4,0.5,1,0.4,1.5c-0.2,0.9-0.9,1.8-1.6,2.4c3.2-0.4,3.7,0.8,3.8,1
					c1.3,2.9-1.4,6.2-2.2,7.2c2.9,2.1,4.4,2.2,5.1,2c0.7-0.2,0.8-0.8,0.8-0.8c0-0.1,0.1-0.2,0.3-0.2c0.2,0,0.3,0.1,0.3,0.2
					c0.4,1.6,0.3,2.9-0.5,3.7c-0.9,0.9-2.2,1-2.8,1c0,1.1,0.4,1.6,1.1,2.4c0.2,0.3,0.5,0.6,0.8,0.9c0.3,0.4,0.6,0.5,0.8,0.5
					c0.5,0,0.9-0.6,1-0.9c0.5-1-0.6-2.5-0.6-2.5c-0.1-0.1-0.1-0.3,0-0.4c0.1-0.1,0.2-0.1,0.3-0.1c5.2,2.1,3.7,6.3,3.6,6.4
					c-1.3,3.3-4.4,3-5.5,2.8c0,0.6,0.1,1,0.1,1.3c0.1,0.6,0.2,1-0.1,2.3c-0.1,0.4-0.1,0.8,0.1,0.9c0.1,0.1,0.3,0,0.4,0
					c0.3-0.1,0.6-0.5,0.7-0.9c0.1-1.1-0.7-2.4-0.7-2.4c-0.1-0.1-0.1-0.3,0-0.4c0.1-0.1,0.2-0.1,0.4,0c0.9,0.6,2.6,2.1,3.4,3.4
					c0.4,0.6,0.9,1.4,0.6,2.4c-0.3,1.1-1.4,2.2-3.5,3.4c-1.4,0.8-2.2,1.7-2.2,2.5c0,0.5,0.4,1,0.7,1.2c0.1-0.8-0.1-1.7-0.1-1.8
					c0-0.1,0-0.2,0.1-0.3c0.1-0.1,0.2-0.1,0.3,0l0.2,0.1c0.9,0.4,2.5,1,3,4c0.5,2.5-1.3,3.8-2.2,4.2c1.2,0.9,2.1,1.9,2.2,2
					c0.3,0.3,0.5,0.5,0.7,0.5c0.3,0,0.4-0.1,0.4-0.1c1.4-1.2,0.4-3.9,0.4-3.9c0-0.1,0-0.3,0.1-0.3c0.1-0.1,0.2-0.1,0.3,0
					c2.6,1.7,2.6,3.8,2.4,4.8c1.2-0.5,2.8-0.6,5.7,0.3c3.5,1.1,6.2,0.6,6.2,0.6c0.1,0,0.2,0,0.3,0.1l1.7,2.6c0,0,0,0.1,0,0.2v7.2
					c0,0.2-0.1,0.3-0.3,0.3l-3.6,0.2l-4.7-0.8c0,0-0.1,0-0.1,0l-8.9-5.3l-7.7-3.9h-7l-4.8,2.6c0,0-0.1,0-0.2,0l-6.9-0.5l-5.3-1.2
					l-8.1-0.5l-10.2,5.3l-10.1,4.5C378.6,228.9,378.6,229,378.5,229z M377.6,227.9l0.9,0.5l10-4.4l10.2-5.3c0,0,0.1,0,0.2,0l8.2,0.5
					l5.3,1.2l6.7,0.5l4.8-2.6c0,0,0.1,0,0.1,0h7.1c0,0,0.1,0,0.1,0l7.8,3.9l8.9,5.3l4.6,0.8l3.2-0.2v-6.9l-1.6-2.4
					c-0.7,0.1-3.2,0.3-6.3-0.7c-3.6-1.1-4.9-0.6-5.9,0c-0.1,0.1-0.3,0-0.4,0c-0.1-0.1-0.1-0.2-0.1-0.3c0-0.1,1.1-2.3-1.3-4.3
					c0.2,1,0.4,2.7-0.8,3.7c0,0-0.3,0.3-0.8,0.3c-0.4,0-0.8-0.2-1.1-0.7l0,0c0,0-1.2-1.3-2.5-2.2c-0.1-0.1-0.1-0.2-0.1-0.3
					c0-0.1,0.1-0.2,0.2-0.2c0.1,0,2.8-1,2.3-3.8c-0.4-2.4-1.6-3.1-2.4-3.4c0.1,0.5,0.1,1.3-0.1,1.9c0,0.1-0.1,0.2-0.2,0.2
					c-0.1,0-0.2,0-0.3,0c-0.1,0-1.3-0.7-1.3-2c0-1,0.8-2,2.5-3c2-1.1,3-2.1,3.3-3.1c0.2-0.7-0.1-1.3-0.5-1.9
					c-0.5-0.9-1.5-1.8-2.3-2.5c0.2,0.5,0.3,1.1,0.2,1.7c-0.1,0.7-0.6,1.2-1.1,1.3c-0.4,0.1-0.7,0.1-1-0.1c-0.2-0.2-0.5-0.6-0.3-1.5
					c0.2-1.2,0.2-1.5,0.1-2.1c-0.1-0.4-0.1-0.9-0.2-1.8c0-0.1,0-0.2,0.1-0.2c0.1-0.1,0.2-0.1,0.3,0c0.2,0.1,3.7,1.2,5.1-2.4
					c0.1-0.1,1.2-3.3-2.5-5.2c0.3,0.6,0.6,1.5,0.2,2.3c0,0.1-0.6,1.1-1.5,1.2c-0.5,0-0.9-0.2-1.4-0.7c-0.3-0.4-0.5-0.7-0.8-0.9
					c-0.8-0.9-1.3-1.5-1.2-3.1c0-0.1,0-0.2,0.1-0.2c0.1-0.1,0.1-0.1,0.2-0.1c0,0,1.7,0.2,2.6-0.8c0.5-0.5,0.6-1.3,0.5-2.4
					c-0.2,0.2-0.4,0.4-0.7,0.5c-1.3,0.5-3.3-0.3-5.9-2.2c-0.1-0.1-0.1-0.1-0.1-0.2c0-0.1,0-0.2,0.1-0.2c0,0,3.7-3.8,2.3-6.8
					c0,0-0.5-1.2-4.3-0.4c-0.1,0-0.3,0-0.3-0.2c-0.1-0.1,0-0.3,0.1-0.4c0,0,2.1-1.3,2.3-2.7c0.1-0.4,0-0.8-0.3-1.1
					c0,0-0.8-1-3.8,0.5c-0.1,0.1-0.3,0-0.3-0.1c-0.1-0.1-0.1-0.2,0-0.4c0-0.1,1.1-2-1.8-4.2c-0.5,0.3-2.2,1.2-3.2,2.1
					c-0.1,0.1-0.1,0.1-0.2,0.1c-0.1,0-0.2,0-0.2-0.1c0,0-2.1-2.7-3.5-3.8c-0.5,0.3-2.4,1.3-2.9,3.7c0,0.1-0.1,0.2-0.2,0.2
					c-0.1,0-0.2,0-0.3-0.1c0,0-1.1-1.3-3.6-2c-0.3,0.6-0.9,2.4,0.5,4.1c0.1,0.1,0.1,0.2,0,0.3c-0.1,0.1-0.2,0.2-0.3,0.2
					c-0.1,0-1.4-0.1-3.7-1.1c-0.3-0.2-1.3-0.5-1.7-0.2c-0.2,0.2-0.2,0.6-0.2,0.9c0.4,2.3,0.6,2.8,1.1,3.8c0.1,0.1,0,0.2,0,0.3
					c-0.1,0.1-0.2,0.1-0.3,0.1c0,0-3.6-0.8-5,0.3c-0.3,0.3-0.5,0.7-0.4,1.2c0.2,2.3,1.1,4.2,2.8,5.6c0.1,0.1,0.1,0.3,0,0.4
					c-0.1,0.1-1.8,2.4-4,2.4c-0.9,0-1.7-0.3-2.4-1c-0.1,0.5,0,1.5,1.3,3.2c0,0,1.2,1.4,1.1,2.7c0,0.6-0.3,1.1-0.8,1.5
					c0,0-1,0.8-2.1,0.5c-0.7-0.2-1.3-0.9-1.7-1.9c-0.5,0.6-1.2,1.8-1.1,3.1c0.1,1.1,0.8,2,2.1,2.8c0.1,0.1,2.7,1.5,5.5-0.9
					c0.1-0.1,0.2-0.1,0.3,0c0.1,0.1,0.2,0.2,0.2,0.3c0,0.2-0.7,5.1-2.6,6.2c-0.5,0.3-1,0.3-1.6,0c-0.1,0-0.7-0.5-0.6-1.3
					c0-0.5,0.4-1,1-1.4c-1.3,0.1-3.3,0.8-3.7,3.5c0,0.1-0.4,3.2,3.1,4.3c0.1,0,1.3,0.5,1.5,1.5c0.1,0.7-0.4,1.5-1.5,2.4
					c-0.1,0.1-1.9,1.5-0.7,3.7c0,0,0.7,1.1,0.2,2.1c-0.4,0.8-1.4,1.2-3,1.3c-0.1,0-2,0-3-0.3c-0.2,0.5-0.6,1.9-0.2,3.3
					c0,0.1,0,0.3-0.1,0.3c-0.1,0.1-0.2,0.1-0.3,0c0,0-2.1-1.5-6.8,0.2c-3.4,1.2-4.3,1-4.7,0.9c0,0,0,0,0,0c-0.4,0.5-1,1.7-1.3,2.2
					c0.9,1,2.1,2.6,2.4,2.8C378.1,224.3,378.1,224.5,377.6,227.9z"/>
			</g>
		</g>
		<g>
			<g>
				<path class="st5" d="M373.2,226.9c0,0,3.9,2,5.5-0.4c0,0,2.1-4.1-2.5-5.5c0,0,2.5-3-0.2-5.9c0,0-1.4-1.5-3.9-0.4
					c0,0-1-2.1-3.5-2.1c0,0-2.1,0-2.9,2.3c0,0-2.9-1.2-4.6,0.5c0,0-2.7,3,1.1,5.4l2.7,0.2l2.7-1.2l3,0.8
					C370.6,220.8,369.9,223.8,373.2,226.9z"/>
			</g>
			<g>
				<path d="M376.3,228c-1.6,0-3.1-0.8-3.2-0.8c0,0,0,0-0.1,0c-2.9-2.7-2.8-5.3-2.7-6.1l-2.6-0.7l-2.6,1.2c0,0-0.1,0-0.2,0l-2.7-0.2
					c0,0-0.1,0-0.1,0c-1.2-0.8-2-1.7-2.1-2.8c-0.2-1.6,0.9-3,1-3c1.5-1.6,3.8-1,4.6-0.7c0.9-2.2,3-2.2,3-2.2c0,0,0.1,0,0.1,0
					c2,0,3.1,1.4,3.5,2c2.5-1,3.9,0.5,4,0.6c2.3,2.4,1,5,0.4,5.9c1.3,0.5,2.2,1.2,2.6,2.2c0.7,1.7-0.2,3.5-0.2,3.6
					C378.3,227.7,377.3,228,376.3,228z M373.4,226.7c0.4,0.2,3.7,1.7,5.1-0.3l0,0c0,0,0.8-1.6,0.2-3c-0.4-0.9-1.3-1.6-2.6-2
					c-0.1,0-0.2-0.1-0.2-0.2c0-0.1,0-0.2,0.1-0.3c0.1-0.1,2.3-2.9-0.2-5.5c-0.1-0.1-1.3-1.3-3.6-0.3c-0.1,0.1-0.3,0-0.4-0.1
					c0-0.1-1-2-3.2-1.9c0,0,0,0,0,0c-0.1,0-1.9,0-2.6,2.1c0,0.1-0.1,0.1-0.2,0.2c-0.1,0-0.2,0-0.2,0c0,0-2.8-1.1-4.2,0.5
					c0,0-1,1.2-0.8,2.5c0.1,0.9,0.7,1.7,1.8,2.4l2.6,0.2l2.6-1.2c0.1,0,0.1,0,0.2,0l3,0.8c0,0,0.1,0,0.1,0.1
					c0.1,0.1,0.1,0.2,0.1,0.3C370.9,221.2,370.4,223.8,373.4,226.7z"/>
			</g>
		</g>
		<g>
			<g>
				<path class="st6" d="M460.3,219.8c4.7-0.4,6.4,3.5,6.4,3.5c2.5,5.8-2.8,8.9-2.8,8.9c0.4,1.3,0.4,3,0.4,3
					c7.4,0.9,6.1,9.2,6.1,9.2l-2.4-2c-4.3-1.7-8.6,2-11.8,8c-3.1,6.1-1.6,8.9-1.1,16.1c0.5,7.2,12.2,11.5,12.2,11.5
					s-5.5,14.3-9.1,23.4c-3.6,9.2-11.1,5.4-13.2,3.4c-2.2-1.9-2.7-0.9-3.8,0c-1.1,0.9,4.9,5.5-6,10c-10.9,4.4-12.8,7.8-14.7,8.9
					c-1.8,1.1-9.4,0.4-10.1-0.6c-0.8-0.9-0.3-0.9-3.1-2.7c-2.8-1.7-7.6-3.3-12.8-5.8c-5.2-2.5-5.1-5.8-5.1-6.5
					c0-0.7,1.8-6.1-4.3-1.8c-6.1,4.3-11.3-2.1-11.3-2.1c-1.2-1.6-6.3-15.2-6.3-15.2c-1.4-5.1-4.1-11-4.1-11c0.1,0-0.3,0.6,4.3-2
					c4.5-2.6,6.5-6.9,8.1-11.2c1.6-4.3,0-11.6-0.5-13c-0.6-1.5-3.9-8.2-8.1-9.7c-4.2-1.4-7,2.1-7,2.1s-1.3-8.3,6.1-9.2
					c0,0,0-1.7,0.4-3c0,0-5.2-3.1-2.8-8.9c0,0,1.7-4,6.4-3.5l-1.1,2.1c0,0-1.2,11.8,16.1,3.9c17.3-7.9,16.7-9.4,26.6-4.4l7.2-0.1
					c0,0,10.4-4.8,13.7-2.7c3.3,2.1,15.3,8.8,15.3,8.8s11.6,4.3,13.8-3.7L460.3,219.8z"/>
			</g>
			<g>
				<path d="M416.8,324.5c-2.8,0-6.2-0.5-6.7-1.2c-0.2-0.2-0.3-0.4-0.4-0.5c-0.3-0.5-0.5-0.8-2.7-2.1c-1.5-0.9-3.7-1.8-6.2-2.9
					c-2-0.8-4.3-1.8-6.7-2.9c-4.9-2.4-5.3-5.5-5.2-6.7c0-0.1,0-0.2,0.1-0.4c0.1-0.7,0.4-2.2-0.2-2.7c-0.4-0.3-1.4-0.2-3.8,1.5
					c-6.2,4.4-11.6-2-11.6-2.1c-1.2-1.6-6.1-14.7-6.3-15.3c-1.4-5-4-11-4.1-11l-0.1-0.2l0.4-0.1l0.1,0.1c0.1,0,0.7-0.1,4-2
					c4.6-2.7,6.6-7.1,8-11.1c1.5-4.1,0.1-11.3-0.5-12.9c-0.6-1.6-3.9-8.2-8-9.5c-4-1.3-6.6,1.9-6.7,2l-0.3,0.4l-0.1-0.5
					c0-0.2-0.6-4.1,1.5-6.9c1.1-1.4,2.6-2.2,4.6-2.5c0-0.5,0.1-1.7,0.4-2.7c-0.8-0.6-5-3.7-2.7-9c0,0,1.8-4.1,6.6-3.7l0.3,0
					l-1.3,2.4c0,0.4-0.2,3.6,2.2,5.3c2.6,1.8,7.2,1.3,13.6-1.7c2.6-1.2,4.8-2.2,6.7-3.2c10.7-5.1,11.6-5.5,20-1.3l7.1-0.1
					c0.8-0.4,10.5-4.8,13.9-2.7c3.3,2,15.2,8.7,15.3,8.8c0,0,6.4,2.4,10.5,0.3c1.5-0.8,2.5-2,3-3.8l-1.4-4l0.3,0
					c4.8-0.5,6.6,3.6,6.6,3.7c2.3,5.3-1.9,8.5-2.7,9c0.3,1,0.4,2.2,0.4,2.7c2,0.3,3.5,1.1,4.6,2.5c2.1,2.8,1.5,6.7,1.5,6.9l-0.1,0.4
					l-2.7-2.2c-3.8-1.5-8.1,1.5-11.5,8c-2.4,4.6-2.1,7.3-1.5,11.6c0.2,1.3,0.3,2.7,0.5,4.4c0.5,7,12,11.2,12.1,11.3l0.2,0.1
					l-0.1,0.2c0,0-5.5,14.3-9.1,23.4c-1.3,3.3-3.2,5.2-5.6,5.8c-3.3,0.8-6.7-1.2-8-2.3c-1.7-1.5-2.3-1.1-3.1-0.4
					c-0.1,0.1-0.3,0.2-0.4,0.4c-0.1,0.1,0,0.6,0.2,1.1c0.7,1.9,2.1,5.6-6.3,8.9c-8.3,3.4-11.4,6.1-13.2,7.7c-0.6,0.5-1,0.9-1.5,1.2
					C419.8,324.3,418.4,324.5,416.8,324.5z M388.4,304.5c0.3,0,0.5,0.1,0.7,0.2c0.9,0.6,0.6,2.2,0.4,3.1c0,0.2-0.1,0.3-0.1,0.4
					c-0.1,1.1,0.3,4,4.9,6.3c2.3,1.1,4.6,2.1,6.6,2.9c2.5,1,4.7,1.9,6.2,2.9c2.3,1.4,2.5,1.7,2.9,2.3c0.1,0.1,0.2,0.3,0.3,0.5
					c0.6,0.8,8.1,1.6,9.9,0.5c0.4-0.3,0.8-0.6,1.4-1.1c1.8-1.7,4.9-4.4,13.3-7.8c8-3.2,6.8-6.5,6-8.4c-0.3-0.7-0.5-1.2-0.1-1.6
					c0.1-0.1,0.3-0.2,0.4-0.3c0.9-0.7,1.7-1.4,3.7,0.4c1.4,1.3,4.6,2.9,7.6,2.2c2.3-0.6,4.1-2.4,5.3-5.6c3.3-8.5,8.4-21.4,9-23.2
					c-1.6-0.6-11.7-4.8-12.2-11.6c-0.1-1.6-0.3-3.1-0.5-4.4c-0.5-4.3-0.9-7.2,1.6-11.9c3.5-6.7,8-9.7,12.1-8.1l0.1,0l2.1,1.7
					c0.1-1.1,0.2-4-1.5-6.1c-1-1.3-2.5-2.1-4.5-2.4l-0.2,0l0-0.2c0,0,0-1.7-0.4-2.9l-0.1-0.2l0.2-0.1c0.2-0.1,5-3.1,2.7-8.6
					c-0.1-0.2-1.6-3.6-5.9-3.4l1.2,3.6l0,0.1c-0.5,1.9-1.6,3.3-3.3,4.1c-4.2,2.1-10.6-0.2-10.9-0.3c-0.1-0.1-12-6.7-15.3-8.8
					c-3.2-2-13.4,2.7-13.5,2.7l-0.1,0l-7.2,0.1l0,0c-8.2-4.2-9.1-3.8-19.7,1.3c-1.9,0.9-4.1,2-6.7,3.2c-6.6,3-11.3,3.6-14,1.6
					c-2.7-1.9-2.4-5.6-2.4-5.7l0-0.1l1-1.8c-4.2-0.2-5.8,3.4-5.8,3.4c-2.4,5.5,2.6,8.6,2.7,8.6l0.2,0.1l-0.1,0.2
					c-0.4,1.3-0.4,2.9-0.4,2.9l0,0.2l-0.2,0c-2,0.2-3.5,1-4.5,2.4c-1.6,2.1-1.5,4.9-1.5,6.1c0.9-0.9,3.4-3,6.9-1.8
					c4.2,1.4,7.6,8.2,8.2,9.8c0.5,1.3,2.2,8.7,0.5,13.2c-1.6,4.3-3.7,8.7-8.2,11.3c-2.5,1.4-3.5,1.9-4,2c0.6,1.3,2.8,6.4,3.9,10.7
					c0,0.1,5.1,13.6,6.3,15.2c0.2,0.2,5.1,6.2,11,2C386.4,305.1,387.6,304.5,388.4,304.5z"/>
			</g>
		</g>
		<g>
			<g>
				<path class="st3" d="M408.3,270.9c0,0-0.6-3.6-1.2-6c0,0-1.3-3.7,0.9-6.3l2.7-3.1c0,0,1.7-2.3,3.8-2.6c0,0,2.1-0.1,2.3-0.5
					c0.2-0.4,2.5-4.2,7.9,0c0,0,1.7-2.8,4.4-3.2c0,0,2.9-0.9,4.3,1.3c0,0,3.2-2.4,6,1.5c0,0,3.8-2.2,6.6,2.1c0,0,3.8-1.8,6.1,2.1
					s1.9,5.5,1.9,5.5l1.7,6.3l6.1,7.6l-14.2,5.4h-6.4l-12.8,3.4l-22.7,1.7l-6.3-7.4L408.3,270.9z"/>
			</g>
			<g>
				<path class="st2" d="M405.6,286.5l-6.6-7.8l9-7.9c-0.1-0.7-0.7-3.8-1.2-5.8c0-0.1-1.3-3.8,1-6.5l2.7-3.1c0.1-0.1,1.8-2.4,4-2.7
					c1,0,1.9-0.2,2.1-0.3l0,0c0,0,0.7-1.5,2.6-2c1.6-0.4,3.5,0.2,5.5,1.7c0.5-0.7,2.1-2.7,4.4-3.1c0,0,2.8-0.8,4.4,1.2
					c0.5-0.3,1.6-0.8,2.9-0.6c1.2,0.2,2.2,0.9,3.1,2.1c0.9-0.4,4.2-1.5,6.6,2.1c0.9-0.3,4.2-1.2,6.3,2.3c2.1,3.5,2,5.3,1.9,5.7
					l1.7,6.1l6.3,7.8l-14.7,5.5h-6.3l-12.7,3.4L405.6,286.5z M399.8,278.7l6,7.1l22.5-1.7l12.8-3.4h6.3l13.8-5.2l-5.9-7.3l-1.7-6.3
					l0-0.1c0,0,0.4-1.6-1.8-5.3c-2.2-3.7-5.6-2-5.7-2l-0.2,0.1l-0.1-0.2c-2.6-4-6.1-2.1-6.2-2l-0.2,0.1l-0.2-0.2
					c-0.9-1.2-1.8-1.9-2.9-2.1c-1.5-0.2-2.7,0.6-2.7,0.7l-0.3,0.2l-0.2-0.3c-1.2-1.9-3.8-1.2-3.9-1.2c-2.5,0.4-4.2,3.1-4.2,3.1
					l-0.2,0.3l-0.3-0.2c-2-1.6-3.8-2.2-5.3-1.8c-1.5,0.4-2.2,1.7-2.2,1.7c-0.2,0.5-1.5,0.6-2.5,0.7c-1.9,0.3-3.5,2.4-3.5,2.5
					l-2.7,3.1c-2.1,2.4-0.9,5.9-0.8,6c0.6,2.4,1.2,6,1.2,6l0,0.2L399.8,278.7z"/>
			</g>
		</g>
		<g>
			<g>
				<path class="st5" d="M389.2,308.6c0,0-3.4,0.2-5.1,1.1c-1.7,0.9-3.1,1.8-5.1,3.1c0,0-0.9,1.2-4.9,0.5c0,0-6.8-1.6-6.8,3.7
					c0,0-8.1,0.7-4.8,7.8c0,0,2.3,5.6,6.9,1.6c0,0-3,4.3,2.8,6c0,0,4.1,1,5.3-3.2c0,0,0.7-1.7-0.9-3.8c0,0,2-0.4,3.4-2.5
					c0,0-4.3,5.4,0.4,7.3c0,0,5.8,1.5,6.2-4.6c0,0-0.5-2.8,1.8-3.8c0,0,4.7-1.1,6.8-6.3C395.2,315.3,388.5,311.8,389.2,308.6z"/>
			</g>
			<g>
				<path d="M373.3,332.6c-0.6,0-1.1-0.1-1.1-0.1c-2-0.6-3.2-1.5-3.6-2.7c-0.3-0.9-0.2-1.9,0.1-2.6c-1.1,0.7-2.2,0.9-3.2,0.7
					c-2.1-0.5-3.2-3-3.2-3.1c-1-2.1-1.1-3.9-0.3-5.3c1.2-2.1,4.1-2.7,5-2.8c0.1-1.3,0.5-2.3,1.4-2.9c2-1.6,5.6-0.8,5.8-0.7
					c3.6,0.7,4.5-0.4,4.6-0.4c0,0,0,0,0.1-0.1c0.5-0.3,0.9-0.6,1.3-0.8c1.4-0.9,2.5-1.6,3.8-2.3c1.8-0.9,5.1-1.1,5.2-1.1
					c0.1,0,0.2,0,0.2,0.1c0.1,0.1,0.1,0.2,0.1,0.3c-0.5,2.4,4.1,5.5,5.9,6.4c0.1,0.1,0.2,0.2,0.1,0.4c-2.2,5.3-6.8,6.4-7,6.4
					c-2,0.9-1.6,3.4-1.6,3.5c-0.1,2-0.7,3.4-1.9,4.2c-1.9,1.4-4.5,0.8-4.7,0.8c-1.3-0.5-2-1.3-2.3-2.3c-0.3-1.1,0-2.3,0.4-3.3
					c-0.6,0.4-1.1,0.6-1.4,0.7c1.4,2,0.8,3.6,0.7,3.7C377,332.2,374.7,332.6,373.3,332.6z M369.5,326c0.1,0,0.1,0,0.2,0.1
					c0.1,0.1,0.1,0.3,0,0.4c0,0-1.1,1.6-0.6,3.2c0.4,1.1,1.5,1.9,3.2,2.4c0.1,0,3.8,0.9,5-3c0-0.1,0.6-1.6-0.9-3.5
					c-0.1-0.1-0.1-0.2,0-0.3c0-0.1,0.1-0.2,0.2-0.2c0,0,1.6-0.3,2.9-1.9c0.2-0.3,0.3-0.5,0.4-0.5c0.1-0.1,0.3-0.1,0.4-0.1
					c0.1,0.1,0.2,0.3,0.1,0.4c-0.1,0.2-0.2,0.3-0.3,0.5c-0.6,0.9-1.7,2.9-1.3,4.5c0.2,0.9,0.9,1.5,1.9,1.9c0,0,0,0,0,0
					c0,0,2.4,0.6,4.1-0.7c1-0.7,1.6-2,1.7-3.7l0,0c0,0-0.5-3,2-4.1c0.1,0,4.4-1.1,6.5-5.9c-1.2-0.7-6.1-3.6-6-6.5
					c-0.9,0.1-3.3,0.3-4.6,1c-1.3,0.7-2.4,1.4-3.7,2.2c-0.4,0.3-0.8,0.5-1.2,0.8c-0.2,0.3-1.4,1.3-5.1,0.6c0,0-3.5-0.8-5.3,0.6
					c-0.8,0.6-1.1,1.5-1.1,2.7c0,0.2-0.1,0.3-0.3,0.3c0,0-3.6,0.3-4.8,2.5c-0.7,1.2-0.6,2.9,0.3,4.8c0,0,1,2.3,2.8,2.8
					c1.1,0.3,2.3-0.2,3.6-1.3C369.4,326,369.4,326,369.5,326z"/>
			</g>
		</g>
		<g>
			<g>
				<path class="st5" d="M375.5,255.1c0,0-5.2-2.4-7.7,0c0,0-3.5-2.1-7.1,0c0,0-3.5,2.3-5.8,4.7c0,0-1.7,1.4-1.1,6
					c0,0,0.9,3.2,0.4,4.8c0,0-1.2-0.2-3.5,2.5c0,0-2.9,3.4-5.5,0.4c0,0,0.8,4.2,5.6,3.5c0,0-2.3,1.8-0.3,6.6c0,0,1.5,3.4-0.9,7.6
					c0,0,4.2-1.7,4-6.7c0,0-0.4-3.4,0.9-5.7c0,0-1.2,2.2,1.6,6.7c0,0,2.2,3.3,0.4,6.7c0,0,4.2-1.5,3.8-6.6c-0.4-5-2.9-2.9-1.3-7.6
					c0,0,0.4,2.4,1.6,3.6c1.2,1.2,2.8,3.2,2.2,6.6c0,0,2.5-3.1,1.9-6.3s-1.2-4.1-1.2-4.1l7.8-4.4l3.9-7.1L375.5,255.1z"/>
			</g>
			<g>
				<path d="M356.6,292.6c-0.1,0-0.2,0-0.2-0.1c-0.1-0.1-0.1-0.2,0-0.3c1.7-3.2-0.4-6.4-0.4-6.4c-1.2-1.9-1.7-3.3-1.9-4.4
					c-0.3,1.7-0.1,3.2-0.1,3.2c0.2,5.1-4.2,6.9-4.2,7c-0.1,0-0.3,0-0.3-0.1c-0.1-0.1-0.1-0.2,0-0.3c2.3-4,0.9-7.3,0.9-7.3
					c-1.5-3.4-0.7-5.4-0.1-6.3c-4.4,0.2-5.2-3.8-5.2-3.8c0-0.1,0-0.3,0.2-0.3c0.1-0.1,0.3,0,0.4,0.1c0.6,0.7,1.4,1.1,2.1,1.1
					c0,0,0,0,0,0c1.6,0,2.9-1.5,2.9-1.5c1.8-2.1,2.9-2.5,3.5-2.6c0.4-1.6-0.4-4.4-0.4-4.4c-0.6-4.7,1.1-6.2,1.2-6.3
					c2.4-2.5,5.8-4.7,5.9-4.8c3.3-1.9,6.4-0.5,7.2-0.1c2.6-2.3,7.7,0,7.9,0.1c0.1,0,0.2,0.2,0.2,0.3l-0.2,11.3c0,0,0,0.1,0,0.1
					l-3.9,7.1c0,0-0.1,0.1-0.1,0.1l-7.6,4.3c0.2,0.5,0.7,1.6,1.1,4c0.6,3.3-1.9,6.4-2,6.5c-0.1,0.1-0.2,0.1-0.4,0.1
					c-0.1-0.1-0.2-0.2-0.2-0.3c0.6-3.2-0.9-5.1-2.1-6.3c-0.8-0.7-1.2-1.9-1.5-2.7c-0.4,1.6-0.1,2,0.3,2.6c0.5,0.6,1.1,1.5,1.3,3.9
					c0.4,5.2-3.9,6.9-4,6.9C356.6,292.6,356.6,292.6,356.6,292.6z M354.8,279c-0.1,0.2-1,2.3,1.6,6.4c0.1,0.1,2,3,0.8,6.3
					c1.1-0.7,3.1-2.4,2.9-5.9c-0.2-2.2-0.7-3-1.2-3.6c-0.7-0.9-1-1.6-0.1-4.1c0-0.1,0.2-0.2,0.3-0.2c0.1,0,0.2,0.1,0.3,0.2
					c0,0,0.4,2.3,1.6,3.4c1.1,1.1,2.5,2.8,2.4,5.6c0.7-1.1,1.5-3.1,1.2-5c-0.6-3-1.1-4-1.2-4c0-0.1-0.1-0.2,0-0.2
					c0-0.1,0.1-0.1,0.1-0.2l7.8-4.4l3.8-6.9l0.2-11c-0.9-0.4-5.1-2-7.2,0c-0.1,0.1-0.2,0.1-0.4,0c0,0-3.4-2-6.8,0
					c0,0-3.4,2.3-5.8,4.7c0,0-1.6,1.4-1,5.7c0,0.1,0.9,3.3,0.3,4.9c0,0.1-0.2,0.2-0.3,0.2l0,0c0,0-1.1-0.1-3.2,2.4
					c-0.1,0.1-1.5,1.7-3.4,1.7c0,0,0,0,0,0c-0.6,0-1.2-0.2-1.7-0.5c0.6,1.1,1.9,2.6,4.9,2.2c0.1,0,0.3,0.1,0.3,0.2
					c0.1,0.1,0,0.3-0.1,0.3c-0.1,0.1-2.1,1.8-0.2,6.2c0.1,0.1,1.3,3.1-0.5,7c1.2-0.8,3.2-2.5,3-5.9c0-0.1-0.3-3.4,0.9-5.8
					c0,0,0,0,0,0c0.1-0.1,0.3-0.2,0.4-0.1C354.8,278.6,354.9,278.8,354.8,279C354.8,279,354.8,279,354.8,279z"/>
			</g>
		</g>
		<g>
			<g>
				<path d="M363.5,275.4c-0.1,0-3.5-0.3-4-3l0.6-0.1c0.5,2.3,3.5,2.5,3.5,2.5L363.5,275.4z"/>
			</g>
		</g>
		<g>
			<g>
				<path d="M358,273c-1.2,0-1.9-1.1-1.9-1.2c-0.9-0.9-1.9-0.9-1.9-0.9l0-0.6c0.1,0,1.3,0,2.4,1.1c0,0.1,0.7,1.1,1.6,0.9l0.1,0.6
					C358.1,273,358,273,358,273z"/>
			</g>
		</g>
		<g>
			<g>
				<path d="M368.3,265.5c0,0-1.7,0-2.6-0.8c0,0-1-0.7-1.6,0.4c0,0-0.9,1.5,0.8,2.2c0,0,2,1-1.2,3.1c0,0,3.9-1.4,2.3-3.3
					c0,0-1.7-1.2-1.1-1.7c0,0,0.2-0.4,0.8,0.1C366.5,266,367.8,265.9,368.3,265.5z"/>
			</g>
		</g>
		<g>
			<g>
				<polygon class="st7" points="421.2,274.1 408.2,229.3 407.8,229.5 419.2,274.8 				"/>
			</g>
			<g>
				<path d="M419,275l-0.1-0.2l-11.5-45.5l0.9-0.2l13.1,45.2L419,275z M408,229.6l11.3,44.8l1.6-0.5L408,229.6L408,229.6z"/>
			</g>
		</g>
		<g>
			<g>
				<path d="M376.1,324.3c0,0-3.1-1.7-5.6,0.3c0,0,0.3-1.1,2.2-1.6c0,0,1-2.9,4-2.7c0,0-1.2,1.4-2.8,2.6
					C373.9,322.9,375.5,323.1,376.1,324.3z"/>
			</g>
		</g>
		<g>
			<g>
				<path class="st6" d="M365.3,331.4c0,0-4.9-3-2.2-8.2c0,0,0.8-1.5,2.2-1.2c0,0,3,0.9,0.7,5.1C366,327.2,364.8,329.9,365.3,331.4z
					"/>
			</g>
			<g>
				<path class="st2" d="M365.2,331.6c0,0-5-3.2-2.3-8.5c0,0,0.9-1.6,2.5-1.3c0.1,0,1.1,0.4,1.5,1.5c0.4,1,0.2,2.4-0.7,4
					c-0.1,0.2-1.1,2.7-0.7,4L365.2,331.6z M364.9,322.2c-1,0-1.6,1-1.6,1.1c-2.1,4,0.6,6.7,1.7,7.6c-0.2-1.6,0.8-3.8,0.8-3.8
					c0.8-1.5,1.1-2.7,0.7-3.6c-0.4-0.9-1.2-1.2-1.2-1.2C365.1,322.2,365,322.2,364.9,322.2z"/>
			</g>
		</g>
		<g>
			<g>
				<path class="st6" d="M375.1,336.2c0,0-6.9-3.1-4.8-8.5c0,0,0.7-1.8,2.2-1.7c0,0,2.7,0.1,2.1,3.7
					C374.7,329.7,373.9,333.2,375.1,336.2z"/>
			</g>
			<g>
				<path class="st2" d="M375,336.4c-0.1,0-7.1-3.3-4.9-8.8c0-0.1,0.7-2,2.4-1.8c0,0,1.1,0.1,1.8,0.9c0.6,0.7,0.8,1.7,0.6,3
					c0,0.1-0.8,3.5,0.4,6.4L375,336.4z M372.4,326.2c-1.3,0-1.8,1.5-1.8,1.5c-1.7,4.3,2.6,7.1,4.2,8c-1-2.9-0.3-6-0.3-6.1
					c0.2-1.1,0-2-0.5-2.6c-0.6-0.7-1.4-0.8-1.4-0.8C372.5,326.2,372.4,326.2,372.4,326.2z"/>
			</g>
		</g>
		<g>
			<g>
				<path d="M373.7,316.2c0,0-2.1,1.5-2.9,2.6c0,0-0.8-1-2-1.7c0,0,1.3-0.2,2,0.4C370.8,317.5,371.8,316.5,373.7,316.2z"/>
			</g>
		</g>
		<g>
			<g>
				<path class="st6" d="M379.8,334.9c0,0,5.4-1.4,4.4-7c0,0-0.5-2.4-2.8-2.1c0,0-2.8,0.7-1,4.3C380.5,330,381.5,332.6,379.8,334.9z
					"/>
			</g>
			<g>
				<path class="st2" d="M379.9,335.1l-0.2-0.3c1.6-2.1,0.6-4.6,0.6-4.6c-0.7-1.3-0.8-2.4-0.4-3.3c0.5-1,1.5-1.3,1.5-1.3
					c2.5-0.4,3.1,2.3,3.1,2.3C385.5,333.6,379.9,335.1,379.9,335.1z M381.5,326c0,0-0.8,0.2-1.2,1c-0.3,0.7-0.2,1.7,0.4,2.9
					c0,0.1,0.9,2.3-0.3,4.5c1.3-0.5,4.4-2.2,3.7-6.5C384,327.9,383.5,325.7,381.5,326L381.5,326z"/>
			</g>
		</g>
		<g>
			<g>
				<path class="st8" d="M404.3,216.5c0,0,3.5,1.1,5.4,1.8c0,0,5.1,2.3,11.5,0c0,0,4.3-1.7,4.9-1.8l-3.3,5.1l-0.2,2.6l2.1,3
					c0,0-1.2,0.5-5-1.8c0,0-4.1-3.2-9,0c0,0-2.7,1.8-5,1.8l3.2-3.6l-1.2-3.2L404.3,216.5z"/>
			</g>
			<g>
				<path d="M424.3,227.5c-0.7,0-2.1-0.3-4.7-1.9c-0.2-0.1-4-3-8.7,0c-0.1,0.1-2.7,1.8-5,1.8c0,0-0.1,0-0.1,0l-0.6,0l3.5-3.9l-1.1-3
					l-3.3-3.9l0.3-0.5c0,0,3.5,1.1,5.4,1.9c0.1,0,5,2.2,11.3,0c0.4-0.2,4.4-1.7,5-1.9l0.3,0.5l-3.3,5l-0.2,2.4l2.2,3.3l-0.3,0.1
					C424.7,227.5,424.6,227.5,424.3,227.5z M415.2,223.7c2.8,0,4.7,1.4,4.7,1.5c2.3,1.4,3.6,1.7,4.3,1.8l-1.8-2.7l0.2-2.8l2.9-4.4
					c-1,0.4-2.8,1.1-4.1,1.6c-6.5,2.3-11.5,0.1-11.7,0c-1.2-0.5-3.2-1.1-4.4-1.5l2.7,3.3l1.3,3.4l-2.8,3.2c2-0.3,4.1-1.7,4.1-1.7
					C412.2,224.1,413.8,223.7,415.2,223.7z"/>
			</g>
		</g>
		<g>
			<g>
				<path class="st3" d="M381.9,328.2c0,0,0.2-0.3,0-0.4c0,0-0.2-0.1-0.4,0.2c0,0-0.6,0.9-0.1,2.1c0,0,0.5,0.9,0.2,1.7
					c0,0,0,0.3,0.2,0.3c0,0,0.2-0.1,0.2-0.3c0,0,0.3-0.9-0.2-1.7C381.8,330.2,381.3,328.9,381.9,328.2z"/>
			</g>
		</g>
		<g>
			<g>
				<path class="st5" d="M456.9,226.9c0,0-3.9,2-5.5-0.4c0,0-2.1-4.1,2.5-5.5c0,0-2.5-3,0.2-5.9c0,0,1.4-1.5,3.9-0.4
					c0,0,1-2.1,3.5-2.1c0,0,2.1,0,2.9,2.3c0,0,2.9-1.2,4.6,0.5c0,0,2.7,3-1.1,5.4l-2.7,0.2l-2.7-1.2l-3,0.8
					C459.5,220.8,460.3,223.8,456.9,226.9z"/>
			</g>
			<g>
				<path d="M453.9,228c-1,0-2-0.3-2.7-1.3c-0.1-0.1-1-1.9-0.3-3.6c0.4-1,1.3-1.7,2.6-2.2c-0.6-0.9-1.9-3.5,0.4-5.9
					c0.1-0.1,1.5-1.5,4-0.6c0.4-0.6,1.5-2,3.6-2c0,0,2.2,0,3,2.2c0.8-0.3,3.1-0.8,4.6,0.7c0.1,0.1,1.2,1.4,1,3
					c-0.2,1.1-0.9,2-2.1,2.8c0,0-0.1,0-0.1,0l-2.7,0.2c-0.1,0-0.1,0-0.2,0l-2.6-1.2l-2.6,0.7c0.1,0.9,0.1,3.5-2.7,6.1c0,0,0,0-0.1,0
					C457,227.2,455.5,228,453.9,228z M456.3,214.7c-1.2,0-1.9,0.7-1.9,0.7c-2.5,2.6-0.3,5.4-0.2,5.5c0.1,0.1,0.1,0.2,0.1,0.3
					c0,0.1-0.1,0.2-0.2,0.2c-1.3,0.4-2.2,1.1-2.6,2c-0.6,1.4,0.2,3.1,0.2,3.1c1.4,2,4.7,0.5,5.1,0.3c3.1-2.9,2.5-5.7,2.5-5.8
					c0-0.1,0-0.2,0.1-0.3c0,0,0.1,0,0.1-0.1l3-0.8c0.1,0,0.1,0,0.2,0l2.6,1.2l2.6-0.2c1.1-0.7,1.7-1.5,1.8-2.4
					c0.2-1.4-0.8-2.5-0.8-2.6c-1.5-1.6-4.2-0.5-4.2-0.5c-0.1,0-0.2,0-0.2,0c-0.1,0-0.1-0.1-0.2-0.2c-0.6-2.1-2.4-2.1-2.6-2.1
					c0,0,0,0,0,0c-2.2-0.1-3.2,1.9-3.2,1.9c-0.1,0.1-0.2,0.2-0.4,0.1C457.3,214.8,456.8,214.7,456.3,214.7z"/>
			</g>
		</g>
		<g>
			<g>
				<path class="st8" d="M426.1,223.8c0,0-0.1,0.8-0.9,0.9c0,0-0.8,0.3-1.3-0.8c0,0-0.1-0.2-0.1-0.3c-0.1-0.5-0.2-1.9,1.3-3
					c0,0,2.5-2,7.2,0.4c0,0,3.7,1.8,6.3,3.3c0,0,6.6,3.6,7.4,3.8c0,0,2.9,1.5,7.4,1.7c0,0,6.1,0.4,8.7-3.8c0,0,2-3.3,0-5.3
					c0,0-0.8-0.9-2.1-0.8c-0.6,0.1-1.2,0.3-1.7,1c0,0-1,1.4,0.2,2.4c0,0,1.4,0.9,1.9-1c0,0,0-0.1,0.1,0c0,0.1,0.4,1.5-0.4,2.7
					c0,0-3.7,5.6-13.8-0.2l-13.4-7.5c0,0-6.7-3.4-10.7,1.9c0,0-3.2,4.5,0.9,7.4c0,0,3.1,1.9,5.1-1.1c0,0,1.6-2.9-0.9-4.2
					c0,0-2.2-1-3.1,1.2c-0.9,2.2,1.7,2.8,2,1.2C425.9,223.8,426,223.4,426.1,223.8z"/>
			</g>
			<g>
				<path d="M453.9,230.1c-0.3,0-0.5,0-0.6,0c-4.5-0.2-7.4-1.6-7.5-1.7c-0.8-0.3-7.2-3.7-7.4-3.8c-2.5-1.5-6.2-3.3-6.3-3.3
					c-4.5-2.3-6.7-0.5-6.8-0.5c-0.1,0.1-0.2,0.2-0.3,0.3c0,0,0.1,0,0.1,0c1-0.4,2.1,0.1,2.2,0.1c0.8,0.4,1.3,0.9,1.5,1.6
					c0.4,1.4-0.4,2.9-0.4,2.9c-2.1,3.2-5.4,1.2-5.5,1.2c-1.3-0.9-2-2-2.2-3.2c-0.4-2.4,1.1-4.5,1.2-4.6c4.1-5.5,11-2.1,11.1-2
					l13.4,7.5c9.8,5.6,13.4,0.4,13.4,0.3c0.4-0.6,0.4-1.2,0.5-1.6c-0.2,0.2-0.3,0.3-0.6,0.4c-0.7,0.3-1.4-0.1-1.4-0.2
					c-1.1-1-0.6-2.3-0.2-2.8c0.6-0.7,1.2-1,2-1.1c1.5-0.2,2.3,0.8,2.4,0.9c2.1,2.2,0.1,5.5,0,5.7
					C460.1,229.7,455.5,230.1,453.9,230.1z M427.9,219.5c1.2,0,2.7,0.3,4.5,1.2c0,0,3.8,1.8,6.3,3.3c1.8,1,6.8,3.6,7.4,3.8
					c0.1,0,3,1.5,7.3,1.6c0.1,0,6,0.4,8.4-3.7c0,0,1.8-3.1,0-5c0,0-0.7-0.8-1.9-0.7c-0.6,0.1-1.1,0.4-1.6,0.9c0,0-0.8,1.2,0.1,2
					c0,0,0.2,0.1,0.5,0.1c0.1,0,0.2,0,0.3-0.1c0.3-0.1,0.5-0.4,0.6-0.9l0.1-0.2l0.2-0.1c0.1,0,0.3,0,0.3,0.3c0,0,0.4,1.6-0.4,3
					c0,0.1-4,5.7-14.2-0.1l-13.4-7.5c-0.3-0.1-6.5-3.3-10.3,1.9c0,0-1.4,2-1.1,4.1c0.2,1.1,0.8,2.1,1.9,2.8c0.1,0.1,2.9,1.7,4.6-1
					l0,0c0,0,0.7-1.3,0.4-2.5c-0.2-0.5-0.6-1-1.2-1.3c0,0-0.9-0.4-1.7-0.1c-0.4,0.2-0.8,0.6-1,1.1c-0.1,0.3-0.2,0.6-0.2,0.8
					c0,0,0,0,0,0c0,0.1,0.1,0.3,0.1,0.3c0.1,0.2,0.2,0.3,0.3,0.4c0.2,0.1,0.4,0.2,0.7,0.2c0,0,0,0,0,0c0,0,0,0,0,0c0,0,0.1,0,0.1,0
					c0.3-0.1,0.4-0.3,0.5-0.6c0-0.1,0.1-0.4,0.4-0.4c0,0,0,0,0,0c0.3,0,0.3,0.3,0.4,0.4l0,0l0,0c0,0.4-0.3,1-1.1,1.1c0,0,0,0-0.1,0
					c-0.2,0.1-0.5,0.1-0.9-0.1c-0.2-0.1-0.3-0.2-0.4-0.3c-0.2-0.3-0.4-0.6-0.4-0.9c0,0,0,0,0,0c-0.1-0.5-0.2-2,1.4-3.3
					C424.9,220.2,426,219.5,427.9,219.5z"/>
			</g>
		</g>
		<g>
			<g>
				<path class="st9" d="M373,246.8c0,0,0-7,0-8.4c0-0.7,0-1.2,1-2s2.1-2.1,3.6,1.5c0,0,3-3.1,4-3.6c0,0,1.7-1.5,2.9,0.7
					c0,0,1.6-2.4,2.9-3c0,0,3-1.9,3.1,3.9l2.3-2.1c0,0,1.8-1.5,3.8,0.5c0,0,3.4,3.3,3.9,4.2c0,0,0.7,1,0.8,2.6c0,0,0,1.8,0.9,2.8
					c0,0,1.1,0.9,2.1,1.1c0,0,2.4,0.1,3.3,2.3c0,0,0.4-0.4,1.6,10.5v19.9l-13.4,16l-21.5-6.2l-8.6-3.6l-1.9-6.3l8.3-5.4l4.5-12.2
					l-1.5-8.6L373,246.8z"/>
			</g>
			<g>
				<path d="M395.8,294.1l-21.7-6.2l-8.7-3.6l-2-6.6l8.4-5.4l4.5-12.1l-1.5-8.5l-2.1-4.9v-8.4c0-0.7,0-1.3,1.1-2.2l0.2-0.2
					c0.5-0.4,1.1-0.9,1.7-0.7c0.6,0.2,1.2,0.9,1.8,2.2c0.7-0.7,2.9-3,3.8-3.4c0.1-0.1,0.9-0.7,1.7-0.5c0.5,0.1,1,0.4,1.3,1
					c0.5-0.7,1.7-2.3,2.8-2.8c0,0,1-0.6,1.9-0.1c0.9,0.5,1.4,1.7,1.5,3.7l2-1.8c0,0,2-1.6,4.1,0.5c0.1,0.1,3.4,3.3,3.9,4.3
					c0,0,0.8,1.1,0.8,2.7c0,0,0,1.7,0.9,2.7l0,0c0,0,1,0.9,2,1.1c0,0,0,0,0,0c0.1,0,2.5,0.1,3.4,2.4c0.2,0.3,0.7,1.8,1.6,10.6l0,20
					l-0.1,0.1L395.8,294.1z M365.8,284l8.5,3.5l21.4,6.1l13.3-15.8v-19.8c-0.8-7.5-1.3-9.6-1.4-10.2l0,0l-0.1-0.3
					c-0.8-2.1-3-2.2-3.1-2.2c-1.1-0.2-2.2-1.2-2.2-1.2c-1-1.1-1-2.9-1-3c-0.1-1.5-0.8-2.5-0.8-2.5c-0.4-0.8-2.9-3.3-3.8-4.2
					c-1.8-1.8-3.4-0.6-3.5-0.5l-2.7,2.5l0-0.5c-0.1-2.7-0.7-3.6-1.3-3.8c-0.7-0.4-1.5,0.1-1.5,0.1c-1.2,0.6-2.8,2.9-2.8,3l-0.2,0.3
					l-0.2-0.3c-0.3-0.6-0.7-0.9-1.2-1c-0.7-0.1-1.4,0.4-1.4,0.4l0,0c-0.8,0.4-2.9,2.5-3.9,3.6l-0.2,0.2l-0.1-0.3
					c-0.6-1.4-1.1-2.1-1.7-2.3c-0.5-0.1-0.9,0.3-1.3,0.6l-0.2,0.2c-0.9,0.7-0.9,1.2-0.9,1.8v8.3l2,4.9l1.5,8.7l0,0.1l-4.5,12.3
					l-0.1,0l-8.2,5.3L365.8,284z"/>
			</g>
		</g>
		<g>
			<g>
				<path class="st7" d="M432.4,257.4l1-1.5l2.4-1.9c0,0,3.7,9.8,3.9,11.9v3c0,0,5.6,1.4,6.6,10l-4.6,8.5l-7.2-4l-2.1-1.5
					L432.4,257.4L432.4,257.4z"/>
			</g>
			<g>
				<path d="M441.7,287.7l-7.4-4.1l-2.2-1.6v-24.4h-0.2l1.3-1.9l2.7-2.1l0.1,0.3c0.2,0.4,3.7,9.8,3.9,12l0,2.9
					c1,0.3,5.7,2.3,6.6,10.1l0,0.1L441.7,287.7z M432.6,281.7l2,1.5l7,3.9l4.5-8.2c-1-8.3-6.3-9.7-6.4-9.7l-0.2,0v-3.2
					c-0.2-1.9-3.2-9.9-3.8-11.5l-2.2,1.7l-1,1.4V281.7z"/>
			</g>
		</g>
		<g>
			<g>
				<path class="st3" d="M364,324.4c0,0,0.3-0.4,0.1-0.5c0,0-0.1-0.2-0.4,0.2c0,0-1.5,1.6-0.3,4.2c0,0,0.1,0.4,0.4,0.2
					c0,0,0.2-0.1,0-0.4C363.7,328.2,362.6,326.1,364,324.4z"/>
			</g>
		</g>
		<g>
			<g>
				<path d="M386,322.9l-0.6-0.2l0.3,0.1l-0.3-0.1c0,0,0.2-0.6-0.3-1.3c0,0-0.4-0.7-0.3-1.6l0.6,0.1c-0.1,0.6,0.2,1.1,0.2,1.1
					C386.3,322,386,322.8,386,322.9z"/>
			</g>
		</g>
		<g>
			<g>
				<path d="M393.7,245.2c-0.1-0.8-0.9-2.2-1.6-3.3c-0.5-0.8-0.9-1.6-1.2-2.2c-0.6-1.6-0.6-3.6-0.6-3.7l0.4,0c0,0,0,2.1,0.6,3.6
					c0.2,0.6,0.7,1.4,1.2,2.2c0.8,1.3,1.5,2.6,1.6,3.5L393.7,245.2z"/>
			</g>
		</g>
		<g>
			<g>
				<path class="st5" d="M441.1,308.6c0,0,3.4,0.2,5.1,1.1c1.7,0.9,3.1,1.8,5.1,3.1c0,0,0.9,1.2,4.9,0.5c0,0,6.8-1.6,6.8,3.7
					c0,0,8.1,0.7,4.8,7.8c0,0-2.3,5.6-6.9,1.6c0,0,3,4.3-2.8,6c0,0-4.1,1-5.3-3.2c0,0-0.7-1.7,0.9-3.8c0,0-2-0.4-3.4-2.5
					c0,0,4.3,5.4-0.4,7.3c0,0-5.8,1.5-6.2-4.6c0,0,0.5-2.8-1.8-3.8c0,0-4.7-1.1-6.8-6.3C435.1,315.3,441.8,311.8,441.1,308.6z"/>
			</g>
			<g>
				<path d="M457,332.6c-1.4,0-3.7-0.5-4.6-3.5c0,0-0.6-1.6,0.7-3.7c-0.3-0.1-0.8-0.3-1.4-0.7c0.4,1,0.7,2.2,0.4,3.3
					c-0.3,1-1,1.8-2.2,2.3c-0.2,0-2.8,0.7-4.7-0.7c-1.2-0.9-1.8-2.2-1.9-4.2c0-0.2,0.4-2.7-1.6-3.6c-0.1,0-4.8-1.1-6.9-6.4
					c-0.1-0.1,0-0.3,0.1-0.4c0.1,0,6.5-3.5,5.9-6.4c0-0.1,0-0.2,0.1-0.3c0.1-0.1,0.1-0.1,0.2-0.1c0.1,0,3.5,0.2,5.2,1.1
					c1.3,0.7,2.4,1.4,3.8,2.3c0.4,0.3,0.8,0.5,1.3,0.8c0,0,0.1,0,0.1,0.1c0,0,0.9,1.1,4.6,0.4c0.1,0,3.7-0.9,5.8,0.8
					c0.9,0.7,1.3,1.7,1.4,2.9c0.9,0.1,3.8,0.7,5,2.8c0.8,1.4,0.7,3.2-0.3,5.4c0,0.1-1.1,2.6-3.2,3.1c-1,0.2-2.1,0-3.2-0.7
					c0.2,0.7,0.4,1.6,0.1,2.6c-0.4,1.2-1.7,2.2-3.6,2.7C458.1,332.5,457.6,332.6,457,332.6z M450.8,323.1c1.3,1.6,2.8,1.9,2.9,1.9
					c0.1,0,0.2,0.1,0.2,0.2c0,0.1,0,0.2,0,0.3c-1.5,1.9-0.9,3.4-0.9,3.5c1.1,3.9,4.8,3.1,5,3c1.7-0.5,2.8-1.3,3.2-2.4
					c0.5-1.5-0.6-3.1-0.6-3.2c-0.1-0.1-0.1-0.3,0-0.4c0.1-0.1,0.3-0.1,0.4,0c1.3,1.1,2.5,1.5,3.6,1.3c1.9-0.5,2.8-2.7,2.8-2.8
					c0.9-2,1-3.6,0.3-4.8c-1.3-2.2-4.8-2.5-4.8-2.5c-0.2,0-0.3-0.1-0.3-0.3c0-1.2-0.4-2.1-1.1-2.7c-1.8-1.4-5.2-0.6-5.3-0.6
					c-3.7,0.7-4.9-0.3-5.1-0.5c-0.4-0.3-0.9-0.6-1.2-0.8c-1.4-0.9-2.4-1.6-3.7-2.2c-1.3-0.7-3.7-0.9-4.6-1c0.1,1.4-1,3-3.2,4.7
					c0,0-1.8,1.4-2.8,1.8c2.1,4.8,6.4,5.8,6.5,5.9c2.5,1.1,2,4.1,2,4.2c0.1,1.7,0.7,2.9,1.7,3.6c1.7,1.3,4.1,0.7,4.2,0.7
					c1-0.4,1.6-1.1,1.9-1.9c0.4-1.6-0.7-3.6-1.3-4.5c-0.1-0.1-0.2-0.3-0.3-0.5c-0.1-0.1-0.1-0.3,0.1-0.4c0.1-0.1,0.3-0.1,0.4,0.1
					C450.5,322.6,450.6,322.8,450.8,323.1z"/>
			</g>
		</g>
		<g>
			<g>
				<rect x="390.4" y="245" transform="matrix(0.9924 -0.123 0.123 0.9924 -29.9254 50.0567)" width="0.4" height="45"/>
			</g>
		</g>
		<g>
			<g>
				<rect x="392" y="244.8" transform="matrix(0.9891 -0.1474 0.1474 0.9891 -34.9147 60.7353)" width="0.4" height="42.1"/>
			</g>
		</g>
		<g>
			<g>
				<rect x="393.6" y="244.6" transform="matrix(0.9853 -0.1706 0.1706 0.9853 -39.5172 71.0717)" width="0.4" height="41.9"/>
			</g>
		</g>
		<g>
			<g>
				<polygon class="st7" points="403.6,281.9 390.6,237.2 390.1,237.3 401.6,282.6 				"/>
			</g>
			<g>
				<path d="M401.4,282.9l-0.1-0.2l-11.5-45.5l0.9-0.2l13.1,45.2L401.4,282.9z M390.4,237.5l11.3,44.8l1.6-0.5L390.4,237.5
					L390.4,237.5z"/>
			</g>
		</g>
		<g>
			<g>
				<rect x="400.6" y="242" transform="matrix(0.9298 -0.368 0.368 0.9298 -67.4685 165.7173)" width="0.4" height="35.6"/>
			</g>
		</g>
		<g>
			<g>
				<rect x="399.5" y="242.6" transform="matrix(0.9392 -0.3434 0.3434 0.9392 -65.3338 153.1194)" width="0.4" height="36.8"/>
			</g>
		</g>
		<g>
			<g>
				<path class="st3" d="M372.6,333c0,0-1.5-1.5-1.3-4.1c0,0,0.1-0.6-0.2-0.6c0,0-0.3-0.1-0.3,0.5c0,0-0.4,2.7,1.4,4.3
					c0,0,0.1,0.2,0.3,0.1C372.5,333.3,372.8,333.2,372.6,333z"/>
			</g>
		</g>
		<g>
			<g>
				<rect x="401.4" y="241.3" transform="matrix(0.9128 -0.4083 0.4083 0.9128 -70.2887 186.4446)" width="0.4" height="33"/>
			</g>
		</g>
		<g>
			<g>
				<rect x="395.1" y="244.2" transform="matrix(0.9799 -0.1996 0.1996 0.9799 -44.936 84.2358)" width="0.4" height="41.4"/>
			</g>
		</g>
		<g>
			<g>
				<path class="st8" d="M458.8,274.8c-5.9-3.4-7.2-10.8-7.2-10.8c-1.4-7.4,1.5-13.3,1.5-13.3c3.8-8.1,10.4-9.6,10.4-9.6
					s-6.4,4.5-8.2,10.4c0,0-1.4,5.1-0.6,10.1c0.8,5,0.5,3.7,1.7,7.6L458.8,274.8z"/>
			</g>
			<g>
				<path d="M458.7,275c-6-3.4-7.3-10.9-7.4-11c-1.4-7.4,1.5-13.4,1.5-13.5c3.8-8.1,10.5-9.7,10.6-9.7l0.2,0.5
					c-0.1,0-6.4,4.5-8.1,10.3c0,0-1.4,5.1-0.6,9.9l0.3,1.7c0.4,2.6,0.4,2.6,1.1,4.6l0.4,1.2l2.4,5.5L458.7,275z M461.7,242.1
					c-2.2,1-5.9,3.5-8.4,8.7c0,0.1-2.8,5.9-1.4,13.1c0,0.1,1.2,6.7,6.3,10.1l-2.1-4.7l-0.4-1.2c-0.7-2.1-0.7-2.1-1.1-4.7l-0.3-1.7
					c-0.8-5,0.6-10.1,0.6-10.2C456.2,247.2,459.7,243.8,461.7,242.1z"/>
			</g>
		</g>
		<g>
			<g>
				<path class="st7" d="M433.4,255.9l-24.8,7.8l-1.4,11.1c-5.9,8.5-17.9,10.1-17.9,10.1l9.3,9.9l17.9,3.8l9.4-7.2l8.5-7.9
					c-0.9-4.2-0.4-10.4-0.4-10.4c0-1,0.4-3.5,0.4-3.5S433,259.3,433.4,255.9z"/>
			</g>
			<g>
				<path d="M416.6,298.6L416.6,298.6l-18-3.8l0,0l-9.5-10.1l0.3,0c0.1,0,12-1.6,17.8-10l1.4-11.1l0.1,0l25-7.9l0,0.2
					c-0.4,3.4,1,13.4,1.1,13.5l0,0l0,0c0,0-0.4,2.5-0.4,3.5c0,0.1-0.5,6.3,0.4,10.4l0,0.1l-8.6,7.9L416.6,298.6z M398.7,294.6
					l17.8,3.7l9.3-7.2l8.4-7.8c-0.9-4.2-0.4-10.3-0.4-10.4c0-1,0.4-3.2,0.4-3.5c-0.1-0.5-1.4-9.8-1.1-13.4l-24.6,7.8l-1.4,11
					c-5.4,7.8-15.9,9.8-17.7,10.1L398.7,294.6z"/>
			</g>
		</g>
		<g>
			<g>
				<path d="M407.6,272.2l-0.1-0.4c0.2-0.1,16.5-5.2,26.1-9.2l0.2,0.4C424.1,267,407.8,272.1,407.6,272.2z"/>
			</g>
		</g>
		<g>
			<g>
				<path d="M399.7,281.5l-0.1-0.4c0.2,0,20.5-3.8,34.7-11.8l5.3-3.6l0.2,0.4l-5.3,3.6C420.3,277.7,399.9,281.5,399.7,281.5z"/>
			</g>
		</g>
		<g>
			<g>
				<path class="st10" d="M423.8,223.6"/>
			</g>
		</g>
		<g>
			<g>
				<path d="M393.8,284l0-0.4c17.1-0.3,39.9-10.7,40.1-10.8l5.6-4l0.3,0.4l-5.7,4C433.9,273.2,411.1,283.7,393.8,284z"/>
			</g>
		</g>
		<g>
			<g>
				<path d="M406.4,289.8l0-0.4c9.9-0.1,27.3-9.1,27.5-9.1l0.2,0.4C434,280.7,416.4,289.7,406.4,289.8z"/>
			</g>
		</g>
		<g>
			<g>
				<path class="st5" d="M454.9,255.1c0,0,5.2-2.4,7.7,0c0,0,3.5-2.1,7.1,0c0,0,3.5,2.3,5.8,4.7c0,0,1.7,1.4,1.1,6
					c0,0-0.9,3.2-0.4,4.8c0,0,1.2-0.2,3.5,2.5c0,0,2.9,3.4,5.5,0.4c0,0-0.8,4.2-5.6,3.5c0,0,2.3,1.8,0.3,6.6c0,0-1.5,3.4,0.9,7.6
					c0,0-4.2-1.7-4-6.7c0,0,0.4-3.4-0.9-5.7c0,0,1.2,2.2-1.6,6.7c0,0-2.2,3.3-0.4,6.7c0,0-4.2-1.5-3.8-6.6c0.4-5,2.9-2.9,1.3-7.6
					c0,0-0.4,2.4-1.6,3.6c-1.2,1.2-2.8,3.2-2.2,6.6c0,0-2.5-3.1-1.9-6.3s1.2-4.1,1.2-4.1l-7.8-4.4l-3.9-7.1L454.9,255.1z"/>
			</g>
			<g>
				<path d="M473.9,292.6c0,0-0.1,0-0.1,0c0,0-4.4-1.7-4-6.9c0.2-2.3,0.8-3.2,1.3-3.9c0.5-0.6,0.7-1,0.3-2.6c-0.2,0.8-0.7,2-1.5,2.7
					c-1.2,1.2-2.7,3.1-2.1,6.3c0,0.1,0,0.3-0.2,0.3c-0.1,0.1-0.3,0-0.4-0.1c-0.1-0.1-2.6-3.2-2-6.5c0.4-2.3,0.9-3.5,1.1-4l-7.6-4.3
					c0,0-0.1-0.1-0.1-0.1l-3.9-7.1c0,0,0-0.1,0-0.1l-0.2-11.3c0-0.1,0.1-0.2,0.2-0.3c0.2-0.1,5.2-2.4,7.9-0.1
					c0.8-0.4,3.9-1.8,7.2,0.1c0,0,3.5,2.3,5.9,4.8c0.1,0,1.8,1.6,1.1,6.2c0,0.1-0.8,2.9-0.4,4.5c0.5,0.1,1.7,0.5,3.5,2.6
					c0,0,1.3,1.5,2.9,1.5c0,0,0,0,0,0c0.8,0,1.5-0.4,2.1-1.1c0.1-0.1,0.2-0.1,0.4-0.1c0.1,0.1,0.2,0.2,0.2,0.3c0,0-0.8,4-5.2,3.8
					c0.6,0.9,1.4,2.9-0.1,6.3c0,0-1.4,3.3,0.9,7.3c0.1,0.1,0,0.2,0,0.3c-0.1,0.1-0.2,0.1-0.3,0.1c0,0-4.4-1.8-4.2-6.9
					c0,0,0.2-1.6-0.1-3.2c-0.2,1.1-0.7,2.6-1.9,4.4c0,0-2.1,3.2-0.4,6.5c0.1,0.1,0,0.2,0,0.3C474,292.6,474,292.6,473.9,292.6z
					 M471.4,277.9c0.1,0,0.2,0.1,0.3,0.2c0.9,2.6,0.6,3.2-0.1,4.1c-0.5,0.6-1,1.4-1.2,3.6c-0.3,3.5,1.7,5.2,2.9,5.9
					c-1.2-3.3,0.7-6.1,0.8-6.3c2.6-4.2,1.7-6.3,1.6-6.4c0,0,0,0,0,0c-0.1-0.1,0-0.3,0.1-0.4c0.1-0.1,0.3,0,0.4,0.1c0,0,0,0,0,0
					c1.2,2.4,0.9,5.7,0.9,5.9c-0.1,3.4,1.9,5.2,3,5.9c-1.8-3.9-0.5-6.8-0.5-7c1.9-4.4-0.1-6.1-0.2-6.2c-0.1-0.1-0.1-0.2-0.1-0.3
					c0.1-0.1,0.2-0.2,0.3-0.2c3,0.4,4.3-1.1,4.9-2.2c-0.5,0.3-1.1,0.5-1.7,0.5c0,0,0,0,0,0c-1.8,0-3.3-1.7-3.4-1.7
					c-2.1-2.5-3.2-2.4-3.2-2.4c-0.1,0-0.3-0.1-0.3-0.2c-0.6-1.7,0.3-4.8,0.4-5c0.6-4.3-1-5.7-1-5.7c-2.4-2.5-5.8-4.7-5.8-4.7
					c-3.4-2-6.7,0-6.8,0c-0.1,0.1-0.3,0.1-0.4,0c-2.1-2-6.3-0.4-7.2,0l0.2,11l3.8,6.9l7.8,4.4c0.1,0,0.1,0.1,0.1,0.2
					c0,0.1,0,0.2,0,0.2c0,0-0.6,1-1.2,4c-0.4,1.9,0.5,3.9,1.2,5c-0.1-2.7,1.3-4.5,2.4-5.6c1.2-1.1,1.5-3.4,1.6-3.4
					C471.1,278,471.2,277.9,471.4,277.9C471.4,277.9,471.4,277.9,471.4,277.9z"/>
			</g>
		</g>
		<g>
			<g>
				<path class="st3" d="M366.1,283.4c0,0,0.7-3.5,4.1-2.1c0,0,1.1-5.7,7.2-5.9c6-0.2,6.4,5.9,6.4,6.3c0,0,1.8-2.6,4.7-2.3
					c0,0,5.1-0.3,3.2,7.9l1,1c0,0,3.9-9.2,11.9-6.8c0,0,7.8,2.4,2.7,10c0,0,3.9,5,7.2,4.6s6.2-1.5,9.5-7.2
					c3.3-5.8,10.8-6.6,12.8-6.3c1.9,0.3,3.4,1.6,3.8,2.9c0,0,4-13.4,18.4-11.3l5.8,2.9l2.2,1l-3.3,9.2l-8,18l-6,1.9l-6.3-3.6
					l-2.2,1.2l-0.2,5.4l-8.3,6l-5.8,2.4l-6.4,4.4l-1.5,3.9c0,0-3.5-1.5-7.5,0l-1.3-3.2l-3.7-3.6l-14.5-6.8l-2.6-8.4l-2.6-1.2l-3,3.4
					l-4.3,0.5l-6.4-4.4L366.1,283.4z"/>
			</g>
			<g>
				<path class="st2" d="M419.1,327.2l-0.3-0.1c0,0-3.5-1.4-7.3,0l-0.3,0.1l-1.4-3.4l-3.6-3.5l-14.5-6.9l-2.6-8.4l-2.3-1l-2.9,3.3
					l-4.5,0.5l-6.6-4.5l0-0.1l-6.9-19.8l0-0.1c0-0.1,0.4-1.7,1.7-2.4c0.7-0.4,1.5-0.4,2.5-0.1c0.4-1.3,2-5.6,7.4-5.8
					c1.9-0.1,3.5,0.5,4.6,1.6c1.4,1.4,1.9,3.2,2,4.3c0.7-0.8,2.3-2.1,4.5-1.9c0,0,1.7-0.1,2.8,1.3c1.2,1.4,1.4,3.7,0.7,6.8l0.6,0.6
					c0.9-1.8,4.9-8.7,12.1-6.5c0.1,0,3.4,1.1,4.4,3.9c0.7,1.8,0.2,4-1.4,6.4c0.7,0.8,4,4.7,6.7,4.3c3-0.4,6-1.3,9.2-7.1
					c3.4-6,11.3-6.8,13.1-6.4c1.7,0.3,3.1,1.2,3.7,2.4c1.1-2.8,6-12.6,18.5-10.7l0.1,0l5.8,2.9l2.4,1.1l-3.4,9.5l-8,18.1l-6.3,1.9
					l-6.3-3.6l-1.9,1l-0.2,5.4l-8.4,6.1l-5.8,2.4l-6.2,4.3L419.1,327.2z M392.2,313l14.4,6.8l3.8,3.7l1.2,3c3.3-1.1,6.3-0.3,7.2,0
					l1.4-3.7l6.5-4.4l5.8-2.4l8.1-5.9l0.2-5.4l2.5-1.3l6.3,3.6l5.8-1.8l7.9-17.9l3.2-9l-1.9-0.9l-5.7-2.9c-14-2-18,11-18.1,11.1
					l-0.3,1.1l-0.3-1.1c-0.3-1.3-1.8-2.4-3.5-2.7c-1.7-0.3-9.2,0.5-12.5,6.2c-3.4,6-6.5,6.9-9.7,7.4c-3.4,0.5-7.3-4.5-7.4-4.7
					l-0.1-0.2l0.1-0.2c1.6-2.3,2-4.3,1.4-6c-0.9-2.5-4-3.5-4-3.5c-7.7-2.3-11.6,6.5-11.6,6.6l-0.2,0.4l-1.4-1.5l0-0.2
					c0.7-3,0.5-5.2-0.5-6.5c-1-1.1-2.4-1.1-2.4-1.1c-2.8-0.3-4.5,2.2-4.5,2.2l-0.5,0.8v-1c0,0-0.1-2.8-1.9-4.6c-1-1-2.4-1.5-4.2-1.4
					c-5.7,0.2-6.9,5.6-6.9,5.6l-0.1,0.4l-0.3-0.1c-0.9-0.4-1.7-0.4-2.3-0.1c-0.9,0.5-1.3,1.6-1.3,1.9l6.8,19.6l6.3,4.2l4.1-0.5
					l3-3.5l3,1.3L392.2,313z"/>
			</g>
		</g>
		<g>
			<g>
				<path d="M423.5,223.3c-0.1-1.8,0.4-3.2,1.4-4.2c1.6-1.6,4.1-1.5,4.2-1.5l0,0.6c0,0-2.3-0.1-3.8,1.4c-0.9,0.9-1.3,2.2-1.3,3.8
					L423.5,223.3z"/>
			</g>
		</g>
		<g>
			<g>
				<path class="st8" d="M465.4,278.6c-9.6-2.9-12.2-13.3-12.2-13.3c-2-7.7,1.2-14.5,1.2-14.5c4.4-10.3,11.8-10.3,11.8-10.3
					c3.7-0.1,4.2,3.1,4.2,3.1c0.4,2.3-1.2,3.1-1.2,3.1c-2.5,1.4-4.2-0.5-4.2-0.5c-1.1-1.4-0.2-2.6-0.2-2.6c0.7-0.9,1.9-0.5,1.9-0.5
					c1,0.3,0.9,1.5,0.9,1.5c0,0,0,0,0,0c0,0,0,0,0,0s0.2-1.5-1.3-1.7c0,0-2.9-0.6-6.3,3.6c0,0-4.5,5.7-4.5,13.1
					c0,0-0.6,13.8,13.9,17.4c0,0-1.6,2.2-4.3,10.4c0,0-3.1,10.4-6.1,16.1c0,0-4,8-12.8,4.8c0,0-5.3-2.3-5.3-6.1c0,0-0.4-3.5,2.8-3.8
					c0,0,3.1-0.2,3.1,2.4c0,0,0.1,2.9-3.3,2.2c0,0-1.2-0.3-1-1.4c0,0,0.2-1,1.6-0.6c0,0,0,0,0,0c0,0,0,0,0,0c0,0-0.6-0.2-1.1,0
					c0,0-0.5,0.2-0.6,1c0,0,0,0.7,0.7,1c0,0,0.8,0.3,1.5,0.2c0,0,0.9,1.8,2.9,2.4c2.8,0.9,5.1,0,6.6-1.1c1.5-1.2,2.5-3.4,2.8-3.9
					c0.3-0.5,2.9-6.3,4.8-12.6c0,0,1.7-5.4,3.1-8.2L465.4,278.6z"/>
			</g>
			<g>
				<path d="M450.2,309.3c-1.3,0-2.6-0.2-4.2-0.8c-0.2-0.1-5.5-2.4-5.4-6.4c0,0-0.2-1.8,0.8-3c0.5-0.6,1.3-1,2.2-1.1
					c0.1,0,1.7-0.1,2.6,0.8c0.5,0.5,0.7,1.1,0.7,1.9c0,0,0,1.3-0.9,2c-0.3,0.3-0.7,0.4-1.1,0.5c0.3,0.5,1.2,1.5,2.5,2
					c3.3,1,5.5-0.4,6.3-1c1.3-1,2.2-2.8,2.6-3.5c0.1-0.1,0.1-0.2,0.2-0.3c0.3-0.5,2.9-6.3,4.8-12.5c0-0.1,1.7-5.4,3.1-8.2l0.4-0.8
					c-9.4-3.1-12.1-13.3-12.1-13.4c-2-7.8,1.2-14.6,1.2-14.7c4.4-10.4,12-10.5,12.1-10.5l0,0c3.9-0.1,4.5,3.3,4.5,3.3
					c0.4,2.4-1.3,3.3-1.4,3.4c-2.7,1.5-4.5-0.5-4.5-0.6c-0.9-1.2-0.6-2.4-0.3-2.9c-1.1,0.4-2.6,1.3-4.2,3.2c0,0.1-4.4,5.7-4.4,12.9
					c0,0.1-0.4,13.7,13.6,17.1l0.4,0.1l-0.2,0.4c0,0-1.6,2.3-4.3,10.3c0,0.1-3.2,10.5-6.1,16.1C459.2,303.6,456.3,309.3,450.2,309.3
					z M443.9,298.6c-0.1,0-0.2,0-0.2,0c-0.8,0.1-1.4,0.4-1.8,0.9c-0.8,1-0.7,2.5-0.7,2.6c0,3.6,5,5.9,5.1,5.9
					c8.5,3.1,12.3-4.3,12.4-4.6c2.9-5.6,6.1-15.9,6.1-16c2.2-6.4,3.6-9.2,4.1-10.1c-14.1-3.8-13.7-17.5-13.7-17.6
					c0-7.4,4.5-13.2,4.5-13.2c3.5-4.3,6.4-3.7,6.6-3.7c0.5,0,0.9,0.3,1.1,0.6c0.3,0.4,0.4,1,0.4,1.3l0,0l-0.1,0.3l-0.3,0.1h-0.3
					l-0.1-0.3l0,0c0,0,0.1-1-0.7-1.2c0,0-1.1-0.3-1.6,0.4c0,0-0.7,1.1,0.2,2.3c0,0.1,1.5,1.7,3.8,0.4c0.1,0,1.4-0.8,1.1-2.8
					c0-0.1-0.5-2.9-3.9-2.8c-0.1,0-7.3,0.1-11.5,10.1c0,0.1-3.1,6.8-1.2,14.3c0,0.1,2.7,10.2,12,13.1l0.3,0.1l-0.7,1.4
					c-1.3,2.8-3,8.1-3.1,8.2c-2,6.3-4.6,12.1-4.9,12.6c0,0.1-0.1,0.2-0.1,0.3c-0.4,0.8-1.4,2.6-2.8,3.7c-0.9,0.7-3.3,2.2-6.8,1.2
					c-1.8-0.5-2.7-1.9-3-2.4c0,0,0,0,0,0c-0.7,0-1.4-0.2-1.4-0.3c-0.9-0.5-0.9-1.3-0.9-1.3c0.1-1,0.7-1.2,0.8-1.3
					c0.7-0.2,1.3,0,1.3,0.1l0.1,0l0.1,0.3l-0.1,0.1l-0.1,0.2l-0.3,0c-0.5-0.1-0.8-0.1-1,0c-0.2,0.1-0.3,0.4-0.3,0.4
					c-0.2,0.9,0.6,1,0.7,1.1c1,0.2,1.8,0.1,2.3-0.3c0.7-0.6,0.7-1.6,0.7-1.6c0-0.6-0.2-1.1-0.5-1.5
					C445.3,298.7,444.3,298.6,443.9,298.6z"/>
			</g>
		</g>
		<g>
			<g>
				<path class="st8" d="M438.3,304.8c0,0,1.8-0.2,1.8,1.4c0,0-0.1,2.3-3,1.8c0,0-2.8-0.6-1.8-3.8c0,0,0.7-2.2,3.3-1.9
					c0,0,2.6,0.1,3.7,3.6c0,0,0.9,3-0.6,5.5c-1.7,2.8-5.8,4.7-7.8,5.5c0,0-8.1,3.2-10.5,5c0,0-3.7,2.7-2.1,5.3c0,0,0.6,1,1.6,1
					c0,0,1.1,0.1,1.3-1.1c0,0,0,0,0-0.1c0,0,0,0,0,0c0,0-0.1,0.7-0.7,0.9c0,0-0.8,0.4-1.6-0.3c0,0-0.9-0.8-0.1-2.1
					c0,0,1-1.6,3.2-0.7c0,0,2,1,1.2,3.1c0,0-0.7,1.9-3.1,1.9c0,0-1.8-0.1-2.9-1.3c-1.8-1.9-1.9-5.5-0.3-7.4c0,0,1.5-2,4.5-3.2
					c1.7-0.7,5-2.1,8.4-3.5c2.4-0.9,4.6-2.1,6-3.7c0,0,1.3-1.4,1.6-3.8c0,0,0.3-1.8-0.8-2.2C439.4,305,438.9,304.7,438.3,304.8
					C438.3,304.8,438.2,304.8,438.3,304.8C438.2,304.8,438.2,304.9,438.3,304.8z"/>
			</g>
			<g>
				<path d="M423,330.3C423,330.3,423,330.3,423,330.3c-0.1,0-1.9-0.1-3.1-1.3c-1.9-2-2-5.7-0.3-7.8c0.1-0.1,1.6-2.1,4.6-3.3
					c0.6-0.2,1.3-0.5,2.1-0.9c1.8-0.7,4-1.7,6.3-2.6c1.9-0.8,4.4-1.9,5.9-3.6c0,0,1.1-1.2,1.5-3.2c-0.1,0.1-0.2,0.2-0.3,0.3
					c-0.6,0.5-1.4,0.6-2.4,0.4c-0.1,0-1.3-0.3-1.9-1.4c-0.4-0.7-0.5-1.7-0.1-2.8c0,0,0.8-2.4,3.6-2.1c0.1,0,2.8,0.2,4,3.8
					c0,0.1,0.9,3.1-0.6,5.8c-1.2,2.1-3.9,4-8,5.7c-0.1,0-8.1,3.2-10.4,5c0,0-2.5,1.9-2.3,3.9c0.1-0.2,0.1-0.4,0.2-0.6
					c0,0,1.1-1.8,3.6-0.8c0.8,0.4,2,1.6,1.3,3.4C426.3,328.3,425.5,330.3,423,330.3z M438.5,304.5c0.5,0,1,0.2,1,0.2
					c1.3,0.5,0.9,2.4,0.9,2.5c-0.4,2.5-1.6,3.9-1.7,4c-1.6,1.9-4.1,3-6.1,3.8c-2.3,0.9-4.5,1.8-6.3,2.6c-0.8,0.3-1.5,0.6-2.1,0.9
					c-2.9,1.2-4.3,3.1-4.3,3.1c-1.5,1.8-1.4,5.3,0.3,7c1,1.1,2.7,1.2,2.7,1.2c0,0,0,0,0,0c2.1,0,2.8-1.7,2.8-1.7
					c0.7-1.8-0.9-2.7-1-2.7c-2-0.8-2.8,0.5-2.8,0.5c-0.6,1.1,0.1,1.7,0.1,1.8c0.6,0.5,1.2,0.3,1.3,0.2c0.4-0.2,0.5-0.7,0.5-0.7
					l0-0.3l0.4,0l0.2,0.3l0,0.2c-0.2,1-1.1,1.3-1.6,1.3c0,0,0,0,0,0c-1.1,0-1.8-1.1-1.8-1.1c-1.8-2.8,2-5.6,2.1-5.7
					c2.4-1.8,10.2-4.9,10.6-5c4-1.6,6.6-3.4,7.7-5.4c1.4-2.4,0.6-5.3,0.6-5.3c-1.1-3.3-3.4-3.4-3.4-3.4c-2.4-0.3-3,1.6-3,1.7
					c-0.3,0.9-0.3,1.7,0.1,2.3c0.5,0.9,1.5,1.1,1.5,1.1c0.8,0.2,1.5,0,2-0.3c0.6-0.5,0.6-1.2,0.6-1.2c0-0.3-0.1-0.6-0.3-0.8
					c-0.4-0.4-1.1-0.3-1.2-0.3l-0.2,0l-0.1-0.2l-0.1-0.2l0.1-0.1l0-0.1l0.2,0C438.3,304.5,438.4,304.5,438.5,304.5z"/>
			</g>
		</g>
		<g>
			<g>
				<path d="M442.2,309.3c-0.1-0.8-0.8-2.3-0.8-2.3c-1.1-2.1-2.9-1.8-2.9-1.8l-0.1-0.6c0.1,0,2.2-0.4,3.5,2.2c0,0.1,0.8,1.6,0.9,2.5
					L442.2,309.3z"/>
			</g>
		</g>
		<g>
			<g>
				<path d="M445.3,308.1c-0.1,0-0.1-0.1-0.2-0.1c-0.7-0.5-2.3-1.4-3.2-3.9c-0.4-1.1-0.4-2,0-2.7c0.4-0.7,1.2-0.9,1.2-0.9l0.1,0.6
					l-0.1-0.3l0.1,0.3c0,0-0.5,0.1-0.8,0.6c-0.3,0.5-0.3,1.2,0.1,2.2c0.8,2.3,2.3,3.2,2.9,3.6c0.1,0.1,0.2,0.1,0.2,0.2L445.3,308.1z
					"/>
			</g>
		</g>
		<g>
			<g>
				<path class="st8" d="M404.3,223.8c0,0,0.1,0.8,0.9,0.9c0,0,0.8,0.3,1.3-0.8c0,0,0.1-0.2,0.1-0.3c0.1-0.5,0.2-1.9-1.3-3
					c0,0-2.5-2-7.2,0.4c0,0-3.7,1.8-6.3,3.3c0,0-6.6,3.6-7.4,3.8c0,0-2.9,1.5-7.4,1.7c0,0-6.1,0.4-8.7-3.8c0,0-2-3.3,0-5.3
					c0,0,0.8-0.9,2.1-0.8c0.6,0.1,1.2,0.3,1.7,1c0,0,1,1.4-0.2,2.4c0,0-1.4,0.9-1.9-1c0,0,0-0.1-0.1,0c0,0.1-0.4,1.5,0.4,2.7
					c0,0,3.7,5.6,13.8-0.2l13.4-7.5c0,0,6.7-3.4,10.7,1.9c0,0,3.2,4.5-0.9,7.4c0,0-3.1,1.9-5.1-1.1c0,0-1.6-2.9,0.9-4.2
					c0,0,2.2-1,3.1,1.2c0.9,2.2-1.7,2.8-2,1.2C404.4,223.8,404.4,223.4,404.3,223.8z"/>
			</g>
			<g>
				<path d="M376.5,230.1c-1.6,0-6.2-0.3-8.4-4c-0.1-0.1-2.1-3.5,0-5.7c0,0,0.9-1,2.4-0.9c0.7,0.1,1.4,0.5,1.9,1.1
					c0.4,0.6,0.8,1.9-0.2,2.8c-0.1,0.1-0.8,0.5-1.4,0.2c-0.2-0.1-0.4-0.2-0.6-0.4c0,0.5,0.1,1.1,0.5,1.6c0.1,0.2,3.7,5.3,13.4-0.3
					l13.4-7.5c0.1,0,7-3.5,11.1,2c0.1,0.1,1.6,2.2,1.2,4.6c-0.2,1.3-1,2.4-2.2,3.2c-0.1,0-3.4,2-5.5-1.2c0-0.1-0.9-1.6-0.4-3
					c0.2-0.7,0.7-1.3,1.5-1.6c0.1,0,1.1-0.5,2.2-0.1c0,0,0.1,0,0.1,0.1c-0.1-0.1-0.2-0.2-0.3-0.3c-0.1-0.1-2.4-1.9-6.8,0.5
					c0,0-3.7,1.8-6.3,3.3c-0.3,0.2-6.7,3.6-7.5,3.9c-0.1,0-3,1.5-7.5,1.7C377,230.1,376.8,230.1,376.5,230.1z M370.1,220.1
					c-1,0-1.5,0.7-1.6,0.7c-1.8,1.9,0,5,0,5c2.5,4.1,8.4,3.7,8.4,3.7c4.4-0.2,7.3-1.6,7.3-1.6c0.7-0.2,5.6-2.8,7.4-3.8
					c2.5-1.5,6.3-3.3,6.3-3.3c4.8-2.5,7.4-0.5,7.5-0.4c1.6,1.2,1.5,2.8,1.4,3.3c0,0,0,0,0,0c0,0.4-0.2,0.7-0.4,0.9
					c-0.2,0.2-0.4,0.3-0.7,0.4c-0.2,0.1-0.5,0.1-0.6,0c0,0,0,0-0.1,0c-0.7-0.1-1-0.8-1.1-1.1l0,0l0,0c0.1-0.3,0.2-0.4,0.4-0.4
					c0.3,0,0.3,0.5,0.3,0.5c0,0.3,0.2,0.5,0.5,0.6c0.2,0,0.3,0,0.5,0c0.2-0.1,0.4-0.2,0.5-0.6c0,0,0-0.2,0-0.3c0,0,0,0,0,0
					c0-0.2,0-0.5-0.2-0.8c-0.2-0.6-0.6-0.9-1-1.1c-0.8-0.3-1.7,0.1-1.7,0.1c-0.6,0.3-1,0.7-1.2,1.3c-0.4,1.2,0.4,2.5,0.4,2.5
					c1.8,2.7,4.5,1.1,4.6,1c1.1-0.8,1.7-1.7,1.9-2.8c0.4-2.1-1.1-4.1-1.1-4.1c-3.8-5.1-10.3-1.9-10.3-1.9l-13.4,7.5
					c-10.3,5.9-14.2,0.2-14.2,0.1c-0.9-1.4-0.5-3-0.4-3c0.1-0.3,0.3-0.3,0.3-0.3l0.2,0l0.1,0.3c0.1,0.5,0.3,0.8,0.6,0.9
					c0.4,0.2,0.9-0.1,0.9-0.1c0.9-0.8,0.1-1.9,0.1-2c-0.4-0.5-0.9-0.8-1.5-0.9C370.3,220.1,370.2,220.1,370.1,220.1z M404.6,223.8
					C404.6,223.8,404.6,223.8,404.6,223.8C404.6,223.8,404.6,223.8,404.6,223.8L404.6,223.8z"/>
			</g>
		</g>
		<g>
			<g>
				<path class="st8" d="M371.5,274.8c5.9-3.4,7.2-10.8,7.2-10.8c1.4-7.4-1.5-13.3-1.5-13.3c-3.8-8.1-10.4-9.6-10.4-9.6
					s6.4,4.5,8.2,10.4c0,0,1.4,5.1,0.6,10.1c-0.8,5-0.5,3.7-1.7,7.6L371.5,274.8z"/>
			</g>
			<g>
				<path d="M371.7,275l-0.4-0.4l2.5-5.6l0.4-1.2c0.7-2,0.7-2,1.1-4.6l0.3-1.7c0.8-4.9-0.6-9.9-0.6-9.9c-1.7-5.8-8-10.2-8.1-10.3
					l0.2-0.5c0.1,0,6.7,1.6,10.6,9.7c0,0.1,2.9,6,1.5,13.5C379,264.1,377.6,271.6,371.7,275z M368.6,242.1c2,1.7,5.5,5.2,6.8,9.4
					c0,0.1,1.4,5.2,0.6,10.2l-0.3,1.7c-0.4,2.6-0.4,2.6-1.1,4.7l-0.4,1.2l-2.1,4.7c5-3.4,6.2-10,6.3-10.1c1.4-7.2-1.4-13-1.4-13.1
					C374.5,245.5,370.8,243.1,368.6,242.1z"/>
			</g>
		</g>
		<g>
			<g>
				<path class="st10" d="M405.5,223.6"/>
			</g>
		</g>
		<g>
			<g>
				<path d="M406.9,223.3l-0.6,0c0.1-1.6-0.4-2.9-1.3-3.8c-1.5-1.5-3.7-1.4-3.8-1.4l0-0.6c0.1,0,2.5-0.1,4.2,1.5
					C406.5,220.1,407,221.5,406.9,223.3z"/>
			</g>
		</g>
		<g>
			<g>
				<path class="st8" d="M365,278.6c9.6-2.9,12.2-13.3,12.2-13.3c2-7.7-1.2-14.5-1.2-14.5c-4.4-10.3-11.8-10.3-11.8-10.3
					c-3.7-0.1-4.2,3.1-4.2,3.1c-0.4,2.3,1.2,3.1,1.2,3.1c2.5,1.4,4.2-0.5,4.2-0.5c1.1-1.4,0.2-2.6,0.2-2.6c-0.7-0.9-1.9-0.5-1.9-0.5
					c-1,0.3-0.9,1.5-0.9,1.5c0,0,0,0,0,0c0,0,0,0,0,0s-0.2-1.5,1.3-1.7c0,0,2.9-0.6,6.3,3.6c0,0,4.5,5.7,4.5,13.1
					c0,0,0.6,13.8-13.9,17.4c0,0,1.6,2.2,4.3,10.4c0,0,3.1,10.4,6.1,16.1c0,0,4,8,12.8,4.8c0,0,5.3-2.3,5.3-6.1c0,0,0.4-3.5-2.8-3.8
					c0,0-3.1-0.2-3.1,2.4c0,0-0.1,2.9,3.3,2.2c0,0,1.2-0.3,1-1.4c0,0-0.2-1-1.6-0.6c0,0,0,0,0,0c0,0,0,0,0,0c0,0,0.6-0.2,1.1,0
					c0,0,0.5,0.2,0.6,1c0,0,0,0.7-0.7,1c0,0-0.8,0.3-1.5,0.2c0,0-0.9,1.8-2.9,2.4c-2.8,0.9-5.1,0-6.6-1.1c-1.5-1.2-2.5-3.4-2.8-3.9
					c-0.3-0.5-2.9-6.3-4.8-12.6c0,0-1.7-5.4-3.1-8.2L365,278.6z"/>
			</g>
			<g>
				<path d="M380.1,309.3c-6.1,0-9-5.6-9-5.7c-3-5.6-6.1-16-6.1-16.1c-2.7-7.9-4.3-10.2-4.3-10.3l-0.2-0.4l0.4-0.1
					c14-3.5,13.6-17,13.6-17.1c0-7.2-4.3-12.8-4.4-12.9c-1.6-2-3.1-2.9-4.2-3.2c0.3,0.5,0.6,1.7-0.3,2.9c0,0-1.8,2.1-4.5,0.6
					c-0.1,0-1.8-0.9-1.4-3.4c0,0,0.5-3.5,4.5-3.3c0,0,0,0,0,0c0.1,0,7.7,0.1,12.1,10.5c0,0.1,3.2,6.9,1.2,14.7
					c0,0.1-2.7,10.3-12.1,13.4l0.4,0.8c1.4,2.8,3.1,8.2,3.1,8.2c2,6.3,4.5,12,4.8,12.5c0,0.1,0.1,0.2,0.2,0.3
					c0.4,0.7,1.3,2.5,2.6,3.5c0.8,0.6,3,2,6.3,1c1.4-0.4,2.2-1.4,2.5-2c-0.4-0.1-0.8-0.3-1.1-0.5c-0.9-0.8-0.9-2-0.9-2
					c0-0.8,0.2-1.4,0.7-1.9c1-0.9,2.6-0.8,2.6-0.8c1,0.1,1.7,0.4,2.2,1.1c1,1.2,0.8,2.9,0.8,3c0,3.9-5.2,6.3-5.4,6.4
					C382.8,309,381.4,309.3,380.1,309.3z M361.4,277.2c0.5,0.9,2,3.6,4.1,10.1c0,0.1,3.2,10.5,6.1,16c0.2,0.3,4,7.8,12.4,4.6
					c0,0,5.1-2.3,5.1-5.9c0,0,0.1-1.6-0.7-2.6c-0.4-0.5-1-0.8-1.8-0.9c0,0-1.4-0.1-2.2,0.7c-0.4,0.3-0.6,0.8-0.5,1.5
					c0,0,0,1,0.7,1.6c0.5,0.4,1.3,0.5,2.3,0.3c0.1,0,0.9-0.2,0.7-1.1c0,0-0.1-0.2-0.3-0.4c-0.2-0.1-0.5-0.1-1,0l-0.3,0.1l-0.2-0.4
					l0.1-0.3l0.2-0.1l0,0c0,0,0.6-0.3,1.3,0c0,0,0.7,0.2,0.8,1.2c0,0,0,0.8-0.8,1.3c-0.1,0-0.8,0.3-1.5,0.3c-0.3,0.5-1.2,1.9-3,2.4
					c-3.5,1.1-5.9-0.5-6.8-1.2c-1.4-1.1-2.4-2.9-2.8-3.7c-0.1-0.1-0.1-0.2-0.1-0.3c-0.3-0.5-2.9-6.3-4.9-12.6c0-0.1-1.7-5.4-3.1-8.2
					l-0.7-1.4l0.3-0.1c9.3-2.9,12-13,12-13.1c1.9-7.6-1.1-14.2-1.2-14.3c-4.3-10-11.5-10.1-11.5-10.1c-0.1,0-0.1,0-0.2,0
					c-3.3,0-3.7,2.7-3.7,2.8c-0.3,2,1,2.7,1.1,2.8c2.3,1.3,3.7-0.4,3.8-0.4c0.9-1.2,0.2-2.2,0.2-2.3c-0.5-0.7-1.6-0.4-1.6-0.4
					c-0.8,0.2-0.7,1.2-0.7,1.2l0,0l0,0.3l-0.3,0l-0.2-0.1l-0.1-0.3l0,0c0-0.3,0-0.8,0.4-1.3c0.3-0.3,0.7-0.5,1.2-0.6
					c0.1,0,3.1-0.6,6.5,3.7c0,0.1,4.5,5.9,4.5,13.3C375.1,259.7,375.5,273.5,361.4,277.2z"/>
			</g>
		</g>
		<g>
			<g>
				<path class="st8" d="M392.1,304.8c0,0-1.8-0.2-1.8,1.4c0,0,0.1,2.3,3,1.8c0,0,2.8-0.6,1.8-3.8c0,0-0.7-2.2-3.3-1.9
					c0,0-2.6,0.1-3.7,3.6c0,0-0.9,3,0.6,5.5c1.7,2.8,5.8,4.7,7.8,5.5c0,0,8.1,3.2,10.5,5c0,0,3.7,2.7,2.1,5.3c0,0-0.6,1-1.6,1
					c0,0-1.1,0.1-1.3-1.1c0,0,0,0,0-0.1c0,0,0,0,0,0c0,0,0.1,0.7,0.7,0.9c0,0,0.8,0.4,1.6-0.3c0,0,0.9-0.8,0.1-2.1
					c0,0-1-1.6-3.2-0.7c0,0-2,1-1.2,3.1c0,0,0.7,1.9,3.1,1.9c0,0,1.8-0.1,2.9-1.3c1.8-1.9,1.9-5.5,0.3-7.4c0,0-1.5-2-4.5-3.2
					c-1.7-0.7-5-2.1-8.4-3.5c-2.4-0.9-4.6-2.1-6-3.7c0,0-1.3-1.4-1.6-3.8c0,0-0.3-1.8,0.8-2.2C390.9,305,391.5,304.7,392.1,304.8
					C392.1,304.8,392.1,304.8,392.1,304.8C392.1,304.8,392.1,304.9,392.1,304.8z"/>
			</g>
			<g>
				<path d="M407.4,330.3c-2.5,0-3.4-2.1-3.4-2.1c-0.7-1.8,0.5-3.1,1.3-3.4c2.5-1,3.6,0.7,3.6,0.8c0.1,0.2,0.2,0.4,0.2,0.6
					c0.2-2-2.3-3.8-2.3-3.9c-2.4-1.8-10.3-4.9-10.4-5c-4.1-1.7-6.8-3.6-8-5.7c-1.5-2.6-0.7-5.6-0.6-5.7c1.2-3.7,3.9-3.8,4-3.8
					c2.8-0.3,3.6,2.1,3.6,2.1c0.3,1.1,0.3,2-0.1,2.8c-0.6,1.1-1.8,1.4-1.9,1.4c-1,0.2-1.9,0-2.5-0.4c-0.1-0.1-0.2-0.2-0.3-0.3
					c0.4,2,1.5,3.2,1.5,3.2c1.5,1.8,3.9,2.9,5.9,3.7c2.3,0.9,4.5,1.8,6.3,2.6c0.8,0.3,1.5,0.6,2.1,0.9c3,1.2,4.5,3.2,4.6,3.3
					c1.7,2,1.5,5.8-0.3,7.8C409.3,330.3,407.5,330.3,407.4,330.3C407.4,330.3,407.4,330.3,407.4,330.3z M406.8,325.1
					c-0.3,0-0.7,0.1-1.2,0.3c-0.1,0-1.7,0.9-1,2.7c0,0.1,0.7,1.7,2.8,1.7c0,0,1.7-0.1,2.7-1.2c1.7-1.7,1.8-5.2,0.3-7
					c0,0-1.5-2-4.3-3.1c-0.6-0.2-1.3-0.5-2.1-0.9c-1.8-0.7-4-1.7-6.3-2.6c-2-0.8-4.5-1.9-6.1-3.8c0-0.1-1.3-1.5-1.7-4
					c0-0.1-0.4-2.1,0.9-2.5c0,0,0.6-0.3,1.3-0.2l0.2,0l0.2,0.3l-0.2,0.3l-0.2,0v0c0,0-0.7-0.1-1.2,0.3c-0.2,0.2-0.3,0.4-0.3,0.8l0,0
					c0,0,0.1,0.8,0.6,1.2c0.5,0.4,1.1,0.5,2,0.3c0,0,1-0.2,1.5-1.1c0.3-0.6,0.4-1.4,0.1-2.3c0-0.1-0.6-2-3-1.7
					c-0.1,0-2.4,0.2-3.5,3.4c0,0-0.8,2.9,0.6,5.3c1.1,2,3.7,3.8,7.7,5.4c0.3,0.1,8.1,3.2,10.5,5c0.2,0.1,3.9,2.9,2.1,5.7
					c0,0-0.7,1.1-1.8,1.1c-0.4,0-1.4-0.2-1.6-1.3l0-0.1l0.2-0.3h0.4l0.1,0.3c0,0,0.1,0.5,0.5,0.7c0,0,0.6,0.3,1.3-0.3
					c0,0,0.7-0.7,0.1-1.8C408.4,325.8,407.9,325.1,406.8,325.1z"/>
			</g>
		</g>
		<g>
			<g>
				<path d="M388.2,309.3l-0.6-0.1c0.1-0.9,0.8-2.4,0.9-2.5c1.3-2.5,3.5-2.2,3.5-2.2l-0.1,0.6c-0.1,0-1.8-0.3-2.9,1.8
					C389,307,388.3,308.4,388.2,309.3z"/>
			</g>
		</g>
		<g>
			<g>
				<path d="M385.1,308.1l-0.3-0.5c0.1,0,0.1-0.1,0.2-0.2c0.7-0.4,2.1-1.3,2.9-3.6c0.3-0.9,0.4-1.7,0.1-2.2
					c-0.3-0.5-0.8-0.6-0.8-0.6l0.1-0.6c0,0,0.8,0.1,1.2,0.9c0.4,0.7,0.4,1.6,0,2.7c-0.9,2.4-2.4,3.4-3.2,3.9
					C385.2,308,385.1,308,385.1,308.1z"/>
			</g>
		</g>
		<g>
			<g>
				<path d="M419.9,223.6c-4.7-3.2-9.3-0.3-9.4-0.3l-0.3-0.5c0,0,5-3.1,10,0.3L419.9,223.6z"/>
			</g>
		</g>
		<g>
			<g>
				<path d="M383.3,252.4l-0.4-0.1c0,0,0.6-2.7-2.4-7.2c0-0.1-2-4.4-3.1-7.1l0.4-0.2c1,2.7,3,7,3.1,7
					C383.9,249.6,383.3,252.3,383.3,252.4z"/>
			</g>
		</g>
		<g>
			<g>
				<path d="M389.2,247.6c-0.5-1.1-2.6-6.3-2.6-6.4c-0.6-1.9-2.3-6.1-2.3-6.1l0.4-0.2c0,0,1.7,4.2,2.3,6.1c0,0,2.1,5.3,2.6,6.3
					L389.2,247.6z"/>
			</g>
		</g>
		<g>
			<g>
				<path d="M387.2,260.6l-0.4,0c0.2-3.1-1.5-5-1.5-5.1l0.3-0.3C385.6,255.2,387.4,257.2,387.2,260.6z"/>
			</g>
		</g>
		<g>
			<g>
				<path d="M383.9,265.5c-3.1-2-2.9-5.8-2.9-6c0.1-5-1.7-6-1.7-6l0.2-0.4c0.1,0,2.1,1.1,2,6.5c0,0-0.2,3.8,2.7,5.6L383.9,265.5z"/>
			</g>
		</g>
		<g>
			<g>
				<path d="M391.6,277.2c-0.6-2.8-3.5-3.1-3.6-3.1c-2.3-0.4-2.5-4.1-2.5-4.3c-0.1-0.8-0.4-1.4-1-1.9c-1.8-1.5-5.3-1.1-5.4-1.1
					l0-0.4c0.2,0,3.8-0.4,5.7,1.2c0.7,0.6,1.1,1.3,1.1,2.2c0,0,0.2,3.5,2.1,3.9c0,0,3.3,0.3,4,3.4L391.6,277.2z"/>
			</g>
		</g>
		<g>
			<g>
				<path d="M383.1,273.5c-1.1-0.7-2.2-2.3-2.2-2.4l0.4-0.2c0,0,1.1,1.6,2.1,2.3L383.1,273.5z"/>
			</g>
		</g>
		<g>
			<g>
				<path d="M390.8,270.7c-0.3-1.3-1.8-3.7-1.9-3.7l0.4-0.2c0.1,0.1,1.6,2.5,1.9,3.9L390.8,270.7z"/>
			</g>
		</g>
		<g>
			<g>
				<path d="M398.7,241.1c-1.4-0.9-2.9-2.9-2.9-3l0.4-0.3c0,0,1.5,2,2.8,2.9L398.7,241.1z"/>
			</g>
		</g>
		<g>
			<g>
				<path d="M405.1,266.3c-1.3-2.5-0.9-7-0.9-7.2c0.5-7.5-2.4-9.1-2.4-9.1l0.2-0.4c0.1,0.1,3.2,1.7,2.7,9.6c0,0-0.4,4.6,0.9,7
					L405.1,266.3z"/>
			</g>
		</g>
		<g>
			<g>
				<path class="st7" d="M387.2,244.4l0.2,0.7c0,0,5.6,0.2,8.6-3.6l-0.3-0.7C395.7,240.9,390.8,240.6,387.2,244.4z"/>
			</g>
			<g>
				<path d="M387.6,245.4c-0.1,0-0.2,0-0.2,0l-0.2,0l-0.3-1l0.1-0.1c3.6-3.8,8.6-3.6,8.6-3.6l0.1,0l0.4,1l-0.1,0.1
					C393.4,245.2,388.8,245.4,387.6,245.4z M387.5,244.5l0.1,0.5c0.9,0,5.5-0.2,8.1-3.4l-0.2-0.5c0,0,0,0,0,0
					C394.7,241.1,390.6,241.3,387.5,244.5z"/>
			</g>
		</g>
		<g>
			<g>
				<path d="M407.3,274.5l-0.1-0.4c0.2-0.1,19.3-5.8,26.6-9.1l0.2,0.4C426.6,268.7,407.5,274.4,407.3,274.5z"/>
			</g>
		</g>
		<g>
			<g>
				<polygon class="st7" points="405,238.2 414.5,234.5 414.7,235.2 405.2,238.8 				"/>
			</g>
			<g>
				<path d="M405.1,239l-0.3-0.9l9.8-3.7l0.3,0.9L405.1,239z M405.1,238.2l0.1,0.4l9.3-3.5l-0.1-0.4L405.1,238.2z"/>
			</g>
		</g>
		<g>
			<g>
				<rect x="408.9" y="238.2" transform="matrix(0.9798 -0.1999 0.1999 0.9798 -42.5018 86.8973)" width="0.4" height="31.6"/>
			</g>
		</g>
		<g>
			<g>
				<rect x="410.5" y="237.6" transform="matrix(0.9735 -0.2285 0.2285 0.9735 -47.0508 100.5462)" width="0.4" height="31.6"/>
			</g>
		</g>
		<g>
			<g>
				<rect x="412.1" y="237.1" transform="matrix(0.9682 -0.2504 0.2504 0.9682 -50.1829 111.2661)" width="0.4" height="31.6"/>
			</g>
		</g>
		<g>
			<g>
				<rect x="416.6" y="235.2" transform="matrix(0.9052 -0.4251 0.4251 0.9052 -65.8456 200.6896)" width="0.4" height="25.4"/>
			</g>
		</g>
		<g>
			<g>
				<rect x="418.4" y="234.5" transform="matrix(0.8931 -0.4499 0.4499 0.8931 -66.4993 214.7579)" width="0.4" height="25.6"/>
			</g>
		</g>
		<g>
			<g>
				<polygon points="426.1,258.2 413.7,235.6 414.1,235.4 426.5,258 				"/>
			</g>
		</g>
		<g>
			<g>
				<rect x="411.7" y="268.7" transform="matrix(0.9496 -0.3134 0.3134 0.9496 -63.3934 143.3958)" width="5.1" height="0.4"/>
			</g>
		</g>
		<g>
			<g>
				<path d="M408.2,266.8l-0.1-0.4c0.1,0,14.4-4.2,25.1-8.5l0.2,0.4C422.7,262.6,408.4,266.8,408.2,266.8z"/>
			</g>
		</g>
		<g>
			<g>
				<path d="M408,268.4l-0.1-0.4c0.2,0,18.2-4.8,25.3-8.3l0.2,0.4C426.3,263.6,408.2,268.3,408,268.4z"/>
			</g>
		</g>
		<g>
			<g>
				<polygon points="414.3,286.1 413.3,283 413.7,282.9 414.6,285.6 416.8,284.9 416,282.2 416.4,282.1 417.3,285.1 				"/>
			</g>
		</g>
		<g>
			<g>
				<polygon points="421.7,284 420.6,280.9 421.1,280.8 421.9,283.5 424.1,282.8 423.3,280.1 423.7,280 424.7,283.1 				"/>
			</g>
		</g>
		<g>
			<g>
				<polygon points="408.3,263.7 408.1,259.6 432.2,252.3 433.6,255.8 433.2,255.9 432,252.8 408.5,259.9 408.8,263.7 				"/>
			</g>
		</g>
		<g>
			<g>
				<rect x="418.8" y="256.6" transform="matrix(0.9369 -0.3496 0.3496 0.9369 -63.9094 162.8175)" width="0.4" height="3.7"/>
			</g>
		</g>
		<g>
			<g>
				<rect x="427.2" y="254" transform="matrix(0.9089 -0.4171 0.4171 0.9089 -67.7458 201.6004)" width="0.4" height="3.6"/>
			</g>
		</g>
		<g>
			<g>
				<polygon points="429.9,256.8 428.5,253.7 428.9,253.5 430.3,256.6 				"/>
			</g>
		</g>
		<g>
			<g>
				<rect x="431.1" y="252.8" transform="matrix(0.9097 -0.4152 0.4152 0.9097 -66.7942 202.0818)" width="0.4" height="3.6"/>
			</g>
		</g>
		<g>
			<g>
				<polygon points="435.6,254.1 434.6,251.4 432.2,252.7 432,252.4 434.8,250.8 436,253.9 				"/>
			</g>
		</g>
		<g>
			<g>
				<rect x="433.8" y="251.7" transform="matrix(0.9143 -0.4049 0.4049 0.9143 -65.4026 197.4597)" width="0.4" height="3.3"/>
			</g>
		</g>
		<g>
			<g>
				<path class="st2" d="M374.2,297.3c0,0-4.6-4.8-0.3-9.5c-1.2-0.7-4.8-3-4.1-6.6l0.6,0.1c-0.7,3.7,4,6.1,4.1,6.1l0.4,0.2l-0.3,0.3
					c-4.4,4.3-0.2,8.7,0,8.9L374.2,297.3z"/>
			</g>
		</g>
		<g>
			<g>
				<path class="st2" d="M381.5,303.6c-1.4,0-2.7-0.4-3.1-0.7c-2.1-1.3-2.6-3.7-2-5.3c0.7-1.9,2.6-5.5,2.7-5.7l0.8-1.5l-0.3,1.7
					c-0.7,4.7,0.2,6.7,1,7.6c0.9,0.9,2,0.8,2,0.8l0.1,0.6c-0.1,0-1.4,0.2-2.5-1c-1.2-1.2-1.7-3.4-1.4-6.5c-0.6,1.2-1.5,3-1.9,4.2
					c-0.5,1.4-0.1,3.5,1.7,4.6c0.5,0.3,2.6,0.9,4.2,0.4c0.9-0.3,1.5-0.8,1.9-1.5l0.5,0.3c-0.4,0.9-1.2,1.5-2.2,1.8
					C382.6,303.6,382,303.6,381.5,303.6z"/>
			</g>
		</g>
		<g>
			<g>
				<path class="st2" d="M376.5,291.7c-1.5-3.5,0.6-5.4,0.6-5.5l0.4,0.4c-0.1,0.1-1.8,1.7-0.5,4.8L376.5,291.7z"/>
			</g>
		</g>
		<g>
			<g>
				<path class="st2" d="M381,292.1c-1.6-1.9-1.9-5.1-1.9-5.2l0.6,0c0,0,0.2,3.1,1.8,4.9L381,292.1z"/>
			</g>
		</g>
		<g>
			<g>
				<path class="st2" d="M383.3,292c-2.8-2.4-2.8-6.2-2.8-6.4l0.6,0c0,0,0,3.7,2.6,5.9L383.3,292z"/>
			</g>
		</g>
		<g>
			<g>
				<path class="st2" d="M385.1,291.4c-3.2-2.7-3.3-6.9-3.3-7.1l0.6,0c0,0,0.1,4.2,3.1,6.6L385.1,291.4z"/>
			</g>
		</g>
		<g>
			<g>
				<path class="st2" d="M404.4,292.9c-0.4,0-0.6,0-0.7,0c-3.1-0.3-3-3.2-2.9-3.3c0-0.9,0.4-1.6,0.9-2c-2.4,0.5-3.6,3-3.7,3.1
					l-0.5-0.2c0.1-0.1,1.6-3.5,5-3.5c0.1,0,0.2,0,0.3,0l1.2,0.1l-1.1,0.5c-0.1,0-1.5,0.7-1.4,2.1c0,0.1-0.1,2.4,2.4,2.7
					c0,0,2.2,0.3,3.2-0.9l0.4,0.4C406.7,292.7,405.3,292.9,404.4,292.9z"/>
			</g>
		</g>
		<g>
			<g>
				<path class="st2" d="M405.6,306.7c-0.3-0.2-8.5-4-7.6-9.8c0-0.1,0.4-3.6,3.8-5.2l0.3,0.5c-3.2,1.5-3.5,4.8-3.5,4.8
					c-0.8,5.3,7.2,9.1,7.2,9.2L405.6,306.7z"/>
			</g>
		</g>
		<g>
			<g>
				<path class="st2" d="M400.9,299.8c-1.7-1.8-1-4.3-1-4.4l0.6,0.2c0,0-0.7,2.3,0.8,3.8L400.9,299.8z"/>
			</g>
		</g>
		<g>
			<g>
				<path class="st2" d="M402.5,298.7c-1.8-2.1-0.8-4.8-0.7-4.9l0.6,0.2c0,0-0.9,2.5,0.6,4.3L402.5,298.7z"/>
			</g>
		</g>
		<g>
			<g>
				<path class="st2" d="M404.1,296.9c-1.5-2.1-0.3-4.4-0.3-4.5l0.5,0.3c0,0.1-1.1,2.1,0.2,3.9L404.1,296.9z"/>
			</g>
		</g>
		<g>
			<g>
				<path class="st2" d="M404.6,311.3c-3.6,0-8-3.9-8.2-4l0.4-0.4c0,0,4.5,3.9,7.9,3.9L404.6,311.3z"/>
			</g>
		</g>
		<g>
			<g>
				<path class="st2" d="M401.9,312.5c-2.7-0.5-6.8-3.8-7-4l0.4-0.5c0,0,4.2,3.4,6.7,3.9L401.9,312.5z"/>
			</g>
		</g>
		<g>
			<g>
				<path class="st2" d="M402,314.5c-3.3-0.3-8.4-4.8-8.6-5l0.4-0.4c0.1,0,5.2,4.5,8.3,4.9L402,314.5z"/>
			</g>
		</g>
		<g>
			<g>
				<path class="st2" d="M413.4,324.3c-1.1-0.8-1.7-1.8-1.6-2.8c0.1-2,2.7-3.4,2.8-3.4l0.3,0.5c0,0-2.4,1.3-2.5,3
					c-0.1,0.8,0.4,1.5,1.4,2.2L413.4,324.3z"/>
			</g>
		</g>
		<g>
			<g>
				<path class="st2" d="M411.6,315.6l-0.3-0.5c0.1,0,5.9-3.1,8.4-4.2l0.2,0.5C417.5,312.5,411.7,315.6,411.6,315.6z"/>
			</g>
		</g>
		<g>
			<g>
				<path class="st2" d="M413.8,317.2l-0.3-0.5c0.3-0.2,8.5-5.2,10.9-6.3l0.2,0.5C422.2,312,413.8,317.1,413.8,317.2z"/>
			</g>
		</g>
		<g>
			<g>
				<path class="st2" d="M418.1,317.5l-0.3-0.5c0.1,0,7.2-4.8,11.1-6.9l0.3,0.5C425.3,312.7,418.2,317.4,418.1,317.5z"/>
			</g>
		</g>
		<g>
			<g>
				<path class="st2" d="M422.9,317.3l-0.4-0.5c0,0,5-3.9,9.8-6.7l0.3,0.5C427.8,313.4,422.9,317.3,422.9,317.3z"/>
			</g>
		</g>
		<g>
			<g>
				<path class="st2" d="M422.1,306.5l1.4-1.2c0.1-0.1,3-2.7,8.8-4.8l0.2,0.6c-3.1,1.1-5.4,2.4-6.8,3.3c6.5-2.2,8.6,0.8,8.7,0.9
					l-0.5,0.3c0,0-2.4-3.3-10,0.1L422.1,306.5z"/>
			</g>
		</g>
		<g>
			<g>
				<path class="st2" d="M440.7,290.3l-0.5-0.2c0.7-1.6,0-4.4,0-4.4l0.6-0.1C440.8,285.6,441.4,288.5,440.7,290.3z"/>
			</g>
		</g>
		<g>
			<g>
				<path class="st2" d="M427.8,299.7l-0.5-0.3c0.1-0.1,1.8-2.5,6-3.8l0.3-0.1l0.1,0.2c0,0.1,1.1,2.6,4.1,2c0,0,1.9-0.4,2.9-2
					c0.7-1.1,0.8-2.4,0.3-4c0-0.2-1.1-3.9-6.4-4.2l0-0.6c5.8,0.4,6.9,4.6,7,4.7c0.5,1.8,0.4,3.3-0.4,4.5c-1.1,1.8-3.2,2.2-3.3,2.3
					c-2.9,0.6-4.2-1.4-4.6-2.1C429.4,297.4,427.8,299.7,427.8,299.7z"/>
			</g>
		</g>
		<g>
			<g>
				<path class="st2" d="M450.2,294.8l-0.1-0.6c7.1-1.3,6.7-7.8,6.7-8.1c0.1-4.4-5.4-5.4-5.4-5.5l0.1-0.6c0.1,0,6,1.1,5.9,6
					C457.4,286.2,457.8,293.4,450.2,294.8z"/>
			</g>
		</g>
		<g>
			<g>
				<path class="st2" d="M456.5,283.4l-0.5-0.2c0.1-0.1,1.7-3.6,5.3-5l0.2,0.5C458.1,280.1,456.5,283.4,456.5,283.4z"/>
			</g>
		</g>
		<g>
			<g>
				<path class="st2" d="M459.6,279.6c-1.1-0.4-2.6-2.7-2.8-3l0.5-0.3c0.4,0.7,1.7,2.5,2.5,2.8L459.6,279.6z"/>
			</g>
		</g>
		<g>
			<g>
				<path class="st2" d="M458.1,280.8c-0.5-0.3-1.9-2-2.1-2.2l0.5-0.4c0.6,0.7,1.6,1.8,1.9,2L458.1,280.8z"/>
			</g>
		</g>
		<g>
			<g>
				<path class="st2" d="M457.1,282c-0.7-0.4-1.5-1.6-1.6-1.6l0.5-0.3c0.2,0.3,0.9,1.1,1.4,1.4L457.1,282z"/>
			</g>
		</g>
		<g>
			<g>
				<path class="st2" d="M426.4,253.2l-0.5-0.3c0,0,1.3-2,4.2-1.2l-0.2,0.6C427.5,251.5,426.5,253.1,426.4,253.2z"/>
			</g>
		</g>
		<g>
			<g>
				<path class="st2" d="M441.7,266.7l-0.6-0.1c0-0.1,0.9-3.7,3.6-5c1.4-0.7,3-0.6,4.8,0.1l-0.2,0.5c-1.6-0.7-3-0.8-4.3-0.2
					C442.6,263.3,441.7,266.7,441.7,266.7z"/>
			</g>
		</g>
		<g>
			<g>
				<path class="st2" d="M447.2,261.4l-0.6-0.1c0,0,0.6-3.3-0.8-4.9l0.4-0.4C447.8,257.9,447.2,261.3,447.2,261.4z"/>
			</g>
		</g>
		<g>
			<g>
				<path class="st2" d="M443,263.8l-0.5-0.3c0.6-1-0.1-2.2-0.1-2.3l0.5-0.3C443,261.1,443.8,262.6,443,263.8z"/>
			</g>
		</g>
		<g>
			<g>
				<path class="st6" d="M455.2,336.2c0,0,6.9-3.1,4.8-8.5c0,0-0.7-1.8-2.2-1.7c0,0-2.7,0.1-2.1,3.7
					C455.6,329.7,456.4,333.2,455.2,336.2z"/>
			</g>
			<g>
				<path class="st2" d="M455.3,336.4l-0.3-0.3c1.2-2.9,0.5-6.2,0.5-6.4c-0.2-1.3,0-2.3,0.6-3c0.7-0.9,1.7-0.9,1.8-0.9
					c1.7-0.1,2.4,1.7,2.4,1.8C462.3,333.1,455.3,336.4,455.3,336.4z M457.9,326.2c0,0-0.1,0-0.1,0c0,0-0.9,0.1-1.5,0.8
					c-0.5,0.6-0.7,1.5-0.5,2.7c0,0.1,0.7,3.2-0.3,6.1c1.5-0.8,5.9-3.7,4.2-8C459.7,327.8,459.2,326.2,457.9,326.2z"/>
			</g>
		</g>
		<g>
			<g>
				<path class="st3" d="M457.7,333c0,0,1.5-1.5,1.3-4.1c0,0-0.1-0.6,0.2-0.6c0,0,0.3-0.1,0.3,0.5c0,0,0.4,2.7-1.4,4.3
					c0,0-0.1,0.2-0.3,0.1C457.8,333.3,457.5,333.2,457.7,333z"/>
			</g>
		</g>
		<g>
			<g>
				<path class="st6" d="M465,331.4c0,0,4.9-3,2.2-8.2c0,0-0.8-1.5-2.2-1.2c0,0-3,0.9-0.7,5.1C464.3,327.2,465.5,329.9,465,331.4z"
					/>
			</g>
			<g>
				<path class="st2" d="M465.1,331.6l-0.3-0.3c0.5-1.4-0.6-4-0.7-4.1c-0.9-1.6-1.1-2.9-0.7-4c0.4-1.1,1.5-1.5,1.5-1.5
					c1.6-0.3,2.5,1.3,2.5,1.3C470.1,328.4,465.2,331.5,465.1,331.6z M465.1,322.2c0,0-0.9,0.3-1.2,1.2c-0.4,0.9-0.1,2.1,0.7,3.6
					c0.1,0.1,1,2.2,0.8,3.8c1.1-0.9,3.7-3.6,1.7-7.6C467,323.3,466.3,322,465.1,322.2C465.1,322.2,465.1,322.2,465.1,322.2z"/>
			</g>
		</g>
		<g>
			<g>
				<path class="st3" d="M466.2,324.4c0,0-0.3-0.4-0.1-0.5c0,0,0.1-0.2,0.4,0.2c0,0,1.5,1.6,0.3,4.2c0,0-0.1,0.4-0.4,0.2
					c0,0-0.2-0.1,0-0.4C466.5,328.2,467.5,326.1,466.2,324.4z"/>
			</g>
		</g>
		<g>
			<g>
				<path class="st6" d="M450.5,334.9c0,0-5.4-1.4-4.4-7c0,0,0.5-2.4,2.8-2.1c0,0,2.8,0.7,1,4.3C449.9,330,448.8,332.6,450.5,334.9z
					"/>
			</g>
			<g>
				<path class="st2" d="M450.4,335.1c-0.1,0-5.6-1.5-4.6-7.2c0,0,0.6-2.6,3.1-2.3c0.1,0,1.1,0.3,1.5,1.3c0.4,0.9,0.2,2-0.4,3.3
					c0,0-1,2.4,0.6,4.6L450.4,335.1z M448.5,326c-1.7,0-2.2,1.9-2.2,2c-0.8,4.3,2.3,6,3.7,6.5c-1.2-2.2-0.3-4.4-0.3-4.5
					c0.6-1.2,0.7-2.2,0.4-2.9c-0.4-0.8-1.2-1-1.2-1C448.7,326,448.6,326,448.5,326z"/>
			</g>
		</g>
		<g>
			<g>
				<path class="st3" d="M448.4,328.2c0,0-0.2-0.3,0-0.4c0,0,0.2-0.1,0.4,0.2c0,0,0.6,0.9,0.1,2.1c0,0-0.5,0.9-0.2,1.7
					c0,0,0,0.3-0.2,0.3c0,0-0.2-0.1-0.2-0.3c0,0-0.3-0.9,0.2-1.7C448.5,330.2,449,328.9,448.4,328.2z"/>
			</g>
		</g>
		<g>
			<g>
				<path d="M454.4,324.3c0,0,3.1-1.7,5.6,0.3c0,0-0.3-1.1-2.2-1.6c0,0-1-2.9-4-2.7c0,0,1.2,1.4,2.8,2.6
					C456.6,322.9,454.9,323.1,454.4,324.3z"/>
			</g>
		</g>
		<g>
			<g>
				<path d="M456.6,316.2c0,0,2.1,1.5,2.9,2.6c0,0,0.8-1,2-1.7c0,0-1.3-0.2-2,0.4C459.6,317.5,458.5,316.5,456.6,316.2z"/>
			</g>
		</g>
		<g>
			<g>
				<path d="M444.3,322.9c0,0-0.3-0.9,0.3-1.8l0,0c0,0,0.3-0.5,0.2-1.1l0.6-0.1c0.2,0.9-0.2,1.5-0.3,1.5c-0.5,0.7-0.3,1.3-0.3,1.3
					L444.3,322.9z"/>
			</g>
		</g>
		<g>
			<g>
				<path d="M466.9,275.4l0-0.6c0,0,3-0.2,3.5-2.5l0.6,0.1C470.4,275.1,467,275.3,466.9,275.4z"/>
			</g>
		</g>
		<g>
			<g>
				<path d="M472.5,273c-0.1,0-0.1,0-0.2,0l0.1-0.6c0.9,0.1,1.6-0.9,1.6-0.9c1.1-1.1,2.4-1.1,2.4-1.1l0,0.6c0,0-1,0-1.9,0.9
					C474.4,271.9,473.6,273,472.5,273z"/>
			</g>
		</g>
		<g>
			<g>
				<path d="M462.1,265.5c0,0,1.7,0,2.6-0.8c0,0,1-0.7,1.6,0.4c0,0,0.9,1.5-0.8,2.2c0,0-2,1,1.2,3.1c0,0-3.9-1.4-2.3-3.3
					c0,0,1.7-1.2,1.1-1.7c0,0-0.2-0.4-0.8,0.1C463.9,266,462.6,265.9,462.1,265.5z"/>
			</g>
		</g>
		<g>
			<g>
				<path class="st6" d="M464.4,224.9c0,0,0.8-1,0.4-4.1c-0.3-3.1,2.4-3.5,3.4-2.6c0,0,1.1,0.9,0.1,2.9
					C467.8,222.2,466.9,223.7,464.4,224.9z"/>
			</g>
			<g>
				<path class="st2" d="M464.5,225.1l-0.3-0.3c0,0,0.7-1,0.4-4c-0.2-1.9,0.7-2.7,1.3-3c0.8-0.4,1.9-0.3,2.5,0.2
					c0,0,1.2,1.1,0.1,3.2C467.9,222.4,466.9,223.9,464.5,225.1z M467,217.9c-0.3,0-0.6,0.1-0.9,0.2c-0.8,0.4-1.1,1.3-1,2.5
					c0.2,1.9,0,3-0.2,3.7c1.9-1.1,2.8-2.3,3.3-3.4c0.9-1.8,0-2.6,0-2.6C467.8,218.1,467.4,217.9,467,217.9z"/>
			</g>
		</g>
		<g>
			<g>
				<path class="st3" d="M465.4,222.5c0,0,1-1.1,0.5-3.4c0,0,0-0.2,0.1-0.2c0,0,0.2-0.1,0.3,0.2c0,0,0.5,2.5-0.6,3.9
					c0,0-0.2,0.2-0.3,0C465.4,222.9,465.2,222.8,465.4,222.5z"/>
			</g>
		</g>
		<g>
			<g>
				<path class="st6" d="M463.5,223.7c0,0-0.1-1.3-2.2-3.4s-0.4-4.1,0.9-4.1c0,0,1.4,0,1.9,2.1C464.4,219.6,464.6,221.3,463.5,223.7
					z"/>
			</g>
			<g>
				<path class="st2" d="M463.7,223.8l-0.4-0.1l0,0c0,0-0.1-1.2-2.2-3.2c-1.3-1.3-1.1-2.5-0.9-3c0.3-0.8,1.2-1.4,2-1.4c0,0,0,0,0,0
					c0.1,0,1.6,0.1,2.1,2.3C464.6,219.7,464.8,221.4,463.7,223.8z M462.2,216.5c-0.6,0-1.3,0.5-1.6,1.1c-0.3,0.8,0,1.7,0.8,2.5
					c1.3,1.3,1.9,2.3,2.1,2.9c0.8-2,0.6-3.5,0.3-4.6C463.4,216.6,462.3,216.5,462.2,216.5C462.2,216.5,462.2,216.5,462.2,216.5z"/>
			</g>
		</g>
		<g>
			<g>
				<path class="st3" d="M463.2,221c0,0,0-1.5-1.9-3.1c0,0-0.2-0.2-0.1-0.3c0,0,0.1-0.2,0.3,0c0,0,2.1,1.7,2.2,3.5
					c0,0,0,0.3-0.3,0.2C463.4,221.3,463.2,221.3,463.2,221z"/>
			</g>
		</g>
		<g>
			<g>
				<path class="st6" d="M460.6,222.8c0,0-0.6-1-3.2-2c-2.7-0.9-1.9-3.3-0.8-3.8c0,0,1.2-0.5,2.4,1.1
					C459.6,219,460.5,220.3,460.6,222.8z"/>
			</g>
			<g>
				<path class="st2" d="M460.4,222.9c0,0-0.6-1-3.1-1.9c-1.7-0.6-2-1.6-2-2.2c0-0.8,0.4-1.7,1.1-2c0.1,0,1.3-0.6,2.7,1.1
					c0.8,1,1.6,2.4,1.7,4.8L460.4,222.9z M457,217.2c-0.2,0-0.4,0.1-0.4,0.1c-0.5,0.2-0.9,0.9-0.9,1.5c0,0.8,0.6,1.4,1.7,1.8
					c1.6,0.6,2.5,1.2,2.9,1.6c-0.2-1.9-0.8-3-1.6-3.9C458.1,217.3,457.4,217.2,457,217.2z"/>
			</g>
		</g>
		<g>
			<g>
				<path class="st3" d="M459.4,220.9c0,0-0.6-1.4-3.1-2c0,0-0.2-0.1-0.2-0.2c0,0,0-0.3,0.3-0.2c0,0,2.6,0.6,3.4,2.3
					c0,0,0.1,0.3-0.1,0.3C459.7,221.1,459.5,221.2,459.4,220.9z"/>
			</g>
		</g>
		<g>
			<g>
				<path class="st6" d="M462.2,223.8c0,0-1.2,0.3-4.1-1c-2.9-1.4-4.1,1-3.6,2.3c0,0,0.5,1.3,2.7,1.1
					C458.5,226,460.3,225.7,462.2,223.8z"/>
			</g>
			<g>
				<path class="st2" d="M456.8,226.4c-1.9,0-2.4-1.2-2.4-1.3c-0.3-0.8,0-1.8,0.6-2.4c0.5-0.4,1.5-1,3.3-0.2c2.7,1.3,3.9,1,4,1
					l0.2,0.4c-2,1.9-3.7,2.3-5.1,2.4C457.1,226.4,456.9,226.4,456.8,226.4z M456.5,222.6c-0.5,0-0.9,0.2-1.3,0.5
					c-0.5,0.5-0.8,1.3-0.5,1.9c0,0,0.5,1.2,2.5,1c1.3-0.1,2.7-0.5,4.4-1.9c-0.7,0-1.8-0.2-3.6-1.1
					C457.5,222.7,457,222.6,456.5,222.6z"/>
			</g>
		</g>
		<g>
			<g>
				<path class="st3" d="M455.6,224.7c0,0,1.3,0.8,3.7-0.1c0,0,0.2,0,0.3,0.1c0,0,0.1,0.2-0.1,0.3c0,0-2.5,1-4.1,0.1
					c0,0-0.2-0.2-0.1-0.3C455.2,224.8,455.3,224.6,455.6,224.7z"/>
			</g>
		</g>
		<g>
			<g>
				<path d="M459.4,217.2l-0.6-0.1c0.3-1.4-0.9-2-0.9-2l0.3-0.5C458.8,214.8,459.7,215.7,459.4,217.2z"/>
			</g>
		</g>
		<g>
			<g>
				<path d="M464.6,217.9l-0.5-0.3c0.4-0.7,0.2-2,0-2.5l0.6-0.2C464.7,215,465.3,216.8,464.6,217.9z"/>
			</g>
		</g>
		<g>
			<g>
				<path class="st6" d="M365.8,224.9c0,0-0.8-1-0.4-4.1c0.3-3.1-2.4-3.5-3.4-2.6c0,0-1.1,0.9-0.1,2.9
					C362.4,222.2,363.3,223.7,365.8,224.9z"/>
			</g>
			<g>
				<path class="st2" d="M365.7,225.1c-2.4-1.2-3.4-2.6-4.1-3.9c-1.1-2.1,0.1-3.1,0.1-3.2c0.6-0.5,1.7-0.6,2.5-0.2
					c0.6,0.3,1.5,1.1,1.3,3c-0.3,3,0.4,4,0.4,4L365.7,225.1z M363.2,217.9c-0.4,0-0.8,0.1-1.1,0.4c0,0-0.9,0.9,0,2.6
					c0.6,1.1,1.4,2.4,3.3,3.4c-0.2-0.6-0.4-1.8-0.2-3.7c0.1-1.2-0.2-2.1-1-2.5C363.8,218,363.5,217.9,363.2,217.9z"/>
			</g>
		</g>
		<g>
			<g>
				<path class="st3" d="M364.8,222.5c0,0-1-1.1-0.5-3.4c0,0,0-0.2-0.1-0.2c0,0-0.2-0.1-0.3,0.2c0,0-0.5,2.5,0.6,3.9
					c0,0,0.2,0.2,0.3,0C364.8,222.9,364.9,222.8,364.8,222.5z"/>
			</g>
		</g>
		<g>
			<g>
				<path class="st6" d="M366.7,223.7c0,0,0.1-1.3,2.2-3.4s0.4-4.1-0.9-4.1c0,0-1.4,0-1.9,2.1C365.8,219.6,365.6,221.3,366.7,223.7z
					"/>
			</g>
			<g>
				<path class="st2" d="M366.5,223.8c-1.1-2.4-0.9-4.1-0.6-5.5c0.5-2.2,2-2.3,2.1-2.3c0,0,0,0,0,0c0.8,0,1.7,0.6,2,1.4
					c0.2,0.6,0.4,1.7-0.9,3c-2.1,2-2.2,3.2-2.2,3.2L366.5,223.8z M368,216.5C368,216.5,368,216.5,368,216.5c-0.1,0-1.2,0.1-1.7,1.9
					c-0.3,1.2-0.4,2.6,0.3,4.6c0.2-0.6,0.8-1.6,2.1-2.9c0.9-0.8,1.1-1.7,0.8-2.5C369.3,216.9,368.5,216.5,368,216.5z"/>
			</g>
		</g>
		<g>
			<g>
				<path class="st3" d="M367,221c0,0,0-1.5,1.9-3.1c0,0,0.2-0.2,0.1-0.3c0,0-0.1-0.2-0.3,0c0,0-2.1,1.7-2.2,3.5c0,0,0,0.3,0.3,0.2
					C366.8,221.3,367,221.3,367,221z"/>
			</g>
		</g>
		<g>
			<g>
				<path class="st6" d="M369.6,222.8c0,0,0.6-1,3.2-2c2.7-0.9,1.9-3.3,0.8-3.8c0,0-1.2-0.5-2.4,1.1
					C370.5,219,369.7,220.3,369.6,222.8z"/>
			</g>
			<g>
				<path class="st2" d="M369.8,222.9l-0.4-0.1c0.1-2.5,0.9-3.8,1.7-4.8c1.3-1.7,2.6-1.1,2.7-1.1c0.7,0.3,1.2,1.1,1.1,2
					c0,0.6-0.3,1.6-2,2.2C370.4,221.9,369.8,222.9,369.8,222.9z M373.2,217.2c-0.4,0-1.1,0.2-1.8,1.1c-0.7,0.9-1.4,2-1.6,3.9
					c0.5-0.4,1.3-1,2.9-1.6c1.1-0.4,1.7-1,1.7-1.8c0-0.7-0.4-1.3-0.9-1.6C373.6,217.2,373.4,217.2,373.2,217.2z"/>
			</g>
		</g>
		<g>
			<g>
				<path class="st3" d="M370.8,220.9c0,0,0.6-1.4,3.1-2c0,0,0.2-0.1,0.2-0.2c0,0,0-0.3-0.3-0.2c0,0-2.6,0.6-3.4,2.3
					c0,0-0.1,0.3,0.1,0.3C370.4,221.1,370.6,221.2,370.8,220.9z"/>
			</g>
		</g>
		<g>
			<g>
				<path class="st6" d="M367.9,223.8c0,0,1.2,0.3,4.1-1c2.9-1.4,4.1,1,3.6,2.3c0,0-0.5,1.3-2.7,1.1
					C371.6,226,369.9,225.7,367.9,223.8z"/>
			</g>
			<g>
				<path class="st2" d="M373.4,226.4c-0.2,0-0.3,0-0.5,0c-1.4-0.2-3.2-0.6-5.1-2.4l0.2-0.4c0,0,1.2,0.3,4-1
					c1.8-0.9,2.8-0.3,3.3,0.2c0.7,0.6,0.9,1.6,0.6,2.4C375.8,225.2,375.3,226.4,373.4,226.4z M368.5,224.1c1.7,1.4,3.1,1.8,4.4,1.9
					c2,0.2,2.5-0.9,2.5-1c0.2-0.6,0-1.4-0.5-1.9c-0.7-0.6-1.6-0.6-2.8-0.1C370.4,223.8,369.2,224,368.5,224.1z"/>
			</g>
		</g>
		<g>
			<g>
				<path class="st3" d="M374.6,224.7c0,0-1.3,0.8-3.7-0.1c0,0-0.2,0-0.3,0.1c0,0-0.1,0.2,0.1,0.3c0,0,2.5,1,4.1,0.1
					c0,0,0.2-0.2,0.1-0.3C374.9,224.8,374.8,224.6,374.6,224.7z"/>
			</g>
		</g>
		<g>
			<g>
				<path d="M370.7,217.2c-0.3-1.5,0.7-2.4,1.3-2.7l0.3,0.5c0,0-1.2,0.6-0.9,2L370.7,217.2z"/>
			</g>
		</g>
		<g>
			<g>
				<path d="M365.6,217.9c-0.7-1.1-0.1-2.9-0.1-3l0.6,0.2c-0.1,0.5-0.4,1.8,0,2.5L365.6,217.9z"/>
			</g>
		</g>
		<g>
			<g>
				<path d="M427.8,198.8c0,0,0.9,2.6,0.5,4.9c-0.3,2.1,0.1,2.6,0.9,3.1c0.7,0.4,2.2-0.3,2.4-1.9c0,0,1.8,3.5-1.7,5.9
					c0,0-2.5,1.5-4.6-0.5c-0.7-0.7-1.1-2.7-0.7-4.6c0,0,0.5-2.5-0.4-5.1c0,0,1.4,1.5,1.1,4.6c0,0-0.7,5.5,3.3,5.2c0,0,2.8,0,2.9-3.4
					c0,0-1,1.2-2.3,0.8c-0.9-0.3-1.8-1.2-1.6-2.6C427.6,203.6,428,201,427.8,198.8z"/>
			</g>
		</g>
		<g>
			<g>
				<path d="M423.2,207.7c0,0-0.2,4.3-4.2,5.4c0,0,0.6-0.8-0.3-2.9c0,0-0.9-1.3-0.8-3.2c0,0-1.3,1,0.2,3.6c0.9,1.6,0.1,3.4-0.2,3.5
					C417.7,214.1,424.5,213.1,423.2,207.7z"/>
			</g>
		</g>
		<g>
			<g>
				<path d="M418.1,203.4c0,0-1-1.1-1-3.6c-0.1-2.5-0.5-3.1-0.9-3.4c0,0,0.5,2.1,0.4,3.5s0.1,2.1,0.3,2.7c0,0-2.1,0.3-3.5-2.8
					c-1.3-3-2.6-2.7-3.2-2.7c0,0,0.7,0.1,2.3,2.8C413.9,202.7,414.3,203.2,418.1,203.4z"/>
			</g>
		</g>
		<g>
			<g>
				<path d="M408.1,196.9c0,0,1.2,3,1.3,4.5c0,0-2.9-1-3.7-3.5c0,0-3.1,1-1.9,4.6c0,0-2.7-0.9-3.9-3.1c0,0,1.5,1.1,2.9,1.6
					c0,0-0.2-2.9,3.4-3.9c0,0,0.5,2.6,2.3,3.2C408.5,200.4,408.4,198.8,408.1,196.9z"/>
			</g>
		</g>
		<g>
			<g>
				<path d="M412.8,191.8c0,0,1,1.5,3,1.5c1,0,2-0.2,3-1.5c0,0-0.1,2.5-3,2.5C415.9,194.4,412.8,194.5,412.8,191.8z"/>
			</g>
		</g>
		<g>
			<g>
				<path d="M400.3,209.1c0,0,1.5,1.4,1.8,1.8c0,0,1.1,1,2-0.3c0,0,1.2-2.1,2.6-2.1c0,0-1,0.7-2.2,2.7c0,0-0.3,0.7-1.2,0.8
					c-0.4,0-0.9,0.2-1.7-0.6C401.7,211.5,401,210.7,400.3,209.1z"/>
			</g>
		</g>
		<g>
			<g>
				<path d="M415.9,181.7c-3,0-0.5,2.3-0.5,2.3c0.1,3.7-2.9,4.9-5,3.8c-2-1.1-0.4-3.8-0.4-3.8s-2.3,1.5-0.8,3.7
					c1.5,2.2,5.3,1.2,6.7-0.8c1.4,2,5.2,3,6.7,0.8c1.5-2.2-0.8-3.7-0.8-3.7s1.6,2.7-0.4,3.8c-2,1.1-5-0.1-5-3.8
					C416.3,184.1,418.9,181.7,415.9,181.7z"/>
			</g>
		</g>
		<g>
			<g>
				<path d="M417.7,177.7c0,0,1.1,1.8,0.8,4.6C418.5,182.3,419.5,179.5,417.7,177.7z"/>
			</g>
		</g>
		<g>
			<g>
				<path d="M408.4,182c0,0-0.2-2-2.2-2.1C406.2,179.8,407.9,181,408.4,182z"/>
			</g>
		</g>
		<g>
			<g>
				<path d="M423.3,182c0,0,0.2-2,2.2-2.1C425.5,179.8,423.9,181,423.3,182z"/>
			</g>
		</g>
		<g>
			<g>
				<path d="M405.3,185c0,0,1.5,0.5,2.5-0.7C407.8,184.3,406,184.8,405.3,185z"/>
			</g>
		</g>
		<g>
			<g>
				<path d="M400.4,172.8c0,0,1.8-0.2,3.6,2.4c0,0-1.8,0.9-2.2,1.5c0,0,0-0.9,0.9-1.6C402.6,175.2,402.3,173.8,400.4,172.8z"/>
			</g>
		</g>
		<g>
			<g>
				<path d="M430.1,172.8c0,0-1.8-0.2-3.6,2.4c0,0,1.8,0.9,2.2,1.5c0,0,0-0.9-0.9-1.6C427.9,175.2,428.3,173.8,430.1,172.8z"/>
			</g>
		</g>
		<g>
			<g>
				<path d="M416.4,174.8c0,0,1.6,0.4,3.6-0.7c0,0,2.5-1.3,4,0c0,0-1.4-0.6-4,0.7C420,174.8,417.4,176.3,416.4,174.8z"/>
			</g>
		</g>
		<g>
			<g>
				<path class="st3" d="M418.1,176.4c0,0,1.4-2.4,5.5-1.9C423.6,174.5,422.5,177.8,418.1,176.4z"/>
			</g>
		</g>
		<g>
			<g>
				<ellipse class="st7" cx="421" cy="175.7" rx="0.8" ry="1"/>
			</g>
		</g>
		<g>
			<g>
				<ellipse cx="421" cy="175.7" rx="0.5" ry="0.6"/>
			</g>
		</g>
		<g>
			<g>
				<path d="M409.2,171.3c0,0,2.6,0.2,4.2,1.2c0,0,1.7,1,3.6-0.4c0,0,2.1-1.2,3.4-2.9c0,0-3.2,2.2-4.4,2.5c0,0-1.1-0.8-1.5-2
					c0,0,0.2-0.9,1.9-2.6c0,0-2.3,0.7-2.8,2.7c0,0,0.4,1.2,1.3,2.1c0,0-0.4,0.2-1.6-0.5C413.4,171.4,410.9,170.6,409.2,171.3z"/>
			</g>
		</g>
		<g>
			<g>
				<path d="M415.9,187.1c-2.3,2,0,1.8,0,1.8S418.1,189.1,415.9,187.1z"/>
			</g>
		</g>
		<g>
			<g>
				<path d="M414.5,174.8c0,0-1.6,0.4-3.6-0.7c0,0-2.5-1.3-4,0c0,0,1.4-0.6,4,0.7C410.9,174.8,413.5,176.3,414.5,174.8z"/>
			</g>
		</g>
		<g>
			<g>
				<path class="st3" d="M412.9,176.4c0,0-1.4-2.4-5.5-1.9C407.4,174.5,408.5,177.8,412.9,176.4z"/>
			</g>
		</g>
		<g>
			<g>
				<ellipse class="st7" cx="410" cy="175.7" rx="0.8" ry="1"/>
			</g>
		</g>
		<g>
			<g>
				<ellipse cx="410" cy="175.7" rx="0.5" ry="0.6"/>
			</g>
		</g>
		<g>
			<g>
				<path d="M415.7,359.5l-0.1,0c-0.2,0-20.4-3.4-40.4-11.6c-26.6-11-40.6-25.6-40.6-42.4V154.2h162.2v151.3
					c0,16.8-14.1,31.4-40.6,42.4c-19.9,8.2-40.2,11.6-40.4,11.6L415.7,359.5z M336,155.6v149.9c0,38.5,76.2,52,79.7,52.6
					c3.4-0.6,79.7-14.1,79.7-52.6V155.6H336z"/>
			</g>
		</g>
	</g>
</g>
</svg>
