<?xml version="1.0" encoding="utf-8"?>
<!-- Generator: Adobe Illustrator 21.1.0, SVG Export Plug-In . SVG Version: 6.00 Build 0)  -->
<svg version="1.1" id="Warstwa_1" xmlns="http://www.w3.org/2000/svg" xmlns:xlink="http://www.w3.org/1999/xlink" x="0px" y="0px"
	 viewBox="0 0 512 512" style="enable-background:new 0 0 512 512;" xml:space="preserve">
<style type="text/css">
	.st0{fill:#E31937;}
	.st1{fill:#FFFFFF;}
</style>
<g>
	<path class="st0" d="M0,256c0,83.7,40.2,158.1,102.4,204.8V51.2C40.2,97.9,0,172.2,0,256z"/>
	<path class="st0" d="M512,256c0-83.7-40.2-158.1-102.5-204.8v409.6C471.8,414.1,512,339.7,512,256z"/>
	<path class="st1" d="M102.4,51.2v409.6c42.8,32.1,96,51.2,153.6,51.2s110.8-19.1,153.6-51.2V51.2C366.8,19.1,313.7,0,256,0
		S145.1,19.1,102.4,51.2z"/>
	<path class="st0" d="M256,405.3h5.3l-1.7-69.7c0-2.3,2.9-4.2,4.9-4.2c21.9,2.6,41.5,5,63.3,7.6l-5.6-19.1c-0.9-3.3,0.4-7,2.8-9
		l63.5-53.9l-13.2-6.5c-5.8-2.1-4.2-5.6-2-13.8l9.6-36.9l-36.9,8.1c-3.5,0.6-6-1.8-6.5-4.1l-4.8-17.3l-29.2,34.2
		c-4.2,5.5-12.6,5.5-9.9-7.2l12.5-69.1l-16.7,9c-4.7,2.7-9.4,3.1-12.1-1.7l-23.4-45l-23.4,45c-2.6,4.9-7.3,4.5-12.1,1.7l-16.7-9
		l12.5,69.1c2.6,12.7-5.8,12.7-9.9,7.2l-29.2-34.2l-4.8,17.3c-0.6,2.2-2.9,4.7-6.5,4.1l-36.9-8.1l9.6,36.9c2.1,8.2,3.7,11.6-2,13.8
		l-13.2,6.5l63.5,53.9c2.5,2,3.7,5.7,2.9,9l-5.6,19.1c21.8-2.6,41.5-5,63.2-7.6c2,0,4.9,1.8,4.9,4.2l-1.7,69.7L256,405.3L256,405.3z
		"/>
</g>
</svg>
