<?xml version="1.0" encoding="utf-8"?>
<!-- Generator: Adobe Illustrator 21.1.0, SVG Export Plug-In . SVG Version: 6.00 Build 0)  -->
<svg version="1.1" id="Warstwa_1" xmlns="http://www.w3.org/2000/svg" xmlns:xlink="http://www.w3.org/1999/xlink" x="0px" y="0px"
	 viewBox="0 0 512 512" style="enable-background:new 0 0 512 512;" xml:space="preserve">
<style type="text/css">
	.st0{fill:none;}
	.st1{fill:#00247D;}
	.st2{clip-path:url(#SVGID_2_);fill:#FFFFFF;}
	.st3{fill:#CF142B;}
	.st4{fill:#FCEA83;}
	.st5{fill:#DB161C;}
	.st6{fill:#FFFFFF;}
	.st7{fill:#0B50A0;}
	.st8{fill:#073163;}
	.st9{fill:#F9D050;}
	.st10{fill:#059334;}
	.st11{fill:#00493D;}
	.st12{fill:#024919;}
</style>
<path class="st0" d="M512.1,257c0-38.1-8.3-74.2-23.3-106.7h-0.1C448.2,62.2,359.4,1,256,1S63.7,62.2,23.2,150.4h0.1
	C8.3,182.9,0,218.9,0,257s8.4,74.2,23.3,106.7h0.6C64.5,451.3,153.2,512,256,512s191.5-60.7,232.2-148.3h0.6
	C503.7,331.2,512.1,295.1,512.1,257z"/>
<polygon class="st0" points="93.9,211.7 93.9,287.2 123.9,287.2 123.9,211.7 108.9,204.2 "/>
<polygon class="st0" points="172.4,202.4 308.5,202.4 308.5,172.4 172.4,172.4 142.4,187.4 "/>
<polygon class="st0" points="123.9,163.2 123.9,112.6 93.9,112.6 93.9,163.2 108.9,170.7 "/>
<path class="st1" d="M488.8,150.3C448.2,62.2,359.4,1,256,1C159.8,1,76.1,54,32.3,132.4l61.6,30.8v-50.6h30v50.6l101-50.5h33.8
	l6.6,13.3l-92.9,46.4h136.1v30H172.4l92.9,46.5l-13.4,26.8l-128-64v75.5h-30v-75.5L0,258.6c0.2,37.5,8.6,73,23.3,105.1h0.6
	C64.5,451.3,153.2,512,256,512s191.5-60.7,232.2-148.3h0.6c14.9-32.5,23.3-68.6,23.3-106.7C512.1,218.9,503.8,182.8,488.8,150.3z"/>
<path class="st1" d="M14.4,172.4h31l-26-13C17.6,163.7,15.9,168,14.4,172.4z"/>
<path class="st1" d="M5.9,202.4c-1.6,7.1-2.8,14.3-3.8,21.7l43.3-21.7H5.9z"/>
<path class="st0" d="M512.1,257c0-38.1-8.3-74.2-23.3-106.7h-0.1C448.2,62.2,359.4,1,256,1S63.7,62.2,23.2,150.4h0.1
	C8.3,182.9,0,218.9,0,257s8.4,74.2,23.3,106.7h0.6C64.5,451.3,153.2,512,256,512s191.5-60.7,232.2-148.3h0.6
	C503.7,331.2,512.1,295.1,512.1,257z"/>
<g>
	<g>
		<defs>
			<path id="SVGID_1_" d="M512.1,257c0-38.1-8.3-74.2-23.3-106.7h-0.1C448.2,62.2,359.4,1,256,1S63.7,62.2,23.2,150.4h0.1
				C8.3,182.9,0,218.9,0,257s8.4,74.2,23.3,106.7h0.6C64.5,451.3,153.2,512,256,512s191.5-60.7,232.2-148.3h0.6
				C503.7,331.2,512.1,295.1,512.1,257z"/>
		</defs>
		<clipPath id="SVGID_2_">
			<use xlink:href="#SVGID_1_"  style="overflow:visible;"/>
		</clipPath>
		<path class="st2" d="M308.5,162.5H192.2l73.1-36.5l-6.6-13.3h-33.8l-91,45.5v-45.6H84v45.7l-51.7-25.8c-3.3,5.9-6.3,11.9-9.1,18
			h0.1c-1.4,3-2.7,6-3.9,9l6.2,3.1h-66.4v49.9h66.2L2.1,224.1C0.7,234.8,0,245.8,0,257c0,0.5,0,1.1,0,1.6l84-42v70.5h49.9v-70.5
			l118,59l13.4-26.8l-72.9-36.5h116.1V162.5z"/>
	</g>
</g>
<path class="st0" d="M512.1,257c0-38.1-8.3-74.2-23.3-106.7h-0.1C448.2,62.2,359.4,1,256,1S63.7,62.2,23.2,150.4h0.1
	C8.3,182.9,0,218.9,0,257s8.4,74.2,23.3,106.7h0.6C64.5,451.3,153.2,512,256,512s191.5-60.7,232.2-148.3h0.6
	C503.7,331.2,512.1,295.1,512.1,257z"/>
<path class="st0" d="M512.1,257c0-38.1-8.3-74.2-23.3-106.7h-0.1C448.2,62.2,359.4,1,256,1S63.7,62.2,23.2,150.4h0.1
	C8.3,182.9,0,218.9,0,257s8.4,74.2,23.3,106.7h0.6C64.5,451.3,153.2,512,256,512s191.5-60.7,232.2-148.3h0.6
	C503.7,331.2,512.1,295.1,512.1,257z"/>
<path class="st0" d="M512.1,257c0-38.1-8.3-74.2-23.3-106.7h-0.1C448.2,62.2,359.4,1,256,1S63.7,62.2,23.2,150.4h0.1
	C8.3,182.9,0,218.9,0,257s8.4,74.2,23.3,106.7h0.6C64.5,451.3,153.2,512,256,512s191.5-60.7,232.2-148.3h0.6
	C503.7,331.2,512.1,295.1,512.1,257z"/>
<path class="st0" d="M512.1,257c0-38.1-8.3-74.2-23.3-106.7h-0.1C448.2,62.2,359.4,1,256,1S63.7,62.2,23.2,150.4h0.1
	C8.3,182.9,0,218.9,0,257s8.4,74.2,23.3,106.7h0.6C64.5,451.3,153.2,512,256,512s191.5-60.7,232.2-148.3h0.6
	C503.7,331.2,512.1,295.1,512.1,257z"/>
<polygon class="st1" points="108.9,187.5 108.9,187.5 108.9,187.5 108.8,187.5 "/>
<polygon class="st1" points="108.9,187.4 108.9,187.5 108.9,187.5 "/>
<path class="st1" d="M108.9,187.5L108.9,187.5L108.9,187.5z"/>
<path class="st3" d="M308.5,172.4H139l119.6-59.8h-22.4l-112.3,56.2v-56.2h-30v59.8H78.7l-53.3-26.7c-0.8,1.5-1.5,3.1-2.2,4.7h0.1
	c-0.7,1.5-1.3,2.9-2,4.4l35.2,17.6H14.4c-3.4,9.8-6.3,19.8-8.5,30H79L0.5,241.7c-0.2,3.8-0.4,7.5-0.4,11.4l93.8-46.9v81.1h30v-84.8
	h14.8l119.9,60l4.5-9l-101.9-51h147.3V172.4z"/>
<g id="g5176" transform="matrix(1.078167,0,0,1.078167,-1148.8957,40.816495)">
	<g id="_x32_1170896">
		<path inkscape:connector-curvature="0" class="st4" d="M1377.2,292.6c1.3,3.4,10.3,7.8,20.8,2.1c7.2-4,11.8-9.7,16.2-19.8
			c1.3-2.5,1.9-5.7-1.1-7.6c-2.3-1.7-6.1-3.6-7.8-5.3c-0.8-0.8-1.7-1.5-2.3-2.1c0.4,0.4,0.8,0.8,1.3,1.5c4.2,5.1-0.2,12.4-4.8,16.8
			c-3.4,3.2-9.5,10.9-18.3,3.6C1379.3,280.1,1374.9,287.1,1377.2,292.6L1377.2,292.6z"/>
		<path d="M1387.9,297.7c-2.7,0-4.8-0.6-5.9-1c-2.5-0.9-4.4-2.5-5-4c-1.8-4.2,0.3-9.4,2.4-11c0.8-0.5,1.5-0.6,2-0.1
			c7.8,6.5,13.2,1.1,16.9-2.5c0.4-0.4,0.7-0.7,1.1-1c3.8-3.7,9.2-11.2,4.8-16.4c-0.4-0.6-0.8-1-1.2-1.5l0.4-0.4
			c0.3,0.3,0.6,0.6,1,0.9c0.4,0.4,0.9,0.8,1.3,1.2c1,1,2.8,2.1,4.6,3.2c1.1,0.7,2.3,1.4,3.2,2.1c2.5,1.6,2.9,4.4,1.1,7.9
			c-4.4,10.1-9.2,15.9-16.3,19.9C1394.3,297,1390.7,297.7,1387.9,297.7z M1380.5,281.9c-0.2,0-0.5,0.1-0.8,0.3
			c-1.8,1.3-4,6.1-2.2,10.3l0,0c0.5,1.3,2.3,2.8,4.7,3.7c2.2,0.8,8.2,2.3,15.8-1.7c7-3.9,11.7-9.6,16.1-19.6
			c1.1-2.3,1.9-5.4-0.9-7.2c-0.9-0.7-2.1-1.4-3.2-2c-1.7-1-3.4-2.1-4.4-3c2.6,4.8-0.8,11.3-5.7,16c-0.3,0.3-0.7,0.7-1.1,1
			c-3.5,3.5-9.5,9.4-17.6,2.6C1380.9,281.9,1380.7,281.9,1380.5,281.9z"/>
	</g>
	<g id="_x32_1170720">
		<path inkscape:connector-curvature="0" class="st4" d="M1505.2,292.6c-1.5,3.4-10.5,7.8-20.8,2.1c-7.2-4-11.8-9.7-16.4-19.8
			c-1.1-2.5-1.7-5.7,1.3-7.6c2.3-1.7,6.1-3.6,7.8-5.3c0.8-0.8,1.5-1.5,2.3-2.1c-0.4,0.4-0.8,0.8-1.3,1.5c-4.2,5.1,0.2,12.4,4.6,16.8
			c3.4,3.2,9.7,10.9,18.5,3.6C1503.1,280.1,1507.3,287.1,1505.2,292.6L1505.2,292.6z"/>
		<path d="M1494.4,297.7c-2.8,0-6.3-0.7-10.2-2.8c-7.2-4-11.8-9.6-16.5-19.9c-1.6-3.8-1.1-6.3,1.4-7.9c0.9-0.7,2.1-1.4,3.2-2
			c1.7-1.1,3.6-2.2,4.6-3.2c0.8-0.8,1.5-1.5,2.3-2.1l0.4,0.4c-0.4,0.4-0.8,0.8-1.2,1.4c-4,4.8,0,11.9,4.6,16.5
			c0.3,0.3,0.6,0.6,1,0.9c3.5,3.4,9.3,9.2,17.2,2.6c0.5-0.5,1.2-0.4,1.9,0.1c2.2,1.5,4.2,6.8,2.5,11l0,0c-0.7,1.6-2.8,3.2-5.6,4.1
			C1498.6,297.2,1496.7,297.7,1494.4,297.7z M1476.9,262.5c-1.1,1-2.8,2-4.4,3c-1.1,0.7-2.3,1.4-3.2,2c-2.2,1.4-2.6,3.8-1.2,7.2
			c4.7,10.2,9.2,15.7,16.3,19.6c6.8,3.8,12.5,2.8,15.2,1.8c2.5-0.9,4.6-2.4,5.2-3.8c1.6-4.2-0.6-9.1-2.3-10.3
			c-0.5-0.3-0.9-0.4-1.2-0.1c-8.3,6.9-14.3,0.9-17.9-2.6c-0.3-0.3-0.7-0.7-1-0.9C1478,274.1,1474.2,267.4,1476.9,262.5z"/>
	</g>
	<g id="_x32_1170632">
		<path inkscape:connector-curvature="0" class="st4" d="M1441.2,310.7c16.8,0,42.7-7.6,56.6-34.1c2.3-4.4,0-6.7-2.7-8.2
			c-2.9-1.3-6.5-4.2-8.4-6.1c3.4,3.4,2.7,5.7,0.4,9.5c-10.7,17.9-25.5,26.9-45.9,26.9c-20.4,0-35.1-9-45.9-26.9
			c-2.3-3.8-2.9-6.1,0.2-9.5c-1.7,1.9-5.5,4.8-8.4,6.1c-2.7,1.5-5.1,3.8-2.7,8.2C1398.3,303.1,1424.4,310.7,1441.2,310.7z"/>
		<path d="M1441.2,311c-18.9,0-43.9-9-57.1-34.3c-1.9-3.7-1-6.5,2.9-8.6c2.8-1.2,6.3-3.9,8.1-5.8c0.1-0.1,0.2-0.2,0.2-0.3l0.4,0.4
			c-0.1,0.1-0.2,0.2-0.2,0.3c-2.7,3-2.2,5.1,0.1,8.9c10.8,18,25.7,26.8,45.6,26.8c19.9,0,34.8-8.8,45.6-26.8
			c2.3-3.8,2.8-5.9-0.4-9.1l0.4-0.4c2.1,2.1,5.6,4.9,8.3,6c3.9,2.1,4.8,4.9,2.9,8.6C1484.8,302,1460,311,1441.2,311z M1393.6,264.5
			c-1.9,1.6-4.3,3.2-6.3,4.1c-3.6,1.9-4.4,4.3-2.6,7.8c13.1,25,37.8,33.9,56.6,33.9c18.6,0,43.2-8.9,56.4-33.9
			c1.8-3.5,1-5.9-2.6-7.8c-1.9-0.8-4.2-2.4-6.2-4.1c1.1,2.3,0.4,4.4-1.4,7.3c-10.9,18.2-26,27.1-46.1,27.1
			c-20.1,0-35.2-8.9-46.1-27.1C1393.3,269,1392.5,266.8,1393.6,264.5z"/>
	</g>
	<g id="g2494" transform="matrix(0.370409,0,0,0.370409,845.1194,-37.89129)">
		<g id="_x32_1170456">
			<path inkscape:connector-curvature="0" class="st5" d="M1504.1,845c-1.1-5.7-8.5-3.4-10.8,3.4c-2.8-4-5.7-8-8-12.5
				c-6.8-10.2-8-17,1.7-26.7c4.5-4.5,13.6-9.7,19.9-4C1520,816,1513.2,833.6,1504.1,845z"/>
			<path d="M1494,853l-2.4-3.4c-2.8-4-5.7-8-8.1-12.7c-6.9-10.4-8.7-18.5,2-29.3c6.3-6.3,16.1-10.2,22.8-4
				c14,11.6,7.4,30.2-2.6,42.7l-2.9,3.6l-0.9-4.5c-0.3-1.4-1-1.5-1.3-1.5c-1.5-0.1-4.2,1.7-5.4,5.2L1494,853z M1500.4,804.9
				c-4.3,0-9,3-11.8,5.8c-9,9-7.7,14.6-1.4,24l0.1,0.2c1.7,3.3,3.6,6.3,5.7,9.3c2-3,5.1-4.8,8-4.6c1.3,0.1,2.5,0.6,3.4,1.4
				c7.6-10.8,12-25.3,1.2-34.2C1504.1,805.4,1502.3,804.9,1500.4,804.9z"/>
		</g>
		<g id="_x32_1170368">
			<path inkscape:connector-curvature="0" class="st5" d="M1713.8,845c1.1-5.7,9.1-3.4,11.4,3.4c2.8-4,5.7-8,8-12.5
				c6.8-10.2,8-17-2.3-26.7c-4-4.5-13.1-9.7-19.9-4C1698.4,816,1704.7,833.6,1713.8,845z"/>
			<path d="M1724.5,853l-1.3-3.9c-1.2-3.5-4.1-5.2-5.8-5.2c-0.6,0-1.2,0.2-1.5,1.5l-0.9,4.5l-2.9-3.6c-10.6-13.2-15.5-31.6-2.6-42.7
				c7.6-6.4,17.9-1.4,22.8,4.1c11.3,10.7,9.5,18.8,2.6,29.3c-2.3,4.6-5.2,8.7-8,12.6L1724.5,853z M1717.5,839.6
				c2.9,0,5.9,1.8,7.9,4.7c2.1-3,4.1-6,5.8-9.4l0.1-0.2c6.3-9.4,7.5-15.1-2-24l-0.1-0.1c-2.9-3.4-11-8.7-16.9-3.7
				c-11.2,9.6-5.2,25,1.2,34.2c0.9-0.9,2.1-1.4,3.5-1.4C1717.2,839.6,1717.4,839.6,1717.5,839.6z"/>
		</g>
		<g id="_x32_1170280">
			<path inkscape:connector-curvature="0" class="st5" d="M1436.5,892.1c-5.7-8.5-10.2-30.7-11.4-36.4c-1.7-5.1-2.3-9.7,4-11.9
				c6.2-2.3,11.9,5.7,14.8,12.5c2.8,6.8,7.4,17,12.5,29.5C1443.9,878.5,1433.7,883.6,1436.5,892.1z"/>
			<path d="M1434.7,893.3c-5.3-7.9-9.6-26.5-11.7-37c-1.2-3.5-3.6-11.2,5.3-14.5c7.5-2.7,14.1,5.7,17.5,13.7c1,2.5,2.3,5.5,3.8,8.9
				c2.4,5.7,5.5,12.8,8.7,20.7l2.4,5.9l-5.5-3.2c-7.1-4.2-12.9-3.9-15.5-1.7c-2,1.6-1.8,3.9-1.2,5.5L1434.7,893.3z M1431.3,845.6
				c-0.5,0-0.9,0.1-1.4,0.3c-3.9,1.4-4.6,3.6-2.7,9.3l0.1,0.3c2.5,12.4,5.3,22.7,8,29.4c0.5-0.8,1.1-1.5,1.9-2.1
				c3.6-2.9,9.2-3.2,15.2-1.1c-2.4-5.8-4.7-11.1-6.6-15.5c-1.5-3.4-2.8-6.4-3.8-8.9C1439.5,851.3,1435.3,845.6,1431.3,845.6z"/>
		</g>
		<g id="_x32_1170192">
			<path inkscape:connector-curvature="0" class="st5" d="M1782,892.1c5.1-8.5,9.7-30.7,11.4-36.4c1.1-5.1,2.3-9.7-4-11.9
				c-6.2-2.3-11.9,5.7-14.8,12.5c-2.8,6.8-7.4,17-12.5,29.5C1774.6,878.5,1784.2,883.6,1782,892.1z"/>
			<path d="M1783.8,893.2l-3.9-1.6c0.6-2.4,0.1-4.5-1.6-5.7c-2.4-1.8-7.8-2.5-15.1,1.9l-5.5,3.2l2.4-5.9c3.2-7.9,6.3-15,8.7-20.7
				c1.5-3.4,2.7-6.4,3.8-8.9c3.3-8,9.9-16.4,17.5-13.7c7.9,2.9,6.5,9.1,5.4,14.1l-0.1,0.4c-0.4,1.3-0.9,3.6-1.7,6.4
				C1791.4,872.2,1787.9,886.5,1783.8,893.2z M1773.4,880.2c2.9,0,5.4,0.8,7.4,2.3c0.9,0.6,1.6,1.4,2.1,2.3c2.6-7.1,5-16.6,6.6-23
				c0.7-2.8,1.3-5.1,1.7-6.5l0-0.2c1.3-5.7,1.4-7.7-2.7-9.2c-4.4-1.6-9.3,4.7-12.1,11.3c-1.1,2.5-2.3,5.5-3.8,8.9
				c-1.9,4.4-4.2,9.7-6.6,15.5C1768.7,880.7,1771.2,880.2,1773.4,880.2z"/>
		</g>
	</g>
	<g id="_x32_1170104">
		<path inkscape:connector-curvature="0" class="st6" d="M1480.6,197.4c0,8.6,0,31.4,0,41c0,35.6-16.8,47.8-39.4,57.5
			c-22.5-9.7-39.6-21.9-39.6-57.5c0-9.7,0-32.4,0-41H1480.6L1480.6,197.4z"/>
	</g>
	<g id="_x32_1170016">
		<path inkscape:connector-curvature="0" class="st3" d="M1441.2,232.2c1.9,0,4.8-1.7,7.4-4.2c2.7-2.9,7.4-4,12.2,0
			c4.8,4,7.8,2.3,10.3,0s4.6-3.2,9.5-3.2c0-10.1,0-21.7,0-27.4h-78.9c0,5.7,0,17.3,0,27.4c4.8,0,6.9,0.8,9.5,3.2
			c2.5,2.3,5.5,4,10.3,0c5.1-4,9.5-2.9,12.4,0C1436.1,230.5,1439.1,232.2,1441.2,232.2L1441.2,232.2z"/>
	</g>
	<g id="g2502" transform="matrix(0.370409,0,0,0.370409,845.1194,-37.89129)">
		<g id="_x32_1169840">
			<path inkscape:connector-curvature="0" class="st7" d="M1609.2,785.9c6.8,0,20.5-7.4,23.9-9.1c12.5-7.4,21.6-0.6,29,2.8
				c8,3.4,22.7,7.4,31.8,0s14.2-6.8,20.5-6.8c1.1-8.5,1.1-17,1.1-26.7c0-2.3,0-4.5,0-6.8c-8-1.7-11.9,0.6-20.5,8s-18.2,5.7-30.7,1.1
				c-11.9-5.1-23.9-14.2-35.8,0c-3.4,4-11.4,9.7-19.3,9.7c-8.5,0-15.9-5.7-19.3-9.7c-12.5-14.2-23.9-5.1-35.8,0
				c-12.5,4.5-22.7,6.2-31.2-1.1c-8-7.4-11.9-9.7-20.5-8c0,2.3,0,4.5,0,6.8c0,9.7,0.6,18.2,1.7,26.7c6.2,0,10.8-0.6,19.9,6.8
				s24.4,3.4,31.8,0c8-3.4,17-10.2,29.5-2.8C1588.8,778.5,1601.9,785.9,1609.2,785.9z"/>
		</g>
		<g id="_x32_1169752">
			<path inkscape:connector-curvature="0" class="st7" d="M1609.2,810.3c8.5,0,18.7-3.4,27.8-8.5c11.4-6.2,19.3-3.4,30.7,2.3
				c11.9,5.7,21.6,4,28.4,0c3.4-2.3,6.2-6.8,13.6-5.1c-3.4,14.2-8.5,26.7-14.8,36.9c-11.4,2.8-17.6,2.8-29.5-2.3
				c-11.9-5.7-26.7-9.1-34.7-4c-7.4,4.5-15.3,6.8-21.6,6.8c-6.2,0-14.2-2.3-21.6-6.8c-8-5.1-22.7-1.7-34.7,4
				c-11.9,5.1-18.2,5.1-29.5,2.3c-6.2-10.2-11.4-22.7-14.8-36.9c7.4-1.7,10.2,2.8,13.6,5.1c6.3,4,16.5,5.7,27.8,0
				c11.9-5.7,19.9-8.5,31.2-2.3C1590.5,806.9,1600.7,810.3,1609.2,810.3z"/>
		</g>
		<g id="_x32_1169664">
			<path inkscape:connector-curvature="0" class="st7" d="M1609.2,901.2c22.7-9.7,43.7-20.5,60.8-35.2c-4.5-1.7-7.4-0.6-11.4-3.4
				c-4-2.8-15.9-4-26.1,1.7c-10.8,5.1-15.3,6.2-23.3,6.2s-12.5-1.1-23.3-6.2c-10.2-5.7-22.2-4.5-26.1-1.7c-4,2.8-6.8,1.7-11.4,3.4
				C1565.5,880.8,1585.9,891.6,1609.2,901.2z"/>
		</g>
	</g>
	<g id="g2507" transform="matrix(0.370409,0,0,0.370409,845.1194,-37.89129)">
		<g id="g2509">
			<g id="_x32_1169400">
				<path inkscape:connector-curvature="0" class="st6" d="M1565.5,634.8c-7.4,1.7-12.5,2.3-19.3-4c-4.5-4.5-3.4-12.5,1.1-15.3
					c5.1-3.4,9.7-5.7,15.9-4c6.2,1.7,22.7,17,18.7,17.6C1578,629.1,1571.7,633,1565.5,634.8z"/>
				<path d="M1557.8,638c-4.2,0-8.3-1.4-13-5.7c-2.7-2.7-3.9-6.4-3.5-10.3c0.4-3.6,2.3-6.7,4.9-8.4c4.8-3.2,10.2-6.2,17.6-4.2
					c5.6,1.5,21.2,14.5,20.9,19.2c-0.1,1.4-1,2.4-2.4,2.6l-0.3,0c-1.8,0-4.7,1.2-7.7,2.5c-2.5,1.1-5.3,2.3-8.2,3.1l-0.1,0
					C1563.1,637.5,1560.4,638,1557.8,638z M1559.1,613c-3.5,0-6.7,1.6-10.6,4.2c-1.6,1-2.8,3-3,5.3c-0.3,2.6,0.5,5,2.2,6.7
					c5.8,5.3,9.9,5.1,17.3,3.4c2.5-0.7,5.1-1.8,7.6-2.9c2.6-1.1,5-2.1,7.1-2.6c-2.9-3.9-12.8-12.6-17-13.7
					C1561.4,613.2,1560.2,613,1559.1,613z"/>
			</g>
			<g id="_x32_1169312">
				<path inkscape:connector-curvature="0" class="st6" d="M1583.1,607.5c2.3-1.7,5.1-2.8,12.5-3.4c6.8-0.6,11.9-0.6,13.6,4.5
					c2.3,6.2,4,13.6,8.5,17c-2.8,1.7-17,3.4-22.2,0.6C1588.8,622.8,1587.1,609.8,1583.1,607.5z"/>
				<path d="M1604.7,629.9c-4,0-7.8-0.5-10.1-1.8c-4.5-2.3-6.9-7.7-9-12.5c-1.1-2.6-2.5-5.6-3.5-6.2l-2.8-1.6l2.6-1.9
					c2.6-1.9,5.7-3.2,13.6-3.8c5.7-0.5,13.5-1.1,15.8,6c0.4,1.1,0.8,2.3,1.2,3.6c1.7,5,3.4,10.1,6.6,12.5l2.5,1.9l-2.7,1.6
					C1616.7,628.8,1610.5,629.9,1604.7,629.9z M1586.5,607.9c1.1,1.6,2,3.7,3,5.9c1.8,4.1,3.9,8.8,7.1,10.4
					c3.4,1.9,12.4,1.4,17.3,0.4c-2.5-3.2-4-7.6-5.4-11.9c-0.4-1.2-0.8-2.4-1.2-3.5c-1-3.1-3.6-3.8-11.5-3.1
					C1591.1,606.6,1588.4,607.1,1586.5,607.9z"/>
			</g>
			<g id="_x32_1169224">
				<path inkscape:connector-curvature="0" class="st6" d="M1632,608c2.3-1.7,5.1-1.7,12.5-1.1c7.4,0.6,10.2,1.1,11.9,6.2
					c1.7,5.7,0,13.1,3.4,18.2c-3.4,1.1-14.8,1.1-18.7-2.8C1634.8,624,1635.4,610.9,1632,608z"/>
				<path d="M1653.9,634.1c-5,0-11.2-1-14.3-4c-4.2-3.1-5.6-9.1-6.8-14c-0.6-2.6-1.4-5.7-2.3-6.5l-2.1-1.7l2.2-1.6
					c2.9-2.2,6.3-2.1,13.9-1.6c7.4,0.6,11.6,1.2,13.8,7.7c0.8,2.6,0.9,5.3,1.1,8c0.2,3.7,0.4,7.1,2.1,9.7l1.6,2.3l-2.7,0.9
					C1659.1,633.8,1656.7,634.1,1653.9,634.1z M1635.1,608.9c0.8,1.7,1.3,3.9,1.9,6.2c1.1,4.4,2.3,9.4,5.3,11.6l0.3,0.2
					c2.6,2.6,9.8,3.1,14.1,2.8c-1.1-2.9-1.2-6-1.4-9.1c-0.1-2.5-0.3-4.9-0.9-6.9c-1.2-3.6-2.4-4.1-10.1-4.7
					C1639.5,608.7,1636.9,608.6,1635.1,608.9z"/>
			</g>
		</g>
		<g id="g2514">
			<g id="_x32_1169048">
				<path inkscape:connector-curvature="0" class="st8" d="M1666.1,611.5c-5.1-1.1-8.5-1.7-10.8,0c2.8,3.4,0.6,17,6.2,21.6
					c4,2.8,14.2,3.4,16.5-2.8C1680.8,624.5,1680.8,616,1666.1,611.5z"/>
				<path d="M1669,637.2c-3.2,0-6.6-0.9-8.8-2.4c-4.2-3.3-4.8-9.6-5.3-15.1c-0.3-2.6-0.6-5.9-1.3-6.8l-1.4-1.7l1.8-1.3
					c3-2.3,6.9-1.6,12.5-0.4l0.2,0c7.3,2.2,12,5.7,13.9,10.2c1.5,3.5,1.2,7.5-0.7,11.4c-1,2.7-3.2,4.6-6.2,5.5
					C1672.3,637,1670.7,637.2,1669,637.2z M1658.2,612.6c0.6,1.8,0.8,4.1,1,6.7c0.4,4.5,1,10,3.6,12.1c1.9,1.3,6.2,2.1,9.6,1.1
					c1.8-0.6,3-1.6,3.5-3l0.1-0.2c1-2,1.9-4.9,0.6-7.9c-1.4-3.3-5.2-5.9-11.2-7.8C1662.4,612.8,1659.9,612.3,1658.2,612.6z"/>
			</g>
			<g id="_x32_1168960">
				<path inkscape:connector-curvature="0" class="st8" d="M1607.5,605.8c1.7-1.7,5.1-2.3,11.9-2.3c7.4,0,11.9,1.1,14.2,5.7
					c2.3,5.7,1.7,13.1,5.7,17.6c-1.7,2.3-17,2.3-21.6-1.1C1611.5,621.7,1610.9,608.6,1607.5,605.8z"/>
				<path d="M1631.1,630.5c-0.6,0-1.1,0-1.6,0c-2.8-0.1-9.6-0.6-13-3.1c-4.3-2.8-6.1-8.5-7.7-13.6c-0.8-2.7-1.8-5.7-2.7-6.4
					l-1.8-1.5l1.7-1.7c2.4-2.4,6.8-2.9,13.4-2.9c7.6,0,13.3,1.2,16.1,6.9l0.1,0.2c1,2.4,1.4,4.9,1.9,7.4c0.7,3.7,1.3,7.2,3.4,9.6
					l1.1,1.3l-1,1.4C1639.5,630.1,1634.7,630.5,1631.1,630.5z M1610.7,606.4c0.9,1.7,1.6,3.8,2.3,6.2c1.4,4.4,3,9.4,6,11.3l0.1,0.1
					c3.1,2.4,12.9,2.7,17.1,1.9c-1.6-2.8-2.2-6.1-2.8-9.3c-0.4-2.4-0.9-4.6-1.6-6.6c-1.7-3.3-4.9-4.4-12.3-4.4
					C1615.2,605.6,1612.4,605.9,1610.7,606.4z M1637.8,625.4L1637.8,625.4L1637.8,625.4z"/>
			</g>
			<g id="_x32_1168872">
				<path inkscape:connector-curvature="0" class="st8" d="M1559.2,610.9c0-2.8,4-3.4,14.2-4c10.2-1.1,10.8-0.6,14.2,6.8
					c1.7,4,4,10.8,8.5,13.1c-12.5,2.8-16.5,4.5-23.3,0.6c-5.1-2.8-10.8-9.7-11.9-12.5C1560.4,613.2,1560.4,611.5,1559.2,610.9z"/>
				<path d="M1580.8,631.8c-3,0-5.7-0.7-9-2.6c-5.5-3.1-11.5-10.2-12.8-13.6c-0.2-0.7-0.4-1.2-0.5-1.7c-0.1-0.4-0.2-0.9-0.3-1.2
					l-1-0.5v-1.3c0-5.2,6.5-5.6,16.2-6.1c10.7-1.2,12.4-0.4,16.3,8.1c0.2,0.6,0.5,1.1,0.7,1.7c1.5,3.7,3.6,8.7,6.8,10.3l5.3,2.7
					l-5.8,1.3c-1.5,0.3-2.9,0.7-4.2,1C1587.5,631,1584,631.8,1580.8,631.8z M1561.8,610.5c0.4,0.8,0.7,1.7,0.8,2.4
					c0.1,0.4,0.2,0.8,0.3,1.3c0.9,2.2,6.2,8.7,10.9,11.3c5.3,3.1,8.4,2.4,17.6,0.2c-2.4-2.8-3.9-6.6-5.1-9.5
					c-0.2-0.6-0.5-1.1-0.7-1.6c-3-6.5-3-6.5-12-5.5C1570.2,609.2,1563.6,609.6,1561.8,610.5z"/>
			</g>
		</g>
	</g>
	<g id="g2519" transform="matrix(0.370409,0,0,0.370409,845.1194,-37.89129)">
		<g id="g2521">
			<g id="_x32_1168608">
				<path inkscape:connector-curvature="0" class="st9" d="M1586.5,552.9c-11.9-9.1-26.1-17.6-39.2-19.3
					c8.5,5.1,32.4,23.9,38.6,30.1"/>
				<path d="M1585.3,564.4c-6.1-6.1-29.7-24.7-38.5-30l0.6-1.8c11.3,1.5,24.6,8,39.7,19.5l-1.2,1.5c-12.7-9.7-24.1-15.8-34-18.2
					c10.6,7.3,29.4,22.2,34.7,27.6L1585.3,564.4z"/>
			</g>
			<g id="_x32_1168520">
				<path inkscape:connector-curvature="0" class="st9" d="M1593.3,544.4c-14.2-9.7-30.7-20.5-46.6-21.6c11.9,6.2,29.5,21,39.2,33"
					/>
				<path d="M1585.2,556.4c-9.6-11.8-27-26.5-38.9-32.7l0.5-1.8c15.6,1.1,31.1,10.9,47.1,21.8l-1.1,1.6
					c-14.1-9.6-27.8-18.3-41.4-20.8c11.7,7.2,26.7,20.1,35.3,30.8L1585.2,556.4z"/>
			</g>
			<g id="_x32_1168432">
				<path inkscape:connector-curvature="0" class="st9" d="M1611.5,528.5c8-17.6,16.5-27.3,27.8-38.1c-5.7,11.9-11.9,36.4-14.8,46"
					/>
				<path d="M1625.5,536.7l-1.8-0.5c0.6-1.9,1.3-4.4,2-7.2c2.8-10,6.8-24.5,10.8-34.5c-10.1,10-17.3,19.1-24.2,34.4l-1.8-0.8
					c7.8-17.2,16.2-27.1,28.1-38.4l1.5,1.1c-4.5,9.5-9.4,27-12.7,38.6C1626.8,532.3,1626.1,534.8,1625.5,536.7z"/>
			</g>
			<g id="_x32_1168344">
				<path inkscape:connector-curvature="0" class="st9" d="M1624,525.7c5.7-12.5,14.2-23.3,29-30.1c-7.4,7.4-18.7,29.5-21.6,41.5"/>
				<path d="M1632.3,537.2l-1.9-0.4c2.5-10.7,11.6-28.8,18.7-38.2c-10.8,6-18.5,14.9-24.3,27.5l-1.7-0.8c6.7-14.7,16-24.4,29.4-30.6
					l1.1,1.6C1646.6,503.3,1635.2,525.2,1632.3,537.2z"/>
			</g>
			<g id="_x32_1168256">
				<path inkscape:connector-curvature="0" class="st9" d="M1629.1,537c6.8-9.7,20.5-27.8,44.9-37.5c-14.2,14.2-35.2,40.3-40.3,50.6
					"/>
				<path d="M1634.5,550.5l-1.7-0.9c4.6-9.3,22.8-32.3,37.1-47.4c-22.5,10.4-35.1,28.3-40,35.3l-1.6-1.1
					c5.3-7.6,19.5-27.6,45.3-37.8l1,1.6C1660.1,514.8,1639.5,540.6,1634.5,550.5z"/>
			</g>
			<g id="_x32_1168168">
				<path inkscape:connector-curvature="0" class="st9" d="M1637.1,549.5c10.2-5.7,30.7-14.8,45.5-11.9
					c-9.1,3.4-36.4,15.9-48.3,27.3"/>
				<path d="M1634.9,565.6l-1.3-1.4c10.9-10.4,34-21.5,45.1-26.1c-12.6-0.8-29.1,5.6-41.2,12.3l-0.9-1.7c6.6-3.6,29.3-15.3,46.1-12
					l3.3,0.6l-3.2,1.2C1674.3,541.7,1646.9,554.1,1634.9,565.6z"/>
			</g>
			<g id="_x32_1168080">
				<path inkscape:connector-curvature="0" class="st9" d="M1634.8,545.5c9.7-10.2,27.3-25.6,46-31.8
					c-13.6,13.1-42.6,42.6-46.6,47.2"/>
				<path d="M1635,561.5l-1.4-1.3c3.8-4.3,28.9-30,43.4-44c-19.6,8-36.4,24.8-41.4,30l-1.4-1.3c5.4-5.7,24.6-24.8,46.4-32.1l1,1.6
					C1668,527.3,1639,556.9,1635,561.5z"/>
			</g>
			<g id="_x32_1167992">
				<path inkscape:connector-curvature="0" class="st9" d="M1607.5,539.3c-6.8-21-17-40.9-32.4-47.2c8.5,12.5,19.3,30.7,25,58"/>
				<path d="M1599.2,550.3c-5.6-27-16.2-45-24.9-57.6l-1.8-2.6l3,1.2c13.3,5.4,24.4,21.5,32.9,47.8l-1.8,0.6
					c-7.6-23.6-17.3-38.7-28.7-45.1c8.3,12.6,17.9,30.1,23.2,55.4L1599.2,550.3z"/>
			</g>
			<g id="_x32_1167904">
				<path inkscape:connector-curvature="0" class="st9" d="M1594.5,538.7c-11.4-13.6-26.7-27.3-44.3-30.1
					c11.9,6.8,31.8,26.7,39.2,46"/>
				<path d="M1588.5,555c-7.5-19.5-27.3-39-38.8-45.5l0.6-1.8c15,2.4,30.1,12.7,44.9,30.4l-1.5,1.2c-12.8-15.4-25.8-25-38.6-28.6
					c11.9,8.5,28.4,26,35.1,43.6L1588.5,555z"/>
			</g>
			<g id="_x32_1167816">
				<path inkscape:connector-curvature="0" class="st9" d="M1600.7,538.2c-14.2-25.6-25-30.1-31.2-35.2c5.1,9.7,17.6,35.2,25,46"/>
				<path d="M1593.7,549.5c-5.7-8.3-14.2-25-20.4-37.1c-1.8-3.6-3.5-6.8-4.7-9l1.5-1.2c1,0.9,2.2,1.7,3.5,2.6
					c6.4,4.6,16.1,11.5,27.9,32.9l-1.7,0.9c-11.7-21-21.1-27.8-27.4-32.2c-0.1-0.1-0.2-0.1-0.2-0.2c0.8,1.6,1.7,3.4,2.7,5.3
					c6.2,12.1,14.7,28.7,20.3,36.9L1593.7,549.5z"/>
			</g>
		</g>
		<g id="g2533">
			<g id="_x32_1167640">
				<path d="M1591.9,556.8c-3.1-5.8-13.1-15.4-20.1-19.5l1-1.7c6.6,3.9,17.2,13.6,20.8,20.3L1591.9,556.8z"/>
			</g>
			<g id="_x32_1167552">
				<path d="M1587,560.5c-3.4-3.1-7-5.5-10.1-7.6c-2.1-1.4-3.8-2.6-5.2-3.7l1.2-1.5c1.3,1.1,3,2.3,5.1,3.6c3.2,2.2,6.8,4.6,10.3,7.8
					L1587,560.5z"/>
			</g>
			<g id="_x32_1167464">
				<path d="M1640.5,557.7l-1.2-1.5c5.4-4.3,18.2-12,24.7-14.4l0.7,1.8C1658.8,545.7,1646.4,553,1640.5,557.7z"/>
			</g>
			<g id="_x32_1167376">
				<path d="M1636.7,553.5l-1.5-1.2c5.4-7,16.2-16.9,21.2-21.2l1.3,1.5C1652.7,536.8,1642,546.6,1636.7,553.5z"/>
			</g>
			<g id="_x32_1167288">
				<path d="M1631.1,544.9l-1.6-1.1c4.6-6.9,16.6-21.1,21.7-26.8l1.4,1.3C1647.5,524,1635.6,538.1,1631.1,544.9z"/>
			</g>
			<g id="_x32_1167200">
				<path d="M1623.8,538l-1.8-0.8c2.4-5.4,10.3-20.1,14.3-25.2l1.5,1.2C1634,518.1,1626,532.8,1623.8,538z"/>
			</g>
			<g id="_x32_1167112">
				<path d="M1603.2,544.7c-1.2-3.2-3.3-8.7-5.7-14.6c-2.3-5.7-4.6-11.6-6.3-16.1l1.8-0.7c1.7,4.5,4,10.4,6.3,16.1
					c2.3,5.9,4.5,11.4,5.7,14.6L1603.2,544.7z"/>
			</g>
			<g id="_x32_1167024">
				<path d="M1594.7,540.7c-1.6-5.2-5.9-13-8.4-16.8l1.6-1.1c2.4,3.6,6.9,11.6,8.6,17.3L1594.7,540.7z"/>
			</g>
		</g>
	</g>
	<g id="g2543" transform="matrix(0.370409,0,0,0.370409,845.1194,-37.89129)">
		<g id="g2545">
			<g id="_x32_1166760">
				<path inkscape:connector-curvature="0" class="st9" d="M1606.4,520.5c0-5.1,3.4-10.8,6.8-10.8c4,0,6.8,6.8,6.8,10.8
					c0,4.5-3.4,8.5-6.8,8.5S1606.4,525.7,1606.4,520.5z"/>
				<path d="M1613.2,530c-3.7,0-7.8-3.6-7.8-9.5c0-5.3,3.6-11.8,7.8-11.8c4.8,0,7.8,7.6,7.8,11.8C1621,525.5,1617.3,530,1613.2,530z
					 M1613.2,510.7c-2.7,0-5.9,5.2-5.9,9.8c0,4.7,3,7.6,5.9,7.6c2.7,0,5.9-3.3,5.9-7.6C1619.1,516.8,1616.4,510.7,1613.2,510.7z"/>
			</g>
			<g id="_x32_1166672">
				<path inkscape:connector-curvature="0" class="st9" d="M1599,525.1c0.6-5.7,4.5-10.2,8-9.7s5.1,7.4,4.5,11.4
					c-0.6,4.5-4.5,8-7.4,7.4C1601.3,534.2,1598.4,530.2,1599,525.1z"/>
				<path d="M1604.8,535.2c-0.3,0-0.5,0-0.7-0.1c-1.3,0-2.6-0.7-3.7-1.9c-1.8-2-2.6-5.1-2.3-8.3c0.4-3.7,2.2-7.3,4.7-9.2
					c1.4-1.1,2.9-1.6,4.4-1.3c4.3,0.7,5.9,8.5,5.3,12.4c-0.3,2.8-1.9,5.4-4.1,7C1607.2,534.8,1605.9,535.2,1604.8,535.2z
					 M1606.4,516.3c-1,0-1.9,0.5-2.5,1c-2.1,1.6-3.6,4.7-3.9,7.9l0,0c-0.3,2.6,0.4,5.2,1.8,6.8c0.7,0.8,1.6,1.3,2.3,1.3l0.2,0
					c0.8,0.2,1.9-0.2,2.9-0.9c1.8-1.3,3-3.4,3.3-5.7c0.6-4-1.2-9.9-3.7-10.3C1606.7,516.4,1606.5,516.3,1606.4,516.3z"/>
			</g>
			<g id="_x32_1166584">
				<path inkscape:connector-curvature="0" class="st9" d="M1614.4,526.8c-1.1-5.1,1.1-10.8,4.5-11.4c3.4-0.6,6.8,5.1,7.4,9.7
					c1.1,4.5-1.7,9.1-4.5,9.1C1618.9,534.8,1614.9,531.9,1614.4,526.8z"/>
				<path d="M1621,535.2c-1.3,0-2.6-0.5-3.8-1.3c-2.1-1.5-3.5-4-3.8-6.9c-0.7-3.4-0.1-7.2,1.6-9.8c1-1.5,2.3-2.4,3.7-2.7
					c1.2-0.2,2.4,0.2,3.6,1c2.4,1.8,4.5,5.8,4.9,9.5c0.7,2.7,0.1,5.8-1.6,8c-1.1,1.4-2.4,2.1-3.8,2.2
					C1621.6,535.2,1621.3,535.2,1621,535.2z M1619.4,516.4c-0.1,0-0.2,0-0.3,0c-1.1,0.2-1.9,1.1-2.4,1.8c-1.4,2.1-2,5.5-1.3,8.4
					l0,0.1c0.3,2.4,1.4,4.4,3,5.6c1.1,0.8,2.2,1.1,3.2,0.9l0.2,0c0.8,0,1.6-0.5,2.3-1.4c1.3-1.7,1.8-4.2,1.3-6.5
					c-0.4-3.3-2.2-6.8-4.2-8.3C1620.5,516.6,1619.9,516.4,1619.4,516.4z"/>
			</g>
			<g id="_x32_1166496">
				<path inkscape:connector-curvature="0" class="st9" d="M1605.8,531.3c0-5.7,3.4-10.8,6.8-10.8c4,0,6.8,6.2,6.8,10.8
					s-3.4,8.5-6.8,8.5S1605.8,536.5,1605.8,531.3z"/>
				<path d="M1612.6,540.8c-3.7,0-7.8-3.6-7.8-9.5c0-6.2,3.7-11.8,7.8-11.8c4.7,0,7.8,7,7.8,11.8
					C1620.4,536.3,1616.7,540.8,1612.6,540.8z M1612.6,521.5c-2.7,0-5.9,4.4-5.9,9.8c0,4.7,3,7.6,5.9,7.6c2.7,0,5.9-3.3,5.9-7.6
					C1618.5,526.9,1615.8,521.5,1612.6,521.5z"/>
			</g>
			<g id="_x32_1166408">
				<path inkscape:connector-curvature="0" class="st9" d="M1595.6,534.2c0-5.1,4-10.8,7.4-10.8s6.8,6.8,6.8,10.8
					c0,4.5-4,8.5-6.8,8.5C1599.6,542.7,1595.6,539.3,1595.6,534.2z"/>
				<path d="M1603,543.7c-3.9,0-8.3-3.9-8.3-9.5c0-5.6,4.4-11.8,8.3-11.8c4.1,0,7.8,7.3,7.8,11.8
					C1610.8,539.2,1606.4,543.7,1603,543.7z M1603,524.3c-2.7,0-6.4,5.1-6.4,9.8c0,4.5,3.4,7.6,6.4,7.6c2.3,0,5.9-3.5,5.9-7.6
					C1608.8,530.4,1605.6,524.3,1603,524.3z"/>
			</g>
			<g id="_x32_1166320">
				<path inkscape:connector-curvature="0" class="st9" d="M1616.6,531.9c0-5.1,3.4-10.8,6.8-10.8c4,0,6.8,6.8,6.8,10.8
					c0,4.5-3.4,8.5-6.8,8.5S1616.6,537,1616.6,531.9z"/>
				<path d="M1623.4,541.4c-3.7,0-7.8-3.6-7.8-9.5c0-5.3,3.6-11.8,7.8-11.8c4.8,0,7.8,7.6,7.8,11.8
					C1631.2,536.9,1627.5,541.4,1623.4,541.4z M1623.4,522.1c-2.7,0-5.9,5.2-5.9,9.8c0,4.7,3,7.6,5.9,7.6c2.7,0,5.9-3.3,5.9-7.6
					C1629.3,528.1,1626.6,522.1,1623.4,522.1z"/>
			</g>
			<g id="_x32_1166232">
				<path inkscape:connector-curvature="0" class="st9" d="M1614.4,536.5c0-5.7,4-10.8,7.4-10.8s6.8,6.2,6.8,10.8s-3.4,8.5-6.8,8.5
					S1614.4,541.6,1614.4,536.5z"/>
				<path d="M1621.7,545.9c-3.9,0-8.3-3.9-8.3-9.5c0-5.9,4.1-11.8,8.3-11.8c4.3,0,7.8,7.1,7.8,11.8
					C1629.5,541.4,1625.8,545.9,1621.7,545.9z M1621.7,526.6c-2.8,0-6.4,4.6-6.4,9.8c0,4.5,3.4,7.6,6.4,7.6c2.7,0,5.9-3.3,5.9-7.6
					C1627.6,532.1,1624.3,526.6,1621.7,526.6z"/>
			</g>
			<g id="_x32_1166144">
				<path inkscape:connector-curvature="0" class="st9" d="M1605.3,541.6c0-5.7,3.4-10.8,6.8-10.8c4,0,6.8,6.8,6.8,10.8
					c0,4.5-3.4,8.5-6.8,8.5S1605.3,546.7,1605.3,541.6z"/>
				<path d="M1612.1,551.1c-3.7,0-7.8-3.6-7.8-9.5c0-6.2,3.7-11.8,7.8-11.8c4.8,0,7.8,7.6,7.8,11.8
					C1619.9,546.5,1616.2,551.1,1612.1,551.1z M1612.1,531.7c-2.7,0-5.9,4.4-5.9,9.8c0,4.7,3,7.6,5.9,7.6c2.7,0,5.9-3.3,5.9-7.6
					C1617.9,537.8,1615.3,531.7,1612.1,531.7z"/>
			</g>
			<g id="_x32_1166056">
				<path inkscape:connector-curvature="0" class="st9" d="M1591.1,541.6c0-5.7,2.8-10.8,5.7-10.8c2.8,0,5.1,6.8,5.1,10.8
					c0,4.5-2.8,8.5-5.1,8.5C1593.9,550.1,1591.1,546.7,1591.1,541.6z"/>
				<path d="M1596.7,551.1c-3.2,0-6.6-3.6-6.6-9.5c0-6.2,3.2-11.8,6.6-11.8c3.8,0,6.1,7.6,6.1,11.8
					C1602.8,546.4,1599.8,551.1,1596.7,551.1z M1596.7,531.7c-2.1,0-4.7,4.5-4.7,9.8c0,4.5,2.4,7.6,4.7,7.6c1.6,0,4.2-3.5,4.2-7.6
					C1600.9,537.3,1598.5,531.7,1596.7,531.7z"/>
			</g>
			<g id="_x32_1165968">
				<path inkscape:connector-curvature="0" class="st9" d="M1622.9,540.4c0-5.1,2.8-10.2,5.7-10.2c2.8,0,5.7,6.2,5.7,10.2
					c0,5.1-3.4,8.5-5.7,8.5C1625.7,549,1622.9,545.5,1622.9,540.4z"/>
				<path d="M1628.6,549.9c-3.2,0-6.6-3.6-6.6-9.5c0-5.2,2.9-11.2,6.6-11.2c3.6,0,6.6,6.9,6.6,11.2
					C1635.2,546.2,1631.3,549.9,1628.6,549.9z M1628.6,531.2c-2.1,0-4.7,4.5-4.7,9.3c0,4.5,2.4,7.6,4.7,7.6c1.7,0,4.7-2.9,4.7-7.6
					C1633.3,536.6,1630.5,531.2,1628.6,531.2z"/>
			</g>
			<g id="_x32_1165880">
				<path inkscape:connector-curvature="0" class="st9" d="M1626.3,550.1c1.1-5.7,4.5-10.2,6.8-9.7s2.8,7.4,1.7,11.4
					c-0.6,5.1-4,8-6.2,7.4S1625.1,554.6,1626.3,550.1z"/>
				<path d="M1629.2,560.2c-0.3,0-0.6,0-0.8-0.1c-1.5-0.4-2.6-1.7-3.1-3.7c-0.5-1.9-0.4-4.2,0.1-6.5c0.9-4.3,3.1-8.4,5.5-9.8
					c1.1-0.7,2-0.7,2.5-0.5c0.7,0.2,1.3,0.7,1.8,1.5c1.5,2.6,1.5,7.8,0.6,11c-0.4,3.1-1.8,5.9-3.9,7.3
					C1631,559.9,1630,560.2,1629.2,560.2z M1632.7,541.3c-0.2,0-0.5,0.1-0.9,0.3c-1.6,1-3.7,4.3-4.6,8.6l0,0c-0.5,2-0.6,4-0.1,5.6
					c0.3,1.3,1,2.2,1.7,2.4c0.6,0.1,1.3-0.1,2-0.6c1.6-1.1,2.8-3.4,3.1-6l0-0.2c0.9-3,0.7-7.7-0.4-9.6c-0.2-0.3-0.4-0.6-0.6-0.6
					C1632.8,541.4,1632.8,541.3,1632.7,541.3z"/>
			</g>
			<g id="_x32_1165792">
				<path inkscape:connector-curvature="0" class="st9" d="M1615.5,548.4c0.6-5.1,4-10.2,6.8-9.7c3.4,0,5.1,6.8,4.5,10.8
					c-0.6,5.1-3.4,8.5-6.2,8C1617.8,557.5,1614.9,553.5,1615.5,548.4z"/>
				<path d="M1621.2,558.5c-0.2,0-0.5,0-0.7-0.1c-1.3,0-2.6-0.7-3.7-1.9c-1.8-2-2.6-5.1-2.3-8.3c0.4-3.9,2.4-7.9,4.8-9.6
					c1-0.7,2.1-1,3.1-0.9c1.1,0,2.1,0.6,2.9,1.5c2.1,2.4,2.9,7.3,2.5,10.4c-0.4,3.5-1.8,6.4-3.8,7.9
					C1623.1,558.2,1622.2,558.5,1621.2,558.5z M1621.9,539.6c-0.5,0-1,0.3-1.4,0.6c-1.9,1.4-3.7,5-4,8.3c-0.3,2.6,0.4,5.2,1.8,6.8
					c0.7,0.8,1.6,1.3,2.3,1.3l0.2,0c0.7,0.1,1.4-0.1,2.1-0.6c1.6-1.1,2.7-3.7,3-6.6c0.4-2.7-0.4-6.9-2-8.9c-0.5-0.6-1-0.9-1.6-0.9
					l-0.2,0C1622,539.7,1622,539.6,1621.9,539.6z"/>
			</g>
			<g id="_x32_1165704">
				<path inkscape:connector-curvature="0" class="st9" d="M1599.6,550.1c-1.7-5.7-5.1-9.7-7.4-9.1c-2.3,0.6-2.8,7.4-1.7,11.4
					c1.1,4.5,4.5,7.4,6.8,6.8C1599,558.6,1600.7,554.6,1599.6,550.1z"/>
				<path d="M1596.7,560.2c-2.9,0-6.1-3.3-7.2-7.6c-0.9-3.1-0.9-8.4,0.6-11c0.5-0.8,1.1-1.3,1.8-1.5c2.9-0.7,6.7,3.5,8.5,9.7l0,0
					c1.2,4.8-0.6,9.5-2.9,10.2C1597.3,560.2,1597,560.2,1596.7,560.2z M1592.7,541.9c-0.1,0-0.2,0-0.2,0c-0.2,0-0.4,0.3-0.6,0.6
					c-1.1,1.9-1.3,6.5-0.4,9.6c1.1,4.3,4.1,6.5,5.7,6.2c1-0.3,2.6-3.7,1.6-7.9C1597,545,1594.1,541.9,1592.7,541.9z"/>
			</g>
			<g id="_x32_1165616">
				<path inkscape:connector-curvature="0" class="st9" d="M1595.6,549c0-5.1,2.8-10.2,5.7-10.2c3.4,0,5.7,6.2,5.7,10.2
					c0,5.1-2.8,8.5-5.7,8.5C1599,557.5,1595.6,554.1,1595.6,549z"/>
				<path d="M1601.3,558.4c-2.7,0-6.6-3.7-6.6-9.5c0-5.2,2.9-11.2,6.6-11.2c4.4,0,6.6,7.3,6.6,11.2
					C1607.9,554.8,1604.5,558.4,1601.3,558.4z M1601.3,539.7c-2.1,0-4.7,4.5-4.7,9.3c0,4.7,3.1,7.6,4.7,7.6c2.3,0,4.7-3,4.7-7.6
					C1606,545.3,1603.9,539.7,1601.3,539.7z"/>
			</g>
			<g id="_x32_1165528">
				<path inkscape:connector-curvature="0" class="st9" d="M1604.1,551.2c0-5.7,3.4-10.8,6.8-10.8c4,0,6.8,6.2,6.8,10.8
					c0,4.5-3.4,8.5-6.8,8.5S1604.1,556.3,1604.1,551.2z"/>
				<path d="M1610.9,560.7c-3.7,0-7.8-3.6-7.8-9.5c0-6.2,3.7-11.8,7.8-11.8c4.7,0,7.8,7,7.8,11.8
					C1618.7,556.2,1615,560.7,1610.9,560.7z M1610.9,541.4c-2.7,0-5.9,4.4-5.9,9.8c0,4.7,3,7.6,5.9,7.6c2.7,0,5.9-3.3,5.9-7.6
					C1616.8,546.8,1614.1,541.4,1610.9,541.4z"/>
			</g>
		</g>
		<g id="_x32_1165440">
			<path inkscape:connector-curvature="0" class="st9" d="M1607,488.7c-1.1,4.5-5.1,8.5-2.3,14.8c-5.1-1.7-9.7-2.3-13.6,2.3
				c5.1-0.6,9.7,1.1,11.9,4.5c-4.5-0.6-6.8,1.7-8,4.5c4-1.1,8-2.3,9.7-1.7c-1.7,1.7-4.5,4.5-5.1,6.8c3.4-2.8,7.4-2.3,9.7-4
				c-1.7,4,1.7,8,4.5,11.9c-0.6-5.7,2.8-9.7,1.1-12.5c5.1,1.1,5.7,5.7,13.1,5.7c-2.8-1.7-4.5-7.4-8-7.4c1.7-0.6,8.5-1.1,9.7,0
				c-1.1-2.3-5.1-4.5-7.4-4.5c2.3-2.3,6.3-6.8,9.1-8c-4,0.6-10.2,1.1-12.5,4.5c5.7-4.5,4.5-13.1,10.8-14.2
				c-3.4-0.6-8.5,1.7-12.5,5.7c1.7-3.4,1.7-8,4-9.1c-4.5,1.1-9.7,6.8-11.4,9.7C1609.8,495,1608.1,490.4,1607,488.7z"/>
			<path d="M1615.1,531.4l-3-4.1c-2.2-3.1-4.5-6.2-4.3-9.5c-0.7,0.2-1.4,0.4-2.1,0.6c-1.9,0.5-3.8,0.9-5.6,2.4l-2.3,1.9l0.7-2.9
				c0.5-1.9,2.2-4,3.8-5.7c-1.9,0.2-4.7,1-7.2,1.7l-1.9,0.5l0.7-1.8c1.3-3.2,3.6-4.9,6.7-5.2c-2.3-2-5.8-3-9.7-2.6l-2.5,0.3l1.6-1.9
				c3.9-4.4,8.4-4.3,12.8-3.1c-1.1-4,0.3-7.1,1.5-9.9c0.6-1.2,1.1-2.4,1.4-3.6l0.5-2.1l1.2,1.8c0.9,1.3,2.1,4.3,2.7,7
				c2.4-3.1,6.6-7,10.5-8l0.7,1.8c-1,0.5-1.5,2.3-2,4.3c-0.1,0.3-0.2,0.6-0.2,0.8c3.6-2.6,7.5-4,10.5-3.5l0,1.9
				c-2.9,0.5-4,3-5.3,6.2c-0.4,1-0.9,2.1-1.4,3.2c2.3-0.8,4.9-1.1,7.1-1.4l1-0.1l0.5,1.8c-2.1,0.9-5.1,4-7.4,6.3
				c-0.1,0.1-0.1,0.1-0.2,0.2c2.4,0.8,5.3,2.7,6.3,4.7l-1.5,1.1c-0.6-0.4-3.4-0.5-5.8-0.3c0.9,0.8,1.7,1.9,2.4,3
				c0.9,1.3,1.8,2.6,2.8,3.2l3,1.8h-3.5c-4.7,0-6.9-1.7-8.8-3.3c-0.9-0.7-1.7-1.4-2.8-1.9c0.1,1.3-0.3,2.7-0.7,4.2
				c-0.5,2-1.2,4.2-0.9,6.7L1615.1,531.4z M1611.5,513.1l-1.4,3.3c-1.2,2.7,0.6,5.6,2.7,8.6c0.2-1.7,0.6-3.1,0.9-4.4
				c0.5-2,1-3.5,0.3-4.7l-1.1-1.9l2.2,0.5c2.3,0.5,3.8,1.7,5.2,2.8c1.4,1.1,2.7,2.2,5,2.6c-0.4-0.5-0.8-1.1-1.2-1.7
				c-1.3-1.8-2.5-3.6-4.1-3.6l-0.3-1.9c0.9-0.3,4.4-0.8,7.3-0.7c-1.5-1.1-3.5-2-4.7-2h-2.3l1.6-1.6c0.4-0.4,0.9-0.9,1.4-1.4
				c1.3-1.4,2.9-3,4.4-4.3c-2.3,0.4-4.6,1-6.2,2.1c-0.5,0.6-1.1,1.2-1.7,1.7l-1.4-1.3c0.5-0.7,1.1-1.3,1.8-1.8
				c1.3-1.6,2.1-3.6,2.9-5.5c0.7-1.7,1.5-3.5,2.6-4.9c-2.5,0.9-5.2,2.6-7.6,4.9l-1.5-1.1c0.6-1.2,1-2.6,1.4-4
				c0.2-0.8,0.4-1.6,0.7-2.4c-3.4,2.1-6.6,5.9-7.8,7.9l-1.8,3v-3.5c0-1.9-0.8-4.6-1.7-6.6c-0.2,0.6-0.5,1.2-0.7,1.7
				c-1.4,3.1-2.7,6.1-0.8,10.2l0.9,2l-2.1-0.7c-4.3-1.4-7.7-1.9-10.8,0.3c4.4,0.2,8.1,2,10.2,5.1l1.2,1.7l-2.1-0.3
				c-2.6-0.3-4.6,0.3-5.9,2c3.5-1,6.4-1.6,8-1.1l1.5,0.5l-1.1,1.1c-0.9,0.9-2.2,2.2-3.3,3.6c1.1-0.4,2.2-0.7,3.2-0.9
				c1.4-0.3,2.5-0.6,3.4-1.2L1611.5,513.1z"/>
		</g>
		<g id="_x32_1165352">
			<path d="M1610.1,504.5l-1.7-0.9c0.5-0.9,0.5-4.5,0.5-5.8h1.9C1610.8,500.4,1610.7,503.3,1610.1,504.5z"/>
		</g>
		<g id="_x32_1165264">
			<path d="M1614.7,505.8h-1.9c0-3.7,2.4-7.9,3.7-9.2l1.4,1.4C1616.8,499,1614.7,502.7,1614.7,505.8z"/>
		</g>
		<g id="_x32_1165176">
			<path d="M1617.6,509.4l-1.9-0.5c0.7-2.7,2.8-4.6,4.4-5.7l1.1,1.6C1619.8,505.8,1618.1,507.3,1617.6,509.4z"/>
		</g>
	</g>
	<g id="g2566" transform="matrix(0.370409,0,0,0.370409,845.1194,-37.89129)">
		<g id="_x32_1165000">
			<path inkscape:connector-curvature="0" class="st10" d="M1560.4,560.3c-4,0-7.4-1.7-9.7-4.5c-4-5.1-14.8-7.4-19.3-2.8
				c-1.7,1.1-4,1.1-5.7,1.7c-2.8,0-6.2,2.8-5.1,8.5c2.3-1.7,2.8,0,4.5,0c1.1-0.6,0.6,0.6,0.6,1.7c0,2.8,6.3,8.5,11.9,8
				c6.3,0,9.1,2.3,10.2,3.4c1.7,1.7,0.6,1.1,1.7,4c1.7,1.7,2.3,2.3-0.6,4.5c-4,3.4-6.8,11.4,0,17.6c7.4,5.7,26.1,14.2,47.2-2.3
				c20.5-15.9,52.3-6.8,54.5-1.1c2.8,5.7,4,9.1,4.5,11.9c0.6,2.3,3.4,4.5,7.4,4c4,0,8.5,1.7,10.8,3.4c2.8,1.7,6.8,1.1,5.7-4
				c-2.3-15.9-11.9-18.2-13.1-25.6c5.7,0.6,9.7,0.6,11.9-1.7c1.7-2.3,4-6.2,6.3-7.4c1.7-1.1,1.7-2.3-0.6-1.7
				c-2.8,0.6-4.5,1.7-9.7,1.1C1647.9,576.2,1574.6,556.3,1560.4,560.3z"/>
			<path d="M1676.3,621.3c-1.3,0-2.7-0.4-4-1.2l-0.2-0.1c-1.9-1.4-5.9-2.9-9.4-3c-5,0.6-8.8-2.3-9.6-5.6c-0.6-3.2-2-6.6-4.4-11.5
				l-0.1-0.2c-0.3-0.7-3-2.8-9.4-4.5c-11.4-3.1-29.3-3.2-41.9,6.6c-24.9,19.5-45.8,5.3-49.8,2.3l-0.1-0.1c-4.1-3.7-4.9-7.7-4.8-10.4
				c0.1-3.9,1.9-7.8,4.9-10.4c0.5-0.4,0.8-0.7,1-0.9c-0.2-0.2-0.4-0.4-0.5-0.6l-0.3-0.3l-0.2-0.4c-0.6-1.4-0.7-2.2-0.7-2.7l0,0
				c-0.1-0.1-0.2-0.2-0.5-0.5c-1.8-1.8-4.8-2.8-8.6-2.8c-3.5,0.3-7.5-1.2-10.7-4.1c-1-0.9-3.3-3.3-3.4-5.8c-0.3-0.1-0.6-0.2-0.8-0.3
				c-0.1-0.1-0.3-0.1-0.4-0.2c0,0-0.2,0.1-0.5,0.3l-2.7,2l-0.7-3.3c-0.7-3.3-0.1-6.3,1.7-8.4c1.3-1.6,3.2-2.6,5.2-2.7
				c0.6-0.2,1.3-0.3,1.9-0.4c1.1-0.2,2.1-0.4,2.8-0.8c2.2-2.1,5.6-3.1,9.5-2.9c5.2,0.3,10.2,2.7,12.8,6.1c1.9,2.3,4.6,3.6,7.7,3.7
				c9.6-2.4,40.1,4.1,69.5,10.3c17.9,3.8,34.7,7.4,44.6,8.4c3.4,0.4,5-0.1,6.9-0.6c0.7-0.2,1.4-0.4,2.1-0.5c2.7-0.7,3.8,0.6,4.1,1.4
				c0.3,0.7,0.7,2.4-2,4.2l-0.2,0.1c-1.2,0.6-2.9,3.1-4.1,4.9c-0.5,0.7-0.9,1.3-1.3,1.9l-0.2,0.2c-2.5,2.5-6.2,2.8-10.3,2.6
				c0.7,1.3,1.8,2.5,3,3.9c3.4,3.9,7.6,8.8,9.1,18.9c0.8,3.9-0.8,5.7-1.8,6.4C1678.6,621,1677.5,621.3,1676.3,621.3z M1674.6,616.5
				c1,0.6,2,0.6,2.3,0.4c0.2-0.2,0.4-0.9,0.1-2.1l0-0.2c-1.3-8.9-4.9-13.1-8.1-16.8c-2.3-2.7-4.4-5.2-5-8.7l-0.4-2.7l2.7,0.3
				c5,0.5,8.5,0.5,10.1-1c0.4-0.5,0.7-1,1.1-1.6c0.6-0.9,1.3-1.9,2.1-2.9c-1.5,0.2-3.3,0.4-5.8,0.1c-10.1-1.1-27.1-4.7-45.1-8.5
				c-27.9-5.9-59.5-12.6-67.8-10.3l-0.3,0.1h-0.3c-4.5,0-8.6-1.9-11.3-5.3c-1.9-2.4-5.9-4.2-9.7-4.5c-2.8-0.2-5.1,0.5-6.4,1.8
				l-0.3,0.3c-1.5,1-3.1,1.3-4.5,1.6c-0.6,0.1-1.2,0.2-1.7,0.4l-0.3,0.1h-0.3c-0.8,0-1.7,0.4-2.2,1.2c-0.4,0.5-0.8,1.2-0.9,2.3
				c0.9,0,1.5,0.3,2,0.5c0.2,0.1,0.3,0.1,0.4,0.2c0.9-0.3,1.6,0,2.1,0.3c1.2,0.9,1,2.3,0.9,2.9c0,0.2-0.1,0.4-0.1,0.6
				c0,0.3,0.6,1.6,2.3,3c1.8,1.5,4.6,3.1,7.3,2.8l0.2,0c5,0,9.1,1.4,11.7,4c1.2,1.2,1.5,1.8,1.7,3c0,0.3,0.1,0.6,0.3,1.3
				c1,1,1.8,2,1.7,3.4c-0.1,1.5-1.2,2.7-2.8,4c-1.5,1.3-3.3,3.9-3.3,7.1c0,2.6,1.1,5.1,3.4,7.2c3.7,2.8,22.2,15.1,44.5-2.3
				c13.9-10.8,32.7-10.9,45.6-7.3c3.1,0.9,10.6,3.2,12.2,7c2.6,5.2,4,8.9,4.7,12.4c0.3,1.1,2.1,2.7,5,2.3l0.3,0
				C1667.2,612.7,1672.1,614.6,1674.6,616.5z"/>
		</g>
		<g id="_x32_1164912">
			<path inkscape:connector-curvature="0" d="M1676.3,579.6c-2.8,1.7-5.7,4.5-10.8,11.4c-5.7,7.4-22.7,14.8-43.7,14.8
				c-20.5,0-33-3.4-42-10.8c-5.1-4-9.1-6.2-12.5-8c-6.2-2.8-7.4-9.1-5.7-14.2c-1.7,2.8-2.8,5.7-6.2,5.1c-2.3,0-6.8,0-5.7,2.3
				c-0.6-1.1-0.6-2.8-1.1-3.4c-0.6-0.6-1.1-1.1-1.1-1.1c1.7,1.1,5.7-2.3,8.5-2.3c2.3,0.6,5.1-2.3,4.5-5.7c-0.6-2.8-1.1-5.1-1.7-7.4
				c4.5-2.3,64.2,8.5,76.1,9.7C1646.7,570.5,1680.8,575.7,1676.3,579.6z"/>
			<path d="M1621.7,607.9c-20.7,0-33.7-3.4-43.4-11.3c-5.3-4.1-9.2-6.3-12.1-7.7c-4.5-2-6.8-5.6-7.4-9.5c-1,0.5-2.2,0.8-3.8,0.6
				c-2.2,0-3.6,0.1-4,0.4c0.3-0.2,0.5-0.9,0.4-1.2l-3.8,1.9c0,0,0,0,0,0c-0.4-0.8-0.6-1.6-0.7-2.2c-0.1-0.2-0.1-0.6-0.2-0.8l-1-1
				l2.7-3.3c-0.1-0.1-0.3-0.1-0.3-0.1c0.4,0,1.7-0.6,2.5-1c1.6-0.7,3.4-1.5,5.1-1.5l0.5,0.1c0.2,0,0.6-0.1,1-0.5
				c0.6-0.5,1.1-1.6,0.9-2.8c-0.5-2.7-1.1-5-1.7-7.2l-0.4-1.7l1.5-0.8c3.1-1.6,18.4,0.5,53.6,6c10.6,1.7,19.8,3.1,23.6,3.5
				c0.3,0,41.3,3.3,43.7,10.1c0.4,1.2,0,2.4-1,3.3l-0.3,0.2c-2.3,1.4-4.8,3.7-10.2,10.8C1661.2,600.1,1643.7,607.9,1621.7,607.9z
				 M1561.4,572.5l2.1,1c-1.3,3.8-0.8,9.1,4.5,11.6c3.1,1.6,7.3,3.9,12.9,8.2c8.9,7.3,21.1,10.3,40.7,10.3
				c20.4,0,36.9-7.2,42.1-13.9c4.2-5.6,7.1-8.8,9.8-10.8c-5.6-2.6-27.2-6.2-38.9-6.8c-4.1-0.4-13.3-1.8-24-3.5
				c-16-2.5-41.7-6.5-49.3-6.5c0,0-0.1,0-0.1,0c0.4,1.6,0.8,3.3,1.2,5.2C1562.8,569.1,1562.4,571,1561.4,572.5z M1551.5,579.2
				C1551.5,579.2,1551.5,579.2,1551.5,579.2C1551.5,579.2,1551.5,579.2,1551.5,579.2L1551.5,579.2z M1555.3,575.8l0.4,0
				c0.6,0.1,1,0.1,1.5-0.3c-0.5,0.1-1,0.1-1.4,0c-0.3,0-0.7,0.1-1.1,0.3C1554.8,575.8,1555,575.8,1555.3,575.8z"/>
		</g>
		<g id="_x32_1353288">
			<path inkscape:connector-curvature="0" class="st10" d="M1568.3,558c5.7-5.7,12.5-8.5,19.3-6.8h1.7c3.4-2.8,11.4-3.4,15.9-1.1
				h2.3c6.8-2.3,19.9,0,24.4,4.5l1.7,1.1c15.3-1.1,24.4,5.7,35.2,16.5c1.1,1.1,2.8,3.4,5.7,4c3.4,0.6,4,2.3,1.1,4
				c-3.4,1.7-6.2,4.5-11.9,10.8c-5.1,6.8-21.6,13.6-42,13.6c-19.9,0-31.8-3.4-40.9-10.2c-5.1-4-9.1-6.2-11.9-8
				c-3.4-1.1-8-5.7-6.2-10.2c1.1-4.5-1.7-10.2-4-15.9c1.7-1.1,6.2-2.8,8.5-1.7L1568.3,558z"/>
			<path d="M1621.7,606.8c-19.6,0-32.2-3.2-42.2-10.7c-4.6-3.5-8.2-5.7-10.9-7.3l-0.7-0.4c-2.4-0.9-5.4-3.1-6.9-6.3
				c-1-2.2-1.2-4.4-0.4-6.5c0.7-3.2-1-7.5-2.9-12.1c-0.3-0.8-0.7-1.6-1-2.4l-0.6-1.6l1.4-1c1.5-1,6.1-3.1,9.6-2.2l0,0
				c6.4-6.3,13.8-8.9,20.8-7.2h0.7c4.2-2.9,12-3.4,17.1-1.1h1.5c7.7-2.4,21.1,0.2,26.1,5l0.9,0.6c16.6-1,26.2,7.2,36.2,17.1
				c0.2,0.2,0.4,0.4,0.6,0.6c1,1.1,2.2,2.4,4,2.7c3.4,0.6,4.4,2.1,4.6,3.4c0.2,1.2-0.1,2.9-2.8,4.5l-0.1,0.1c-3,1.5-5.5,4-11.2,10.3
				C1660,599.5,1643.2,606.8,1621.7,606.8z M1561.4,561.3c0.1,0.2,0.2,0.4,0.2,0.6c2.1,5.1,4.3,10.3,3.1,14.9l-0.1,0.2
				c-0.4,1-0.3,2.1,0.3,3.3c1,2,3.1,3.7,4.7,4.2l0.4,0.2l0.8,0.5c2.8,1.7,6.6,3.9,11.3,7.6c9.1,6.8,21,9.8,39.6,9.8
				c20,0,35.7-6.6,40.3-12.8l0.1-0.2c5.6-6.1,8.6-9.3,12.4-11.2c-0.1,0-0.2,0-0.3-0.1c-3.1-0.6-5.1-2.8-6.3-4
				c-0.2-0.2-0.4-0.4-0.5-0.5c-11.3-11.3-19.6-16.9-33.6-15.9l-0.7,0.1l-2.6-1.8c-3.8-3.8-16.1-6.1-22.2-4l-0.3,0.1h-3.1l-0.5-0.2
				c-3.7-1.9-10.8-1.4-13.6,0.9l-0.6,0.5l-3-0.1c-5.7-1.4-11.8,0.8-17.3,6.3l-0.2,0.2l-2.4,1.2l-1-0.5
				C1565.4,560.1,1563.2,560.6,1561.4,561.3z"/>
		</g>
		<g id="g2571">
			<g id="_x32_1353112">
				<path inkscape:connector-curvature="0" class="st11" d="M1668.9,572.3c-10.8-10.8-19.9-17.6-35.2-16.5c0,0.6,0,2.3-0.6,3.4
					c9.1,3.4,22.2,13.6,27.8,21C1663.2,577.9,1667.2,575.1,1668.9,572.3z"/>
				<path d="M1660.7,583.4l-1.5-1.9c-5.2-6.8-17.8-16.9-26.9-20.3l-2.2-0.8l1.1-2.1c0.2-0.3,0.3-1,0.3-2.5v-2l2-0.1
					c17-1.3,26.8,7,36.9,17.1l1.2,1.2l-0.9,1.4c-1.3,2.2-3.7,4.3-5.8,6.1c-0.9,0.8-1.8,1.5-2.4,2.2L1660.7,583.4z M1635.7,557.9
					c8.9,3.9,19.7,12.5,25.5,19.2c0.3-0.3,0.6-0.5,0.9-0.8c1.4-1.2,2.9-2.5,4-3.8c-10.2-10-18.1-15.1-30.4-14.7
					C1635.7,557.8,1635.7,557.9,1635.7,557.9z"/>
			</g>
			<g id="_x32_1353024">
				<path inkscape:connector-curvature="0" class="st11" d="M1632,554.6c-4.5-4.5-17.6-6.8-24.4-4.5c0,2.3,0,5.7-1.1,8
					c4,1.7,7.4,5.7,10.8,9.7c2.3-0.6,8-2.3,10.8-2.8C1629.1,562.6,1631.4,557.5,1632,554.6z"/>
				<path d="M1616.4,570.1l-0.9-1c-3.2-3.7-6.5-7.6-10-9.1l-2.1-0.9l1-2c0.9-1.8,0.9-4.9,0.9-7v-1.5l1.5-0.5
					c7.7-2.6,21.6,0.1,26.6,5.1l0.8,0.8l-0.2,1.1c-0.7,3.3-3.2,8.9-4.2,10.8l-0.5,0.9l-1,0.2c-1.8,0.4-4.8,1.2-7.3,1.9
					c-1.4,0.4-2.6,0.7-3.4,0.9L1616.4,570.1z M1609,557c3.3,1.9,6.1,5.1,8.9,8.3c0.6-0.2,1.3-0.4,2-0.6c2.2-0.6,4.7-1.3,6.5-1.7
					c1.1-2.2,2.4-5.4,3.1-7.6c-4.2-3.1-13.9-4.9-19.9-3.7C1609.6,553.4,1609.5,555.3,1609,557z"/>
			</g>
			<g id="_x32_1352936">
				<path inkscape:connector-curvature="0" class="st11" d="M1605.3,550.1c-4.5-2.3-12.5-1.7-15.9,1.1c-1.1,2.3-1.7,6.8-1.7,9.1
					c2.3,0,5.7,1.7,6.8,2.8c3.4-1.1,8-3.4,9.7-5.1C1604.7,555.8,1605.8,552.4,1605.3,550.1z"/>
				<path d="M1593.9,565.6l-0.9-0.9c-0.7-0.7-3.6-2.2-5.3-2.2h-2.1v-2.1c0-2,0.5-7.1,1.9-10l0.2-0.4l0.3-0.3
					c4.1-3.4,12.9-4.1,18.2-1.4l0.9,0.4l0.2,1c0.6,2.4-0.2,5.5-0.8,7.9c-0.1,0.4-0.2,0.8-0.3,1.1l-0.1,0.6l-0.4,0.4
					c-2.1,2.1-7,4.5-10.5,5.6L1593.9,565.6z M1589.9,558.5c1.8,0.5,3.7,1.4,5,2.3c2.8-1.1,5.9-2.7,7.4-3.9c0-0.2,0.1-0.4,0.1-0.6
					c0.4-1.5,0.9-3.4,0.9-4.8c-3.7-1.3-9.5-0.8-12.2,1C1590.5,554.1,1590.1,556.5,1589.9,558.5z"/>
			</g>
			<g id="_x32_1352848">
				<path inkscape:connector-curvature="0" class="st11" d="M1568.3,558c5.7-5.7,12.5-8.5,19.3-6.8c-1.1,1.7-1.7,5.1-1.7,8.5
					c-6.2-0.6-14.2,1.1-17.6,3.4C1568.3,562,1568.3,559.8,1568.3,558z"/>
				<path d="M1566.2,567.1v-10l0.6-0.6c6.6-6.6,14.1-9.2,21.3-7.4l2.9,0.7l-1.7,2.5c-0.7,1-1.3,3.7-1.3,7.3v2.3l-2.3-0.2
					c-6-0.5-13.4,1.2-16.2,3.1L1566.2,567.1z M1570.5,558.9v0.8c3.8-1.4,8.9-2.3,13.4-2.2c0.1-1.4,0.3-3.1,0.7-4.6
					C1579.9,552.6,1575,554.7,1570.5,558.9z"/>
			</g>
			<g id="_x32_1352760">
				<path inkscape:connector-curvature="0" class="st11" d="M1658.7,581.3c-5.1-7.4-17.6-15.9-26.1-19.9c0,0.6-1.1,2.8-1.7,4.5
					c3.4,5.1,10.2,16.5,13.1,22.7C1646.7,587.6,1654.7,584.2,1658.7,581.3z"/>
				<path d="M1642.8,591.5l-0.8-1.9c-2.7-6-9.4-17.1-12.9-22.4l-0.6-0.9l0.3-1c0.3-0.8,0.7-1.7,1-2.5c0.2-0.5,0.5-1.2,0.6-1.5v-3.2
					l3,1.4c9.1,4.3,21.7,12.9,27,20.6l1.2,1.7l-1.7,1.2c-4.9,3.5-14.8,7.5-15.2,7.6L1642.8,591.5z M1633.2,565.7
					c3.4,5.2,8.8,14.2,11.7,20.3c3.1-1.3,7.5-3.3,10.6-5.2c-4.9-5.9-14.2-12.4-21.8-16.4c0,0,0,0,0,0
					C1633.6,564.9,1633.4,565.3,1633.2,565.7z"/>
			</g>
			<g id="_x32_1352672">
				<path inkscape:connector-curvature="0" class="st11" d="M1615.5,593.8c1.1-8,1.7-19.3,1.7-23.3c2.8-0.6,8.5-2.3,10.8-2.8
					c2.8,4.5,9.7,16.5,12.5,22.2C1633.7,591.6,1622.3,594.4,1615.5,593.8z"/>
				<path d="M1617.4,596c-0.7,0-1.4,0-2.1-0.1l-2.3-0.2l0.3-2.2c1.1-7.7,1.7-19.1,1.7-23v-1.7l1.7-0.3c1.8-0.4,4.8-1.2,7.3-1.9
					c1.4-0.4,2.6-0.7,3.4-0.9l1.5-0.4l0.8,1.3c2.8,4.4,9.7,16.4,12.6,22.3l1.2,2.4l-2.6,0.6C1634.7,593.5,1624.6,596,1617.4,596z
					 M1619.3,572.3c-0.1,4.5-0.6,12.7-1.4,19.5c5.7-0.1,13.6-1.9,19.4-3.3c-2.9-5.6-7.7-13.9-10.4-18.3c-0.6,0.2-1.2,0.3-1.8,0.5
					C1623.2,571.2,1621.1,571.8,1619.3,572.3z"/>
			</g>
			<g id="_x32_1352584">
				<path inkscape:connector-curvature="0" class="st11" d="M1595.6,566.6c2.8-1.1,6.8-3.4,9.7-5.7c2.3,1.7,6.8,5.7,8.5,8
					c0,5.1-1.7,19.9-2.3,25c-4.5,0-11.9-1.1-15.9-3.4C1596.2,581.9,1596.7,572.3,1595.6,566.6z"/>
				<path d="M1613.4,596h-1.9c-5.1,0-12.8-1.3-17-3.7l-1.2-0.7l0.1-1.3c0.5-7,1.2-17.6,0-23.3l-0.3-1.7l1.6-0.7
					c2.8-1.1,6.6-3.3,9.1-5.4l1.3-1l1.3,1c2.1,1.5,7,5.7,9,8.4l0.4,0.6v0.7c0,4.8-1.4,17.7-2.1,23.8L1613.4,596z M1597.8,589.2
					c3.1,1.4,7.9,2.3,11.8,2.5c0.6-5.6,1.9-17.1,2-22.1c-1.5-1.7-4.3-4.3-6.4-6c-2.2,1.6-4.9,3.2-7.3,4.3
					C1598.7,573.3,1598.4,581,1597.8,589.2z"/>
			</g>
			<g id="_x32_1352496">
				<path inkscape:connector-curvature="0" class="st11" d="M1567.2,573.4c0.6-1.1,1.1-5.1,1.1-6.8c4.5-2.8,15.9-5.7,24.4-1.1
					c0.6,5.7,0,19.9-0.6,23.3C1584.8,583,1572.9,575.1,1567.2,573.4z"/>
				<path d="M1593.7,592.6l-2.8-2.2c-8.1-6.2-19.4-13.5-24.3-15l-2.4-0.7l1.1-2.3c0.3-0.7,0.9-4.2,0.9-5.9v-1.2l1-0.6
					c5.4-3.3,17.5-6,26.6-1.2l1,0.5l0.1,1.1c0.6,5.7,0,20.2-0.6,23.9L1593.7,592.6z M1569.8,572.1c5.7,2.4,14.4,8.1,20.6,12.7
					c0.3-5,0.6-13.2,0.3-17.9c-7.1-3.2-16.1-1.1-20.3,1C1570.3,569.1,1570.1,570.7,1569.8,572.1z"/>
			</g>
		</g>
		<g id="_x32_1352408">
			<path inkscape:connector-curvature="0" d="M1538.8,563.2c-1.1,0-1.7-3.4-4-3.4c-0.6,0-2.3,0.6-2.8,0c0,1.1,0.6,2.3,1.1,2.8
				C1533.7,564.3,1536.5,563.2,1538.8,563.2z"/>
		</g>
		<g id="_x32_1352320">
			<path d="M1538.8,575v-4.3c2.7,0,4.2-1.9,6.1-4.7c1.3-2,2.7-4,4.9-4.4l0.7,4.2c-0.5,0.1-1.5,1.6-2.1,2.5
				C1546.6,571.1,1544,575,1538.8,575z"/>
		</g>
		<g id="_x32_1352232">
			<path d="M1544.1,575.8c-0.7,0-1.4-0.1-2.2-0.5l1.7-3.9c1.3,0.6,3.4-2,5.1-4.2c2.2-2.7,4.4-5.5,7.4-5.1l-0.6,4.2
				c-0.7,0.1-2.5,2.3-3.4,3.5C1550.1,572.5,1547.4,575.8,1544.1,575.8z"/>
		</g>
		<g id="_x32_1352144">
			<path d="M1542.2,563c-1.6,0-3.9-0.7-5.5-2.3c-0.9-0.9-1-0.9-1.9-0.5c-0.6,0.3-1.3,0.6-2.3,0.6v-4.3l0,0c0.1,0,0.4-0.1,0.6-0.2
				c1.3-0.6,3.6-1.6,6.6,1.4c0.7,0.7,1.9,1.1,2.5,1.1V563z"/>
		</g>
		<g id="_x32_1352056">
			<path d="M1533.9,574.1c-0.8,0-1.6-0.2-2.3-0.5l1.9-3.8c0.9,0.4,3.8-0.9,5.8-3.8l3.6,2.4C1540.7,571.5,1537.1,574.1,1533.9,574.1z
				"/>
		</g>
		<g id="_x32_1351968">
			<path d="M1529.2,559.2l-3.6-2.4c0.2-0.4,0.5-0.7,0.7-1.1c1-1.6,2.1-3.4,3.9-4.6l2.4,3.6c-1,0.6-1.8,2-2.6,3.3
				C1529.7,558.4,1529.5,558.8,1529.2,559.2z"/>
		</g>
		<g id="_x32_1351880">
			<rect x="1524.9" y="562.3" width="1.7" height="1.1"/>
		</g>
	</g>
	<g id="g2588" transform="matrix(0.370409,0,0,0.370409,845.1194,-37.89129)">
		<g id="_x32_1351704">
			<path inkscape:connector-curvature="0" class="st9" d="M1594.5,663.2c0.6,1.1-0.6,4,0,5.1c1.1,2.3,1.1,3.4,2.8,4.5
				c1.1,0,2.8,0,4,0c12.5,0,27.3-5.1,39.8-5.1c11.9,0,19.3,4,26.1,4c4,0,7.4-2.8,7.4-5.7s-4.5-4.5-14.2-4.5c-13.6,0-21,3.4-32.4,3.4
				c-17,0-19.9-6.2-19.9-9.1c0-2.8,2.8-6.8,11.9-6.8c2.8,0,5.1-0.6,6.3-1.7c0.6-1.1,2.3-3.4,5.7-5.1c4-2.3,11.9,0,15.9-2.8
				c0,2.3-3.4,5.7-6.2,6.8c5.7-1.7,11.9-1.7,13.1,2.8c-2.8-1.7-7.4-0.6-9.1,0c-2.3,0.6-3.4,1.1-5.7,1.7c2.3-0.6,3.4,4,6.8,4
				c-3.4,2.8-9.1,2.8-14.8,0.6c-1.7-0.6-6.3-2.3-9.1-2.3c-5.7,0-9.1,1.1-9.1,3.4c0,2.8,3.4,4.5,13.6,4.5s15.9-2.8,31.2-2.8
				c-1.1-1.7,0.6-3.4-1.7-5.1c5.7,0,11.9,1.7,14.2,5.7c-0.6-4,2.8-7.4,1.7-10.8c3.4,0.6,6.2,4,6.8,6.8c0-1.7,2.3-1.7,2.3-3.4
				c3.4,1.7,5.1,5.7,4.5,9.1c1.7-2.8,3.4-1.7,4.5-5.1c1.1,2.3,0.6,9.1-3.4,11.4c3.4-2.3,8.5-2.3,11.9,1.7c-3.4-0.6-5.1,1.1-6.8,1.7
				c-6.8,4-18.2,6.2-26.7,5.7c-9.1-0.6-10.2-2.3-15.9-2.3c3.4,0.6,10.2,7.4,16.5,7.4c4,0,6.8,0,8.5-0.6c1.7-0.6,4.5,0,6.8,1.1
				c1.7,1.7,5.1,3.4,7.4,2.8c-0.6,2.3-1.7,3.4-3.4,4c2.8,1.7,1.1,2.8,4,5.1c-1.1,0-2.3,1.1-4,0.6c1.7,1.7,1.7,4,3.4,5.1
				c-0.6,0-2.3,0.6-3.4,0c1.7,2.3,0,5.1,1.7,6.2c1.7,2.3-1.7,5.1-4.5,2.8c0.6,1.7-1.1,3.4-2.8,2.8c-1.7-0.6-2.8-2.3-2.3-2.8
				c0-0.6,0-0.6,0.6-1.1c-1.1,1.7-3.4,1.7-4.5,1.1c-0.6-0.6-1.1-1.1-1.1-1.7c-4,1.1-5.7-2.3-5.1-4c0.6-1.7,4-2.3,5.1-1.7
				s2.3,1.1,3.4,0c1.1-0.6,1.7-1.7,1.7-2.8c0-1.7-1.7-6.8-9.1-6.2c-8.5,0.6-22.2-1.7-29-4c-0.6-0.6-1.1-0.6-1.7-1.1
				c0,2.3-2.3,3.4-2.3,5.7c0,2.8,1.1,5.1,4.5,6.2c-1.7,2.8-4.5,2.3-5.7,0.6c0,1.7-2.3,2.8-2.3,5.1c-0.6-1.1-1.1-1.7-1.7-2.8
				c-1.7,4-6.3,6.2-8.5,5.1c-2.8,2.3-6.2,1.7-7.4-0.6c-1.7,1.1-4,1.1-5.1,0c0,1.7-1.1,1.1-1.7,3.4c0,1.1-2.3,1.7-3.4,1.1
				s-1.7-2.8-0.6-4c-1.7,1.1-3.4,1.1-4.5,0c0-1.1,0-2.8,1.1-3.4c0.6,0,0.6,0,1.1,0c-1.1-0.6-2.8,0-4-0.6c-1.1-1.1-1.1-2.3-0.6-3.4
				c0.6-0.6,2.3-1.7,3.4-0.6l0.6,0.6c0-1.1,0.6-2.3,1.1-2.3c1.1-0.6,2.8-0.6,4.5,1.1c1.1,1.7,2.3,1.7,5.7,1.1
				c2.8,0,7.4-2.8,10.8-5.7c-9.7-1.7-4-8-1.1-10.2c-2.3-0.6-5.7-0.6-8,0.6c-11.9,6.2-24.4,13.6-32.4,11.4c0,1.1,0.6,2.3,1.1,3.4
				c-1.7,0-5.1,0-6.3-1.7c-0.6,1.1-1.7,4-0.6,6.2c-1.1-1.1-4.5-2.3-6.3-2.8c1.1,1.1,0,3.4,0.6,5.1c-1.7-1.7-4.5-2.8-5.7-1.7
				s-3.4,1.7-5.1,1.1c-1.1,1.7-2.8,2.8-4.5,3.4c0-1.1,0-2.8-0.6-3.4c-0.6,1.7-2.3,4-4.5,5.1c0-1.1,0-2.8-0.6-4
				c0,2.3-4.5,3.4-5.1,5.1c0.6-1.7,0.6-3.4,0.6-4.5c-1.1,1.7-2.8,3.4-5.7,4c0.6-1.1,1.1-2.3,0.6-3.4c-0.6,2.3-4,3.4-6.8,2.8
				c0,1.1-2.3,2.8-5.1,1.1c-1.7-0.6-2.8-2.3-1.7-3.4c-2.3,0-4.5-2.3-3.4-4c0-0.6,0.6-1.1,0.6-1.7c-1.7-1.1-2.3-3.4-0.6-5.1
				c0.6-0.6,2.3-0.6,3.4-0.6c0-4.5,4-4.5,5.7-1.1c1.1,1.7,4.5,4.5,7.4,4c1.1,0,1.7-0.6,2.8-0.6c3.4-1.1,10.2-4,14.2-7.4
				c0.6-1.7,0.6-2.8,0.6-4c-2.3,1.1-4.5,2.3-5.7,4c0-0.6,0-1.1,0-1.7c-1.7,0-4.5-0.6-5.7-0.6c0.6-0.6,1.1-3.4,2.3-4
				c-2.8,0.6-5.7,0-8-0.6c1.1-1.1,1.1-2.8,1.7-4.5c-1.1,0.6-4-0.6-6.2,0c0.6-1.7,1.1-4,2.8-4.5c-2.3,0.6-5.1,0-8-1.1
				c2.3,0,3.4-2.8,5.1-2.8c-4.5,0-5.7-2.3-8-3.4c1.7,0.6,2.8-1.1,4.5-1.1c-1.7-0.6-4.5-3.4-3.4-5.1c-0.6,0.6-1.1,1.7-2.3,2.3
				s-3.4,0-5.1-1.7c-1.1-2.3-0.6-5.1,1.7-5.7c-2.8-0.6-2.8-3.4-1.7-4.5c0.6-1.1,2.8-2.8,4-1.1c0.6,0.6,1.1,1.7,1.7,2.3
				c-0.6-1.1-0.6-3.4-0.6-5.1c0.6-1.7,1.7-1.7,3.4-2.3c1.7,0,2.8,1.7,2.8,3.4s0.6,2.8,1.1,5.1c0-0.6,0.6-1.7,0.6-2.3
				c0-2.3,2.8-1.7,4.5-1.1c1.7,0.6,2.3,4,0,5.7c-1.1,1.1-0.6,2.8,0.6,4c4,6.2,10.8,11.4,16.5,11.9c0-2.3,1.1-4.5,2.8-6.2
				c0-1.1,0.6-2.8,1.1-4c0.6-3.4,2.3-5.1,4.5-4c-0.6-0.6-1.1-1.1-1.1-1.7c-1.7-1.7-3.4-4.5-2.3-6.8s4.5-1.7,5.7-0.6
				c-0.6-3.4,3.4-6.2,3.4-8c0.6,1.7,1.7,4,1.1,5.7c0.6-2.3,4.5-5.1,7.4-6.2c-1.1,1.7,2.3,4.5,1.7,6.2c1.1-2.8,5.7-4.5,9.1-4.5
				c-1.1,1.1-1.1,3.4-1.1,4.5c1.7,0,4.5-0.6,5.7-2.3c0,2.3-1.1,4.5-2.3,5.7c0.6-0.6,2.8-0.6,4.5-0.6c-1.7,1.7-1.1,3.4-2.8,4.5
				c2.3-1.1,5.1-1.1,5.7,1.1c1.1,1.7-0.6,4.5-1.7,6.2C1596.2,662,1595,663.2,1594.5,663.2z"/>
			<path d="M1530.4,713.7c-1.1,0-2.2-0.3-3.3-0.9c-1.7-0.6-2.9-2-3.3-3.5c0-0.1,0-0.2-0.1-0.4c-1.2-0.5-2.2-1.4-2.8-2.5
				c-0.7-1.2-0.7-2.5-0.1-3.7c0-0.1,0.1-0.3,0.1-0.4c-0.7-0.8-1.1-1.8-1.2-2.9c-0.2-1.6,0.4-3.1,1.6-4.3c0.7-0.7,1.8-1,3-1.1
				c0.6-2.1,2-3.2,3.3-3.5c2.3-0.5,4.7,0.8,6,3.4c1,1.4,3.6,3.3,5.1,3l0.4,0c0.2,0,0.4-0.1,0.7-0.2c0.4-0.1,1-0.3,1.7-0.4
				c1.8-0.6,4.6-1.7,7.3-3.1v-1.8c-0.5-0.1-1-0.1-1.5-0.2c-0.8-0.1-1.7-0.2-2-0.2h-5.2l3.5-3.5c0-0.1,0.1-0.2,0.1-0.3
				c-1.7-0.1-3.3-0.5-4.7-0.8l-3.7-0.9l2.7-2.7c0.2-0.2,0.3-0.5,0.5-0.9c0,0,0,0,0,0c-1-0.1-2.1-0.3-2.9-0.1l-3.8,0.9l1.4-4.2
				c0.1-0.4,0.3-0.8,0.4-1.2c-1.4-0.2-2.9-0.7-4.5-1.3l0.7-3.8c-0.9-0.5-1.6-1-2.3-1.5c-0.5-0.4-1-0.7-1.5-1l1.4-3.4
				c-0.2-0.2-0.4-0.4-0.5-0.6c0,0-0.1,0-0.1,0.1c-2.1,1.1-5.3,0.2-7.6-2.1l-0.2-0.2l-0.2-0.3c-1-1.9-1.1-4.1-0.2-5.9
				c0.1-0.2,0.2-0.4,0.3-0.5c-0.3-0.4-0.6-0.9-0.8-1.5c-0.5-1.6-0.1-3.3,0.9-4.5c0.8-1.3,2.4-2.6,4.2-2.7c0.2,0,0.3,0,0.5,0v-0.3
				l0.1-0.3c0.8-2.5,2.6-3,4-3.4c0.2-0.1,0.5-0.1,0.8-0.2l0.3-0.1h0.3c2.5,0,4.6,2.1,4.9,4.8c1.2-0.4,2.9-0.3,4.8,0.4
				c1.5,0.5,2.6,1.9,2.9,3.7c0.3,2.1-0.4,4.2-2,5.5c0,0.1,0.1,0.5,0.6,0.9l0.3,0.4c3.2,5.1,8.4,9.2,12.9,10.6
				c0.5-1.6,1.3-3.2,2.6-4.6c0.2-1.3,0.7-2.7,1.2-3.7c0.4-2.3,1.4-4,2.7-5c-1.7-2.3-2.7-5.2-1.4-7.8c0.7-1.4,2-2.4,3.7-2.7
				c0.7-0.1,1.4-0.1,2.1,0c0.5-1.4,1.4-2.7,2.1-3.7c0.4-0.5,0.8-1.2,0.9-1.4c0,0,0,0.1,0,0.2l4.2-0.7c0.1,0.3,0.2,0.6,0.4,1
				c0,0.1,0.1,0.2,0.1,0.3c1.7-1.4,3.7-2.5,5.2-3.1l6.4-2.6l-3.6,5.5c0.1,0.3,0.4,0.8,0.6,1.2c2.3-1.7,5.5-2.5,8.3-2.5h4.9l1.8-2.6
				v7.1c0,1-0.2,2-0.5,3c0.2,0,0.4,0,0.6,0h5.2l-3.6,3.6c-0.1,0.1-0.2,0.2-0.2,0.3c0.4,0.1,0.8,0.2,1.2,0.4c1.1,0.5,2,1.5,2.4,2.7
				c1.6,3-0.9,6.8-1.9,8.3l-0.3,0.5l-0.5,0.3c-0.3,0.2-0.8,0.5-1.2,0.8c-0.1,0.1-0.2,0.2-0.3,0.2c0,0.5-0.1,1.1-0.2,1.7
				c-0.1,0.4-0.2,1.1-0.1,1.4c0.3,0.6,0.5,1.2,0.7,1.7c0.4,0.9,0.5,1.3,0.9,1.6h3.2c6.1,0,12.9-1.3,19.5-2.5
				c2.1-0.4,4.3-0.8,6.4-1.2c-20.2-0.2-21.3-9.4-21.3-11.2c0-3.3,3-9,14.1-9c2.4,0,3.9-0.5,4.6-0.9c0.7-1.2,2.5-3.7,6.4-5.7
				c2.2-1.3,5.3-1.4,8.3-1.4c2.8-0.1,5.7-0.1,7.3-1.2l3.4-2.4v4.1c0,1.2-0.5,2.5-1.3,3.6c1.7,0.1,3.4,0.4,4.8,1.2
				c1.7,0.9,2.8,2.4,3.2,4.3l0.6,2.4c4.1,0.1,8.9,1,12.3,3.2c0.2-0.5,0.4-1,0.5-1.5c0.6-1.6,1.1-2.9,0.7-4l-1.1-3.4l3.5,0.6
				c2.7,0.5,5,2.2,6.6,4.3v-2.2l3.1,1.5c2.6,1.3,4.5,3.7,5.4,6.5c0.3-0.3,0.5-0.6,0.7-1.3l1.6-4.9l2.3,4.6c0.9,1.8,1,5.4,0,8.7
				c2.9,0,5.9,1.2,8.3,4l3.8,4.5l-5.8-1c-1.8-0.3-2.9,0.2-4.1,0.9c-0.5,0.2-0.9,0.5-1.5,0.7c-7,4-18.6,6.5-27.7,5.9
				c-1.5-0.1-2.7-0.2-3.9-0.4c1.6,0.7,3.1,1.2,4.6,1.2c3.6,0,6.5,0,7.8-0.5c2.6-0.9,6.2,0.1,8.4,1.3l0.3,0.2l0.2,0.2
				c1.5,1.5,4.1,2.6,5.4,2.3l3.5-0.9l-0.9,3.5c-0.4,1.6-1.1,2.9-2,3.8c0.3,0.4,0.4,0.9,0.6,1.3c0.2,0.6,0.4,1,1.3,1.8l4.8,3.8h-6.1
				c-0.1,0-0.2,0.1-0.4,0.1l0,0c0.4,0.8,0.6,1.4,1,1.6l5.9,3.9h-7c0,0-0.1,0-0.3,0.1c-0.1,0-0.1,0-0.2,0c0,0.5,0,0.9,0,1.3
				c0,0.3,0,0.8,0,1l0.2,0.1l0.2,0.3c1.3,1.8,1.1,4.1-0.5,5.7c-1,1-2.6,1.6-4.2,1.4c-0.2,0.3-0.4,0.6-0.7,0.8
				c-1.2,1.2-2.9,1.6-4.5,1.1c-1.3-0.4-2.5-1.4-3.2-2.4c-1.2,0.1-2.4,0-3.3-0.5l-0.3-0.2l-0.2-0.2c-0.3-0.3-0.5-0.5-0.8-0.9
				c-1.8,0.1-3.4-0.5-4.6-1.7c-1.4-1.5-1.9-3.6-1.4-5.3c0.4-1.2,1.4-2.2,2.8-2.8c1.5-0.6,3.7-0.9,5.3-0.2c0.3,0.1,0.7,0.3,0.9,0.4
				l0.2-0.2l0.4-0.2c0.5-0.2,0.5-0.7,0.5-0.9c0-0.3-0.2-1.6-1.4-2.7c-1.2-1.1-3-1.6-5.4-1.4c-8.6,0.6-22.5-1.7-29.7-4
				c-0.2,0.3-0.4,0.6-0.5,0.8c-0.5,0.7-0.8,1.2-0.8,1.7c0,2.3,0.9,3.5,3.1,4.2l2.5,0.8l-1.4,2.3c-1.1,1.9-2.9,3-4.8,3
				c-0.6,0-1.3-0.1-1.9-0.3c0,0.1-0.1,0.1-0.1,0.2c-0.5,0.7-0.8,1.2-0.8,1.7l-3.7,0.9c-1.3,1.5-2.9,2.7-4.7,3.3
				c-1.3,0.5-2.5,0.6-3.6,0.4c-1.8,1.1-3.8,1.5-5.7,1.1c-1-0.2-2-0.7-2.7-1.3c-1.2,0.4-2.4,0.4-3.5,0.2c0,0.1-0.1,0.1-0.1,0.2
				c-0.2,0.2-0.3,0.3-0.5,0.8c-0.1,1-0.7,1.8-1.6,2.4c-1.4,0.9-3.5,1-4.9,0.3c-1.1-0.5-1.9-1.6-2.2-2.9c-1.3,0-2.5-0.5-3.5-1.5
				l-0.6-0.6v-0.9c0-0.5,0-1.1,0.1-1.8c-0.2-0.1-0.4-0.1-0.6-0.3l-0.3-0.2l-0.2-0.2c-1.7-1.7-2-3.8-1-5.9l0.2-0.3l0.2-0.2
				c1.1-1.1,2.8-1.9,4.3-1.6c0.4-0.6,1-1,1.7-1.2c2.2-0.9,4.7-0.3,6.7,1.7l0.3,0.3c0.4,0.6,0.5,0.7,3.6,0.2l0.4,0
				c1.3,0,3.7-1.1,6.3-2.8c-1.5-0.8-2.5-2-2.8-3.4c-0.5-2,0.4-4.1,1.5-5.7c-0.8,0.1-1.6,0.3-2.3,0.6c-1.2,0.6-2.4,1.3-3.7,1.9
				c-9.8,5.2-19.1,10.2-26.6,10.1l1.5,3l-3.4,0c-1.3,0-3.3,0-5.1-0.6c-0.1,0.7-0.1,1.5,0.2,2l-3.4,2.5c-0.3-0.3-1-0.7-2.2-1.2
				c0,0.5-0.1,1,0,1.2l-3.5,2.2c-1-1-2.3-1.5-2.8-1.5c-1.4,1.3-3.6,1.9-5.6,1.8c-1.3,1.4-2.9,2.5-4.8,3.1l-2.8,0.9v-0.7
				c-0.6,0.5-1.3,1-2,1.3l-3.1,1.5v-2.6c0,0-0.1,0-0.1,0.1c-0.5,0.3-1.3,0.8-1.5,1.1c0,0,0-0.1,0.1-0.2l-2.7-0.9
				c-1.2,0.9-2.6,1.4-4,1.7l-4.3,0.9l0.7-1.4c-0.6,0.1-1.2,0.1-1.8,0.1c-0.3,0.4-0.8,0.7-1.3,1
				C1532.3,713.5,1531.3,713.7,1530.4,713.7z M1528.2,708.6c0.1,0.1,0.3,0.2,0.5,0.3l0.4,0.2c1,0.6,1.6,0.4,1.9,0.3v-2.2l2.6,0.5
				c2.1,0.4,4.1-0.5,4.3-1.3l1.3-5.3c-4,0.4-7.8-3.2-9-5l-0.1-0.2c-0.5-1-1.2-1.3-1.3-1.2c-0.1,0-0.3,0.4-0.3,1.4v2.1h-2.1
				c-0.5,0-1.6,0-2.1,0.1c-0.2,0.2-0.3,0.5-0.3,0.7c0,0.3,0.3,0.7,0.6,0.9l1,0.6v1.1c0,0.8-0.3,1.4-0.5,1.8c0,0,0,0.1-0.1,0.1v0.4
				l-0.3,0.4c0.2,0.3,0.8,0.8,1.5,0.8h5.2L1528.2,708.6z M1680.1,708.4c0.2,0.2,0.5,0.4,0.8,0.5c0,0,0.1-0.1,0.1-0.1l-2.3-6.9
				l5.6,4.5c0.4,0.3,0.8,0.4,1.1,0.3c0.2,0,0.3-0.1,0.3-0.2c-1.2-1.2-1.2-2.9-1.2-4c0-1.1,0-1.7-0.4-2.3l1.8-2.1
				c-0.1-0.3-0.3-0.5-0.4-0.8c-0.4-0.8-0.7-1.4-1.2-2l1.9-3.1c-0.2-0.4-0.3-0.7-0.4-1c-0.2-0.6-0.3-0.8-1.1-1.3l-4-2.4l4.4-1.5
				c0.1,0,0.3-0.1,0.4-0.2c-2-0.6-3.8-1.8-5-2.9c-2-0.9-4-1.2-4.9-0.9c-2,0.7-4.9,0.7-9.2,0.7c-4.4,0-8.8-2.8-12.3-5
				c-1.7-1.1-3.6-2.3-4.5-2.4l0.4-4.2c3,0,4.8,0.4,6.9,0.9c0.7,0.2,1.4,0.3,2.2,0.5c-0.7-0.2-1.3-0.3-2-0.5
				c-4.5-1.1-9.7-2.3-16.2-2.3c-6.1,0-12.9,1.3-19.5,2.5c-6.8,1.3-13.8,2.6-20.3,2.6h-4.6l-0.5-0.4c-1.8-1.2-2.3-2.5-2.9-3.8
				c-0.2-0.4-0.4-0.9-0.7-1.5c-0.6-1.2-0.4-2.5-0.2-3.8c0.1-0.4,0.2-1.1,0.1-1.4l-1.5-3h3.1c0.2-0.1,0.4-0.3,0.5-0.4
				c0.3-0.2,0.8-0.5,1.2-0.8c1.7-2.7,1.4-3.4,1.4-3.5l-0.2-0.3l-0.1-0.4c0-0.1-0.1-0.1-0.1-0.2c-0.4-0.2-1.5-0.1-2.5,0.4l-2.1-3.7
				c0.3-0.2,0.4-0.4,0.6-1.1l-2.6-2.6c-0.7,0.1-1.4,0.2-2,0.2h-2.1v-2.1c0-0.5,0-1.2,0.1-1.9c-1.9,0.6-3.5,1.6-3.9,2.7l-4-1.5
				c-0.1,0.2,0,0.3,0,0.3c0-0.3-0.5-1-0.7-1.4c-0.2-0.3-0.4-0.7-0.6-1.2c-1.8,1.1-3.3,2.5-3.6,3.4c0,0.1-0.1,0.2-0.1,0.3l-3.8-1.1
				c-0.5,0.8-0.8,1.6-0.7,2.3l1.1,6.6l-4.7-4.7c-0.2-0.2-1-0.5-1.7-0.3c-0.4,0.1-0.5,0.3-0.6,0.4c-0.5,1.1,0.6,3,1.9,4.4l0.6,0.6
				v0.5c0.1,0.2,0.4,0.4,0.5,0.5l-2.5,3.4c-0.2-0.1-0.4-0.1-0.4-0.1c-0.2,0.1-0.8,0.7-1.1,2.5l-0.1,0.3l-0.1,0.3
				c-0.5,1-0.9,2.4-0.9,3v0.9l-0.6,0.6c-1.4,1.4-2.2,3.2-2.2,4.7v2.4l-2.3-0.2c-6.1-0.6-13.5-5.8-17.9-12.7
				c-0.8-0.9-1.3-1.9-1.5-2.9c-0.3-1.5,0.1-2.9,1.2-3.9l0.2-0.2c0.5-0.4,0.6-0.8,0.6-1.2c0-0.4-0.1-0.7-0.1-0.8
				c-0.8-0.2-1.3-0.3-1.7-0.4c-0.1,0.5-0.2,0.9-0.4,1.3c-0.1,0.2-0.2,0.4-0.2,0.6l-4.2,0.4c-0.2-0.7-0.3-1.3-0.5-1.8
				c-0.4-1.3-0.7-2.4-0.7-3.9c0-0.6-0.3-1.1-0.5-1.2c-0.1,0-0.3,0.1-0.4,0.1c-0.7,0.2-0.9,0.3-1,0.4c0,1.2,0,3.1,0.3,3.7l-3.4,2.5
				c-0.4-0.4-0.8-1-1.1-1.5c-0.2-0.3-0.4-0.6-0.6-0.8c-0.2,0.1-0.5,0.4-0.6,0.6l-0.1,0.3l-0.3,0.3c-0.1,0.1-0.1,0.3-0.1,0.6
				c0.1,0.2,0.3,0.3,0.7,0.4l0.1,4.2c-0.2,0-0.4,0.1-0.5,0.4c-0.2,0.4-0.2,1.1,0.1,1.9c1,0.9,2.1,1.1,2.4,1c0.3-0.2,0.6-0.6,0.9-1
				c0.3-0.3,0.5-0.6,0.7-0.8l3.3,2.7c0.1-0.1,0.1-0.3,0.1-0.3c0.1,0.5,1.4,1.9,2.2,2.2l-0.6,3.7c0.8,0.5,1.8,0.7,3.3,0.7v4.2
				c0.9,0.1,1.7,0.1,2.3-0.1l1.2,4.1c-0.1,0-0.2,0.2-0.4,0.3c0.3,0,0.6,0.1,0.8,0.1c0.5,0.1,1.2,0.1,1.4,0.1l4.5-2.2l-1.6,4.9
				c-0.2,0.5-0.3,0.9-0.4,1.4c-0.1,0.3-0.1,0.6-0.2,1c1.4,0.2,3,0.3,4.4,0l1.4,4c0.1-0.1,0.2-0.1,0.2-0.1c-0.1,0.1-0.2,0.2-0.2,0.4
				c0.9,0.1,1.9,0.2,2.5,0.2h1c1.2-0.8,2.4-1.4,3.7-2l3.1-1.5l0,3.5c0,1.2,0,2.6-0.7,4.7l-0.2,0.6l-0.4,0.4c-2.3,2-5.5,3.8-8.5,5.2
				l-0.2,0.3v-0.2c-2.4,1.1-4.7,2-6.3,2.5l-0.3,0.1h-0.3c-0.2,0-0.4,0.1-0.7,0.2c-0.5,0.2-1.1,0.4-1.9,0.4c-0.1,0-0.1,0-0.2,0
				l2.4,4.8c0.1,0.2,0.2,0.4,0.3,0.6c0.4-0.4,0.8-0.9,1.2-1.4l3.9-5.9v6.7c0.1-0.1,0.3-0.2,0.3-0.3c0,0,0,0.1,0,0.1l4-1
				c0.1,0.2,0.2,0.5,0.3,0.7c0.4-0.6,0.7-1.1,0.9-1.6l1.1-3.3l2.4,2.4c0.4,0.4,0.7,0.9,0.8,1.5c0.4-0.3,0.7-0.7,1-1.1l0.9-1.4
				l1.5,0.5c1,0.3,2.4-0.1,2.9-0.6c1.3-1.3,3.3-1.3,5.2-0.6l2.1-3.3c1,0.3,2.1,0.7,3.1,1.1c0.3-1.5,0.8-2.7,1.1-3.4l1.6-3.3l2,3.1
				c0.1,0.1,0.4,0.4,1.3,0.5c-0.1-0.3-0.1-0.7-0.1-1.1v-2.8l2.7,0.8c6.3,1.8,16.9-3.8,27.1-9.2c1.2-0.7,2.5-1.3,3.7-2
				c2.9-1.4,6.8-1.4,9.5-0.7l4.2,1l-3.4,2.7c-2.3,1.9-3.7,4-3.4,4.8c0.1,0.5,1.1,1.2,3.6,1.6l4.5,0.8l-3.5,2.9
				c-1.7,1.4-7.6,6-12,6.2c-1.7,0.3-3.2,0.5-4.6,0.2l3.1,3c0.3,0.3,1.4,0.4,2.4-0.3l2-1.3l1.1,2.2c0.2,0.5,0.7,0.7,1.1,0.8
				c0.9,0.2,2.1-0.1,3-0.9l1.1-0.9l1.2,0.6c0.2,0.1,0.7,0.2,1.6-0.2c1.3-0.5,3.1-1.8,4-3.9l1.8-4.2l1.7,3.3c0.2-0.2,0.3-0.5,0.3-0.6
				v-7l1.3,1.9c-0.1-0.5-0.1-1.1-0.1-1.6c0-1.8,0.9-3.1,1.5-4c0.5-0.7,0.8-1.2,0.8-1.7v-5.2l3.6,3.6c0,0,0.1,0.1,0.3,0.2
				c0.3,0.1,0.6,0.3,1,0.6c6.9,2.2,19.8,4.3,27.8,3.7c4.5-0.3,7.1,1.2,8.6,2.5c2,1.9,2.8,4.3,2.8,5.8c0,1.9-1,3.6-2.6,4.6
				c-2.2,1.9-4.5,0.7-5.6,0.2c-0.4-0.1-1.7,0.2-2.1,0.5c0,0.2,0.1,0.6,0.5,1c0.4,0.4,1.1,0.5,2,0.2l2.7-0.8v2.5
				c0.1,0.1,0.1,0.1,0.2,0.2c0.3,0.1,0.9,0.1,1.3-0.2c0.2-0.2,0.4-0.4,0.6-0.6l3.1,2.5c0,0,0,0,0,0v0l0.2,0.2
				C1680.3,708.2,1680.2,708.3,1680.1,708.4z M1605.8,708.5L1605.8,708.5L1605.8,708.5z M1605.7,708.4c0.1,0,0.2,0,0.4,0
				c0.4-1.4,1-2.1,1.5-2.6c0,0,0,0,0,0v-4.6c-0.9-0.3-1.6-0.9-2.3-1.9c-0.7-0.6-1.3-0.9-1.9-0.7c0,0.1-0.1,0.3-0.1,0.4v5.2l-1.1-1.1
				l-0.5,2c0.4-0.1,0.9-0.3,1.1-0.5l2.7,3.3C1605.6,707.9,1605.6,708.2,1605.7,708.4z M1599.1,700.5c0.2,0,0.5,0,0.7,0l-0.4-0.4
				c-0.1,0-0.2,0.1-0.3,0.2C1599.1,700.3,1599.1,700.4,1599.1,700.5z M1524.1,698.4L1524.1,698.4L1524.1,698.4z M1540.9,677.7
				L1540.9,677.7L1540.9,677.7z M1662.1,659.3c5,0.1,14.6,0.8,14.6,6.7c0,3.6-3.3,6.8-7.4,7.6c7.8-0.1,16.9-2.3,22.4-5.5l0.4-0.2
				c0.3-0.1,0.7-0.3,1.1-0.5c0.1-0.1,0.3-0.2,0.5-0.2c-1.6-0.2-3.2,0.2-4.4,0.9c-0.2,0.1-0.3,0.2-0.5,0.3l-2.2-3.6
				c0.1-0.1,0.3-0.2,0.4-0.3c1.2-0.9,2-2.5,2.3-4.1c-0.3,0.2-0.6,0.5-0.9,1l-3.9-1.4c0.3-1.8-0.3-4.1-1.8-5.7
				c-0.2,0.1-0.3,0.3-0.5,0.4c-0.1,0.1-0.3,0.3-0.4,0.3c0.1-0.1,0.1-0.2,0.1-0.3l-4.2,0.4c-0.3-1.3-1.3-2.9-2.6-3.9
				c-0.2,1-0.6,1.9-0.9,2.8c-0.6,1.5-1.1,3-0.9,4.4l-4,1.4c-1.4-2.5-5.1-3.9-8.9-4.4c0,0.2,0,0.5,0,0.7c0,0.6,0,0.8,0.1,0.9
				L1662.1,659.3z M1535.5,673.2L1535.5,673.2L1535.5,673.2z M1641.9,665.6c6.7,0.1,12,1.4,16.4,2.5c3.4,0.8,6.3,1.5,8.9,1.5
				c3,0,5.3-2.1,5.3-3.5c0-0.5-2-2.4-12.1-2.4c-6.9,0-12.2,0.9-17.4,1.8C1642.6,665.4,1642.2,665.5,1641.9,665.6z M1596.4,667.5
				L1596.4,667.5L1596.4,667.5z M1592.5,663.9L1592.5,663.9L1592.5,663.9z M1617.9,651.2c-5.2,0.5-7.6,2.6-7.6,4.6
				c0,1.1,0.7,2.5,2.5,3.8c-0.7-0.8-1.1-1.9-1.1-3.2C1611.7,654.4,1612.9,652.1,1617.9,651.2z M1622.9,655.1c-5.1,0-6.8,1-7,1.3
				c0,0.4,0.6,2.4,11.5,2.4c2.6,0,4.9-0.2,7.1-0.5c-1.1-0.3-2.2-0.6-3.4-1.1l-0.7-0.2C1628.7,656.3,1625,655.1,1622.9,655.1z
				 M1644.8,651.4c0.7,0.7,1.2,1.1,1.9,1.1h5.9l-4.5,3.8c-0.1,0.1-0.1,0.1-0.2,0.2c2.4-0.2,5.1-0.4,8.2-0.5c0,0,0-0.1,0-0.1
				c0-0.9,0-0.9-0.4-1.2l-5.1-3.8h3.1l0,0c-1.9-1.1-5.5-0.4-7.3,0.2l-0.2,0C1645.7,651.1,1645.2,651.3,1644.8,651.4z M1623.4,650.8
				c2.6,0.1,5.7,1.2,8.6,2.1l0.7,0.3c3.4,1.4,6.7,1.8,9.3,1.3c-0.3-0.3-0.5-0.5-0.7-0.8c-0.3-0.4-0.9-0.9-1.1-1c0.1,0,0.2,0,0.3,0
				l-1-4.1c1.1-0.3,1.8-0.5,2.7-0.8c0,0,0,0,0,0l-1.3-3.6c0.7-0.3,1.4-0.7,2-1.2c-1.1,0.1-2.3,0.1-3.4,0.1c-2.5,0.1-5,0.1-6.4,0.9
				c-3.5,1.8-4.7,4-4.8,4.2l-0.2,0.3l-0.2,0.2C1626.7,649.9,1625,650.5,1623.4,650.8z M1593.8,640.7l-2.9,2.9
				c-0.1,0.1-0.2,0.3-0.3,0.5c0.7-0.2,1.3-0.6,1.5-0.9L1593.8,640.7z"/>
		</g>
		<g id="g2591">
			<g id="_x32_1351528">
				<path d="M1555.6,678.4l-4.1-1c0.5-2,1.8-7.2,6.9-9.4l1.7,3.9C1557.3,673.1,1556.3,675.9,1555.6,678.4z"/>
			</g>
			<g id="_x32_1351440">
				<path d="M1549.8,686.8c-1.4-7.6,1.8-11.1,7.8-14.7l2.2,3.7c-5.5,3.3-6.7,5.4-5.8,10.3L1549.8,686.8z"/>
			</g>
			<g id="_x32_1351352">
				<path d="M1562.2,693l-1.3-4c3-1,4.8-1.8,7.3-6.4l3.7,2.1C1568.7,690.5,1565.8,691.8,1562.2,693z"/>
			</g>
			<g id="_x32_1351264">
				<path d="M1567.7,695.7l-2.6-3.3c0.4-0.4,0.4-1.9,0.5-2.8c0.1-1.5,0.1-3.1,0.8-4.6l3.5,1.8c0.1-0.4,0.2-0.7,0.2-1.1l4.2,0.6
					C1573.7,691.5,1570.2,694.2,1567.7,695.7z"/>
			</g>
			<g id="_x32_1351176">
				<path d="M1570.4,694l-1.9-3.8c1.6-0.8,4.8-3.8,6.4-7.5l2.8,1.1c0.2-0.5,0.4-1.1,0.5-1.8l2.1,0.2c0.5-0.6,0.7-1.2,0.7-2.1h4.3
					c0,3.2-1.7,4.8-2.9,6.1l-3.6,3.6v-0.1c-0.4,0.5-0.9,1-1.5,1.5l-1.8-1.5C1573.7,691.8,1571.9,693.3,1570.4,694z"/>
			</g>
			<g id="_x32_1351088">
				<path d="M1581,689v-7.1h2c0.6-0.9,0.9-2.2,0.9-4h4.3c0,2.7-0.4,6.1-3.7,8.5L1581,689z"/>
			</g>
			<g id="_x32_1351000">
				<path d="M1586.6,683.1l-2.4-3.6c2.3-1.5,3-3.7,3-9h4.3C1591.5,675.2,1591.1,680.1,1586.6,683.1z"/>
			</g>
			<g id="_x32_1350912">
				<path d="M1590.6,677.9l-2.6-3.4c1.5-1.1,2-1.5,2-6.2h4.3C1594.3,673.8,1593.6,675.7,1590.6,677.9z"/>
			</g>
			<g id="_x32_1350824">
				<path d="M1578.5,664.4c-0.6,0-1.2-0.1-1.8-0.3l-0.3-0.1l-0.2-0.2c-2.2-1.4-2.7-2-2.7-4.6c0-2,1.2-3.3,2-4.1
					c0.5-0.5,0.8-0.8,0.8-1c-0.7-0.1-1.4-0.3-2-0.6c-2-0.9-3.3-2.6-3.6-4.8l4.2-0.7c0.1,0.7,0.5,1.3,1.2,1.6c0.8,0.4,1.7,0.3,2.5,0
					c0.4-0.3,0.9-0.5,1.5-0.5h7.7l-3.2,1.9v4.1l0,0c-0.1,0-0.1,0-0.1,0c0,0,0,0.1,0,0.1c0,1.1-0.5,2-1,2.9c-0.3,0.5-0.7,1.3-0.7,1.7
					l-0.1,0.5c-0.4,1.8-1.2,3-2.4,3.6C1579.9,664.2,1579.2,664.4,1578.5,664.4z M1578.3,660.1c0,0,0.1,0,0.1,0
					c0.1-0.1,0.2-0.3,0.3-0.7c0-0.6,0.2-1.2,0.4-1.8c-0.2,0.2-0.3,0.4-0.5,0.5c-0.5,0.5-0.8,0.8-0.8,1c0,0.2,0,0.4,0,0.6
					C1578,659.8,1578.1,659.9,1578.3,660.1z"/>
			</g>
			<g id="_x32_1350736">
				<path d="M1589.4,656.9c-0.8,0-1.6-0.3-2.1-0.5c-0.3-0.1-0.6-0.3-0.8-0.3l-0.3,0.1h-0.3c0,0-0.2,0-0.3,0.1
					c-1.1,0.2-2.8,0.5-4-0.7l3-3c-0.3-0.3-0.6-0.4-0.7-0.4c0.2,0,0.7-0.1,0.9-0.1c0.2,0,0.5-0.1,0.7-0.1c1.5-0.4,2.8,0.2,3.6,0.5
					c0.2,0.1,0.3,0.1,0.4,0.2c-0.1,0-0.3,0-0.6,0.1l1.9,3.8C1590.4,656.8,1589.9,656.9,1589.4,656.9z"/>
			</g>
			<g id="_x32_1350648">
				<path d="M1585.6,660.7c-2.3,0-4.3-0.8-5.2-1.7l2.8-2.8c0-1.4,0.6-2.8,1.9-3.8l2.6,3.4c-0.2,0.1-0.2,0.2-0.2,0.2l1.4,4
					C1587.9,660.5,1586.7,660.7,1585.6,660.7z"/>
			</g>
			<g id="_x32_1350560">
				<path d="M1575.5,658.7c-0.6,0-1.1-0.1-1.6-0.3c-1.2-0.4-2.1-1.3-2.5-2.6c-0.4-1.3-0.2-2.7,0.6-3.9c1-1.4,2.8-2.3,4.8-2.3v4.3
					c-0.7,0-1.2,0.3-1.3,0.5c0,0,0,0,0,0c0.3,0,0.8-0.1,1.3-0.4l2.4,3.6C1578,658.3,1576.8,658.7,1575.5,658.7z"/>
			</g>
			<g id="_x32_1350472">
				<path d="M1574.4,681.7l-3-3c0.2-0.2,0.4-0.6,0.5-0.9v-2h2.1c0.5,0,1.1-0.3,1.3-0.5l0.6-0.6h0.9c1.4,0,2.3-1.2,2.5-1.9l0.5-1.5
					h0.8c0.2-0.4,0.4-1,0.5-1.3c0.2-0.5,0.4-1.1,0.6-1.5l1.3-2.6l0.8,0.8l0.6-2.6l2.4,1.2c0,0,0.3-0.1,0.4-0.5l4,1.3
					c-0.5,1.4-1.5,2.5-2.8,3c-0.4,0.2-0.8,0.3-1.3,0.3c-0.7,1.4-1.6,1.9-2.2,2.1c-0.4,1.2-1,2.7-2.1,3.4c-0.9,1.8-2.8,3.5-5.3,3.9
					c-0.6,0.4-1.3,0.7-2,1C1575.3,680.6,1574.8,681.3,1574.4,681.7z"/>
			</g>
			<g id="_x32_1350384">
				<path d="M1564.8,675.1h-4.3c0-0.2-0.1-0.5-0.2-0.9c-0.2-0.9-0.3-1.4-0.3-1.9v-0.5l0.2-0.5c0.6-1.1,0.6-1.9,0.6-2.1l-1-1.9
					l1.7-0.9c0.2-0.4,0.4-1.4,0.3-1.8l-1-1.9l1.9-0.9c0.6-0.3,1.1-0.8,1.2-1c0,0-0.1,0.2-0.1,0.6h4.3c0,1.3-1,2.5-2.1,3.3
					c0,0.8-0.1,1.6-0.2,2c-0.1,0.6-0.4,1.5-0.9,2.2c0.1,1.3-0.3,2.7-0.7,3.6c0,0.2,0.1,0.4,0.2,0.6
					C1564.7,674,1564.8,674.6,1564.8,675.1z M1561.5,666.5L1561.5,666.5L1561.5,666.5z"/>
			</g>
			<g id="_x32_1350296">
				<path d="M1569.5,659c-1.3-0.3-2.5-1.3-3.1-2.6c-1-1.9-1-4.7,0-7.1l4,1.6c-0.6,1.5-0.5,2.9-0.1,3.6c0.2,0.3,0.3,0.4,0.4,0.4
					L1569.5,659z"/>
			</g>
			<g id="_x32_1350208">
				<path d="M1574.4,676.5c-1.1,0-2.4-0.2-3.7-0.5c-2.8-0.7-4-2.2-4.5-3.4c-0.9-2-0.5-4.3,0.2-5.7c0.2-0.7,0.3-2.2,0.5-3.6
					c0.1-1.5,0.3-3.1,0.6-4.6l4.2,0.8c-0.2,1.2-0.4,2.7-0.5,4.1c-0.2,1.9-0.3,3.5-0.7,4.7l-0.1,0.3c-0.2,0.4-0.5,1.5-0.2,2.2
					c0.2,0.5,0.8,0.8,1.6,1c3.6,0.8,5.6,1.3,8.3-6.6l4,1.4C1581.5,674.2,1578.5,676.5,1574.4,676.5z"/>
			</g>
			<g id="_x32_1350120">
				<path d="M1588.8,692v-3.8h3.8C1592.6,690,1591,692,1588.8,692z"/>
			</g>
			<g id="_x32_1350032">
				<path d="M1594.3,691.9l-3-3c0.4-0.4,1-1.5,1.1-1.9l4.3,0C1596.6,689,1595,691.2,1594.3,691.9z"/>
			</g>
			<g id="_x32_1349944">
				<path d="M1598.3,691.2l-1.9-3.8c-0.1,0.1-0.2,0.1-0.2,0.2c0.2-0.3,0.2-1.3,0.2-1.7h4.3C1600.6,687.2,1600.6,690,1598.3,691.2z"
					/>
			</g>
			<g id="_x32_1349856">
				<path d="M1571,659.2l-6-4l-3.5,2.4c-1.4-2-0.7-4.5,0.7-5.9c0.5-0.5,1.1-0.8,1.7-1v-2.1c1.9,0,2.8,1.8,3.6,3.5L1571,659.2z"/>
			</g>
			<g id="_x32_1349768">
				<path d="M1561.3,663.5l-3-3c0.4-0.4,1-0.8,1.5-1.1c0.3-0.2,0.7-0.5,0.8-0.6l3,3c-0.4,0.4-1,0.8-1.5,1.1
					C1561.8,663.1,1561.5,663.4,1561.3,663.5z"/>
			</g>
			<g id="_x32_1349680">
				<path d="M1558.7,668.1v-4.3c-0.2,0-0.3,0-0.3,0c0.1,0,0.1-0.1,0.2-0.1c0.4-0.2,1-0.5,1.8-0.5v4.3c0.2,0,0.3,0,0.3,0
					c-0.1,0-0.1,0.1-0.2,0.1C1560.1,667.8,1559.5,668.1,1558.7,668.1z"/>
			</g>
			<g id="_x32_1349592">
				<path d="M1534.9,655.8c0.1-0.1,0.1-0.2,0.2-0.3l0.1,0.1C1535.1,655.7,1535,655.8,1534.9,655.8z M1535.2,655.2L1535.2,655.2
					c0-0.1,0-0.1,0-0.2L1535.2,655.2z M1534.8,655.2h-3.8c0-1.3,0.4-1.8,1.2-2.6L1534.8,655.2z"/>
			</g>
			<g id="_x32_1349504">
				<path d="M1528,655.6c-1.3,0-1.8-0.4-2.6-1.2l2.6-2.6V655.6z M1528.6,651.7c-0.1-0.1-0.2-0.1-0.3-0.2l0.1-0.1
					C1528.5,651.5,1528.6,651.6,1528.6,651.7z M1528,651.4c-0.1,0-0.1,0-0.2,0L1528,651.4z"/>
			</g>
			<g id="_x32_1349416">
				<rect x="1528.9" y="660.6" width="0.5" height="1.7"/>
			</g>
			<g id="_x32_1349328">
				<path d="M1524.8,659.6c-0.7-0.7-1.7-1-2-1.1l0.1-4.3c1.2,0,3.5,0.9,4.9,2.3L1524.8,659.6z"/>
			</g>
			<g id="_x32_1349240">
				<path d="M1553.4,689.6l-4.2-0.6c0.7-4.6,2.6-7.8,7-11.5l2.8,3.2C1555.4,683.7,1553.9,686.1,1553.4,689.6z"/>
			</g>
			<g id="_x32_1349152">
				<path d="M1558.2,688.8l-2.4-3.6c1.1-0.8,2.7-2.1,3.8-4.3l3.8,1.9C1561.9,685.9,1559.7,687.7,1558.2,688.8z"/>
			</g>
			<g id="_x32_1349064">
				<path d="M1535.1,701.7c-3,0-5.7-0.9-8.3-2.6l-0.3-0.3c0,0-0.1-0.1-0.3-0.2c-0.3-0.2-0.9-0.4-1.4-1l3-3c0,0,0.1,0.1,0.3,0.2
					c0.3,0.2,0.8,0.4,1.2,0.8c2.9,1.9,5.7,2.3,9.5,1.3l1,4.1C1538.2,701.4,1536.6,701.7,1535.1,701.7z"/>
			</g>
			<g id="_x32_1348976">
				<path d="M1555.1,698.6l-1.9-3.8c-0.1,0.1-0.2,0.2-0.2,0.2c0.4-0.5,0.9-2.6,1.2-3.7l0.2-0.8l3.8,0.9c1.8-1.7,2.8-3.7,3-5.8
					l4.2,0.5C1564.8,691.3,1561.3,695.5,1555.1,698.6C1555.1,698.6,1555.1,698.6,1555.1,698.6L1555.1,698.6z"/>
			</g>
			<g id="_x32_1348888">
				<path d="M1526.5,703.9c-0.4,0-0.8,0-1.1-0.1c-0.5-0.1-1-0.1-1.3,0l-1.4-4c1.2-0.4,2.3-0.3,3.1-0.2c0.3,0,0.7,0.1,0.8,0
					c0,0-0.1,0-0.2,0.1l3,3C1528.6,703.7,1527.5,703.9,1526.5,703.9z"/>
			</g>
			<g id="_x32_1348800">
				<path d="M1626.3,688.2l-2.1-2c-0.2-0.1-1-0.5-1.5-0.7c-0.5-0.2-1-0.4-1.4-0.6l1.9-3.8c0.3,0.2,0.7,0.3,1.2,0.5
					c0.3,0.1,0.6,0.2,0.8,0.4c1.3-1.2,3-2.2,4.4-2.7l1.4,4c-1.3,0.4-3,1.8-3.3,2.3L1626.3,688.2z"/>
			</g>
			<g id="_x32_1348712">
				<path d="M1579.9,695.5c-0.8-3.2,0.8-7.3,5.4-8.8l1.3,4c-2.2,0.7-2.9,2.4-2.6,3.7L1579.9,695.5z"/>
			</g>
			<g id="_x32_1348624">
				<path d="M1561.7,705.6l-3.8-1.9c0.2-0.3,0.3-0.9,0.4-1.5c0.2-0.8,0.3-1.7,0.8-2.5l3.8,1.9c-0.2,0.3-0.3,0.9-0.4,1.5
					C1562.3,703.9,1562.1,704.8,1561.7,705.6z"/>
			</g>
			<g id="_x32_1348536">
				<path d="M1535.2,709.8l-4.3,0c0-1.4,0.8-2.5,1.4-3.5c0.2-0.3,0.4-0.6,0.6-0.9l3.8,1.9c-0.2,0.5-0.6,1-0.8,1.4
					C1535.6,709,1535.3,709.6,1535.2,709.8z"/>
			</g>
			<g id="_x32_1348448">
				<path d="M1527.4,709h-0.5c0.8,0,1.6-0.6,1.6-1.6h-4.3c0-1.1,0.7-2.3,2-2.6c1.1-0.6,2-1.4,2.2-1.7l3.8,1.9c-1,2-3.6,3.4-4.4,3.8
					L1527.4,709z"/>
			</g>
			<g id="_x32_1348360">
				<path d="M1602.7,701.9c-1.5,0-2.5-1-2.9-1.4l2.8-2.8l2,3.8C1603.8,701.8,1603.2,701.9,1602.7,701.9z M1603.1,697.7
					c-0.1-0.1-0.3-0.1-0.5-0.1l0.2-0.2C1602.9,697.5,1603,697.7,1603.1,697.7z"/>
			</g>
			<g id="_x32_1348272">
				<path d="M1601.9,705.1v-3.8l2.6,2.6C1604.2,704.2,1603.2,705.1,1601.9,705.1z"/>
			</g>
			<g id="_x32_1348184">
				<path d="M1604.1,708.5v-4.3c-0.3,0-0.5,0.1-0.5,0.1c0.1-0.1,0.5-0.4,0.7-0.6l3,3C1606.6,707.5,1605.6,708.5,1604.1,708.5z"/>
			</g>
			<g id="_x32_1348096">
				<path d="M1623.3,708.2l-1.9-3.8c0.3-0.1,0.7-0.6,1.2-2.6l4.1,1C1626.1,705,1625.4,707.2,1623.3,708.2z"/>
			</g>
			<g id="_x32_1348008">
				<path d="M1615.6,707.8l-1.4-4c1.2-0.4,2-1.2,3.7-2.9l3,3C1619.2,705.7,1617.8,707.1,1615.6,707.8z"/>
			</g>
			<g id="_x32_1347920">
				<path d="M1633,701.2h-4.3c0-1.2,0-2.8,0.8-4.4l3.8,1.9C1633,699.5,1633,700.2,1633,701.2z"/>
			</g>
			<g id="_x32_1347832">
				<path d="M1671.4,707.8c-1-1-1.5-2.4-1.4-3.7c0.1-1.4,1-2.7,2.3-3.6l0.2-0.1c0.5-0.2,0.8-0.5,1.2-0.7c0.5-0.3,1-0.6,1.7-1
					l1.9,3.8c-0.5,0.2-0.8,0.5-1.2,0.7c-0.4,0.3-0.9,0.6-1.5,0.9c-0.3,0.2-0.3,0.3-0.3,0.4c0,0,0,0.1,0.2,0.3L1671.4,707.8z"/>
			</g>
			<g id="_x32_1347744">
				<path d="M1637.4,688.4c-4.3-1.9-6.6-4-8.4-5.7c-2.1-2-3.2-3-6.5-2.7l-0.3-4.3c5.1-0.4,7.3,1.6,9.7,3.8c1.7,1.5,3.6,3.3,7.2,4.9
					L1637.4,688.4z"/>
			</g>
			<g id="_x32_1347656">
				<path d="M1680.7,707l-4.3-0.1c0-0.4,0.1-0.7,0.1-1.1c0-0.3,0.1-0.8,0.1-0.9c0,0.1,0.1,0.4,0.4,0.7l3-3c1.2,1.2,0.9,3,0.7,4
					C1680.7,706.7,1680.7,706.9,1680.7,707z"/>
			</g>
			<g id="_x32_1347568">
				<path d="M1685.2,708h-4.3c0-1.8,0-2.6,0.7-4.7l4,1.3C1685.2,706.1,1685.2,706.4,1685.2,708z"/>
			</g>
			<g id="_x32_1347480">
				<rect x="1636.7" y="649.8" width="1.8" height="1.7"/>
			</g>
			<g id="_x32_1347392">
				<path d="M1598.4,675.5c-5.8,0-8.4-3.2-8.4-5.5h4.3c0-0.1,0-0.2,0-0.2c0.1,0.3,1.1,1.5,4.1,1.5V675.5z M1598.8,671.3
					C1598.8,671.3,1598.8,671.3,1598.8,671.3L1598.8,671.3z"/>
			</g>
			<g id="_x32_1347304">
				<path d="M1579.7,668.8c-0.4,0-0.7,0-1.1-0.1l-0.4-0.2c-1.4-0.7-2.4-1.7-3-2.8c-0.5,0.2-1,0.2-1.4,0.2c-2.3,0.1-4.5-1.2-5.7-2.4
					l-0.2-0.2l-0.2-0.3c-0.6-1.1-0.9-3.1,1-9l4,1.4c-1.1,3.4-1.3,5-1.2,5.6c0.5,0.4,1.3,0.9,2.1,0.8c0.2,0,0.9,0,1.7-1l3.7,2
					c-0.1,0.4-0.4,1.1,0.9,1.8c0.8,0,2.6-1.5,2.9-3l0.9-3.7l2.7,2.7c0.4,0.4,0.7,0.5,1.2,0.4c0.7-0.2,1.7-1,2.1-2.4l0.5-1.5h1.5
					c1.1,0,1.9,0,3.3-0.5l1.9,3.8c-1,0.7-1.6,1.6-1.7,1.9c0-0.1,0-0.4-0.3-0.6c-0.1-0.1-0.2-0.2-0.5-0.3c-0.5-0.2-1.1,0-1.4,0.3l3,3
					c-0.8,0.8-1.9,1.1-3,0.7c-0.6-0.2-1-0.6-1.2-0.7c-0.3-0.3-0.5-0.6-0.7-1c-0.8,0.7-1.7,1.1-2.7,1.4c-0.9,0.2-1.8,0.2-2.7-0.1
					C1584.4,667,1582.1,668.8,1579.7,668.8z"/>
			</g>
		</g>
		<g id="_x32_1347216">
			<path inkscape:connector-curvature="0" d="M1630.8,684.8c-1.7,1.1-3.4,0-5.1,1.7c-1.1,1.1,0.6,1.7,1.7,1.7
				c-0.6,1.7-0.6,2.3,2.3,2.3c-1.1,1.7,2.3,2.3,1.7,4.5c1.7-1.7,1.7-4,1.1-5.7C1632,687.6,1629.1,686.5,1630.8,684.8z"/>
		</g>
		<g id="g2643">
			<g id="_x32_1347040">
				<path inkscape:connector-curvature="0" class="st8" d="M1579.1,666.6c-2.3-1.1-2.8-2.8-2.3-4.5c-0.6,1.1-1.7,1.7-2.8,1.7
					c-2.3,5.1-5.1,9.7-8.5,9.7c-4,0.6-3.4,4.5-0.6,4.5C1571.2,679.1,1574,676.8,1579.1,666.6z"/>
			</g>
			<g id="_x32_1346952">
				<path inkscape:connector-curvature="0" class="st8" d="M1522.9,652.9c1.7-1.7,0.6-3.4-0.6-4c-1.7-0.6-5.1,0-6.8,2.8
					c1.7-0.6,3.4-0.6,4,0.6C1520,653.5,1521.2,654.6,1522.9,652.9z"/>
			</g>
			<g id="_x32_1346864">
				<path inkscape:connector-curvature="0" class="st8" d="M1525.7,642.7c4,0,5.1,0.6,5.7,2.3c0.6,1.1-0.6,2.8-1.7,2.8
					c-1.7,0-3.4-1.1-2.8-1.7C1527.4,645,1527.4,643.3,1525.7,642.7z"/>
			</g>
			<g id="_x32_1346776">
				<path inkscape:connector-curvature="0" class="st8" d="M1537.1,651.8c2.8,0.6,4-1.1,2.3-3.4c-0.6-1.7-2.3-2.8-5.1-2.3
					C1537.1,647.8,1534.2,650.7,1537.1,651.8z"/>
			</g>
			<g id="_x32_1346688">
				<path inkscape:connector-curvature="0" class="st8" d="M1516.1,661.5c1.7,2.8,4.5,2.8,5.7,2.3c1.7-0.6,2.3-2.3,1.7-3.4
					c-1.1-1.7-2.8-2.3-3.4,0C1518.9,662.6,1517.2,662,1516.1,661.5z"/>
			</g>
			<g id="_x32_1346600">
				<path inkscape:connector-curvature="0" class="st8" d="M1524.6,696.1c-1.1-2.3-4.5-2.3-7.4,0c1.1-0.6,3.4,0,4,1.1
					c0.6,1.1,1.7,1.1,2.3,1.1C1524,697.8,1525.2,697.2,1524.6,696.1z"/>
			</g>
			<g id="_x32_1346512">
				<path inkscape:connector-curvature="0" class="st8" d="M1529.1,692.7c0-2.8-4-3.4-6.2-2.3c1.1,0,2.8,1.1,2.8,2.3
					c0.6,1.1,1.7,1.7,2.3,1.7C1529.1,693.8,1529.7,693.3,1529.1,692.7z"/>
			</g>
			<g id="_x32_1346424">
				<path inkscape:connector-curvature="0" class="st8" d="M1523.4,702.9c-3.4-0.6-5.1,3.4-5.1,6.2c0.6-1.7,2.3-2.8,4-2.3
					c1.7,0,2.3-0.6,2.3-1.7C1525.2,704.1,1524.6,703.5,1523.4,702.9z"/>
			</g>
			<g id="_x32_1346336">
				<path inkscape:connector-curvature="0" class="st8" d="M1524,712.6c1.1,0.6,2.3-0.6,2.8-2.3c0-1.1,2.3-1.1,2.8-0.6
					c1.1,0.6,1.1,2.8-0.6,4C1528,714.3,1525.2,714.9,1524,712.6z"/>
			</g>
			<g id="_x32_1346248">
				<path inkscape:connector-curvature="0" class="st8" d="M1603,695.5c-1.1-0.6-4-1.7-6.3,0c1.7-0.6,2.8,0.6,3.4,1.7
					c0,1.1,1.7,1.7,2.3,0.6C1603,697.2,1603.6,696.1,1603,695.5z"/>
			</g>
			<g id="_x32_1346160">
				<path inkscape:connector-curvature="0" class="st8" d="M1597.9,699.5c-2.3-1.1-5.1,1.7-5.7,4c0.6-0.6,2.8-1.7,4-1.7
					c1.1,0.6,2.3,0,2.3-1.1C1599,700.1,1599,699.5,1597.9,699.5z"/>
			</g>
			<g id="_x32_1346072">
				<path inkscape:connector-curvature="0" class="st8" d="M1600.7,704.1c-1.7,0-4,2.3-4,4.5c0.6-1.1,1.7-1.7,2.8-1.1
					c1.1,0,2.8-0.6,2.8-1.7S1601.9,704.1,1600.7,704.1z"/>
			</g>
			<g id="_x32_1345984">
				<path inkscape:connector-curvature="0" class="st8" d="M1605.8,708.6c-1.1-0.6-2.8,0-2.8,1.7s0,3.4-0.6,4
					c1.1-1.1,2.3-1.7,3.4-2.3C1606.4,711.5,1607,709.7,1605.8,708.6z"/>
			</g>
			<g id="_x32_1345896">
				<path inkscape:connector-curvature="0" class="st8" d="M1670,703.5c-1.1-1.1-2.8-0.6-3.4,0.6c-0.6,1.1-1.1,4,0,6.2
					c0-1.1,1.1-2.8,2.3-2.8C1670.6,706.9,1671.2,704.6,1670,703.5z"/>
			</g>
			<g id="_x32_1345808">
				<path inkscape:connector-curvature="0" class="st8" d="M1673.4,705.8c-2.3,1.1-2.3,5.1-0.6,7.4c0-1.1,0.6-2.8,1.7-3.4
					c1.7,0,2.3-2.3,1.7-3.4C1675.1,705.2,1674,705.8,1673.4,705.8z"/>
			</g>
			<g id="_x32_1345720">
				<path inkscape:connector-curvature="0" class="st8" d="M1680.3,708c-1.1-0.6-2.3,0.6-2.3,1.7c-0.6,1.7,0.6,4,2.3,5.1
					c0-1.1,0.6-2.3,1.1-2.8C1683.1,710.9,1682.5,708.6,1680.3,708z"/>
			</g>
			<g id="_x32_1345632">
				<path inkscape:connector-curvature="0" class="st8" d="M1685.4,707.5c-1.1,0-2.3,1.7-1.1,3.4c0.6,1.1,1.7,1.7,4,1.1
					c-0.6,0-1.7-1.7-1.1-2.3C1687.6,708.6,1687.1,707.5,1685.4,707.5z"/>
			</g>
		</g>
	</g>
	<g id="g2662" transform="matrix(0.370409,0,0,0.370409,845.1194,-37.89129)">
		<g id="_x32_1345456">
			<path inkscape:connector-curvature="0" class="st9" d="M1555.8,726.2l-10.8,33.5h-35.2l28.4,20.5l-10.8,33.5l28.4-20.5l28.4,20.5
				l-10.8-33.5l28.4-20.5h-35.2L1555.8,726.2z"/>
		</g>
		<g id="_x32_1345368">
			<path inkscape:connector-curvature="0" class="st9" d="M1663.2,726.2l10.2,33.5h35.8l-29,20.5l10.8,33.5l-27.8-20.5l-28.4,20.5
				l10.8-33.5l-29-20.5h35.2L1663.2,726.2z"/>
		</g>
		<g id="_x32_1345280">
			<path inkscape:connector-curvature="0" class="st9" d="M1609.2,788.2l-10.8,33.5h-35.2l28.4,20.5l-10.8,33.5l28.4-20.5l28.4,20.5
				l-10.8-33.5l28.4-20.5H1620L1609.2,788.2z"/>
		</g>
	</g>
	<g id="g2667" transform="matrix(0.370409,0,0,0.370409,845.1194,-37.89129)">
		<g id="_x32_1441472">
			<path inkscape:connector-curvature="0" class="st12" d="M1555.8,736.5l-8.5,26.1h-27.8l22.7,16.5l-9.1,26.7l22.7-16.5l22.2,16.5
				l-8.5-26.7l22.7-16.5h-27.8L1555.8,736.5z"/>
		</g>
		<g id="_x32_1441384">
			<path inkscape:connector-curvature="0" class="st12" d="M1663.2,736.5l8,26.1h28.4l-22.7,16.5l8.5,26.7l-22.2-16.5l-22.7,16.5
				l8.5-26.7l-22.7-16.5h27.8L1663.2,736.5z"/>
		</g>
		<g id="_x32_1441296">
			<path inkscape:connector-curvature="0" class="st12" d="M1609.2,798.4l-8.5,26.1h-27.8l22.7,16.5l-9.1,26.7l22.7-16.5l22.2,16.5
				l-8.5-26.7l22.7-15.9h-27.8L1609.2,798.4z"/>
		</g>
	</g>
	<g id="g2672" transform="matrix(0.370409,0,0,0.370409,845.1194,-37.89129)">
		<g id="_x32_1441032">
			<path inkscape:connector-curvature="0" class="st11" d="M1469.5,841l-4.5,2.3c-1.1,0.6-1.1,1.7-1.1,2.3h-0.6l-2.3-5.1h0.6
				c0,0.6,0.6,1.1,1.7,0.6l9.7-5.1c1.1-0.6,1.1-1.1,0.6-1.7l0.6-0.6l2.8,5.7h-0.6c-0.6-0.6-1.1-1.1-2.3-0.6l-4,2.3l1.7,3.4l4.5-1.7
				c1.1-0.6,0.6-1.7,0.6-2.3h0.6l2.3,5.1l0,0c-0.6-0.6-1.1-1.1-2.3-0.6l-9.7,5.1c-1.1,0.6-1.1,1.1-0.6,1.7l-0.6,0.6l-2.8-5.1
				l0.6-0.6c0.6,0.6,1.1,1.1,2.3,0.6l4.5-2.3L1469.5,841z"/>
		</g>
		<g id="_x32_1440944">
			<path inkscape:connector-curvature="0" class="st11" d="M1479.1,848.4c1.1-0.6,1.1-1.1,0.6-2.3h0.6l5.7,8.5l-4,2.8v-0.6
				c2.3-1.7,2.3-4,1.7-4.5s-1.1-1.1-1.1-1.7c-0.6,0-0.6-0.6-1.7,0.6c-0.6,0.6-4,2.8-4,2.8c0.6,0.6,1.1,2.3,4,0.6h0.6l-6.2,4.5v-0.6
				c2.8-2.3,1.7-4,1.1-4.5l-4,2.8c-1.1,0.6-1.1,1.1-1.1,1.7c0.6,0,0.6,0.6,1.1,1.1c0.6,1.1,2.3,2.3,5.1,1.1l0.6,0.6l-4.5,1.7
				l-5.7-9.1h0.6c0.6,0.6,1.1,1.1,2.3,0.6L1479.1,848.4z"/>
		</g>
		<g id="_x32_1440856">
			<path inkscape:connector-curvature="0" class="st11" d="M1488.2,870l-4,3.4c-0.6,0.6-0.6,1.7,0,2.3h-0.6l-4-4l0.6-0.6
				c0.6,0.6,1.1,1.1,2.3,0l7.4-7.4c1.1-0.6,1.1-1.1,0.6-2.3l0,0l4,4.5l0,0c-0.6-0.6-1.7-0.6-2.3,0l-3.4,3.4l2.8,2.8l3.4-2.8
				c1.1-1.1,0.6-1.7,0-2.3l0.6-0.6l4,4.5h-0.6c-0.6,0-1.1-0.6-2.3,0.6l-7.4,6.8c-1.1,1.1-1.1,1.7-0.6,2.3v0.6l-4-4.5l0,0
				c0.6,0,1.7,0.6,2.3,0l4-4L1488.2,870z"/>
		</g>
		<g id="_x32_1440768">
			<path inkscape:connector-curvature="0" class="st11" d="M1496.7,881.9l1.7,1.7c2.3-5.1,2.3-5.1,2.3-5.1s-1.7,0.6-4.5,2.3
				L1496.7,881.9l-0.6,0.6l-1.1-1.1c-0.6,0.6-1.1,0.6-1.7,1.1c-1.7,1.1-1.1,1.7-0.6,2.3v0.6l-2.8-2.8h0.6c0,0,1.1,0,2.3-0.6
				c11.4-6.2,11.4-6.2,11.4-6.2l0.6,0.6c0,0-0.6,0.6-5.7,11.9c0,1.1-0.6,1.7,0,2.8l0,0l-4.5-4l0.6-0.6c0.6,1.1,1.7,1.1,2.3,0
				c0-0.6,0.6-1.7,0.6-2.3l-1.7-1.7L1496.7,881.9z"/>
		</g>
		<g id="_x32_1440680">
			<path inkscape:connector-curvature="0" class="st11" d="M1501.3,893.3l0.6-0.6c0.6,0.6,1.1,0.6,2.3,0l7.4-9.7l-0.6-0.6
				c-1.1-0.6-2.8-0.6-4.5,1.1V883l2.3-2.8l8.5,6.2l-2.8,3.4h-0.6c1.7-1.7,1.1-4,0-4.5v-0.6l-7.4,9.7c-1.1,0.6-0.6,1.7,0,2.3h-0.6
				L1501.3,893.3z"/>
		</g>
		<g id="_x32_1440592">
			<path inkscape:connector-curvature="0" class="st11" d="M1516.1,895.5l-2.8,4c-0.6,1.1,0,1.7,0.6,2.3l-0.6,0.6l-4.5-3.4v-0.6
				c1.1,0.6,1.7,0.6,2.3-0.6l6.3-8.5c0.6-1.1,0-1.7-0.6-2.3l0.6-0.6l4.5,3.4v0.6c-1.1-0.6-1.7-0.6-2.3,0.6l-2.8,4l3.4,2.3l2.8-4
				c0.6-1.1,0-1.7-0.6-2.3l0.6-0.6l4.5,3.4v0.6c-0.6-0.6-1.7-0.6-2.3,0.6l-5.7,9.1c-1.1,0.6-0.6,1.1,0,1.7v0.6l-5.1-3.4h0.6
				c0.6,0,1.1,0,1.7-0.6l2.8-4.5L1516.1,895.5z"/>
		</g>
		<g id="_x32_1440504">
			<path inkscape:connector-curvature="0" class="st11" d="M1527.4,911.5l0.6-0.6c0.6,0.6,1.7,0.6,2.3-0.6l4.5-9.7
				c0.6-1.1,0-1.7-0.6-2.3l0,0l9.7,4.5l-2.3,4.5l-0.6-0.6c1.7-2.3,0-4.5-0.6-5.1c-0.6,0-1.1-0.6-1.7-0.6c-0.6,0-0.6,0-1.1,1.1
				c-0.6,0.6-2.3,4-2.3,4c0.6,0.6,1.7,1.7,4-1.1h0.6l-3.4,6.8l-0.6-0.6c1.7-3.4-0.6-4-1.1-4l-2.3,4.5c-0.6,1.1,0,1.7,0.6,1.7v0.6
				L1527.4,911.5z"/>
		</g>
		<g id="_x32_1440416">
			<path inkscape:connector-curvature="0" class="st11" d="M1543.9,919.4c-1.7-1.1-1.7-4.5,0-8c1.1-3.4,3.4-6.2,5.7-5.1
				c1.7,0.6,1.1,4,0,7.4C1547.9,917.7,1545.6,920,1543.9,919.4h-0.6c4,1.7,6.8-0.6,8.5-4.5c1.7-3.4,1.1-7.4-2.3-9.1
				s-6.8,0.6-8.5,4.5c-1.7,4-1.1,8,2.3,9.1H1543.9z"/>
		</g>
		<g id="_x32_1440328">
			<path inkscape:connector-curvature="0" class="st11" d="M1561.5,920.5l2.3-6.8c0.6-1.1,0-1.7-0.6-2.3l0,0l2.8,0.6v0.6
				c-0.6,0-1.1,0-1.7,1.1l-2.3,6.8c-1.1,2.8-2.8,5.1-6.3,4c-2.3-0.6-4-3.4-2.8-6.2l2.8-7.4c0.6-1.1,0-1.7-0.6-2.3V908l5.1,2.3v0.6
				c-0.6-0.6-1.7-0.6-1.7,0.6l-2.8,7.4c-0.6,2.3-0.6,4.5,1.1,5.1C1558.7,924.5,1560.4,923.4,1561.5,920.5z"/>
		</g>
		<g id="_x32_1440240">
			<path inkscape:connector-curvature="0" class="st11" d="M1566.6,913.2c0-0.6,0-0.6-0.6-0.6l0,0l4,0.6l3.4,10.8l1.7-6.8
				c0.6-1.1,0-1.7-0.6-2.3l0,0l3.4,0.6l-0.6,0.6c-0.6,0-1.1,0-1.7,1.1l-2.8,12.5h-0.6l-4.5-13.6l-2.8,9.1c0,1.7,0.6,1.7,1.1,2.3v0.6
				l-3.4-1.1v-0.6c0.6,0.6,1.7,0,1.7-1.1l2.8-10.2L1566.6,913.2z"/>
		</g>
		<g id="_x32_1440152">
			<path inkscape:connector-curvature="0" class="st11" d="M1585.9,924.5c-1.1,5.1-3.4,6.2-4.5,6.2c-0.6,0-0.6,0-1.1,0
				c0,0-0.6-0.6,0-1.1l1.7-11.4c0.6-0.6,0.6-1.1,1.1-0.6c0,0,0.6,0,1.1,0C1585.4,917.7,1586.5,920,1585.9,924.5l1.7,0.6
				c1.1-5.7-1.1-8-4-8.5c-2.3-0.6-5.7-1.1-5.7-1.1v0.6c0.6,0.6,1.7,0.6,1.1,2.3l-1.7,10.2c-0.6,1.1-1.1,1.7-1.7,1.7h-0.6l5.7,1.1
				c2.8,0.6,5.7,0,6.8-6.2L1585.9,924.5z"/>
		</g>
		<g id="_x32_1440064">
			<path inkscape:connector-curvature="0" class="st11" d="M1591.1,920c0-1.1-1.1-1.7-1.7-1.7v-0.6l10.2,1.1l-0.6,4.5l0,0
				c0-2.8-1.7-4-2.8-4c-0.6-0.6-1.1-0.6-1.7-0.6c-0.6,0-0.6,0-0.6,1.7c0,0.6-0.6,4.5-0.6,4.5c0.6,0,2.3,0.6,3.4-2.8l0,0l-0.6,7.4
				h-0.6c0-3.4-1.7-3.4-2.3-3.4l-0.6,5.1c0,1.1,0,1.1,0.6,1.1c0,0,1.1,0,1.1,0.6c1.7,0,3.4-0.6,4.5-4h0.6l-1.1,4.5l-10.8-1.1l0,0
				c1.1,0,1.7-0.6,2.3-1.7L1591.1,920z"/>
		</g>
		<g id="_x32_1439976">
			<path inkscape:connector-curvature="0" class="st11" d="M1626.3,931.3c0,1.1,0.6,1.1,1.7,1.1v0.6l-6.2,0.6l0,0
				c0.6-0.6,1.7-1.1,1.7-2.3l-1.1-10.8c-0.6-1.1-1.1-1.1-2.3-1.1v-0.6l6.3-0.6l0,0c-0.6,0.6-1.7,1.1-1.1,2.3L1626.3,931.3z"/>
		</g>
		<g id="_x32_1439888">
			<path inkscape:connector-curvature="0" class="st11" d="M1632,932.5v-0.6c0.6,0,1.1-0.6,1.1-1.7l-2.3-11.9h-0.6
				c-1.1,0.6-2.3,1.7-1.7,4h-0.6l-0.6-4l10.2-1.7l0.6,4h-0.6c0-2.3-1.7-2.8-3.4-2.8h-0.6l2.3,11.9c0,1.1,0.6,1.7,1.7,1.7v0.6
				L1632,932.5z"/>
		</g>
		<g id="_x32_1439800">
			<path inkscape:connector-curvature="0" class="st11" d="M1656.4,921.1l-2.3-6.8c0-1.1-1.1-1.1-1.7-1.1v-0.6l2.8-1.1v0.6
				c-0.6,0.6-0.6,0.6-0.6,1.7l2.3,7.4c0.6,2.3,0.6,5.7-2.8,6.8c-2.3,0.6-5.1-0.6-5.7-4l-2.3-7.4c-0.6-1.1-1.1-1.1-1.7-1.1l-0.6-0.6
				l5.7-1.7v0.6c-0.6,0.6-1.1,1.1-0.6,2.3l1.7,7.4c0.6,2.3,2.3,3.4,4,3.4C1656.4,926.2,1657,924,1656.4,921.1z"/>
		</g>
		<g id="_x32_1439712">
			<path inkscape:connector-curvature="0" class="st11" d="M1662.6,917.1c2.8-1.1,2.3-2.8,1.7-4.5c-0.6-1.7-1.7-2.8-2.8-2.3
				c-0.6,0-1.1,0.6-0.6,1.1L1662.6,917.1l0.6,0.6l1.1,4.5c0.6,1.1,1.7,1.1,2.3,0.6v0.6l-5.1,2.3l-0.6-0.6c1.1-0.6,1.1-1.1,1.1-2.3
				l-4-9.7c-0.6-1.7-1.1-1.1-2.3-1.1v-0.6l5.7-2.3c2.3-0.6,4.5,0,5.7,2.3c0.6,2.8-0.6,4.5-2.8,5.7c-0.6,0-1.1,0.6-1.1,0.6
				L1662.6,917.1z"/>
		</g>
		<g id="_x32_1439624">
			<path inkscape:connector-curvature="0" class="st11" d="M1677.4,902.9c-0.6,0-0.6,0-0.6,0h-0.6l3.4-2.3l10.2,5.7l-3.4-6.2
				c-0.6-1.1-1.7-1.1-2.3-1.1v-0.6l2.8-1.1l0,0c-0.6,0.6-1.1,1.1,0,2.3l5.7,11.4l-0.6,0.6l-12.5-6.8l4.5,8.5
				c0.6,1.1,1.7,1.1,2.3,0.6v0.6l-2.8,1.7v-0.6c0.6-0.6,0.6-1.1,0-2.3l-4.5-9.1L1677.4,902.9z"/>
		</g>
		<g id="_x32_1439536">
			<path inkscape:connector-curvature="0" class="st11" d="M1703,904.6v-0.6c0-0.6,0.6-1.1,0-2.3l-6.8-9.7h-0.6
				c-1.1,0.6-1.7,2.8,0,4.5l-0.6,0.6l-2.3-4l8.5-5.7l2.3,3.4l0,0c-1.7-1.7-3.4-1.7-4.5-1.1l-0.6,0.6l6.8,9.7
				c0.6,1.1,1.7,1.1,2.3,0.6v0.6L1703,904.6z"/>
		</g>
		<g id="_x32_1439448">
			<path inkscape:connector-curvature="0" class="st11" d="M1709.2,891l3.4,4c0.6,0.6,1.7,0.6,2.3,0v0.6l-4.5,4V899
				c0.6-0.6,0.6-1.1,0-2.3l-6.8-8.5c-0.6-1.1-1.1-0.6-2.3-0.6l0,0l4.5-4v0.6c0,0.6-0.6,1.1,0,2.3l2.8,3.4l3.4-2.3l-2.8-4
				c-0.6-1.1-1.7-0.6-2.3-0.6l0,0l4.5-4v0.6c-0.6,0.6-0.6,1.1,0,2.3l6.8,8.5c0.6,0.6,1.1,0.6,1.7,0l0.6,0.6l-4.5,4l-0.6-0.6
				c0.6-0.6,1.1-1.1,0.6-2.3l-3.4-4L1709.2,891z"/>
		</g>
		<g id="_x32_1439360">
			<path inkscape:connector-curvature="0" class="st11" d="M1714.4,879.1c-0.6-0.6-1.7-0.6-2.3,0v-0.6l7.4-6.8l3.4,3.4h-0.6
				c-1.7-2.3-4-1.1-5.1-0.6c0,0.6-0.6,0.6-1.1,1.1c0,0,0,0.6,0.6,1.7c0.6,0.6,3.4,3.4,3.4,3.4c0.6-0.6,2.3-1.7,0-4.5h0.6l4.5,5.1
				v0.6c-2.8-2.8-4-1.1-4.5-0.6l3.4,3.4c0.6,1.1,1.1,1.1,1.1,1.1c0.6-0.6,1.1-1.1,1.7-1.7c0.6-0.6,1.1-2.3,0-5.7h0.6l2.3,4l-7.4,7.4
				l-0.6-0.6c0.6-0.6,1.1-1.1,0-2.3L1714.4,879.1z"/>
		</g>
		<g id="_x32_1439272">
			<path inkscape:connector-curvature="0" class="st11" d="M1728,863.2c-0.6,0.6-0.6,1.7,0.6,2.3c1.1,1.1,2.3,1.1,4.5,0
				c1.1-0.6,3.4-1.1,5.1,0.6c2.8,2.8,1.7,5.1,1.1,6.2c-0.6,0.6-1.7,1.1-2.3,1.7c-0.6,0-0.6,0-0.6,0.6v0.6l-4-3.4h0.6
				c2.3,1.1,4.5,1.7,5.7,0c1.1-1.1,0-2.3-0.6-2.8c-1.1-1.1-2.3-1.1-4,0c-1.7,0.6-4,0.6-5.7-0.6c-2.3-2.3-2.3-4-1.1-5.7
				c0.6-0.6,1.7-1.1,2.3-1.7c0.6,0,0.6,0,0-1.1l0,0l4,2.8h-0.6C1730.3,861.5,1728.6,862,1728,863.2z"/>
		</g>
		<g id="_x32_1439184">
			<path inkscape:connector-curvature="0" class="st11" d="M1733.1,858.6c-1.1-0.6-1.7,0-2.3,0.6h-0.6l6.3-9.1l4,2.8l-0.6,0.6
				c-2.3-1.7-4.5-0.6-5.1,0c0,0.6-0.6,1.1-0.6,1.7c-0.6,0-0.6,0.6,0.6,1.1c0.6,0.6,4,2.8,4,2.8c0.6-0.6,1.7-1.7-0.6-4v-0.6l5.7,4.5
				l0,0c-3.4-1.7-4,0-4.5,0.6l4,2.8c1.1,0.6,1.7,0.6,1.7,0.6c0-0.6,0.6-1.1,1.1-1.7c0.6-1.1,1.1-2.8-1.1-5.1l0.6-0.6l2.8,3.4
				l-5.7,8.5h-0.6c0.6-1.1,0.6-1.7-0.6-2.8L1733.1,858.6z"/>
		</g>
		<g id="_x32_1441120">
			<path inkscape:connector-curvature="0" class="st11" d="M1748.4,848.4l-1.7,2.8c-2.3-2.3-3.4-4-3.4-4S1743.3,847.2,1748.4,848.4
				h1.1c0.6,0,1.7,0.6,2.3,0.6c1.7,0.6,1.1,1.1,0.6,2.3h0.6l2.8-5.1l0,0c-1.1,1.1-1.7,0.6-2.8,0.6c-11.9-2.3-13.1-2.8-13.1-2.8v0.6
				c0,0,0,0,9.1,10.2c0.6,0.6,0.6,1.7,0.6,2.3h0.6l1.7-2.8l-0.6-0.6c-0.6,1.1-1.1,1.7-2.3,0c-0.6-0.6-1.1-1.1-1.1-1.1l1.7-4H1748.4z
				"/>
		</g>
		<g id="_x32_1439008">
			<path inkscape:connector-curvature="0" class="st11" d="M1745,835.9c-0.6,0.6-0.6,1.7,1.1,2.3c1.7,0.6,2.3,0,4-1.1
				c1.7-1.1,3.4-2.3,5.7-1.1c3.4,1.7,2.8,4.5,2.3,5.7c-0.6,0.6-1.1,1.7-1.7,2.3c0,0,0,0,0,0.6v0.6l-4.5-2.3l0,0
				c2.8,0.6,5.1,0,5.7-1.7c0.6-1.1-0.6-2.3-1.1-2.8c-1.1-0.6-2.3,0-4,1.1c-1.7,1.7-3.4,2.3-5.7,1.1s-3.4-2.8-2.3-4.5
				c0-1.1,1.1-1.7,1.7-2.3c0-0.6,0-0.6-0.6-1.1v-0.6l4.5,2.3h-0.6C1746.7,833.6,1745,834.7,1745,835.9z"/>
		</g>
		<g id="_x32_1438920">
			<path inkscape:connector-curvature="0" class="st11" d="M1609.8,926.8c0,5.1-1.7,6.8-3.4,6.8c-0.6-0.6-0.6-0.6-1.1-0.6
				c0,0-0.6,0-0.6-0.6l0.6-11.9c0-0.6,0-0.6,0.6-0.6c0.6,0,0.6,0,1.1,0C1608.1,920,1609.8,921.7,1609.8,926.8h2.3
				c0-5.7-2.8-7.4-5.7-7.4c-2.3-0.6-5.7-0.6-5.7-0.6v0.6c0.6,0,1.7,0.6,1.7,1.7l-0.6,10.8c0,1.1-0.6,1.7-1.1,1.7v0.6h5.1
				c2.8,0,5.7-1.1,6.3-7.4H1609.8z"/>
		</g>
		<g id="_x32_1438832">
			<path inkscape:connector-curvature="0" class="st11" d="M1676.9,918.8c-1.7,0.6-4-1.7-5.7-5.7c-1.7-3.4-1.7-6.8,0-7.4
				c1.7-0.6,4,1.7,5.7,5.1C1678.6,914.3,1678.6,917.7,1676.9,918.8L1676.9,918.8c3.4-1.1,4.5-5.1,2.8-9.1c-1.7-3.4-5.1-5.7-8.5-4.5
				c-3.4,1.7-4.5,5.7-2.8,9.1C1670,918.3,1673.4,920.5,1676.9,918.8L1676.9,918.8z"/>
		</g>
	</g>
	<g id="path3959">
		<path d="M1441.2,296.2l-0.1,0c-9.7-4.2-20.7-9.7-28.3-19.1c-7.7-9.4-11.4-22.1-11.4-38.6v-41.3h79.5v41.3
			c0,16.6-3.7,29.2-11.3,38.6c-7.6,9.4-18.5,14.9-28.2,19.1L1441.2,296.2z M1401.9,197.7v40.7c0,37.1,19.4,48.6,39.3,57.1
			c19.8-8.5,39.1-20,39.1-57.1v-40.7H1401.9z"/>
	</g>
</g>
</svg>
