<?xml version="1.0" encoding="utf-8"?>
<!-- Generator: Adobe Illustrator 21.1.0, SVG Export Plug-In . SVG Version: 6.00 Build 0)  -->
<svg version="1.1" id="Warstwa_1" xmlns="http://www.w3.org/2000/svg" xmlns:xlink="http://www.w3.org/1999/xlink" x="0px" y="0px"
	 viewBox="0 0 512 512" style="enable-background:new 0 0 512 512;" xml:space="preserve">
<style type="text/css">
	.st0{fill:#FFFFFF;}
	.st1{fill:#002A8F;}
	.st2{fill:#CF142B;}
</style>
<g>
	<path class="st0" d="M116.7,409.6h344.2c22.4-29.8,38.4-64.6,46.1-102.5H250.6L116.7,409.6z"/>
	<path class="st1" d="M460.8,409.6H116.7l-39.1,29.9c46.1,44.8,109,72.5,178.4,72.5C339.7,512,414.1,471.8,460.8,409.6z"/>
	<path class="st1" d="M317.4,256l-66.9,51.2h256.4c3.3-16.5,5.2-33.6,5.2-51.2c0-17.5-1.8-34.7-5.2-51.2H250.5L317.4,256z"/>
	<path class="st1" d="M460.8,102.4C414.1,40.1,339.7,0,256,0C186.6,0,123.6,27.7,77.6,72.5l39.1,30h344.1V102.4z"/>
	<path class="st0" d="M250.5,204.8h256.4c-7.7-37.8-23.7-72.7-46.1-102.4H116.7L250.5,204.8z"/>
	<path class="st2" d="M250.5,307.2l66.9-51.2l-66.9-51.2L116.7,102.5l-39.1-30C29.7,119,0,183.9,0,256s29.8,137,77.6,183.5
		l39.1-29.9L250.5,307.2z M37.8,243.4h42.9l13.3-40.7l13.2,40.7H150l-34.7,25.2l13.3,40.7l-34.7-25.1l-34.7,25.1l13.3-40.7
		L37.8,243.4z"/>
	<polygon class="st0" points="59.3,309.3 93.9,284.2 128.6,309.3 115.3,268.6 150,243.4 107.1,243.4 93.9,202.7 80.7,243.4 
		37.8,243.4 72.5,268.6 	"/>
</g>
</svg>
