<?xml version="1.0" encoding="utf-8"?>
<!-- Generator: Adobe Illustrator 21.1.0, SVG Export Plug-In . SVG Version: 6.00 Build 0)  -->
<svg version="1.1" id="Warstwa_1" xmlns="http://www.w3.org/2000/svg" xmlns:xlink="http://www.w3.org/1999/xlink" x="0px" y="0px"
	 viewBox="0 0 512 512" style="enable-background:new 0 0 512 512;" xml:space="preserve">
<style type="text/css">
	.st0{clip-path:url(#SVGID_2_);}
	.st1{fill:#002B7F;}
	.st2{fill:#F9E814;}
	.st3{fill:#FFFFFF;}
</style>
<g>
	<defs>
		<path id="SVGID_1_" d="M512,256c0,141.4-114.6,256-256,256S0,397.4,0,256S114.6,0,256,0S512,114.6,512,256z"/>
	</defs>
	<clipPath id="SVGID_2_">
		<use xlink:href="#SVGID_1_"  style="overflow:visible;"/>
	</clipPath>
	<g class="st0">
		<rect x="-5.8" y="-2.6" class="st1" width="784.7" height="523"/>
		<rect x="-5.8" y="324.2" class="st2" width="784.7" height="66.2"/>
		<polygon class="st3" points="202.8,219 168.5,194.1 134.9,218.3 147.1,178.8 113.3,153.9 155.8,153.9 168.6,113.7 181.5,153.5 
			224.2,153.9 189.9,178.6 		"/>
		<polygon class="st3" points="106.7,119.5 81.2,101 56.2,119 65.3,89.6 40.1,71 71.8,71 81.2,41.1 90.9,70.8 122.7,71 97.1,89.5 		
			"/>
	</g>
</g>
</svg>
