<?xml version="1.0" encoding="utf-8"?>
<!-- Generator: Adobe Illustrator 21.1.0, SVG Export Plug-In . SVG Version: 6.00 Build 0)  -->
<svg version="1.1" id="Warstwa_1" xmlns="http://www.w3.org/2000/svg" xmlns:xlink="http://www.w3.org/1999/xlink" x="0px" y="0px"
	 viewBox="0 0 512 512" style="enable-background:new 0 0 512 512;" xml:space="preserve">
<style type="text/css">
	.st0{fill:#FFFFFF;}
	.st1{fill:#ED8000;}
	.st2{fill:#006651;}
</style>
<g>
	<path class="st0" d="M512,256c0,141.4-114.6,256-256,256S0,397.4,0,256S114.6,0,256,0S512,114.6,512,256z"/>
	<g>
		<path class="st1" d="M412.7,121.8c8.3,0.2,15.6-4.4,22.5-8.2c-1.2,2.7-1.4,5.9-2.9,8.5c-2.4,1.1-5.4,0.5-7.7,2
			c-3.6,2.4-7.6,4.5-11,7.1c-3,2.3-2.7,7.5-6.8,8.6c-5.6,1.5-9.1,6.3-12.6,10.6c-4.9,0.9-9,3.9-13.7,5.8c-3.5,1.4-6.2,4.5-9,7
			c-2.8,2.5-6.1,5.1-7.3,8.9c-0.8,1.9-1.1,4.7-3.1,5.8c-2.9,1.8-6.6,0.6-9.7,0.6c-3.7,0.9-8.2,3.1-8.2,7.5c-5,4-5,10.9-4.4,16.6
			c1.1,5.5,5.3,9.4,8.9,13.2c1.8,1.7,2.2,4.3,3.3,6.4c2.2,2.8,6.4,4,7.8,7.5c0.9,2.4,3.1,3.9,4.5,6c1.1,2,0.7,4.5,1.1,6.6
			c-4.8-3-10.3-4.3-15.8-4.9c-2.6,1.6-5.7,1.9-8.7,1.8c0.9,3.4-2.5,6.5-5.9,5.3c-3.5-1.9-6.5-5.5-10.6-5.8
			c-6.6-0.6-14.6-1.1-19.1,4.7c-3.2,4.9-1.9,11.1-2.4,16.7c-2.6,1.6-4.1,4.4-5,7.2c-2.4-0.4-4.9-1.1-7.3-0.4
			c-2.9,0.8-4.8,3.7-6.6,6.1c-4.9,0.8-9.8,2.2-13.3,5.9c-2.3,0.7-4.6,1.6-6.5,3c-1.8,0.4-3.4,1.1-4.9,2.3c-2.4-0.5-5-0.6-7.3-0.3
			c-2.1,3.5-6.8,3.7-10.4,2.6c-5.7-1.5-11.8-0.6-16.6,2.4c-5.5,1.6-10.1,5.8-12.4,10.9c-1.6,4.4,1.5,8.2,3.9,11.5
			c-4.4-0.5-8.9-0.6-13.2-1.1c1.6-6.4-3.2-11.6-7.7-15.4c-4.2-2.9-9.2,0.5-13.8-1c-3,1.6-6.1,3.9-9.8,2.9c-0.9,0.5-1.8,1-2.8,1.4
			c-4.1-1.4-8.1-3-12.2-4.5c-2.7-0.9-4-3.9-6.4-5c-2.6-0.6-5.5-0.2-7.7-1.9c-2.3-0.3-5.1-0.2-6.4-2.5c-2.2-3.2-6-4.7-9.1-6.6
			c-0.6-3.3-2-6.5-2.5-9.8c-0.5-1.8-0.6-4.1-1.9-5.6c-1.6-1.3-3.6-2.1-5.4-3.3c-0.9-2.2-1.6-4.6-3.2-6.3c1.9-2.6,0.1-5.2-0.6-7.7
			c0-3.1,0.8-6.5-0.2-9.5c-1.7-2.8-4.2-5.5-5-8.7c-0.4-2.7,0.9-5.3,1.9-7.7c2,4.3,6.3,6.7,9.5,9.9c3.4,1.4,8,1.3,11.1-0.8
			c3-2,6.3-4.1,9-6.4c2.4-3,2.6-7.3,5-10.4c0.9-1.2,2.1-2.4,3.1-3.5c5.3-0.8,9.7-4.6,15.2-4.2c8.1,0.7,15.2,5.2,22.4,8.4
			c2.3,1.2,4.7-0.1,6.8-1.2c3.9-2.4,7.5-6,8.5-10.6c1.3-6.1,1.3-12.4,1.3-18.4c0.1-4.5-1.3-8.7-1.4-13c6.8,2.8,13.9,5.3,21.2,6.9
			c2.6,0.3,5.1-0.6,7.7-0.9c2,0,3.7,1,5.8,1.2c1.6-0.4,3.1-1,4.9-1.3c2.1,0.3,3.7,2.2,5.9,2.8c3.9,0.1,7.7-0.9,11.4,0.2
			c4.5,1.2,9,0.6,13.6,1.5c8.5-0.8,17.3-0.6,25.2-4.2c3.6-1.1,7.7,0.4,11.2-1.3c4-1.9,7-5.4,10.7-7.6c2.3-1.7,5.2,0,7.8-0.3
			c10.4-0.5,20.1-5.3,29.1-10c4.2-2.1,7.9-5.1,12.5-6.5c5.5-1.1,8.1-6.8,11.5-10.5c6.6,1.1,11.9-2.9,17.7-5.1
			c3.5-1.5,5.3-5.4,8.3-7.7c2.3-0.8,4.9-1,7.2-1.4C411.8,123.5,412.2,122.7,412.7,121.8L412.7,121.8z"/>
		<g>
			<path class="st2" d="M169.7,319.7c5.6,4.7,8.4,11.9,9.4,18.9c0.6,3.2,0,6.7-1.2,9.8c-4.6-3-7.2-8.1-8.4-13.3
				C168.3,330.1,168,324.7,169.7,319.7L169.7,319.7z"/>
			<path class="st2" d="M333.6,333.8c1.5-5.3,4.1-10.6,8.4-14.1c2.1,6.7,1.2,14.1-1.5,20.6c-1.2,3.3-3.7,6.1-6.7,8.1
				C331.8,343.8,332.2,338.5,333.6,333.8L333.6,333.8z"/>
			<path class="st2" d="M144.3,324.6c6.8,0.9,13,4.7,17.9,9.3c3.2,3,5.7,7.1,5.8,11.7C157.3,343.4,145.8,336.4,144.3,324.6
				L144.3,324.6z"/>
			<path class="st2" d="M351.1,332.5c4.7-4,10.1-7.1,16.4-7.9c-1.6,11.8-13.1,18.6-23.8,21C343.8,340.3,347.1,335.9,351.1,332.5
				L351.1,332.5z"/>
			<path class="st2" d="M182.1,339.4c-0.3-2.8,0.9-5.4,2.2-7.8c6.6,6.8,11.4,17.8,6.1,26.7C185.8,353.1,182.4,346.5,182.1,339.4
				L182.1,339.4z"/>
			<path class="st2" d="M321.3,358.3c-5.3-8.9-0.6-20,6.1-26.7c1.6,2.7,2.5,5.7,2.2,8.8C329,347.1,325.7,353.3,321.3,358.3
				L321.3,358.3z"/>
			<path class="st2" d="M197.6,340.8c5.6,4.7,9.8,11.5,10.4,18.9c0.3,2.9-0.7,5.9-2,8.5C197.9,361.9,195.3,350.5,197.6,340.8
				L197.6,340.8z"/>
			<path class="st2" d="M303.5,359.7c0.7-7.3,4.9-14.2,10.5-18.7c2.4,9.6-0.3,21.1-8.4,27.3C304.3,365.6,303.3,362.7,303.5,359.7
				L303.5,359.7z"/>
			<path class="st2" d="M147.5,350.3c10.3-2.2,22.2-0.7,30.2,6.7c-4,3.2-9.3,4.2-14.3,3C157.4,358.5,151.2,355.4,147.5,350.3
				L147.5,350.3z"/>
			<path class="st2" d="M211.2,348.1c5.1,4.7,9.7,10.2,11.7,16.9c1,3.3,0.4,6.9-1.1,10.1c-6.2-4.6-9.4-11.9-10.8-19.3
				C210.3,353.3,210.6,350.8,211.2,348.1L211.2,348.1z"/>
			<path class="st2" d="M289.3,363.5c2.2-6.1,6.5-11.1,11.1-15.4c1.6,6.1-0.3,12.4-2.8,17.7c-1.7,3.6-4.5,6.9-7.6,9.3
				C288.2,371.6,287.9,367.4,289.3,363.5L289.3,363.5z"/>
			<path class="st2" d="M334,356.8c8-7.3,20-8.8,30.2-6.7c-3.7,5.3-9.9,8.2-16,9.6C343.4,361.1,338,360.2,334,356.8L334,356.8z"/>
			<path class="st2" d="M225.9,353.5c10.1,4.7,14.5,16.8,12.7,27.5C230.8,374.3,224.5,364,225.9,353.5L225.9,353.5z"/>
			<path class="st2" d="M273,380.9c-1.8-10.6,2.6-22.7,12.8-27.5C287.2,364,280.8,374.3,273,380.9L273,380.9z"/>
			<path class="st2" d="M162.7,367.1c2.3-2.2,5.1-4.4,8.5-4.7c6.1-0.7,12.1,1.5,17.9,2.9c-3.5,4.5-9.6,5.3-15,5.3
				C170,370.7,165.9,369.6,162.7,367.1L162.7,367.1z"/>
			<path class="st2" d="M322.7,365.5c5.9-1.4,11.9-3.6,18-2.9c3.2,0.3,6.1,2.4,8.4,4.7c-5.4,4.3-12.8,4.3-19.2,2.7
				C327,369.2,324.6,367.7,322.7,365.5L322.7,365.5z"/>
			<path class="st2" d="M178.6,380.8c5.7-8.4,17.7-12.7,27-7.9C198.6,379.7,188.2,384.2,178.6,380.8L178.6,380.8z"/>
			<path class="st2" d="M307,372.5c9.1-4.4,20.7,0,26.2,8.2c-8.4,3.1-17.6-0.2-24.3-5.5C307.9,374.5,306.7,373.9,307,372.5
				L307,372.5z"/>
			<path class="st2" d="M194.1,388.3c6.6-7,17.2-10.2,26.5-7c-1.8,2.9-4.1,5.7-7.2,7.3C207.4,391.6,200.2,390.7,194.1,388.3
				L194.1,388.3z"/>
			<path class="st2" d="M291.3,381.3c9.1-3.1,19.9,0,26.3,7c-6.1,2.3-13.3,3.3-19.3,0.2C295.3,386.9,293.1,384.1,291.3,381.3
				L291.3,381.3z"/>
			<path class="st2" d="M229.4,381.2c8.8,2,17.4,4.8,26.3,5.9c8.9-1,17.6-3.9,26.3-5.8c-6.9,2.6-13.8,5.1-20.8,7.3
				c4.4,1.2,8.5,3.2,12.4,5.8c-6.1-1-11.9-3-17.9-4.1c-6.1,1-11.9,3-17.8,4.1c3.7-2.6,7.9-4.6,12.3-5.8
				C243.3,386.2,236.3,383.8,229.4,381.2L229.4,381.2z"/>
			<path class="st2" d="M209.1,398.1c5.6-8.1,15.4-13.2,25.2-12.5c-2.2,4.3-4.9,8.6-9.4,10.6C219.9,398.7,214.3,398.5,209.1,398.1
				L209.1,398.1z"/>
			<path class="st2" d="M277.4,385.6c9.8-0.7,19.8,4.5,25.2,12.5c-5.8,0.4-12.1,0.6-17.1-2.6C281.6,393.3,279.4,389.4,277.4,385.6
				L277.4,385.6z"/>
		</g>
	</g>
</g>
</svg>
