<?xml version="1.0" encoding="utf-8"?>
<!-- Generator: Adobe Illustrator 21.1.0, SVG Export Plug-In . SVG Version: 6.00 Build 0)  -->
<svg version="1.1" id="Warstwa_1" xmlns="http://www.w3.org/2000/svg" xmlns:xlink="http://www.w3.org/1999/xlink" x="0px" y="0px"
	 viewBox="0 0 512 512" style="enable-background:new 0 0 512 512;" xml:space="preserve">
<style type="text/css">
	.st0{fill:#FFFFFF;}
	.st1{fill:#D7141A;}
	.st2{fill:#11457E;}
</style>
<g>
	<path class="st0" d="M512,256C512,114.6,397.4-0.1,256-0.1c-88.9,0-167.1,45.3-213,114L256,256H512z"/>
	<path class="st1" d="M512,256H256L43,398c45.9,68.7,124.1,114,213,114C397.4,512,512,397.4,512,256z"/>
	<path class="st2" d="M43,113.9C15.8,154.6,0,203.4,0,256c0,52.5,15.8,101.3,43,142l213-142L43,113.9z"/>
</g>
</svg>
