<?xml version="1.0" encoding="utf-8"?>
<!-- Generator: Adobe Illustrator 21.1.0, SVG Export Plug-In . SVG Version: 6.00 Build 0)  -->
<svg version="1.1" id="Warstwa_1" xmlns="http://www.w3.org/2000/svg" xmlns:xlink="http://www.w3.org/1999/xlink" x="0px" y="0px"
	 viewBox="0 0 512 512" style="enable-background:new 0 0 512 512;" xml:space="preserve">
<style type="text/css">
	.st0{clip-path:url(#SVGID_2_);}
	.st1{fill:#FFFFFF;}
	.st2{fill:#21468B;}
	.st3{fill:#AE1C28;}
	.st4{font-family:'TimesNewRomanPSMT';}
	.st5{font-size:153.1749px;}
	.st6{font-size:62.4276px;}
	.st7{font-size:62.429px;}
</style>
<g>
	<defs>
		<path id="SVGID_1_" d="M511.9,256.7C511.5,398,396.6,512.4,255.3,512C114,511.6-0.4,396.7,0,255.4S115.3-0.3,256.7,0.1
			C398,0.5,512.3,115.4,511.9,256.7z"/>
	</defs>
	<clipPath id="SVGID_2_">
		<use xlink:href="#SVGID_1_"  style="overflow:visible;"/>
	</clipPath>
	<g class="st0">
		<rect id="rect2818" x="-133" y="-3.2" class="st1" width="778" height="518.7"/>
		<rect id="rect2822" x="-133" y="342.5" class="st2" width="778" height="172.9"/>
		<rect id="rect2824" x="-133" y="-3.2" class="st3" width="778" height="172.9"/>
		<g id="g2907">
			<text transform="matrix(1.0383 0 0 1 198.8569 305.6133)" class="st4 st5">V</text>
			<text transform="matrix(1.0302 0 0 1 263.0664 263.7471)" class="st4 st6">C</text>
			<text transform="matrix(0.9629 -0.3628 0.3526 0.9358 219.922 271.0746)" class="st4 st7">O</text>
		</g>
	</g>
</g>
</svg>
