<?xml version="1.0" encoding="utf-8"?>
<!-- Generator: Adobe Illustrator 21.1.0, SVG Export Plug-In . SVG Version: 6.00 Build 0)  -->
<svg version="1.1" id="Warstwa_1" xmlns="http://www.w3.org/2000/svg" xmlns:xlink="http://www.w3.org/1999/xlink" x="0px" y="0px"
	 viewBox="0 0 512 512" style="enable-background:new 0 0 512 512;" xml:space="preserve">
<style type="text/css">
	.st0{fill:#FFFFFF;}
	.st1{fill:#CF142B;}
</style>
<g>
	<path class="st0" d="M508,211.2C489.4,105.7,406.3,22.6,300.8,4v207.3H508z"/>
	<path class="st0" d="M211.2,4C105.7,22.6,22.6,105.7,4,211.2h207.3V4z"/>
	<path class="st0" d="M4,300.8C22.6,406.3,105.7,489.4,211.2,508V300.8H4z"/>
	<path class="st0" d="M300.8,508C406.3,489.4,489.4,406.3,508,300.8H300.8V508z"/>
	<path class="st1" d="M300.8,300.8H508c2.5-14.6,4-29.5,4-44.8s-1.4-30.3-4-44.8H300.8V4c-14.6-2.5-29.5-4-44.8-4s-30.3,1.4-44.8,4
		v207.3H4c-2.5,14.6-4,29.5-4,44.8s1.4,30.2,4,44.8h207.3V508c14.6,2.5,29.5,4,44.8,4s30.2-1.4,44.8-4V300.8z"/>
</g>
</svg>
