<?xml version="1.0" encoding="utf-8"?>
<!-- Generator: Adobe Illustrator 21.1.0, SVG Export Plug-In . SVG Version: 6.00 Build 0)  -->
<svg version="1.1" id="Warstwa_1" xmlns="http://www.w3.org/2000/svg" xmlns:xlink="http://www.w3.org/1999/xlink" x="0px" y="0px"
	 viewBox="0 0 512 512" style="enable-background:new 0 0 512 512;" xml:space="preserve">
<style type="text/css">
	.st0{fill:#0072C6;}
	.st1{fill:#FFFFFF;}
	.st2{fill:#EF2B2D;}
</style>
<g>
	<path class="st0" d="M2,287.9c1.3,10.9,3.3,21.6,6,32h120v157.7c10.2,6,21,11.1,32,15.6V287.9H2z"/>
	<path class="st0" d="M504,319.9c2.6-10.4,4.7-21.1,6-32H224v221.9c10.5,1.3,21.2,2,32,2V319.9H504z"/>
	<path class="st1" d="M504,192C475.5,81.6,375.3-0.1,256-0.1V192H504z"/>
	<path class="st1" d="M8,319.9c17.3,67.2,61.3,123.7,120,157.7V319.9H8z"/>
	<path class="st1" d="M128,34.3C69.3,68.2,25.3,124.8,8,192h120V34.3z"/>
	<path class="st1" d="M504,319.9H256V512C375.3,512,475.5,430.4,504,319.9z"/>
	<path class="st0" d="M160,18.6c-11,4.5-21.8,9.7-32,15.6V192H8c-2.6,10.4-4.7,21.1-6,32h158L160,18.6L160,18.6z"/>
	<path class="st0" d="M510,224c-1.3-10.8-3.3-21.6-6-32H256V-0.1c-10.8,0-21.5,0.7-32,2v221.9h286V224z"/>
	<path class="st2" d="M510,287.9c1.3-10.4,2-21.2,2-32s-0.8-21.5-2-32H224V2c-22.4,2.7-43.8,8.4-63.9,16.6V224H2
		c-1.3,10.5-2,21.2-2,32s0.7,21.5,2,32h158v205.3c20.2,8.2,41.7,13.9,63.9,16.6V288h286V287.9z"/>
</g>
</svg>
