<?xml version="1.0" encoding="utf-8"?>
<!-- Generator: Adobe Illustrator 21.1.0, SVG Export Plug-In . SVG Version: 6.00 Build 0)  -->
<svg version="1.1" id="Warstwa_1" xmlns="http://www.w3.org/2000/svg" xmlns:xlink="http://www.w3.org/1999/xlink" x="0px" y="0px"
	 viewBox="0 0 512 512" style="enable-background:new 0 0 512 512;" xml:space="preserve">
<style type="text/css">
	.st0{fill:#FFFFFF;}
	.st1{fill:#DA000C;}
	.st2{fill:#F8D80E;}
</style>
<g>
	<path d="M512.4,256c0,141.4-114.6,256-256,256C115,512,0.4,397.4,0.4,256C0.4,114.6,115,0,256.4,0C397.8,0,512.4,114.6,512.4,256z"
		/>
	<g>
		<g>
			<path class="st0" d="M509,256C509,116.5,395.9,3.4,256.4,3.4C116.9,3.4,3.7,116.5,3.7,256c0,29.2,5.2,57,14.3,83.1h476.7
				C503.8,313,509,285.2,509,256z"/>
			<path class="st1" d="M256.4,508.6c110.4,0,204-70.9,238.4-169.5H18C52.4,437.7,146,508.6,256.4,508.6z"/>
		</g>
		<g>
			<rect x="228.3" y="106.7" width="56.3" height="207.7"/>
			<rect x="312" y="122.9" width="39.7" height="186.4"/>
			<rect x="161.1" y="122.9" width="39.7" height="186.4"/>
			<g>
				<path id="_x3C_Path_x3E__162_" class="st1" d="M208.5,309.3h-66.6l-15.2,10v10.6h81.8V309.3z"/>
				<path d="M126.3,330.3V319l15.5-10.2h66.7v0.5v-0.5h0.4v21.5H126.3L126.3,330.3z M127.2,319.5v9.9H208v-19.7h-66L127.2,319.5
					L127.2,319.5z"/>
			</g>
			<g>
				<polygon points="126.3,319.7 126.3,318.8 208.9,318.8 208.9,319.7 126.3,319.7 				"/>
			</g>
			<g>
				<path id="_x3C_Path_x3E__160_" class="st1" d="M304.2,329.9H386v-10.6l-15.2-10h-66.6V329.9z"/>
				<path d="M304.2,330.3h-0.4v-21.5H371l15.5,10.2v11.3H304.2L304.2,330.3z M304.7,329.4l80.8,0v-9.9l-14.9-9.8h-66V329.4
					L304.7,329.4z"/>
			</g>
			<g>
				<polygon points="303.8,319.7 303.8,318.8 386.5,318.8 386.5,319.7 303.8,319.7 				"/>
			</g>
			<g>
				<path id="_x3C_Path_x3E__158_" class="st1" d="M208.2,314.4l-17.1,8.4v12.3h65.3h65.3v-12.3l-17.1-8.4h-48.1H208.2z"/>
				<path d="M256.4,335.5h-65.7v-13L208,314l0.1,0h48.2h48.2l17.5,8.5v13H256.4L256.4,335.5z M191.5,323v11.6h64.8h64.8V323
					l-16.8-8.2h-48h-48L191.5,323L191.5,323z M208.2,314.8v-0.5V314.8L208.2,314.8z"/>
			</g>
			<g>
				<polygon points="191.1,323.2 191.1,322.2 321.7,322.2 321.7,323.2 191.1,323.2 				"/>
			</g>
			<g>
				<path id="_x3C_Path_x3E__156_" class="st1" d="M179.5,265c9.3,0,16.9,8.2,16.9,18.4v25.9h12.2V211h-66.6v98.3h20.7v-25.9
					C162.6,273.6,170,265,179.5,265z"/>
				<path d="M141.5,309.7v-99.2h67.5v99.2h-13v-26.4c0-9.9-7.4-17.9-16.4-17.9l0,0V265v-0.4c9.6,0,17.3,8.4,17.3,18.8l0,0v25.5H208
					v-97.4h-65.7v97.4h19.8v-25.5c0-10,7.6-18.8,17.3-18.8l0,0v0.4v0.4c-9.1,0-16.4,8.4-16.4,17.9l0,0v26.4H141.5L141.5,309.7z"/>
			</g>
			<g>
				<rect x="135.6" y="203" class="st1" width="79.3" height="7.9"/>
				<path d="M135.1,211.4V203v-0.4h80.2v8.8H135.1L135.1,211.4z M136,210.5h78.4v-7H136V210.5L136,210.5z"/>
			</g>
			<g>
				<g>
					<path id="_x3C_Path_x3E__155_" class="st2" d="M250.8,324.2c-3.6,3.2-3.2,7.1-3.2,7.1l8.8-3.3l5.9-4.2c2-1.5,3.8-2.9,6.2-4.5
						c3.8-2.5,7.8-4.9,11.3-6.9c3.5-1.9,6.6-3.3,7.8-3.7l-1.7-5.9c-2.4,0.7-5.3,2.2-9,4.2c-3.7,2-7.9,4.6-11.8,7.2
						C265.2,314.1,253,322.2,250.8,324.2z"/>
					<path d="M247.3,331.3c0,0,0-0.2,0-0.4l0,0c0-1.1,0.3-4.3,3.3-7l0,0c2.3-2,14.4-10.1,14.4-10.1l0,0c3.9-2.6,8.1-5.2,11.8-7.2
						l0,0c3.6-2,6.7-3.5,9.1-4.2l0,0l0.3-0.1l2,6.6l-0.3,0.1c-1.1,0.3-4.2,1.7-7.7,3.6l0,0c-3.5,1.9-7.5,4.4-11.3,6.9l0,0
						c-2.3,1.6-4.1,3-6.1,4.5l0,0l-6,4.2l-9.3,3.5L247.3,331.3L247.3,331.3z M248,330.8l8.3-3.1l5.9-4.2c2-1.5,3.8-2.9,6.2-4.5l0,0
						c3.8-2.5,7.9-5,11.4-6.9l0,0c3.2-1.8,6.1-3.1,7.5-3.6l0,0l-1.5-5.3c-2.3,0.7-5.1,2.2-8.6,4.1l0,0c-3.7,2-7.8,4.5-11.8,7.2l0,0
						c0,0-12.2,8.1-14.3,10l0,0C248.4,326.9,248,329.7,248,330.8L248,330.8z"/>
				</g>
				<g>
					<polygon class="st2" points="221.1,437.3 221.1,451.4 229.9,451.4 229.9,444.3 241.9,444.3 241.9,451.4 251.4,451.4 
						251.4,437.3 					"/>
					<path d="M241.5,451.9v-7.1h-11.1v7.1h-9.7v-14.6v-0.4h31.2v15H241.5L241.5,451.9z M242.4,443.9v7.1h8.6v-13.2h-29.4v13.2h7.9
						v-7.1H242.4L242.4,443.9z M221.1,437.8v-0.5V437.8L221.1,437.8z"/>
				</g>
				<g>
					<polygon class="st2" points="221.1,458.2 221.1,472.3 251.4,472.3 251.4,458.2 241.9,458.2 241.9,465.2 229.9,465.2 
						229.9,458.2 					"/>
					<path d="M220.7,472.8v-14.6v-0.5h9.7v7.1h11.1v-7.1h10.4v15H220.7L220.7,472.8z M221.6,471.9H251v-13.3h-8.6v7.1h-12.9v-7.1
						h-7.9V471.9L221.6,471.9z M221.1,458.6v-0.4V458.6L221.1,458.6z"/>
				</g>
				<g>
					<rect id="_x3C_Path_x3E__154_" x="251.4" y="378.5" class="st2" width="8.8" height="107.4"/>
					<path d="M251,486.3V378.5v-0.5h9.7v108.3H251L251,486.3z M251.9,485.5h7.8V379h-7.8V485.5L251.9,485.5z"/>
				</g>
				<g>
					<path id="_x3C_Path_x3E__153_" sodipodi:nodetypes="cccccccccccccccc" class="st2" d="M255.8,353.5l18.6,10.9l-18.6,10.8
						l-18.6-10.8L255.8,353.5z M230.8,360.5h-6.7v7.8h6.7l24.9,14.5l25-14.5h6.7v-7.8h-6.7l-25-14.5L230.8,360.5z"/>
					<path d="M230.7,368.8h-7v-8.7h7l25.1-14.6l25.1,14.6h7v8.7h-7l-25.1,14.5L230.7,368.8L230.7,368.8z M224.6,367.8h6.3l24.8,14.4
						l24.8-14.4h6.3V361h-6.3l-24.8-14.4l-24.7,14.3L231,361h-6.3V367.8L224.6,367.8z M230.8,360.5v-0.5V360.5L230.8,360.5z
						 M236.2,364.4l19.3-11.2l0.2-0.1l19.6,11.4l-19.6,11.3L236.2,364.4L236.2,364.4z M238.1,364.4l17.7,10.3l17.7-10.3l-17.7-10.3
						L238.1,364.4L238.1,364.4z"/>
				</g>
				<g>
					<rect id="_x3C_Path_x3E__152_" x="251.4" y="390.9" class="st2" width="8.8" height="84.2"/>
					<path d="M251,475.6v-84.7v-0.4h9.7v85.1H251L251,475.6z M251.9,474.7h7.8v-83.3h-7.8V474.7L251.9,474.7z"/>
				</g>
				<g>
					<path class="st2" d="M255.8,360.1c-2.9,0-5.2-2.4-5.2-5.2v-18.9c0-2.9,2.3-5.2,5.2-5.2c2.9,0,5.2,2.3,5.2,5.2V349l3.5,2v-17.5
						c0-3.6-3.9-6.6-8.7-6.6c-4.8,0-8.7,3-8.7,6.6v23.8c0,3.6,3.9,6.6,8.7,6.6c4.3,0,7.8-2.4,8.6-5.4l-3.5-2.1
						C260.1,358.5,258.1,360.1,255.8,360.1z"/>
					<path d="M246.7,357.3v-23.8c0-4,4.2-7,9.1-7l0,0c5,0,9.1,3,9.1,7l0,0v18.3l-4.4-2.5v-13.3c0-2.6-2.1-4.8-4.8-4.8l0,0
						c-2.6,0-4.8,2.1-4.8,4.8l0,0v18.9c0,2.7,2.1,4.8,4.8,4.8l0,0v0.5v0.4c-3.1,0-5.7-2.6-5.7-5.7l0,0v-18.9c0-3.2,2.5-5.7,5.7-5.7
						l0,0c3.1,0,5.7,2.5,5.7,5.7l0,0v12.8l2.6,1.5v-16.7c0-3.3-3.6-6.1-8.2-6.1l0,0c-4.6,0-8.2,2.9-8.2,6.1l0,0v23.8
						c0,3.3,3.6,6.1,8.2,6.1l0,0c4,0,7.2-2.1,8-4.7l0,0L261,357c-0.8,2-2.9,3.5-5.2,3.5l0,0v-0.4v-0.5c2.1,0,4-1.4,4.6-3.4l0,0
						l0.2-0.6l4.3,2.5l-0.1,0.3c-0.8,3.4-4.5,5.7-9,5.7l0,0C250.8,364.3,246.7,361.3,246.7,357.3L246.7,357.3z"/>
				</g>
				<g>
					<path class="st2" d="M258.3,330.4c-0.2,1.6-2.2,1.8-2.7,1.7c-2-0.3-1.9-1-1.9-1s-1.2,0.5-2.8,2.9c-0.6,0.9,0,2.7,1.3,3.7
						c1.9,1.5,5.2,1.6,7.7-0.4c2.3-1.9,4.7-5.1,3.6-9.6c-0.8-3.7-1.7-4.6-2.9-5.7c-2.5-2.4-6.2-4.6-10.2-7
						c-8-4.8-17.7-9.6-25.1-12.3l-2.1,5.8c6.7,2.5,16.3,7.2,24,11.8c3.8,2.3,7.3,4.4,9.5,6.5C257.5,327.5,258.5,328.8,258.3,330.4z"
						/>
					<path d="M251.9,338c-1.1-0.8-1.7-2-1.7-3.1l0,0c0-0.4,0.1-0.7,0.3-1.1l0,0c1.7-2.5,3-3,3-3l0,0l0,0c0.1,0,0.1,0,0.1,0l0,0
						l0.1,0.3h0.3l0,0c0,0,0.1,0.1,0.1,0.2l0,0c0.2,0.2,0.6,0.4,1.5,0.5l0,0c0,0,0.1,0,0.2,0l0,0c0.6,0,2-0.3,2.1-1.4l0,0h0
						c0-0.1,0-0.3,0-0.4l0,0c0-1.2-0.9-2.3-1.5-3l0,0c-2.1-2-5.6-4.1-9.4-6.4l0,0c-7.6-4.6-17.2-9.3-23.9-11.8l0,0l-0.3-0.1l2.3-6.4
						l0.3,0.1c7.4,2.7,17.1,7.6,25.1,12.4l0,0c4,2.4,7.7,4.6,10.3,7l0,0c1.2,1.1,2.2,2.2,3,5.9l0,0c0.2,0.8,0.3,1.5,0.3,2.3l0,0
						c0,3.6-2.1,6.2-4.1,7.7l0,0c-1.4,1.1-3,1.6-4.5,1.6l0,0C254.2,339.2,252.9,338.8,251.9,338L251.9,338z M253.1,332
						c-0.5,0.4-1.2,1.1-2,2.3l0,0c-0.1,0.2-0.2,0.4-0.2,0.7l0,0c0,0.8,0.5,1.9,1.4,2.6l0,0c0.8,0.6,2,1,3.2,1l0,0
						c1.4,0,2.9-0.4,4.1-1.5l0,0c1.9-1.5,3.8-3.9,3.8-7.2l0,0c0-0.7-0.1-1.4-0.2-2.1l0,0c-0.8-3.6-1.7-4.4-2.8-5.5l0,0
						c-2.5-2.4-6.1-4.5-10.2-6.9l0,0c-7.9-4.7-17.4-9.5-24.7-12.2l0,0l-1.9,5.2c6.7,2.5,16.2,7.1,23.7,11.7l0,0
						c3.8,2.3,7.3,4.4,9.5,6.5l0,0c0.7,0.7,1.7,1.9,1.7,3.5l0,0c0,0.2,0,0.3,0,0.5l0,0l-0.4,0l0.4,0c-0.3,1.7-2.1,2-2.8,2l0,0
						c-0.1,0-0.2,0-0.3,0l0,0c-1.2-0.1-1.8-0.5-2-0.8l0,0C253.4,331.7,253.3,331.8,253.1,332L253.1,332z"/>
				</g>
				<polygon points="228.3,310.3 230.9,304.9 231.6,305.2 228.9,310.6 228.3,310.3 				"/>
				<polygon points="233.9,312.8 236.4,307.7 237,308 234.5,313.1 233.9,312.8 				"/>
				<polygon points="238.9,315.4 241.9,310.2 242.5,310.5 239.4,315.7 238.9,315.4 				"/>
				<polygon points="243.6,317.9 246.8,313 247.3,313.4 244.1,318.3 243.6,317.9 				"/>
				<polygon points="248.4,320.9 251.9,316 252.4,316.4 248.9,321.3 248.4,320.9 				"/>
				<polygon points="252.7,323.4 256.5,319 257,319.5 253.3,323.8 252.7,323.4 				"/>
				<polygon points="256.8,326.8 260.3,321.8 260.9,322.2 257.3,327.2 256.8,326.8 				"/>
				<polygon points="258.5,329.6 263.6,329.4 263.6,330.1 258.6,330.2 258.5,329.6 				"/>
				<polygon points="256.8,332.3 257.4,331.9 260.3,336.5 259.7,336.9 256.8,332.3 				"/>
				<polygon points="251.6,337 254.2,332.1 254.8,332.4 252.2,337.3 251.6,337 				"/>
				<polygon points="260.4,317.5 260.9,317.1 264.2,322.2 263.6,322.5 260.4,317.5 				"/>
				<polygon points="264.1,314.6 264.7,314.3 267.6,319.5 267,319.8 264.1,314.6 				"/>
				<polygon points="268.2,312.3 268.9,312.1 271.1,317.3 270.5,317.5 268.2,312.3 				"/>
				<polygon points="272.2,309.5 272.9,309.2 275.2,314.8 274.5,315 272.2,309.5 				"/>
				<polygon points="276.3,307.3 276.9,307 279.2,312.7 278.5,312.9 276.3,307.3 				"/>
				<polygon points="280.5,305 281.1,304.8 283.1,310.5 282.5,310.7 280.5,305 				"/>
				<polygon points="249.9,325.1 250.4,324.6 253.1,326.8 252.7,327.3 249.9,325.1 				"/>
			</g>
			<g>
				<rect x="297.9" y="203" class="st1" width="79.3" height="7.9"/>
				<path d="M297.4,211.4V203v-0.4h80.2v8.8H297.4L297.4,211.4z M298.3,210.5h78.4v-7h-78.4V210.5L298.3,210.5z"/>
			</g>
			<g>
				<path id="_x3C_Path_x3E__151_" class="st1" d="M159.3,122.9v61.9H170v-17c0-6.4,4.4-11.6,10.7-11.9c0.2,0,0.4,0,0.6,0
					c6.6,0,11.9,5.3,11.9,11.9v17h10.1v-61.9H159.3z"/>
				<path d="M192.8,185.3v-17.5c0-6.3-5.1-11.4-11.5-11.4l0,0c-0.1,0-0.3,0-0.4,0l0,0c-0.1,0-0.1,0-0.2,0l0,0
					c-6,0.3-10.3,5.2-10.3,11.4l0,0c0,0,0,0,0,0.1l0,0v17.4h-11.6v-62.3v-0.5h45v62.8H192.8L192.8,185.3z M193.7,167.8v16.5h9.3v-61
					h-43.2l0,61h9.8v-16.5c0,0,0-0.1,0-0.1l0,0c0-6.5,4.6-11.9,11.1-12.2l0,0c0.1,0,0.2,0,0.2,0l0,0c0.1,0,0.3,0,0.4,0l0,0
					C188.2,155.4,193.7,161,193.7,167.8L193.7,167.8z M159.3,123.3v-0.5V123.3L159.3,123.3z"/>
			</g>
			<g>
				<polygon class="st1" points="214.9,194.8 170,194.8 170,184.8 149.2,184.8 149.2,194.8 135.1,194.8 135.1,184.8 126.6,184.8 
					126.6,203 214.9,203 				"/>
				<path d="M126.2,203.5v-19.2h9.3v10.1h13.2v-10.1h21.8v10.1h44.4v0.5v-0.5h0.5v9.1H126.2L126.2,203.5z M127,202.6h87.4v-7.3
					h-44.8v-10.1h-19.9v10.1h-15v-10.1H127V202.6L127,202.6z"/>
			</g>
			<g>
				<path id="_x3C_Path_x3E__150_" class="st1" d="M226.1,106.7v78.1h16.3v-23.2c0-5.3,3.4-12.8,13.9-12.8
					c10.5,0,13.9,7.4,13.9,12.8v23.1h16.3v-78.1h-30.3H226.1z M253.9,115.4h2.5h2.5v26.7h-2.5h-2.5V115.4z M239.4,120.7h5.1v19.6
					h-5.1V120.7z M268.3,120.7h5.1v19.6h-5.1V120.7z"/>
				<path d="M225.7,185.3v-78.6v-0.4h30.7h30.7v79h-17.2v-23.6c0-5.2-3.2-12.3-13.5-12.3l0,0c-10.2,0-13.4,7.2-13.5,12.3l0,0v23.6
					H225.7L225.7,185.3z M226.6,184.3H242v-22.7c0-2.8,0.9-6.1,3.1-8.7l0,0c2.3-2.6,5.9-4.5,11.2-4.5l0,0c5.3,0,9,1.9,11.2,4.5l0,0
					c2.3,2.6,3.2,5.9,3.2,8.7l0,0v22.7h15.4v-77.2h-29.8h-29.8V184.3L226.6,184.3z M226.1,107.1v-0.5V107.1L226.1,107.1z
					 M256.4,142.6h-3v-27.2V115h3h3v27.6H256.4L256.4,142.6z M254.3,141.7h2.1h2.1v-25.9h-2.1h-2.1V141.7L254.3,141.7z M267.8,140.7
					v-20v-0.5h6v20.5H267.8L267.8,140.7z M268.7,139.8h4.2v-18.7h-4.2V139.8L268.7,139.8z M238.9,140.7v-20v-0.5h6v20.5H238.9
					L238.9,140.7z M239.8,139.8h4.2v-18.7h-4.2V139.8L239.8,139.8z"/>
			</g>
			<g>
				<path id="_x3C_Path_x3E__149_" class="st1" d="M220.6,95.5v11.1h35.8h35.8V95.5h-35.8H220.6z"/>
				<path d="M256.4,107.1h-36.2V95.5v-0.5h36.2h36.3v12H256.4L256.4,107.1z M221,106.2h35.4h35.4V96h-35.4H221V106.2L221,106.2z
					 M220.6,96v-0.5V96L220.6,96z"/>
			</g>
			<g>
				<path id="_x3C_Path_x3E__148_" class="st1" d="M213.8,82.6v12.9h42.5h42.5V82.6h-10.7v7.1h-12.1v-7.1h-13.8v7.1h-6h-6v-7.1
					h-13.8v7.1h-12.1v-7.1H213.8z"/>
				<path d="M256.4,96h-43V82.6v-0.4H225v7.1h11.2v-7.1h14.6v7.1h5.6h5.6v-7.1h14.6v7.1h11.2v-7.1h11.6V96H256.4L256.4,96z
					 M214.3,95.1h42.1h42.1V83h-9.8v7.1h-12.9V83h-12.9v7.1h-6.5h-6.5V83H237v7.1h-12.9V83h-9.8V95.1L214.3,95.1z M213.8,83v-0.4V83
					L213.8,83z"/>
			</g>
			<g>
				<path id="_x3C_Path_x3E__147_" class="st1" d="M155.6,114.5v8.4h51.3v-8.4H155.6z"/>
				<path d="M155.1,123.3v-8.8V114h52.2v9.3H155.1L155.1,123.3z M156,122.4h50.4v-7.5H156V122.4L156,122.4z M155.6,114.9v-0.5V114.9
					L155.6,114.9z"/>
			</g>
			<g>
				<path id="_x3C_Path_x3E__146_" sodipodi:nodetypes="ccccccccccccc" class="st1" d="M149,98.4v16.1h61.5V98.4h-9.5v8.2h-11.5
					v-8.2h-17.5v8.2h-11.5v-8.2H149z"/>
				<path d="M148.5,114.9V98.4V98h12.6v8.2h10.6V98H190v8.2h10.6V98H211v17H148.5L148.5,114.9z M149.4,114h60.7V98.9h-8.6v8.2h-12.4
					v-8.2h-16.6v8.2h-12.4v-8.2h-10.8V114L149.4,114z M149,98.9v-0.5V98.9L149,98.9z"/>
			</g>
			<g>
				<path id="_x3C_Path_x3E__145_" class="st1" d="M333.3,265c-9.3,0-16.9,8.2-16.9,18.4v25.9h-12.2V211h66.6v98.3h-20.6v-25.9
					C350.2,273.6,342.7,265,333.3,265z"/>
				<path d="M349.7,309.7v-26.4c0-9.5-7.3-17.9-16.5-17.9l0,0V265v-0.4c9.7,0,17.4,8.8,17.4,18.8l0,0v25.5h19.8v-97.4h-65.7v97.4
					H316v-25.5c0-10.4,7.8-18.8,17.3-18.8l0,0v0.4v0.4c-9,0-16.4,8-16.4,17.9l0,0v26.4h-13.1v-99.2h67.5v99.2H349.7L349.7,309.7z"/>
			</g>
			<g>
				<path id="_x3C_Path_x3E__144_" class="st1" d="M198.1,211v8.1h58.3h58.3V211h-58.3H198.1z"/>
				<path d="M256.4,219.5h-58.8V211v-0.4h58.8h58.8v8.9H256.4L256.4,219.5z M198.5,218.6h57.9h57.9v-7.2h-57.9h-57.9V218.6
					L198.5,218.6z M198.1,211.4V211V211.4L198.1,211.4z"/>
			</g>
			<g>
				<polygon class="st1" points="297.9,194.8 342.7,194.8 342.7,184.8 363.6,184.8 363.6,194.8 377.7,194.8 377.7,184.8 
					386.2,184.8 386.2,203 297.9,203 				"/>
				<path d="M297.4,203.5v-8.7v-0.5h44.8v-10.1H364v10.1h13.2v-10.1h9.3v19.2H297.4L297.4,203.5z M298.3,202.6h87.4v-17.4h-7.6v10.1
					h-15v-10.1h-20v10.1h-44.8V202.6L298.3,202.6z"/>
			</g>
			<g>
				<path id="_x3C_Path_x3E__143_" class="st1" d="M353.4,122.9v61.9h-10.7v-17c0-6.4-4.4-11.6-10.7-11.9c-0.2,0-0.4,0-0.6,0
					c-6.6,0-11.9,5.3-11.9,11.9v17h-10.1v-61.9H353.4z"/>
				<path d="M308.9,185.3v-62.8h44.5v0.5v-0.5h0.4v62.8h-11.6v-17.4c0,0,0-0.1,0-0.1l0,0c0-6.1-4.3-11-10.3-11.4l0,0
					c-0.1,0-0.1,0-0.2,0l0,0c-0.1,0-0.3,0-0.4,0l0,0c-6.3,0-11.5,5.1-11.5,11.4l0,0v17.5H308.9L308.9,185.3z M309.8,184.3h9.3v-16.5
					c0-6.8,5.5-12.3,12.3-12.3l0,0c0.1,0,0.3,0,0.4,0l0,0c0.1,0,0.1,0,0.2,0l0,0c6.5,0.3,11.2,5.7,11.1,12.2l0,0c0,0,0,0.1,0,0.1
					l0,0v16.5h9.8v-61h-43.2V184.3L309.8,184.3z"/>
			</g>
			<g>
				<path id="_x3C_Path_x3E__142_" class="st1" d="M193.3,184.8V211h63.1h63.1v-26.2h-11.9l0,10h-15.9v-10h-21.3v10.1h-13.9h-13.9
					v-10.1h-21.3l0,10h-15.9l0-10H193.3z"/>
				<path d="M256.4,211.4h-63.5v-26.7v-0.5h12.9l0,10h15l0-10h22.2v10.1h13.5h13.5v-10.1h22.2l0,10h15v-10h12.9v27.1H256.4
					L256.4,211.4z M193.7,210.5h62.7H319v-25.3H308l0,10h-16.8v-10h-20.4v10.1h-14.4H242v-10.1h-20.4l0,10h-16.8l0-10h-11V210.5
					L193.7,210.5z M193.3,185.3v-0.5V185.3L193.3,185.3z"/>
			</g>
			<g>
				<path id="_x3C_Path_x3E__141_" class="st1" d="M357.2,114.5v8.4h-51.3v-8.4H357.2z"/>
				<path d="M305.4,123.3V114h51.8v0.5V114h0.5v9.3H305.4L305.4,123.3z M306.3,122.4h50.4v-7.5h-50.4V122.4L306.3,122.4z"/>
			</g>
			<g>
				<path id="_x3C_Path_x3E__140_" sodipodi:nodetypes="ccccccccccccc" class="st1" d="M363.8,98.4v16.1h-61.5V98.4h9.5v8.2h11.4
					v-8.2h17.5v8.2h11.5v-8.2H363.8z"/>
				<path d="M301.8,114.9V98h10.4l0,8.2h10.6V98h18.4v8.2h10.6V98h12.1v0.4V98h0.5v17H301.8L301.8,114.9z M302.7,114h60.7V98.9
					h-10.8v8.2h-12.4v-8.2h-16.6v8.2h-12.3v-8.2h-8.6V114L302.7,114z"/>
			</g>
			<g>
				<path id="_x3C_Path_x3E__11_" sodipodi:nodetypes="cccszsccccc" class="st1" d="M208.5,219v95.3h22.8c0,0,0-19.7,0-35.7
					c0-16.8,10.9-24.7,25-24.7c13.6,0,25,7.9,25,24.7c0,16,0,35.7,0,35.7h22.8V219h-47.9H208.5z"/>
				<path d="M281.4,314.8c-0.1,0-0.2-0.1-0.3-0.1l0,0c-0.1-0.1-0.1-0.2-0.1-0.4l0,0c0,0,0-19.7,0-35.7l0,0
					c0-16.6-11.1-24.2-24.6-24.3l0,0c-14,0.1-24.5,7.7-24.6,24.3l0,0c0,16,0,35.7,0,35.7l0,0c0,0.2,0,0.3-0.1,0.4l0,0
					c-0.1,0.1-0.2,0.1-0.3,0.1l0,0h-22.8c-0.1,0-0.2-0.1-0.3-0.1l0,0c-0.1-0.1-0.1-0.2-0.1-0.4l0,0V219c0-0.1,0.1-0.2,0.1-0.3l0,0
					c0.1-0.1,0.2-0.1,0.3-0.1l0,0h47.9h47.9c0.1,0,0.2,0,0.3,0.1l0,0c0.1,0.1,0.1,0.2,0.1,0.3l0,0v95.3c0,0.2-0.1,0.3-0.1,0.4l0,0
					c-0.1,0.1-0.2,0.1-0.3,0.1l0,0H281.4L281.4,314.8z M303.8,313.9v-94.4h-47.4h-47.4v94.4h22c0-3,0-20.7,0-35.2l0,0
					c0-8.5,2.7-14.8,7.4-19l0,0c4.6-4.2,10.9-6.2,18.1-6.2l0,0c6.9,0,13.3,2,17.9,6.2l0,0c4.7,4.2,7.6,10.5,7.6,19l0,0
					c0,14.5,0,32.2,0,35.2l0,0H303.8L303.8,313.9z M208.5,219.5V219V219.5L208.5,219.5z"/>
			</g>
		</g>
	</g>
</g>
</svg>
