<?xml version="1.0" encoding="utf-8"?>
<!-- Generator: Adobe Illustrator 21.1.0, SVG Export Plug-In . SVG Version: 6.00 Build 0)  -->
<svg version="1.1" id="Warstwa_1" xmlns="http://www.w3.org/2000/svg" xmlns:xlink="http://www.w3.org/1999/xlink" x="0px" y="0px"
	 viewBox="0 0 512 512" style="enable-background:new 0 0 512 512;" xml:space="preserve">
<style type="text/css">
	.st0{fill:#009E49;}
	.st1{fill:#FCD116;}
	.st2{fill:#CE1126;}
</style>
<g>
	<path class="st0" d="M256,512c141.4,0,256-114.6,256-256H0C0,397.4,114.6,512,256,512z"/>
	<path class="st1" d="M256,0C114.6,0,0,114.6,0,256h512.1C512,114.6,397.4,0,256,0z"/>
	<path class="st2" d="M0,256c0,132.8,101.1,242,230.7,254.8V1.2C101.1,14,0,123.1,0,256z"/>
	<polygon points="115.3,194.6 130.5,241.5 179.9,241.5 140,270.5 155.3,317.4 115.3,288.4 75.4,317.4 90.6,270.5 50.7,241.5 
		100,241.5 	"/>
</g>
</svg>
