<svg xmlns="http://www.w3.org/2000/svg" viewBox="0 0 512 512"><style type="text/css">  
	.st0{fill:#D21034;}
	.st1{fill:#00209F;}
	.st2{fill:#FFFFFF;}
	.st3{fill:#007E3A;}
	.st4{fill:#FFCE00;}
	.st5{fill:#FFFFFF;stroke:#000000;stroke-width:1.447100e-02;}
	.st6{fill:#FFCE00;stroke:#000000;stroke-width:1.447100e-02;}
	.st7{fill:#FFFFFF;stroke:#000000;stroke-width:1.302300e-02;}
	.st8{fill:#FFCE00;stroke:#000000;stroke-width:1.302300e-02;}
	.st9{fill:#FFFFFF;stroke:#000000;stroke-width:1.172100e-02;}
	.st10{fill:#FFCE00;stroke:#000000;stroke-width:1.172100e-02;}
	.st11{fill:#231F20;}
	.st12{fill:#00209F;stroke:#000000;stroke-width:1.262500e-02;}
	.st13{fill:#FFCE00;stroke:#000000;stroke-width:1.262500e-02;}
	.st14{fill:#D21034;stroke:#000000;stroke-width:1.262500e-02;}
	.st15{fill:#007E3A;stroke:#000000;stroke-width:1.447100e-02;}
	.st16{fill:#007E3A;stroke:#000000;stroke-width:1.255000e-02;}
	.st17{fill:#D21034;stroke:#000000;stroke-width:1.447100e-02;}
	.st18{fill:#020202;}
</style><path class="st0" d="m256 512c141 0 256-115 256-256h-512c0 141 115 256 256 256z"/><path class="st1" d="m256 0c-141 0-256 115-256 256h512c0-141-115-256-256-256z"/><rect y="187" x="170" height="138" class="st2" width="172"/><path class="st3" d="m342 325v-11s-15-8-20-12c-5-4-17-9-22-11-5-2-44-2-44-2s-39 0-44 2c-5 2-17 7-22 11s-20 12-20 12v12h173z"/><path class="st0" d="m269 255l-14 18v13s16-2 17-15v0c0 0-1-14-3-16z"/><path class="st1" d="m288 232l-18 23c2 1 3 16 3 16l0 0 21-17c1-7-5-22-5-22z"/><path class="st4" d="m254 273l36-45c0-1-1-1-1-1l6-4-3 7s0-1-1-1l-36 45-1-1z"/><path d="m254 273h0 0l36-45c0-1 0-1 0-1 0 0 0 0 0 0l0 0 7-5-3 7 0 0 0 0c0 0-1 0-1 0l-36 45-1-1zm36-45l-36 45 1 0 36-45c1 0 1 0 1 0l0 0 3-6-6 4 0 0c0 0 1 1 1 1z"/><polygon points="291 233 286 230 288 228 292 231" class="st4"/><path d="m286 230l2-2 4 4-1 2 0 0-4-3zm5 3zm-4-3l4 3 1-2-4-3-1 2z"/><polygon points="291 232 287 230 288 229 291 231" class="st4"/><path d="m287 230l1-1 3 3-1 1v0l-3-3zm3 3zm-3-3l3 3 1-1-3-2-1 1z"/><path class="st0" d="m287 232l0 0s0 2 1 3c0 1 1 2 2 3s1 4 1 4l-1 0s0-2 0-3c0-1-1-2-1-2 0-1 0-2-1-4z"/><path class="st0" d="m291 241s0-3-1-3-1-2-2-2c0-1-1-2-1-2l0 0s0 2 1 2 2 2 2 3 1 3 1 4l-1 0z"/><path class="st1" d="m292 241c0 0 0-2-1-3s-2-2-2-3c0-1-1-2-1-2l1 0s0 1 1 2c0 1 1 1 2 1 0 0 1 1 1 1 0 0 1 1 1 1 0 0 1 2 1 3l-1 0z"/><path class="st1" d="m282 229s1 0 1 0c1 0 2 0 2 1s3 2 3 2-2 0-2-1c-1 0-1-1-2-1s-2 0-2 0c0 0 0-1 0-1z"/><path class="st0" d="m283 232s1 0 1-1 3 0 3 0l2 0s-1 0-2 0c0 0-1-1-2-1-1 0-2 0-3 0 0 0 0 1 1 1z"/><path class="st0" d="m283 232s1-1 1-1h4s-1 0-1 0c-1 0-2 0-3 0-1 0-1 1-1 1s0 1 1 1z"/><path class="st1" d="m283 233s0 0 0 0c0 0 2 0 2 0s3-1 3-1-1 1-1 1c-1 0-2 1-2 1s-1 0-1 0c0 0 0 0 0-1z"/><path d="m294 240c0-1 0-3-1-3s0-1-1-1c0 0-1-1-1-1 0 0-1-1-2-1s-1-2-1-2v0s-2-2-3-2c-1 0-1 0-2-1h0c-1 0-1 0-1 0 0 0 0 1 0 1v0 0c0 0 0 1 1 1v0s0 0 1 1v0c0 0 0 1 0 1 0 0 1 0 1 0h0c1 0 2-1 2-1 0 0 0 0 0 0 0 2 0 3 1 3 0 1 1 1 1 2 0 1 0 2 0 2v0 0l1 0h0l1 0 2 0zm-11-11c0 0 0 0 1 0h0c1 0 2 0 2 1 0 0 2 1 3 2-1 0-1 0-2 0 0 0 0 0 0 0s0 0 0 0c0 0-1 0-2 0h-1 0 0c0 0-1 0-1 0v0c0 0 0-1 0-1zm0 2c0 0 1 0 1 0s1 0 1 0c0 0 1 0 1 0 0 0 0 0 0 0 1 0 1 0 1 0 0 0 0 0 0 0h0c-1 0-2 0-3 0h0s0 0 0 0c0 0-1 0-1 1-1 0-1-1-1-1zm1 1l0 0c0 0 1 0 1 0h0 0c0 0 1 0 2 0s1 0 1 0l1 0h-2-1c0 0-1 1-1 1 0 0 0 0 0 0zm0 1l0 0c0 0 1 0 1 0h1 2c-1 0-2 1-2 1 0 0-1 0-2 0h0c0 0 0 0 0 0zm4 0c-1 0-2 1-2 1h0c0 0-1 0-1 0s0 0 0 0c0 0 0 0 0 0h0c1 0 2 0 2 0 0 0 2 0 2-1 0 0-1 0-1 0zm2 6c0-1-1-2-1-2s0-2-1-3l0 0c0 0 0 2 1 3 0 1 1 2 2 3 1 1 1 3 1 3l-1 0v0c0 0 0-2-1-2zm2 2c0 0 0-3-1-3 0-1-1-2-2-2 0 0-1-2-1-2l0 0c0 0 0 1 1 2v0s0 0 0 0v0s0 0 0 0v0c0 0 1 1 1 2 0 0 1 1 1 1 0 0 0 0 0 0v0s0 0 0 0v0 0s0 0 0 0v0 0c0 0 0 0 0 0v0s0 0 0 0v0 0 0 0 0c0 0 0 0 0 0v0 0 0 0 0 0 0s0 0 0 0v0 0 0l-1 0zm1 0v0 0 0c0 0 0 0 0 0v0 0 0 0 0 0s0 0 0 0l0 0v0 0c0 0 0 0 0 0v0 0c0 0 0 0 0 0v0c0 0 0 0 0 0 0-1-1-1-1-2 0 0-1-1-1-1 0 0 0 0 0 0v0c0 0 0 0 0 0 0-1 0-1-1-2l0 0c0 0 0 1 1 2 0 1 1 1 2 1s1 1 1 1c0 0 1 1 1 1 0 0 1 2 1 3l-1 0z"/><path class="st0" d="m301 241l0 0s0 2 1 3 1 2 2 3c1 1 1 4 1 4l-1 0s0-2 0-3c0-1-1-2-1-2 0-1 0-2 0-4z"/><path class="st0" d="m305 249s0-3-1-4c0-1-1-2-1-3s-1-3-1-3l0 0s0 2 1 2c0 1 2 2 2 3s1 3 1 4l-1 0z"/><path class="st1" d="m306 249c0 0 0-3-1-4s-2-2-2-3c0-1-1-2-1-2l1 0s0 1 1 2c0 1 1 1 2 2s1 1 1 1 1 1 1 1 1 2 1 3l-1 0z"/><path class="st1" d="m296 237s1 0 1 0c1 0 2 0 2 1 1 0 3 2 3 2s-2 0-2-1c-1 0-1-1-2-1s-2 0-2 0c0 0 0 0 0-1z"/><path class="st0" d="m297 240s1 0 1 0c1 0 3 0 3 0l2 0s-1 0-2 0-1-1-2-1c-1 0-2 0-3 0 0 0 0 1 1 1z"/><path class="st0" d="m297 241s1-1 1-1c0 0 4 0 4 0s-1 0-1 0c-1 0-2-1-3-1-1 0-1 1-1 1s0 1 1 1z"/><path class="st1" d="m297 241s0 0 0 0c0 0 2 0 2 0 0 0 3-1 3-1s-1 1-1 1-2 1-2 1c0 0-1 0-1 0 0 0 0 0 0-1z"/><path d="m307 249c0-1 0-3 0-3s0-1-1-1c0 0-1-1-1-1 0 0-1-1-1-1 0 0-1-2-1-2v0h0s-2-2-3-2-1-1-2-1c0 0 0 0 0 0-1 0-1 0-1 0 0 0 0 1 0 1 0 0 0 0 0 0v0c0 0 0 1 1 1v0s0 0 1 1v0c0 0 0 1 0 1s1 0 1 0c1 0 2-1 3-1 0 0 0 0 0 0 0 2 0 3 1 4s1 1 1 3c0 1 0 2 0 2v0 0l1 0h0l1 0 1 0zm-11-12c0 0 0 0 1 0h0c1 0 2 0 2 1 0 0 2 1 3 2-1 0-1 0-2-1 0 0 0 0 0 0 0 0 0 0 0 0 0 0-1 0-2 0h-1 0 0c0 0-1 0-1 0v0c0 0 0-1 0-1zm0 1c0 0 1 0 1 0 1 0 1 0 1 0 0 0 1 0 1 0 0 0 0 0 0 0 0 0 1 0 1 0 0 0 0 0 0 0h0c-1 0-2 0-3 0h0 0c0 0-1 0-1 1 0 0 0-1 0-1zm1 1c0 0 0 0 0 0 0 0 1 0 1 0h0 0c0 0 1 0 2 0l1 0 1 0h0c-1 0-1 0-2 0h-1c0 0-1 1-1 1 0 0 0 0 0 0zm0 1l0 0c0 0 1 0 1 0h1c1 0 2 0 2 0-1 0-2 0-2 0 0 0-1 0-2 0h0c0 0 0 0 0 0zm4 0c-1 0-2 1-2 1 0 0-1 0-1 0 0 0 0 0 0 0 0 0 0 0 0 0h0c1 0 2 0 2 0 0 0 2 0 2 0 0 0-1 0-1 0zm2 6c0-1-1-2-1-2s0-2 0-3l0 0c0 0 0 2 1 3 0 1 1 2 1 3 0 1 1 3 1 3l-1 0v0c0 0 0-2 0-2zm2 2c0 0 0-3-1-3 0-1-1-2-1-3 0 0 0-2-1-2l0 0c0 0 0 1 1 2v0 0c0 0 0 0 0 0 0 1 1 1 1 2 0 0 1 1 1 1l0 0s0 0 0 0v0l0 0v0 0c0 0 0 0 0 0v0 0 0 0 0 0 0s0 0 0 0v0 0 0 0 0 0 0 0 0 0l-1 0zm1 0v0 0 0 0 0 0 0 0 0 0s0 0 0 0v0 0 0 0 0 0 0c0 0 0 0 0 0v0 0 0c0 0 0 0 0 0s0 0 0 0c0-1-1-1-1-2 0 0-1-1-1-1v0s0 0 0 0l0 0c0 0 0 0 0 0 0-1 0-2 0-2l0 0c0 0 0 1 1 2s1 1 2 2 1 1 1 1c0 0 1 1 1 1 0 0 1 2 1 3l-2 0z"/><path class="st0" d="m274 272c0-2-1-4-1-5l-18 17 0 11c2-1 10-6 13-7 3-2 6-5 6-6 0 0 0-7 0-10z"/><path class="st1" d="m274 272c0 3 0 10 0 10l25-3s3-9 3-13 1-12 0-16c0-3-1-7-1-9l-29 27c0 1 1 3 1 5z"/><path class="st4" d="m255 284v1l0 0v0l18-17 0 0 29-27s0 0 0 1l1-1 0 0-48 44z"/><path class="st4" d="m305 238c1 0 1 0 1 1 0 0 0 0 0 0l4-6-6 3 0 0c0 0 1 1 1 1v0l-1 1 0 0 0 0z"/><path class="st4" d="m273 267l0 0-18 17v0l18-17c0 0 0 0 0 0l0 0z"/><path class="st4" d="m273 267l0 0s0 0 0 0l29-27c0 0 0 0 0 0l-28 27z"/><path d="m304 236l0 0s0 0 0 0c0 0 0 1 0 1l-1 1 0 0 1 0c0-1-1-1-1-1l7-3-4 6s0-1-1-1l-1 1 0 0 1 0c1 0 1 0 1 1s0 0 0 0l0 0 4-7-7 4z"/><polygon points="302 240 302 240 255 284 255 284"/><path d="m302 241v0l1-1 0 0-1 1z"/><polygon points="255 285 255 285 255 285 255 285"/><path d="m273 268l-18 17v0l18-17z"/><path d="m273 268l29-27v0l-29 27z"/><polygon points="255 285 255 285 255 285 255 285"/><path d="m302 241v0l1-1 0 0-1 1z"/><polygon points="302 240 302 240 255 284 255 284"/><path d="m305 237c0-1 0-1 0-1l0 0 6-3-4 6c0 0 0 0 0 0 0 0-1 0-1 0h0l-1 1 0 0 1 0c1 0 1 1 1 1l4-6-7 3s1 0 1 2l-1 1 0 0 1-1z"/><path d="m255 285v0l18-17v0l-18 17z"/><path d="m273 268v0l29-27v0l-29 27z"/><polygon points="306 240 304 241 304 241 303 240 303 240 305 242 306 240 305 239 304 239" class="st4"/><polygon points="302 238 303 237 304 238 304 238 303 236 301 238 302 239 303 239" class="st4"/><polygon points="303 239 303 240 303 240 303 240" class="st4"/><polygon points="304 238 304 239 304 238 304 238" class="st4"/><polygon points="303 240 303 240 303 240 303 240" class="st4"/><polygon points="303 239 302 239 302 240 303 239" class="st4"/><polygon points="304 239 305 239 305 238 304 239" class="st4"/><polygon points="304 238 304 238 304 238 304 238" class="st4"/><polygon points="304 238 304 238 304 238 304 238" class="st4"/><polygon points="303 239 302 240 303 240 303 239" class="st4"/><polygon points="304 239 305 238 304 238 304 239" class="st4"/><polygon points="306 240 304 242 303 240 303 240 304 242 305 242 306 240 305 238 305 238"/><polygon points="301 238 303 236 304 238 304 238 303 236 301 238 302 240 302 240"/><polygon points="305 238 304 238 304 238 305 238"/><polygon points="302 240 303 240 303 240"/><polygon points="302 240 302 240 302 240 302 240"/><polygon points="303 240 303 240 303 240 303 240"/><polygon points="304 238 304 238 304 238"/><polygon points="305 238 305 238 305 238 305 238"/><polygon points="302 240 302 240 302 240"/><polygon points="305 238 305 238 305 238 305 238"/><polygon points="303 240 303 240 303 240 303 240"/><polygon points="304 238 304 238 304 238 304 238"/><path d="m306 240l-2 2-2-2v0l2 2 2-2-2-2 0 0 2 2zm-2 2z"/><polygon points="301 238 303 236 304 238 304 238 303 236 301 238 302 240 302 239"/><polygon points="302 240 303 240 303 240 303 240"/><polygon points="304 238 305 238 304 238 304 238"/><polygon points="305 239 305 238 305 238 305 238"/><polygon points="302 239 302 240 302 240 302 240"/><polygon points="303 240 303 240 303 240 303 240"/><polygon points="304 238 304 238 304 238 304 238"/><polygon points="304 238 304 238 304 238"/><polygon points="303 240 302 240 302 240 302 240"/><polygon points="304 238 305 238 305 238 305 238"/><polygon points="303 240 303 240 303 240 303 240"/><polygon points="304 241 305 240 304 239 303 240" class="st4"/><polygon points="302 238 303 239 304 238 303 237" class="st4"/><polygon points="303 240 304 239 304 238 303 239" class="st4"/><polygon points="303 240 304 239 304 239 303 240" class="st4"/><polygon points="303 239 304 238 304 238 303 239" class="st4"/><polygon points="303 239 304 238 304 238 303 239" class="st4"/><polygon points="303 240 304 239 304 239 303 240" class="st4"/><polygon points="302 238 303 237 304 238 304 238 303 237 302 238 303 239 303 239"/><path d="m306 240l-1 1-1-1 0 0 1 1v0l1-1-1-1 0 0 1 1zm-1 1z"/><polygon points="303 239 303 239 303 240 303 240"/><polygon points="304 239 304 239 304 238 304 238"/><polygon points="304 239 304 239 304 239 304 239"/><polygon points="303 240 303 240 303 240 303 240"/><polygon points="304 238 304 238 304 238"/><polygon points="303 239 303 239 303 239 303 239"/><polygon points="304 239 304 239 304 239 304 239"/><polygon points="303 239 303 239 303 239 303 239"/><polygon points="303 240 303 240 303 240 303 240"/><polygon points="304 238 304 238 304 238 304 238"/><polygon points="305 240 304 241 303 240 303 240 304 241 306 240 304 239 304 239"/><polygon points="302 238 303 237 304 238 304 238 303 237 302 238 303 239 303 239"/><polygon points="303 239 303 239 303 240 303 240"/><polygon points="304 239 304 239 304 238 304 238"/><polygon points="304 238 304 238 304 238 304 238"/><polygon points="304 239 304 239 304 239 304 239"/><polygon points="303 239 303 239 303 239 303 239"/><polygon points="303 240 303 240 303 240 303 240"/><polygon points="303 239 303 239 303 239 303 239"/><polygon points="304 238 304 238 304 238 304 238"/><polygon points="303 240 303 240 303 240 303 240"/><polygon points="304 239 304 239 304 239 304 239"/><path class="st0" d="m278 278l0 0 0 0-22 16v8c2 0 11-2 14-3 3-1 7-5 7-5 0 0 1-7 1-10 0-3 0-5 0-5z"/><path class="st1" d="m310 256l-32 22 0 0s0 2 0 5-1 10-1 10l25 1s4-8 5-12 3-12 3-16c1-4 0-9 0-9z"/><path class="st4" d="m255 293l59-40c0-1 0-1 0-1l7-2-5 6s0-1-1-1l-59 40 0-1z"/><path d="m255 293h0 0l59-40c0 0 0-1 0-1s0 0 0 0l0 0 8-3-5 6v0s0 0 0 0c0 0 0 0-1-1l-59 40-1-1zm59-40l-59 40 0 1 59-40c1 0 1 0 1 1 0 0 0 0 0 0l5-5-7 2c0 0 0 0 0 0 0 0 0 1 0 2z"/><polygon points="313 257 310 253 312 251 315 256" class="st4"/><path d="m310 253l2-1 3 5-2 1h0l-3-5zm3 5zm-3-4l3 5 2-1-3-4-2 1z"/><polygon points="313 257 311 253 312 252 314 256" class="st4"/><path d="m310 253l1-1 2 4-1 1 0 0-2-4zm3 3zm-2-3l2 3 1-1-2-3-1 1z"/><path class="st0" d="m310 256l1 0s0 2 0 3 1 2 1 3c0 1 0 4 0 4h-1s1-2 0-3-1-2-1-3c0-1 0-2 0-3z"/><path class="st0" d="m312 265s0-3 0-4-1-2-1-3 0-3 0-3l1 0s0 2 0 3 1 2 2 3c0 1 0 3 0 4l-1 0z"/><path class="st1" d="m313 265c0 0 0-3 0-4s-1-2-2-3 0-2 0-2l1 0s0 1 0 2c0 1 1 1 1 2s1 1 1 1 0 1 0 1c0 0 0 2 0 3h-1z"/><path class="st1" d="m306 251s1 0 1 0 2 1 2 1c1 0 3 3 3 3s-2-1-2-1c-1 0-1-1-2-1-1 0-2 0-2 0 0 0 0-1 1-1z"/><path class="st0" d="m305 254s1 0 1 0 3 1 3 1l2 1s-1-1-1-1c0 0-1-1-2-1-1 0-2-1-3-1 0 0 0 1 0 1z"/><path class="st0" d="m306 255s1 0 1 0 4 1 4 1-1 0-1 0c-1 0-2-1-3-1s-2 0-2 0 0 1 1 1z"/><path class="st1" d="m306 255s0 0 0 0c0 0 2 0 2 0s3 0 3 0-1 0-2 1c-1 0-2 0-3 0s-1 0-1 0c0 0 0 0 0-1z"/><path d="m314 265c0-1 0-3 0-3s0-1 0-1-1-1-1-1c0 0-1-1-1-2 0-1 0-2 0-2v0h0v0s-2-2-2-3c0 0-1-1-2-1 0 0 0 0 0 0-1 0-1 0-1 0 0 0 0 1 0 1 0 0 0 0 0 0v0c0 0 0 1 0 1v0s0 1 1 1c0 0 0 1 0 1s1 0 1 1h0c1 0 2 0 3 0h0c0 2 0 3 0 4 0 1 1 2 1 3 0 1 0 2 0 3 0 0 0 0 0 0v0l1 0h1 2zm-9-13c0 0 0 0 1 0 0 0 0 0 0 0 1 0 1 1 2 1 0 0 2 2 2 2 0 0-1-1-2-1 0 0 0 0 0 0 0 0 0 0 0 0 0 0-1-1-1-1 0 0 0 0-1 0h0c0 0 0 0 0 0 0 0-1 0-1 0v0c0 0 0-1 1-1zm0 1c0 0 1 0 1 0s1 0 1 0c0 0 1 0 1 1 0 0 0 0 0 0 0 0 1 1 1 1 0 0 0 0 0 0l0 0c-1 0-2-1-3-1h0 0c0 0-1 0-1 0 0 0 0-1 0-1zm0 2c0 0 0 0 0 0 0 0 1 0 1 0h0s0 0 0 0c0 0 1 0 2 1s1 0 1 0l1 0h0c-1 0-1 0-2 0 0 0-1 0-1 0 0 0-1 0-1 0 0 0 0 0 0 0zm0 1s0 0 1 0c0 0 1 0 1 0 0 0 0 0 1 0 1 0 2 0 2 1-1 0-2 0-2 0 0 0-1 0-2 0h0c0 0 0 0 0 0zm4 1c-1 0-2 0-2 0h0c0 0-1 0-1 0 0 0 0 0 0 0 0 0 0 0 0 0l0 0c1 0 2 0 2 0 0 0 2 0 3 0 0 0-1 0-1 0zm1 6c0-1-1-2-1-3 0-1 0-2 0-3l0 0c0 0 0 2 0 3 0 1 1 2 1 3 0 1 0 3 0 4h-1v0c0 0 0-1 0-2zm1 3c0 0 0-3 0-4 0-1-1-2-1-3 0 0 0-2 0-2l0 0c0 0 0 1 0 2v0 0 0 0c0 1 1 1 1 2 0 0 0 1 1 1v0 0 0 0 0 0 0 0 0 0 0 0 0 0 0 0 0 0 0s0 0 0 0v0 0 0s0 0 0 0v0 0h-1v0zm1 0v0 0-1 0 0 0 0 0 0 0 0s0 0 0 0v0 0 0s0 0 0 0c0-1-1-1-1-2 0 0-1-1-1-1v0 0s0 0 0 0v0c0-1 0-2 0-2l0 0c0 0 0 1 0 2 0 1 1 1 1 2s1 1 1 1 0 1 0 1 0 2 0 3l-1 0z"/><polygon points="268 249 269 249 276 239 270 251 268 250 268 250 268 249" class="st5"/><polygon points="269 249 269 249 257 273 255 272" class="st6"/><polygon points="264 256 265 257 264 260 262 259" class="st5"/><polygon points="265 244 266 244 271 235 267 246 265 246 266 245 265 245" class="st7"/><polygon points="266 244 266 244 257 267 255 266" class="st8"/><polygon points="262 251 263 252 262 254 261 254" class="st7"/><polygon points="262 242 263 242 267 233 264 244 262 243 262 243 262 243" class="st9"/><polygon points="262 242 263 242 256 263 255 262" class="st10"/><polygon points="260 249 261 249 260 251 259 251" class="st9"/><path class="st6" d="m282 308c0 1-1 2-2 2s-2-1-2-2c0-1 1-2 2-2 1 0 2 1 2 2z"/><path class="st6" d="m288 305c0 1-1 2-2 2s-2-1-2-2 1-2 2-2c1 0 2 1 2 2z"/><path class="st6" d="m294 305c0 1-1 2-2 2s-2-1-2-2c0-1 1-2 2-2 1 0 2 1 2 2z"/><path class="st6" d="m299 308c0 1-1 2-2 2s-2-1-2-2c0-1 1-2 2-2 1 0 2 1 2 2z"/><path class="st6" d="m304 308c0 1-1 2-2 2-1 0-2-1-2-2s1-2 2-2c1 0 2 1 2 2z"/><path class="st6" d="m308 308c0 1-1 2-2 2s-2-1-2-2 1-2 2-2c1 0 2 1 2 2z"/><path class="st6" d="m313 308c0 1-1 2-2 2s-2-1-2-2c0-1 1-2 2-2s2 1 2 2z"/><path class="st6" d="m311 305c0 1-1 2-2 2s-2-1-2-2 1-2 2-2c1 0 2 1 2 2z"/><path class="st6" d="m306 305c0 1-1 2-2 2-1 0-2-1-2-2s1-2 2-2c1 0 2 1 2 2z"/><path class="st6" d="m301 305c0 1-1 2-2 2-1 0-2-1-2-2 0-1 1-2 2-2 1 0 2 1 2 2z"/><path class="st6" d="m304 301c0 1-1 2-2 2s-2-1-2-2 1-2 2-2c1 0 2 1 2 2z"/><path class="st6" d="m308 301c0 1-1 2-2 2s-2-1-2-2 1-2 2-2c1 0 2 1 2 2z"/><path class="st0" d="m326 281s1 0 2 1c1 1 2 1 2 3 0 1-1 3 0 4s3 2 4 3c0 0-1-1-3-1s-3-1-3-1c0-1 0-3-1-4-1-1-4-1-4-1l3-3z"/><polygon points="306 295 307 296 319 289 319 288" class="st2"/><path class="st11" d="m319 288l1 1-12 7-1 0 0 0 13-7zm-13 8zm13-7l-12 7 1 0 12-7 0-1z"/><polygon points="312 301 312 300 319 288 319 289" class="st2"/><path class="st11" d="m312 300l7-12 1 1-7 13 0 0 0-1zm0 1zm0-1l0 1 7-12-1 0-7 12z"/><polygon points="308 298 309 299 319 289 319 288" class="st2"/><path class="st11" d="m308 298l10-10 1 1-10 10-1-1zm1 0l10-10 0 0-10 10 1 0z"/><polygon points="319 288 327 280 327 280 319 288" class="st11"/><path class="st6" d="m329 309c0-1 0-3 0-3s0-2 0-2c0 0 1 1 2 1 0 0-1-2-2-3s-2-2-4-2c0 0 2 5 2 6 0 1 1-1 1-1s0 4 0 4c0 1 0 1 0 1s-8-3-8-3-1 0-1-1c0 0-1-1-2-1-1 0-1 1-1 2 0 1 1 1 2 1s1 0 1 0c0 0 8 3 8 4 0 0 0 1 0 1 0 0 1 1 1 0 0 0 1-1 1-1 0 0 1 0 1 0l0 0c0 0 0-1 0-2zm-11-3c0 0-1 0-1 0s-1-1-1-1c0 0 1 0 1 0 1 0 1 1 1 1z"/><path class="st6" d="m318 306c0 0-1 2-1 2s1 1 1 0 1-1 1-2c0 0 1-2 1-2s0-1-1 0-1 1-1 2z"/><polygon points="319 304 319 305 320 305 320 305" class="st5"/><polygon points="318 307 318 307 319 307 319 307" class="st5"/><path class="st2" d="m319 307l0-1s1 0 2 0c0 0 2 0 2 1s1 1 2 1c0 0 0 1 0 1l-3-1s-1 0-1 0c0 0-1 0-1 0z"/><path class="st2" d="m324 309l3 1s0 0 0 1c0 0 0 0-1 0s-1 0-1-1c0 0-1-1-1-1z"/><path d="m325 308s0 0 0-1c0 0-1-1-2-1s-1 0-2-1h0c0 0-1 0-1 0h0l0 1h0s1 0 1 0c0 0 1 0 1 0l4 2 0 0zm-5-1c0 0 0 0-1 0l0 0c0 0 0 0 1 0v1zm1 0h-1v0h1 0l0 1zm1 0l0 0h0v0c0 0 0 0 1 0l0 0zm1 0l0 1 0 0v0c0 0 0 0 1 0zm1 1l-1 0 0 0c0 0 0 0 0 0 0 0 0 0 0 0l0 0zm1 0l0 0 0 0c0 0 0 0 0 0l0 1zm0 0l0 0c0 0 0 0 1 0s0 0 0 0l-1 0zm3 3l-3-1v0 0c0 1 1 1 1 1 0 0 1 1 1 1 0 0 0 0 0 0 0 0 0 0 0 0v0c0 0 0 0 0 0zm-3-1l0 0 0 0c0 0 0 0 0 0zm0 1l0 0 0 0 0 1c0 0 0 0 0 0zm1 1l0-1 1 0 0 1c0 0 0 0 0 0zm1 1c0 0 0 0 0 0l0-1 0 0 0 1zm1 0c0 0 0 0 0 0s0 0 0 0l0 0 0 0c0 0 0 0 0 0v0z"/><path class="st4" d="m272 286c0 1 0 1-2 2-1 0-2 0-2-1 0-1 1-1 2-2 2 0 2 0 2 1z"/><path d="m272 286c0 0 0-1-1-1 0 0-1 0-1 0-1 0-2 1-2 2v0c0 1 1 1 2 1 0 0 0 0 1 0 2 0 2-1 2-1 0 0 0 0 0 0zm-2-1c1 0 1 0 1 0 1 0 1 0 1 1l-4 1v0 0c0-1 1-1 2-1z"/><path class="st6" d="m272 282s38-5 38-6 0-1 1-1 2 1 2 4c0 2 0 5 0 5s-1 0-1 0-1 0-1 0l-38 6-1-7z"/><path class="st6" d="m303 278s1 0 1 0 1 2 1 3 0 4 0 5c0 0-1 0-1 0s1-3 1-4c0-1-1-3-1-3z"/><path class="st6" d="m277 282s1 0 1 0 1 2 1 3 0 4 0 5c0 0-1 0-1 0s1-3 1-4c0-1-1-3-1-3z"/><path class="st6" d="m272 282s-1 0-1 0 0 2 0 3c0 1 1 4 1 4 0 0 1 0 1 0s-1-3-1-4c0-1 0-3 0-3z"/><polygon points="294 272 293 271 274 302 275 302" class="st4"/><path d="m274 302l19-31 1 1v0 0h0l-19 31-1 0zm0 0l1 0 19-30 0 0-18 30z"/><path class="st2" d="m293 270c0 0 0 1 0 1 0 0 0 0 1 0 1 0 2-1 2-2s2-3 2-4 0-1-1-1c0 0-1 1-1 1s-1 2-2 3c0 1-1 2-1 2z"/><path d="m293 271c0 0 0-1 0-1h0c0 0 0 1 0 1 0 0 0 0 0 0 0 0 0 0 1 0 0 0 2-1 2-2 0 0 1-1 1-2 0-1 1-1 1-1 0 0 0-1 0-1 0 0 0 0 0 0 0 0-1 1-1 1 0 0-1 2-2 3 0 1-1 1-1 2h0c0 0 1-1 1-2s2-2 2-3 1-1 1-1c0 0 0 0 0 0 0 0 0 1 0 1 0 0 0 1-1 2 0 1-1 2-1 2 0 1-1 2-2 2 0 0 0 0-1 0 0 0 0 0 0 0z"/><path class="st2" d="m281 298s-1 0-2 1c-1 0-2 2-2 3s2 3 3 3c2 0 3 0 3-2s-1-1-1-1c0 0-2 0-2-1 0 0 0-1 0-1s1 0 1 0l0-1z"/><path d="m281 304h0c-1 0-3-1-3-3v0c0-1 1-2 2-3 1 0 2 0 2 0h0l0 1h0s0 0 0 0c0 0 0 0 0 0 0 0 0 0 0 0 0 0 1 1 2 1s1 0 1 1v0c0 1-1 2-3 2zm-2-6c-1 0-2 1-2 3v0c0 1 2 2 3 3 0 0 0 0 1 0 1 0 2 0 3-2v0c0-1-1-1-1-1 0 0-2 0-2-1 0 0 0 0 0 0 0 0 0 0 0-1s0 0 1 0l0-1c0 0-1 0-2 0zm2-1h0 0z"/><polygon points="281 298 281 300 282 299 281 298" class="st2"/><path d="m281 298l1 0 0 2-1 0 0-2zm0 2l1 0 0-1h-1l0 2z"/><path class="st6" d="m257 301s13-4 15-5 6-6 7-7c2 0 6-1 8-2 3 0 12-1 12-1s-1 3-2 5c-1 1-3 1-5 1-1 0-9 1-10 1-1 1-1 3-2 4-1 1-10 3-10 3l-13 4 0-3z"/><polygon points="293 283 294 281 291 281 292 283 292 298 291 300 294 300 293 298" class="st4"/><path d="m291 300l1-1v-16l-1-1h3l-1 1v16l1 1h-3zm1-17v16l-1 1h2l-1-1v-16l1-1h-2l1 1z"/><polygon points="299 285 300 285 298 283 298 284 286 296 285 296 287 298 287 296" class="st4"/><path d="m285 296l1 0 11-11 0-1 2 2-1 0-11 11 0 1-2-2zm13-11l-11 11-1 0 2 2 0-1 11-11 1 0-2-2 0 1z"/><polygon points="300 291 301 292 301 289 300 290 284 290 283 289 283 292 284 291" class="st4"/><path d="m300 291h-16l-1 1v-3l1 1h16l1-1v3l-1-1zm0 0l1 1v-2l-1 1h-16l-1-1v2l1-1h16z"/><polygon points="298 296 298 298 300 296 299 296 287 284 287 283 285 285 286 285" class="st4"/><path d="m297 297l-11-11-1 0 2-2 0 1 11 11 1 0-2 2 0-1zm0 0l0 1 2-2-1 0-11-11 0-1-2 2 1 0 11 11z"/><path class="st4" d="m294 291c0 1-1 2-2 2s-2-1-2-2 1-2 2-2c1 0 2 1 2 2z"/><path d="m291 291c0-1 1-2 2-2 1 0 2 1 2 2 0 1-1 2-2 2-1 0-2-1-2-2zm0 0c0 1 1 2 2 2 1 0 2-1 2-2s-1-2-2-2c-1 0-2 1-2 2z"/><path class="st4" d="m292 279c-7 0-12 5-12 12 0 7 5 12 12 12s12-5 12-12-5-12-12-12zm0 21c-5 0-9-4-9-9 0-5 4-9 9-9 5 0 9 4 9 9 0 5-4 9-9 9z"/><path d="m280 291c0-7 5-12 12-12v0c-3 0-6 1-8 3s-3 5-3 8 1 6 3 8 5 3 8 3 6-1 8-3 3-5 3-8-1-6-3-8-5-3-8-3v0c7 0 12 5 12 12s-5 12-12 12c-7 0-12-5-12-12zm3 0c0-5 4-9 9-9 5 0 9 4 9 9 0 5-4 9-9 9v0c5 0 9-4 9-9s-4-9-9-9-9 4-9 9c0 5 4 9 9 9v0c-5 0-9-4-9-9z"/><path d="m293 280c0 0 0 1 0 1s0 0 0 0 0 0 1 0c0 0 1 0 1 1z"/><path d="m289 281c0 0 0 1 0 1 0 0-1 0-1 0s0-1 0-1c0 0 1 0 1 0z"/><path d="m285 283c0 0 0 1 0 1s0 0-1 0 0 0 0-1 1 0 1 0z"/><path d="m283 286c0 0 0 0 0 1s0 0-1 0 0 0 0-1c0 0 0 0 1 0z"/><path d="m282 290c0 0 1 0 1 1s0 1 0 1 0 0 0 0c0 0 0 0 1 0z"/><path d="m283 294c0 0 1 0 1 0s0 1 0 1-1 0-1 0c0 0 0-1 0-1z"/><path d="m285 297c0 0 1 0 1 0 0 0 0 1 0 1s0 0-1 0 0 0 0-1z"/><path d="m288 300c0 0 0 0 1 0 0 0 0 0 0 1s0 0-1 0c0 0 0 0 0-1z"/><path d="m292 301c0 0 0 0 1 0s1 0 1 1c0 0 0 1 0 1s0 0 0 0z"/><path d="m296 300c0 0 0-1 0-1 0 0 1 0 1 0s0 1 0 1c0 0 0 0-1 0z"/><path d="m299 298c0 0 0 0 0-1s1 0 1 0 0 1 0 1 0 0-1 0z"/><path d="m302 295c0 0 0 0 0-1s0 0 1 0c0 0 0 0 0 1 0 0 0 0-1 0z"/><path d="m303 291c0 0 0 0 0 0s0 0 1 0 1 0 1 1 0 1 0 1z"/><path d="m302 287c0 0-1 0-1 0s0-1 0-1c0 0 1 0 1 0 0 0 0 1 0 1z"/><path d="m300 284c0 0 0 0-1 0 0 0 0 0 0-1s1 0 1 0c0 0 0 1 0 1z"/><path d="m297 281c0 0 0 0-1 0 0 0 0 0 0-1 0 0 1 0 1 0 0 0 0 0 0 1z"/><path class="st4" d="m273 304c0 0-1 0-1 0s0-1 0-2 0-6 0-8 0-4 0-4c0 0 1-1 1-1h-2s0 0 1 1 0 1 0 1c0 0-1-1-2-1s-1 1-2 1c0 1 0 3 0 4s0 4 0 4c0 1 1 1 2 1 0 0 1 0 1 0 0 0 0 3 0 3s0 0-1 0c0 0-1 0-1 1 0 1 1 1 2 1 1 0 2 0 3 0 1 0 1-1 1-1 0 0 0-1-1-1zm-3-4c0 1-1 1-2 0 0-1 0-4 0-4s0-3 0-4c1-1 2 0 2 0 0 1 0 8 0 8z"/><path d="m273 303c0 0-1 0-1 0 0 0 0-1 0-2 0-1 0-6 0-8v-2c0-1 0-2 0-2 0 0 1-1 1-1l0 0h-2l0 0s0 0 1 1c0 0 0 0 0 1v0c0 0-1 0-1 0-1 0-1 1-2 1 0 0 0 1 0 2 0 1 0 2 0 3 0 1 0 4 0 4 0 1 1 1 2 1 0 0 1 0 1 0 0 1 0 2 0 2 0 0 0 0-1 0 0 0-1 0-1 1v0c0 1 1 1 2 1 1 0 1 0 1 0 1 0 1 0 2 0 1 0 1-1 1-1 0 0 0-1-1-1zm-1 2c0 0-1 0-2 0 0 0-1 0-1 0-1 0-1 0-1-1v0c0 0 0 0 1-1 0 0 1 0 1 0 0 0 0 0 0 1h0c0 0 0-1 0-1 0 0 0-2 0-2v0 0h0s0 0-1 0c-1 0-1-1-2-1 0-1 0-3 0-4 0-1 0-2 0-2 0-1 0-1 0-1 0-1 1-1 2-1s1 0 1 1h0v0c0 0 0 0 0-1s0 0 0 0h2c0 0 0 0 0 1s0 1 0 2v2c0 1 0 6 1 8 0 1 0 2 1 2 0 0 0 0 0 1l0 0c0 0 0 0 0-1 0 0 1 0 1 0s1 0 1 1c0 0-1 1-1 1zm-3-15c0 0-1 0-1 1 0 1 0 2 0 2 0 1 0 1 0 2 0 1 0 4 1 5 0 0 1 0 1 0 0 0 1 0 1 0s0-4 0-6c0-1 0-2 0-2 0 0-1-1-1-1zm1 9c0 0 0 0-1 0s-1 0-1 0c0 0-1-3-1-4v-2c0-1 0-2 0-2 0 0 1 0 1 0 1 0 1 0 1 0 0 0 0 1 0 2 0 2 0 6 0 6z"/><path class="st4" d="m276 281s-1 0-1 1 2 1 2 0c1 0 3-1 3-1l-4 0z"/><path class="st0" d="m274 274c0 0-1 1 0 2s2 1 2 1c1 0 2-1 2-1 0 0 0 1 0 1l1 0s0 0 0 0c0 0 1-1 1-1s0-1-1-1-2 0-3 0c-1 0-2 0-2 1z"/><path d="m274 276c0 0 0-1 0-1 0 0 0-1 1-1 1 0 2-1 2-1 0 0 0 0 1 0 1 0 2 0 2 0 1 0 1 1 1 1v0c0 1-1 1-1 1s0 0 0 0v0l0 0-1 0 0 0v0s0 0 0 0c0 0-1 1-2 1 0 0 0 0 0 0 0 0-1 0-2-1zm0-1c0 0 0 1 0 1 1 1 1 1 2 1h0c0 0 1-1 2-1 0 0 0 0 0 0v0 0l0 0c0 0 0 0 0 0 0 0 1-1 1-1s0-1-1-1c0 0-1 0-2 0 0 0 0 0 0 0-1 0-2 0-2 1 0 0 0 0 0 1z"/><path class="st4" d="m279 276c0 0-1 1-2 1 0 1-1 2-1 2s0 1 0 1 2 0 3 0c1 0 3 0 3 0s0-1 0-1c0 0 0-1-1-2 0 0-1-1-2-1z"/><path d="m276 281l0 0s0-1 0-1c0 0 0-1 1-2 0-1 1-1 2-1h0c1 0 2 1 2 1 0 1 1 1 1 2 0 1 0 2 0 2v0h0s-2 0-2 0h0c0 0-2 0-2 0zm3 0c1 0 2 0 3 0 0 0 0-1 0-1 0 0 0-1-1-2 0 0-1-1-1-1h0v0 0c0 0-1 1-1 1 0 1-1 2-1 2 0 0 0 1 0 1 0 0 2 0 2 0z"/><path class="st0" d="m276 281s2 0 3 0c1 0 3 0 3 0v1s-2 0-3 0c-1 0-3 0-3 0l0-1z"/><path d="m281 281s-2 0-2 0h0c-1 0-3 0-3 0l0 0v1h0s2 0 3 0h0c1 0 3 0 3 0h0v-1l0 0zm-2 1h1v0c0 0 0 0-1 0v0zm1 0c0 0 1 0 1 0v0c0 0 0 0-1 0l0 0zm-3 0c0 0 1 0 1 0v1c0 0 0 0-1 0v0zm1 0h1v1c0 0 0 0-1 0v0zm-2 0c0 0 0 0 0 0v1c0 0 0 0 0 0v0zm3 1h0v0h0 0 0v1h0c0 0 0 0 0 0zm3 0c0 0 0 0 0 0v0c0 0 0 0 0 0v0h0z"/><path d="m276 281s-1 0-1 1c0 1 1 1 1 1 0 0 1 0 1 0 1 0 3-1 3-1l0 0-4 0zm1 1c0 0 0 0 0 0l0-1 2 0c0 0-1 1-2 1z"/><path class="st2" d="m259 277c0 0 0 0 1 0 0 0 2 0 2 0 1 0 1 0 2 0s1-1 1-2c0 0 1 1 1 2 0 2 0 2-2 3 0 0 0-1 0-1s0-1-1-1-1 0-1 0c0 0-1 0-1 0 0 0-1 0-1 0 0 0 0 0 0-1z"/><path d="m265 275l0 0v0c0 1-1 2-1 2 0 0-1 0-2 0 0 0-1 0-2 0 0 0 0 0 0 0 0 0-1 0-1 1s0 1 0 1c0 0 0 0 1 0h1 1 0c0 0 1 0 1 0 0 0 0 0 0 0l0 0s0 0 0 0c0 0 0 1 0 1v0 0h0c2 0 2-1 2-3v0c0-1-1-2-1-2zm-5 2h0c1 0 1 0 2 0 1 0 1 0 2 0 0 0 1-1 1-2 0 0 1 1 1 2v0c0 0 0 0 0 0l-6-1c0 0 0 0 1 0z"/><polygon points="261 287 260 287 261 278 262 279" class="st2"/><path d="m260 287l1-9 1 0-1 9v0l-1 0zm1 0v0 0zm0 0h0l1-8h0l-1 8z"/><polygon points="262 279 261 278 262 276 263 276" class="st2"/><path d="m261 279l0-2 1 0 0 2v0l-1 0zm1 0v0 0zm-1-2l0 2 1 0 0-2-1 0z"/><path class="st0" d="m243 255l14 18v13s-16-2-17-15v0c0 0 1-15 3-16z"/><path class="st1" d="m225 232l18 23c-2 1-3 16-3 16l0 0-20-17c-1-7 5-22 5-22z"/><path class="st4" d="m258 273l-36-45c0-1 1-1 1-1l-6-4 3 7s0-1 2-1l36 45 1-1z"/><path d="m258 273l-1 1-36-45c0 0-1 0-1 0 0 0 0 0 0 0l0 0-3-7 6 5 0 0s0 0 0 0 0 1 0 1l36 45h0 0zm-36-45c0-1 0-1 1-1 0 0 0 0 0 0l-6-4 3 6c0 0 0 0 0 0 0 0 1 0 1 0l36 45 1 0-36-44z"/><polygon points="221 233 226 230 224 228 220 231" class="st4"/><path d="m226 230l-4 4v0l-1-2 4-3 2 2zm-4 3zm4-3l-1-2-4 3 1 2 4-3z"/><polygon points="222 232 225 230 224 229 221 231" class="st4"/><path d="m225 230l-3 3v0l-1-1 3-3 1 1zm-3 3zm3-3l-1-1-3 3 1 1 3-2z"/><path class="st0" d="m225 232l0 0s0 2-1 3-1 2-1 3-1 4-1 4l1 0s0-2 0-3c1-1 1-2 1-2 0-1 0-2 1-4z"/><path class="st0" d="m221 241s0-3 1-3 1-2 2-2c0-1 1-2 1-2l0 0s0 2-1 2-2 2-2 3c-1 1-1 3-1 4l1 0z"/><path class="st1" d="m220 241c0 0 0-2 1-3s2-2 2-3 1-2 1-2l0 0s0 1-1 2c0 1-1 1-1 1s-1 1-1 1c0 0-1 1-1 1 0 0-1 2-1 3l1 0z"/><path class="st1" d="m230 229s0 0-1 0c-1 0-1 0-2 1s-3 2-3 2 2 0 2-1c1 0 1-1 2-1s2 0 2 0c0 0 0-1 0-1z"/><path class="st0" d="m230 232s-1 0-1-1-3 0-3 0l-2 0s1 0 2 0c1 0 1-1 2-1 1 0 2 0 3 0 0 0 0 1 0 1z"/><path class="st0" d="m229 232s-1-1-1-1h-4s1 0 2 0c1 0 3 0 3 0 1 0 1 1 1 1s0 1-1 1z"/><path class="st1" d="m229 233s0 0 0 0c0 0-2 0-2 0s-3-1-3-1 1 1 2 1 2 1 2 1 1 0 1 0c0 0 0 0 0-1z"/><path d="m218 241l1 0 1 0h0l1 0v0 0c0 0 0-2 0-2 1-1 1-2 1-2s1-2 1-3 0 0 0 0c1 0 2 1 3 1h0c1 0 1 0 1 0s0 0 0-1v0c0 0 1-1 1-1v0c1 0 1-1 1-1v0c0 0 0 0 0 0 0 0 0-1 0-1 0 0 0 0-1 0h0c-1 0-2 0-2 1-1 0-3 2-3 2v0s0 1-1 2c0 0-1 1-1 1 0 0-1 1-1 1s-1 1-1 1c0 0-1 2-1 3zm12-10v0c0 0-1 0-1 0h0 0-1c0 0-1 0-2 0 0 0 0 0 0 0s0 0 0 0c0 0-1 0-2 1 1 0 2-2 3-2 1 0 1 0 2-1h0c1 0 1 0 1 0 0 1 0 1 0 1zm-1 2c0 0-1 0-1-1 0 0 0 0 0 0h0c-1 0-2 0-3 0h0c0 0 0 0 0 0 0 0 1 0 1 0 0 0 0 0 0 0 0 0 1 0 1 0 0 0 1 0 1 0 1 0 1 0 1 0 0 0 0 1 0 1zm-1 1c0 0-1-1-1-1h-1-2l1 0 1 0s1 0 2 0h0 0c0 0 1 0 1 1l0 0c0 0 0 1 0 1zm0 0s0 0 0 0h0c0 0-2 0-2 0 0 0-1 0-2 0h2 1s0 0 1 0c0 0 0 0 0 0zm-5-1c1 0 2 1 3 1 0 0 1 0 2 0h0c0 0 0 0 0 0 0 0 0 0 0 0s-1 0-1 0h0c0 0-2-1-2-1 0 0-1 0-1 0zm-2 9v0l-1 0c0 0 0-3 1-3 1-1 1-2 2-2 0 0 1-2 1-2l0 0c0 2 0 3-1 4s-1 1-1 2c0 1 0 2 0 3zm-2 0v0 0 0 0s0 0 0 0v0 0s0 0 0 0 0 0 0 0v0 0 0 0s0 0 0 0v0 0 0 0 0s0 0 0 0c0 0 0 0 0 0v0s0 0 0 0c0 0 0 0 0 0v0s0 0 0 0v0c0 0 1-1 1-1 1-1 1-1 1-2v0l0 0c0 0 0 0 0 0v0s0 0 0 0c0-1 1-1 1-2l0 0c0 0 0 2-1 2 0 1-1 2-2 3 0 1-1 3-1 4h-1zm-1 0c0-1 1-3 1-3 0 0 1-1 1-1s1-1 1-1c0 0 1-1 2-1 0 0 1-1 1-1l0 0c0 0 0 1-1 2 0 0 0 0 0 0v0c0 0 0 0 0 0 0 0 0 1-1 1 0 1-1 1-1 2 0 0 0 0 0 0v0s0 0 0 0v0s0 0 0 0v0c0 0 0 0 0 0v0l0 0v0 0 0c0 0 0 0 0 0v0 0 0 0 0s0 0 0 0v0 0c0 0 0 0 0 0l-1 0z"/><path class="st0" d="m211 241l0 0s0 2-1 3-1 2-1 3c0 1-1 4-1 4l1 0s0-2 0-3c1-1 1-2 1-2 0-1 1-2 1-4z"/><path class="st0" d="m207 249s0-3 1-4c0-1 1-2 2-3 0-1 1-3 1-3l0 0s0 2-1 2c0 1-2 2-2 3s-1 3-1 4l1 0z"/><path class="st1" d="m206 249c0 0 0-3 1-4s2-2 2-3c1-1 1-2 1-2l0 0s0 1-1 2c0 1-1 1-1 2s-1 1-1 1c0 0-1 1-1 1s0 2 0 3l1 0z"/><path class="st1" d="m216 237s-1 0-1 0c-1 0-1 0-2 1 0 0-3 2-3 2s2 0 2-1c1 0 1-1 2-1s2 0 2 0c0 0 0 0 0-1z"/><path class="st0" d="m216 240s-1 0-1 0c-1 0-3 0-3 0l-2 0s1 0 2 0 1-1 2-1c1 0 2 0 3 0 0 0 0 1 0 1z"/><path class="st0" d="m215 241s-1-1-1-1c0 0-4 0-4 0s1 0 2 0c1 0 3-1 3-1 1 0 2 1 2 1s0 1-1 1z"/><path class="st1" d="m215 241s0 0 0 0-2 0-2 0c0 0-3-1-3-1s1 1 2 1c1 0 2 1 3 1s1 0 1 0c0 0 0 0 0-1z"/><path d="m205 249l1 0 1 0h0l1 0v0 0c0 0 0-2 0-2 1-1 1-2 1-2s0-2 1-3c0 0 0 0 0 0 1 0 2 1 3 1s1 0 1 0c0 0 0 0 0-1v0c0 0 1-1 1-1v0c1 0 1-1 1-1v0 0c0 0 0-1 0-1 0 0 0 0-1 0 0 0 0 0 0 0-1 0-1 0-2 1-1 0-3 2-3 2v0s0 1-1 2c0 1-1 1-1 1s-1 1-1 1c0 0-1 1-1 1 0 0-1 2-1 3zm11-11v0c0 0-1 0-1 0h0 0-1c0 0-1 0-2 1 0 0 0 0 0 0s0 0 0 0c0 0-1 0-2 1 1 0 2-2 3-2 1 0 1 0 2-1h0c1 0 1 0 1 0 0 1 0 1 0 1zm0 2c0 0-1 0-1 0h0 0c-1 0-2 0-3 1h0c0 0 0 0 0 0 0 0 1 0 1 0 0 0 0 0 0 0 0 0 1 0 1 0 0 0 1 0 1 0 1 0 1 0 1 0 0 0 0 1 0 1zm-1 1c0 0-1-1-1-1h-1c0 0-1 0-2 0l1 0 1 0c1 0 1 0 2 0h0 0c0 0 1 0 1 1 0 0 0 0 0 0 0 0 0 0 0 0zm0 0l0 0h0c0 0-2 0-2 0 0 0-1 0-2 0 1 0 2 0 2 0h1c0 0 1 0 1 0 0 0 0 0 0 0zm-5 0c1 0 2 0 3 1 0 0 1 0 2 0h0s0 0 0 0c0 0 0 0 0 0 0 0-1 0-1 0s-2-1-2-1c0 0-1 0-1 0zm-1 9v0l-1 0c0 0 0-3 1-3 1-1 1-2 1-3 0 0 1-2 1-2l0 0c0 2 0 3 0 4s-1 1-1 3c0 1 0 2 0 2zm-2 0v0 0 0 0 0 0 0 0 0 0s0 0 0 0v0 0 0s0 0 0 0v0 0c0 0 0 0 0 0v0 0l0 0v0c0 0 1-1 1-1 1-1 1-1 1-2l0 0 0 0v0s0 0 0 0v0c0-1 1-1 1-2l0 0c0 0 0 2-1 3 0 1-1 2-1 3 0 1-1 3-1 4l-1 0zm-1 0c0-1 0-3 1-3 0 0 0-1 1-1 0 0 1-1 1-1 0 0 1-1 2-1s1-1 1-2l0 0c0 0 0 1 0 2 0 0 0 0 0 0 0 0 0 0 0 0v0s0 0 0 0c0 0 0 1-1 1 0 1-1 1-1 2 0 0 0 0 0 0 0 0 0 0 0 0 0 0 0 0 0 0 0 0 0 0 0 0v0c0 0 0 0 0 0v0s0 0 0 0v0 0s0 0 0 0v0 0 0 0 0 0 0 0 0 0l-1 0z"/><path class="st0" d="m238 272c0-2 1-4 1-5l18 17 0 11c-2-1-10-6-13-7-3-2-6-5-6-6 0 0 0-7 0-10z"/><path class="st1" d="m238 272c0 3 0 10 0 10l-25-3s-3-9-3-13-1-12 0-16c0-3 1-7 1-9l29 27c0 1-1 3-1 5z"/><path class="st4" d="m257 284v1l0 0v0l-18-17 0 0-28-27s0 0 0 1l-1-1 0 0 48 44z"/><path class="st4" d="m207 238c-1 0-1 0-1 1 0 0 0 0 0 0l-4-6 6 3c0 0 0 0 0 0 0 0 0 1 0 1v0l1 1 0 0-1 0z"/><path class="st4" d="m239 267c0 0 0 0 0 0l18 17v0l-18-17c0 0 0 0 0 0l0 0z"/><path class="st4" d="m239 267l0 0s0 0 0 0l-29-27c0 0 0 0 0 0l29 27z"/><path d="m208 236l0 0s0 0 0 0c0 0 0 1 0 1l1 1 0 0-1 0c0-1 1-1 1-1l-7-3 4 6s0-1 1-1l1 1 0 0 0 0c0 0-1 0-1 1s0 0 0 0v0l-4-7 7 4z"/><polygon points="210 240 210 240 257 284 257 284"/><path d="m210 241v0l-1-1 0 0 1 1z"/><polygon points="257 285 257 285 257 285 257 285"/><path d="m239 268l18 17v0l-18-17z"/><path d="m239 268l-29-27v0l29 27z"/><polygon points="257 285 257 285 257 285 257 285"/><path d="m210 241v0l-1-1 0 0 1 1z"/><polygon points="210 240 210 240 257 284 257 284"/><path d="m207 237c0-1 0-1 0-1 0 0 0 0 0 0l-6-3 4 6c0 0 0 0 0 0 0 0 1 0 1 0l1 1 0 0-1 0c-1 0-1 1-1 1l-4-6 7 4c0 0 0 0 0 1l1 1 0 0-1-1z"/><path d="m257 285v0l-18-17v0l18 17z"/><path d="m239 268v0l-29-27v0l29 27z"/><polygon points="206 240 208 241 208 241 209 240 209 240 208 242 206 240 208 239 208 239" class="st4"/><polygon points="211 238 209 237 208 238 208 238 210 236 211 238 210 239 209 239" class="st4"/><polygon points="209 239 210 240 209 240 209 240" class="st4"/><polygon points="208 238 208 239 208 238 208 238" class="st4"/><polygon points="209 240 209 240 209 240 209 240" class="st4"/><polygon points="209 239 210 239 210 240 209 239" class="st4"/><polygon points="208 239 208 239 208 238 208 239" class="st4"/><polygon points="208 238 208 238 208 238 208 238" class="st4"/><polygon points="208 238 208 238 208 238 208 238" class="st4"/><polygon points="209 240 209 240 209 240 209 240" class="st4"/><polygon points="209 239 210 240 210 240 209 239" class="st4"/><polygon points="208 239 208 238 208 238 208 239" class="st4"/><polygon points="206 240 208 242 209 240 209 240 208 242 208 242 206 240 207 238 207 238"/><polygon points="211 238 210 236 208 238 208 238 210 236 211 238 210 240 210 240"/><polygon points="208 238 208 238 208 238 208 238"/><polygon points="210 240 209 240 209 240"/><polygon points="210 240 210 240 210 240 210 240"/><polygon points="209 240 209 240 209 240 209 240"/><polygon points="208 238 208 238 208 238"/><polygon points="208 238 207 238 207 238 207 238"/><polygon points="210 240 210 240 210 240"/><polygon points="208 238 208 238 207 238 208 238"/><polygon points="209 240 209 240 209 240 209 240"/><polygon points="208 238 208 238 208 238 208 238"/><path d="m208 239l-2 2 2 2 2-2 0 0-1 2-2-1 2-1zm0 3z"/><polygon points="211 238 210 236 208 238 208 238 210 236 211 238 210 240 210 239"/><polygon points="210 240 209 240 209 240 210 240"/><polygon points="208 238 208 238 208 238 208 238"/><polygon points="208 239 207 238 208 238 208 238"/><polygon points="210 239 210 240 210 240 210 240"/><polygon points="209 240 209 240 209 240 209 240"/><polygon points="208 238 208 238 208 238 208 238"/><polygon points="208 238 208 238 208 238"/><polygon points="210 240 210 240 210 240 210 240"/><polygon points="208 238 208 238 208 238 208 238"/><polygon points="209 240 209 240 209 240 209 240"/><polygon points="208 241 207 240 208 239 209 240" class="st4"/><polygon points="210 238 209 239 208 238 209 237" class="st4"/><polygon points="209 240 208 239 208 238 209 239" class="st4"/><polygon points="209 240 208 239 208 239 209 240" class="st4"/><polygon points="209 239 208 238 208 238" class="st4"/><polygon points="209 239 208 238 208 238 209 239" class="st4"/><polygon points="209 240 208 239 208 239 209 240" class="st4"/><polygon points="210 238 209 237 208 238 208 238 209 237 211 238 209 239 209 239"/><path d="m208 239l-1 1 1 1 0 0 1-1 0 0-1 1-1-1 1-1zm0 2z"/><polygon points="209 239 209 239 209 240 209 240"/><polygon points="208 239 208 239 208 238 208 238"/><polygon points="208 239 208 239 208 239 208 239"/><polygon points="209 240 209 240 209 240 209 240"/><polygon points="208 238 208 238 208 238 208 238"/><polygon points="209 239 209 239 209 239 209 239"/><polygon points="208 239 208 239 208 239 208 239"/><polygon points="209 239 209 239 209 239 209 239"/><polygon points="209 240 209 240 209 240 209 240"/><polygon points="208 238 208 238 208 238"/><polygon points="207 240 208 241 209 240 209 240 208 241 207 240 208 239 208 239"/><polygon points="210 238 209 237 208 238 208 238 209 237 210 238 209 239 209 239"/><polygon points="209 239 209 239 209 240 209 240"/><polygon points="208 239 208 239 208 238 208 238"/><polygon points="208 238 208 238 208 238 208 238"/><polygon points="208 239 208 239 208 239"/><polygon points="209 239 209 239 209 239"/><polygon points="209 240 209 240 209 240 209 240"/><polygon points="209 239 209 239 209 239 209 239"/><polygon points="208 238 208 238 208 238 208 238"/><polygon points="209 240 209 240 209 240 209 240"/><polygon points="208 239 208 239 208 239 208 239"/><path class="st0" d="m234 278l0 0 0 0 23 16v8c-2 0-11-2-14-3-3-1-7-5-7-5 0 0-1-7-1-10 0-3 0-5 0-5z"/><path class="st1" d="m202 256l32 22 0 0s0 2 0 5 1 10 1 10l-25 1s-4-8-5-12c-1-4-2-12-3-16 0-4 0-9 0-9z"/><path class="st4" d="m257 293l-59-40c0-1 1-1 1-1l-7-2 5 6s0-1 1-1l59 40 0-1z"/><path d="m257 293l0 1-59-40c-1 0-1 0-1 1 0 0 0 0 0 0v0l-5-6 8 3 0 0s0 0 0 0 0 1 0 1l59 40h0 0zm-59-40c0-1 0-1 0-1 0 0 0 0 0 0l-7-2 5 5c0 0 0 0 0 0 0 0 1-1 1-1l59 40 0 0-59-40z"/><polygon points="199 257 202 253 200 251 197 256" class="st4"/><path d="m203 253l-3 5h0l-2-1 3-5 2 1zm-3 5zm3-4l-2-1-3 5 2 1 3-4z"/><polygon points="199 257 202 253 200 252 198 256" class="st4"/><path d="m202 253l-2 4 0 0-1-1 2-3 1 1zm-2 3zm2-3l-1-1-2 3 1 1 2-3z"/><path class="st0" d="m202 256l0 0s0 2 0 3-1 2-1 3c0 1 0 4 0 4h1s0-2 0-3c0-1 1-2 1-3 0-1 0-2 0-3z"/><path class="st0" d="m201 265s0-3 0-4 1-2 1-3 0-3 0-3l0 0s0 2 0 3-1 2-2 3c0 1 0 3 0 4l1 0z"/><path class="st1" d="m199 265c0 0 0-3 0-4s1-2 2-3 0-2 0-2l0 0s0 1 0 2c0 1-1 1-1 2s-1 1-1 1 0 1 0 1c0 0 0 2 0 3h1z"/><path class="st1" d="m207 251s-1 0-1 0-1 1-2 1-2 3-2 3 2-1 2-1c1 0 1-1 2-1 1 0 2 0 2 0 0 0 0-1-1-1z"/><path class="st0" d="m207 254s-1 0-1 0-3 1-3 1l-2 1s1-1 2-1c1 0 1-1 2-1 1 0 2-1 3-1 0 0 0 1 0 1z"/><path class="st0" d="m206 255s-1 0-1 0-4 1-4 1 1 0 1 0c1 0 2-1 3-1s2 0 2 0 0 1 0 1z"/><path class="st1" d="m206 255s0 0 0 0c0 0-2 0-2 0s-3 0-3 0 1 0 2 1c1 0 2 0 3 0s1 0 1 0c0 0 0 0 0-1z"/><path d="m198 265l1 0h1l1 0v0s0 0 0 0c0 0 0-2 0-2 0-1 1-2 1-3 0-1 0-2 0-3h0c1 0 2 0 3 0h0c1 0 1 0 1-1 0 0 0 0 0-1 0 0 1-1 1-1v0c0 0 0-1 0-1v0s0 0 0 0c0 0 0-1 0-1 0 0 0 0-1 0 0 0 0 0 0 0-1 0-1 1-2 1s-2 3-2 3v0s0 1 0 2c0 1-1 1-1 2 0 0-1 1-1 1s0 1 0 2c0 0 0 2 0 4zm9-13v0c0 0-1 0-1 0 0 0 0 0 0 0h0c0 0 0 0 0 0-1 0-1 1-1 1 0 0 0 0 0 0s0 0 0 0c0 0-1 1-2 1 1-1 2-2 2-2 1 0 1-1 2-1 0 0 0 0 0 0 1 0 1 0 1 0 0 0 1 1 1 1zm0 2c0 0-1 0-1 0h0s0 0 0 0c-1 0-2 1-3 1l0 0c0 0 0 0 0 0 0 0 1 0 1-1 0 0 0 0 0 0 0 0 1 0 1 0 0 0 1 0 1 0s1 0 1 0c0 0 0 1 0 1zm0 1c0 0-1 0-1 0 0 0 0 0-1 0-1 0-1 0-2 0l1 0s0 0 1 0 1 0 2 0c0 0 0 0 0 0h0c0 0 1 0 1 0 0 0 0 0 0 0 0 0 0 1 0 1zm0 0c0 0 0 0 0 0h0c0 0-2 0-2 0s-1 0-2 0c1 0 2 0 2 0 0 0 1 0 1 0 0 0 1 0 1 0 0 0 0 0 0 0zm-5 1c1 0 2 0 3 0 0 0 1 0 2 0 0 0 0 0 0 0 0 0 0 0 0 0 0 0 0 0 0 0s0 0-1 1h0c0 0-2 0-2 0 0 0-1 0-1 0zm0 9c0 0 0 0 0 0h-1c0 0 0-3 0-3 0-1 1-2 1-3s0-2 0-3l0 0c0 2 0 3 0 4 0 1 0 2-1 3 0 1 0 2 0 2zm-2 0v0 0 0 0 0 0 0 0 0s0 0 0 0v0 0 0 0s0 0 0 0v0 0 0s0 0 0 0v0s0 0 0 0v0 0 0 0 0c0 0 0 0 0 0s0 0 0 0c0 0 0-1 1-1 0-1 1-1 1-2v0 0s0 0 0 0v0c0-1 0-2 0-2l0 0c0 0 0 2 0 3 0 1-1 2-1 3 0 1 0 3 0 4h-1v0zm-1 0c0-1 0-3 0-3 0 0 0-1 1-1s1-1 1-1c0 0 1-1 1-2 0 0 0-1 0-2l0 0c0 0 0 1 0 2v0 0s0 0 0 0c0 0 0 0 0 0 0 0 0 1-1 1 0 1-1 1-1 2 0 0 0 0 0 0v0s0 0 0 0v0 0s0 0 0 0v0 0 0 0 0 0 0 0 0 0 0 0 0 0 0 0 0 0c0 0 0 0 0 0l-1 0z"/><polygon points="244 249 243 249 236 239 242 251 244 250 244 250 244 249" class="st5"/><polygon points="244 249 243 249 255 273 257 272" class="st6"/><polygon points="248 256 247 257 248 260 250 259" class="st5"/><polygon points="247 244 246 244 241 235 245 246 247 246 247 245 247 245" class="st7"/><polygon points="246 244 246 244 255 267 257 266" class="st8"/><polygon points="250 251 249 252 250 254 251 254" class="st7"/><polygon points="250 242 250 242 246 233 248 244 250 243 250 243 250 243" class="st9"/><polygon points="250 242 249 242 256 263 257 262" class="st10"/><polygon points="253 249 251 249 252 251 253 251" class="st9"/><path class="st6" d="m230 308c0 1 1 2 2 2s2-1 2-2-1-2-2-2c-1 0-2 1-2 2z"/><path class="st6" d="m225 305c0 1 1 2 2 2s2-1 2-2-1-2-2-2c-1 0-2 1-2 2z"/><path class="st6" d="m218 305c0 1 1 2 2 2s2-1 2-2c0-1-1-2-2-2-1 0-2 1-2 2z"/><path class="st6" d="m213 308c0 1 1 2 2 2s2-1 2-2-1-2-2-2c-1 0-2 1-2 2z"/><path class="st6" d="m208 308c0 1 1 2 2 2 1 0 2-1 2-2s-1-2-2-2c-1 0-2 1-2 2z"/><path class="st6" d="m204 308c0 1 1 2 2 2s2-1 2-2c0-1-1-2-2-2-1 0-2 1-2 2z"/><path class="st6" d="m199 308c0 1 1 2 2 2 1 0 2-1 2-2s-1-2-2-2-2 1-2 2z"/><path class="st6" d="m202 305c0 1 1 2 2 2s2-1 2-2-1-2-2-2c-1 0-2 1-2 2z"/><path class="st6" d="m206 305c0 1 1 2 2 2s2-1 2-2-1-2-2-2c-1 0-2 1-2 2z"/><path class="st6" d="m211 305c0 1 1 2 2 2s2-1 2-2c0-1-1-2-2-2s-2 1-2 2z"/><path class="st6" d="m208 301c0 1 1 2 2 2s2-1 2-2-1-2-2-2c-1 0-2 1-2 2z"/><path class="st6" d="m204 301c0 1 1 2 2 2 1 0 2-1 2-2s-1-2-2-2c-1 0-2 1-2 2z"/><path class="st0" d="m186 281s-1 0-2 1c-1 1-2 1-2 3 0 1 1 3 0 4-1 1-3 2-4 3 0 0 1-1 3-1s3-1 3-1c0-1 0-3 1-4 1-1 4-1 4-1l-3-3z"/><polygon points="206 295 205 296 193 289 193 288" class="st2"/><path class="st11" d="m193 288l13 8 0 0-1 0-12-7 1-1zm13 8zm-13-7l0 1 12 7 1 0-12-7z"/><polygon points="200 301 200 300 193 288 193 289" class="st2"/><path class="st11" d="m200 300l0 2 0 0-7-13 1 0 7 12zm0 1zm0-1l-7-12-1 0 7 12 0-1z"/><polygon points="204 298 203 299 193 289 193 288" class="st2"/><path class="st11" d="m204 298l-1 1-10-10 1-1 10 11zm-1 0l1 0-10-10 0 0 10 10z"/><polygon points="193 288 185 280 185 280 193 288" class="st11"/><path class="st6" d="m182 311c0 0 1 0 1 0s1 1 1 1c1 0 1 0 1 0-1 0 0-1 0-1 0 0 8-4 8-4 0 0 1 0 1 0s1 0 2-1 0-1-1-2c0 0-1 0-2 1s-1 1-1 1-7 3-8 3c0 0 0 0 0-1s0-4 0-4 2 2 1 1c0-1 2-5 2-5-2 1-4 2-4 2-1 1-2 3-2 3 1 0 2-1 2-1 0 0 0 2 0 2 0 1 0 3 0 4 0 1-1 2-1 2zm12-6c1 0 1 0 1 0 0 0 0 1-1 1s-1 0-1 0c0 0 0 0 1-1z"/><path class="st6" d="m194 306c0 0 1 2 1 2s0 1-1 0c0 0-1-1-1-2s-1-2-1-2 1-1 1 0c0 0 1 1 1 2z"/><polygon points="193 304 193 305 192 305 192 305" class="st5"/><polygon points="194 307 194 307 193 307 193 307" class="st5"/><path class="st2" d="m193 307l0-1s-1 0-1 0c0 0-1 0-2 1s-1 1-2 1c0 0 0 1 0 1l4-1s1 0 2 0c0 0 1 0 1 0z"/><path class="st2" d="m188 309l-3 1s0 0 0 1c0 0 0 0 1 0 0 0 1 0 1-1 0 0 1-1 1-1z"/><path d="m187 308l4-2c0 0 1 0 2 0 0 0 1 0 1 0h0l0-1s-1 0-1 0h0c0 0-1 0-2 1s-1 1-2 1 0 1 0 1l0 0zm5-2c0 0 0 0 0 0l0 1c0 0 0 0-1 0v0zm-1 0h1v1h-1v0zm-1 0c0 0 1 0 1 0v1h0l0 0v0zm-1 0c0 0 0 0 1 0v0l0 0 0 0zm-1 0c0 0 1 0 1 0l0 1 0 0 0 0zm-1 0c0 0 0 0 0 0l0 1 0 0 0 0zm-1 1c0 0 0 0 0 0s0 0 1 0l0 0-1 0zm-2 3v0c0 0 0 0 0 0s0 0 0 0c0 0 1 0 1-1 0 0 1-1 1-1 0 0 0 0 0 0v0l-3 1c0 0 0 0 0 1zm3-1l0 0 0 0c0 0 0 0 0 0zm0 1l0 0 0 0 0 0c0 0 0 0 0 0zm-1 0l0-1 1 0 0 1c0 0 0 0 0 0zm-1 0l0 0 0 1 0 0 0-1zm-1 1c0 0 0 0 0 0l0 0 0 1h0c0 0 0 0 0 0v0z"/><path class="st4" d="m240 286c0 1 0 1 2 2 1 0 2 0 2-1 0-1-1-1-2-2-2 0-2 0-2 1z"/><path d="m240 286c0 1 1 1 2 1 0 0 0 0 1 0 1 0 2 0 2-1v0c0-1-1-1-2-2 0 0-1 0-1 0-1 0-1 1-1 1 0 0 0 0 0 0zm4 0v0 0l-4-1c0 0 0-1 1-1 0 0 1 0 1 0 1 0 2 1 2 1z"/><path class="st6" d="m241 282s-38-5-38-6 0-1 0-1-2 1-2 4 0 5 0 5 1 0 1 0 1 0 1 0l38 6 1-7z"/><path class="st6" d="m209 278s-1 0-1 0-1 2-1 3 0 4 0 5c0 0 1 0 1 0s-1-3 0-4c0-1 1-3 1-3z"/><path class="st6" d="m236 282s-1 0-1 0c0 0-1 2-1 3s0 4 0 5c0 0 1 0 1 0s-1-3 0-4c0-1 1-3 1-3z"/><path class="st6" d="m240 282s1 0 1 0c0 0 0 2 0 3s-1 4-1 4-1 0-1 0 1-3 1-4c0-1 0-3 0-3z"/><polygon points="218 272 219 271 238 302 237 302" class="st4"/><path d="m238 302l-1 1-19-31h0l0 0 0 0 1 0 19 31zm0 0l-18-30 0 0 19 30 1 0z"/><path class="st2" d="m219 270c0 0 0 1 0 1 0 0 0 0-1 0s-1-1-2-2c0-1-2-3-2-4 0-1 0-1 1-1 1 0 1 1 1 1s1 2 2 3c1 1 1 2 1 2z"/><path d="m219 271c0 0 0-1 0-1h0c0 0 0 1 0 1 0 0 0 0 0 0 0 0 0 0 0 0 0 0-1-1-2-2 0 0-1-1-1-2 0-1-1-1-1-1 0 0 0-1 0-1 0 0 0 0 0 0 1 0 1 1 1 1 0 0 1 2 2 3 0 1 1 1 1 2h0c0 0 0-1-1-2s-1-2-2-3c0 0-1-1-1-1 0 0 0 0 0 0 0 0 0 1 0 1 0 0 0 1 1 2 1 1 1 2 1 2 1 1 1 2 2 2 0 0 0 0 1 0 0 0 0 0 0 0z"/><path class="st2" d="m231 298s1 0 2 1c1 0 2 2 2 3s-1 3-3 3c-1 0-3 0-3-2s1-1 1-1 2 0 2-1c0 0 0-1 0-1s0 0 0 0l0-1z"/><path d="m231 304c-1 0-3 0-3-2v0c0-1 1-1 1-1 1 0 2 0 2-1v0c0 0 0 0 0 0 0 0 0 0 0 0h0l0-1h0s1 0 2 1c1 0 2 2 2 3v0c0 2-2 3-3 3h0zm2-6c0 0-1 0-2 0l0 1c0 0 0 0 1 0s0 0 0 1c0 0 0 0 0 0 0 1-1 1-2 1s-1 0-1 1v0c0 1 1 2 3 2 0 0 0 0 1 0 2 0 3-1 3-2v0c0-1-1-2-2-3zm-2-1h0 0z"/><polygon points="231 298 231 300 230 299 231 298" class="st2"/><path d="m231 298l0 2-1 0 0-2 1 0zm0 2l0-2h-1l0 2 1 0z"/><path class="st6" d="m255 301s-13-4-15-5-5-6-7-7c-2 0-6-1-8-2-2 0-11-1-11-1s1 3 2 5c1 1 4 1 5 1 1 0 9 1 10 1 1 1 1 3 2 4 1 1 10 3 10 3l13 4 0-3z"/><polygon points="219 283 218 281 221 281 220 283 220 298 221 300 218 300 219 298" class="st4"/><path d="m221 300h-3l1-1v-16l-1-1h3l-1 1v16l1 1zm-1-17l1-1h-2l1 1v16l-1 1h2l-1-1v-16z"/><polygon points="214 285 212 285 214 283 214 284 226 296 227 296 225 298 225 296" class="st4"/><path d="m227 296l-2 2 0-1-11-11-1 0 2-2 0 1 11 11 1 0zm-13-11l0-1-2 2 1 0 11 11 0 1 2-2-1 0-11-11z"/><polygon points="212 291 211 292 211 289 212 290 228 290 229 289 229 292 228 291" class="st4"/><path d="m212 291l-1 1v-3l1 1h16l1-1v3l-1-1h-16v0zm0 0h16l1 1v-2l-1 1h-16l-1-1v2l1-1z"/><polygon points="214 296 214 298 212 296 214 296 225 284 225 283 227 285 226 285" class="st4"/><path d="m215 297l0 1-2-2 1 0 11-11 0-1 2 2-1 0-11 11zm0 0l11-11 1 0-2-2 0 1-11 11-1 0 2 2 0-1z"/><path class="st4" d="m218 291c0 1 1 2 2 2s2-1 2-2-1-2-2-2-2 1-2 2z"/><path d="m222 291c0 1-1 2-2 2-1 0-2-1-2-2 0-1 1-2 2-2 1 0 2 1 2 2zm0 0c0-1-1-2-2-2-1 0-2 1-2 2 0 1 1 2 2 2 1 0 2-1 2-2z"/><path class="st4" d="m208 291c0 7 5 12 12 12 7 0 12-5 12-12 0-6-5-12-12-12-7 0-12 5-12 12zm3 0c0-5 4-9 9-9s9 4 9 9c0 5-4 9-9 9-5 0-9-4-9-9z"/><path d="m232 291c0 7-5 12-12 12s-12-5-12-12 5-12 12-12v0c-3 0-6 1-8 3-2 2-3 5-3 8s1 6 3 8 5 3 8 3c3 0 6-1 8-3s3-5 3-8-1-6-3-8-5-3-8-3v0c7 0 12 5 12 12zm-3 0c0 5-4 9-9 9v0c5 0 9-4 9-9s-4-9-9-9c-5 0-9 4-9 9 0 5 4 9 9 9v0c-5 0-9-4-9-9s4-9 9-9c5 0 9 4 9 9z"/><path d="m219 280c0 0 0 1 1 1s1 0 1 0 0 0 0 0c0 0 0 0 0 1z"/><path d="m223 281c0 0 0 1 0 1 0 0 1 0 1 0s0-1 0-1c0 0 0 0-1 0z"/><path d="m227 283c0 0 0 1 0 1s1 0 1 0 0 0 0-1 0 0-1 0z"/><path d="m229 286c0 0 0 0 0 1s0 0 1 0 0 0 0-1 0 0-1 0z"/><path d="m230 290c0 0 0 0 0 1s0 1 1 1c0 0 1 0 1 0 0 0 0 0 0 0z"/><path d="m229 294c0 0-1 0-1 0s0 1 0 1 1 0 1 0 0-1 0-1z"/><path d="m227 297c0 0 0 0-1 0s0 1 0 1 1 0 1 0c0 0 0 0 0-1z"/><path d="m224 300c0 0 0 0-1 0s0 0 0 1c0 0 0 0 1 0 0 0 0 0 0-1z"/><path d="m220 301c0 0 0 0 0 0s0 0 0 1c0 0 0 1 1 1 0 0 1 0 1 0z"/><path d="m217 300c0 0 0-1 0-1s-1 0-1 0 0 1 0 1 1 0 1 0z"/><path d="m213 298c0 0 0 0 0-1s0 0-1 0 0 1 0 1 1 0 1 0z"/><path d="m211 295c0 0 0 0 0-1s0 0-1 0 0 0 0 1c0 0 0 0 1 0z"/><path d="m209 291c0 0 1 0 1 0s0 0 0 0 0 0 0 1 0 1 1 1z"/><path d="m210 287c0 0 1 0 1 0 0 0 0-1 0-1 0 0-1 0-1 0 0 0 0 1 0 1z"/><path d="m212 284c0 0 1 0 1 0 0 0 0 0 0-1s0 0-1 0c0 0 0 1 0 1z"/><path d="m215 281c0 0 0 0 1 0 0 0 0 0 0-1 0 0 0 0-1 0 0 0 0 0 0 1z"/><path class="st4" d="m238 304c0 0 1 1 1 1 1 0 2 0 3 0 1 0 1 0 2-1s0-1-1-1-1 0-1 0 0-2 0-3 1 0 1 0c1 0 1-1 2-1s0-3 0-4 0-3 0-4c0-1-1-1-1-1-1 0-1 0-2 1 0 0 0-1 0-1 0 0 0-1 0-1h-2s0 0 1 1 0 3 0 4 0 6 0 8c0 1 0 2 0 2s-1 0-1 0c0 0 0 0 0 1zm4-13c0 0 2-1 2 0 1 1 0 3 0 4 0 1 0 4-1 5 0 0-1 0-2 0 0-1 0-7 0-8z"/><path d="m238 304c0 0 1 1 1 1 1 0 1 0 2 0 1 0 1 0 1 0 1 0 2 0 2-1v0c0 0 0-1-1-1 0 0-1 0-1 0 0 0 0-2 0-2 0 0 1 0 1 0 1 0 2-1 2-1s0-3 0-4c0 0 0-2 0-2 0-1 0-1 0-1 0-1-1-1-2-1-1 0-1 0-1 0v0c0 0 0 0 0 0 0 0 1-1 1-1l0 0h-2l0 0s0 0 1 1c0 0 0 1 0 2v2c0 1 0 6 0 8 0 1 0 2 0 2 0 0-1 0-1 0 0 0-1 0-1 1zm0 0c0 0 0 0 1-1 0 0 1 0 1 0 0 0 0 0 0 1l0 0c0 0 0-1 0-1 0 0 0-1 1-2 0-1 1-6 1-8v-2c0-1 0-1 0-2 0 0 0 0 0 0h2c0 0 0 0 0 1 0 0 0 0 0 1v0h0c0 0 1 0 2 0 1 0 1 1 2 1 0 0 0 1 0 1v3c0 1 0 4 0 4 0 1-1 1-1 1 0 0-1 0-1 0l0 0v0c0 0 0 2 0 3 0 0 0 0 0 1h0c0 0 0-1 0-1 0 0 1 0 1 0 0 0 1 0 1 1v0c0 1-1 1-1 1 0 0-1 0-1 0-1 0-1 0-2 0-1 0-1-1-1-1zm3-13c0 0 0 1 0 2 0 2 0 6 0 6 0 0 1 1 1 1 0 0 1 0 1 0 0-1 1-4 1-4v-2c0-1 0-2 0-2 0 0-1 0-1 0-1 0-1 0-1 1zm0 2v-2c0 0 0 0 1 0 0 0 1 0 1 0 0 0 0 1 0 2v2c0 1 0 4-1 4 0 0 0 0-1 0 0 0-1 0-1 0 0 0 0-4 0-6z"/><path class="st2" d="m253 277c0 0 0 0 0 0 0 0-2 0-2 0 0 0-1 0-2 0s-1-1-1-2c0 0-1 1-1 2s1 2 2 3c0 0 0-1 0-1s1-1 1-1 1 0 1 0 1 0 1 0c0 0 1 0 1 0 0 0 0 0 0-1z"/><path d="m246 277v0c0 1 1 2 2 3h0l0 0v0c0 0 0-1 0-1 0 0 0 0 0 0 0 0 0 0 0 0s0 0 0 0c0 0 1 0 1 0h0 1 1s0 0 1 0c0 0 0 0 0-1s0-1-1-1h0c0 0-1 0-2 0 0 0-1 0-2 0s-1-1-1-2v0l0 0c0 0-1 1-1 2zm7 0l-6 1v0 0c0-1 1-2 1-2 0 1 1 2 1 2 0 0 1 0 2 0 0 0 1 0 2 0h0c0 0 1 0 1 1z"/><polygon points="251 287 252 287 251 278 250 279" class="st2"/><path d="m252 287l-1 0v0l-1-8 1 0 1 9zm-1 0v0 0zm1 0l-1-8h0l1 8h0z"/><polygon points="250 279 251 278 251 276 250 276" class="st2"/><path d="m251 279l-1 0v0l0-2 1 0 0 2zm-1 0v0 0zm1-2l-1 0 0 2 1 0 0-2z"/><path class="st12" d="m253 193s1 1 1 1c1 1 2 1 2 1 1 0 1 1 2 1 0 0 1 0 1 0s0-2 0-3c0-1 0-4-1-5-1-1-1-1-2-1s-1 0-2 1c0 0-1 1-1 2 0 1 1 0 1 0s-1 1-1 2-1 1-1 2z"/><polygon points="255 204 256 193 256 193 257 204" class="st13"/><path class="st14" d="m253 193s2 0 2 1 2 1 3 1c1 1 1 1 1 1s0-2 0-3 0 0-1-1c-1 0-1-1-2-1-1 0-2 0-2 0 0 0-1 1-1 2z"/><path d="m256 288h1c1 0 1 0 1 0 0-1 0-1 0-1h-4s0 0 0 1c0 1 0 1 1 1h1z" class="st4"/><path d="m256 286h1c1 0 1 0 1 0 0-1 0-1 0-1h-4s0 0 0 1c0 0 0 1 1 1h1z" class="st4"/><path d="m256 285h1c1 0 1 0 1 0 0-1 0-1 0-1h-4s0 0 0 1c0 0 1 1 1 1h1z" class="st4"/><path d="m256 235h1c1 0 1 0 1 0 0-1 0-1 0-1h-4s0 0 0 1c0 1 0 1 1 1h1z" class="st4"/><path d="m256 283h1c1 0 1 0 1-1 0-1 0-1 0-1h-4s0 0 0 1c0 1 1 1 1 1h1z" class="st4"/><path d="m256 281h1c1 0 1 0 1-1 0-1 0-1 0-1h-4s0 0 0 1c0 0 0 1 1 1h1z" class="st4"/><path d="m256 280h1c1 0 1 0 1-1 0-1 0-1 0-1h-4s0 0 0 1c0 1 1 1 1 1h1z" class="st4"/><path d="m256 278h1c1 0 1 0 1-1 0-1 0-1 0-1h-4s0 0 0 1c0 0 0 1 1 1h1z" class="st4"/><path d="m256 276h1c1 0 1 0 1 0 0-1 0-1 0-1h-4s0 0 0 1c0 0 1 1 1 1h1z" class="st4"/><path d="m256 275h1c1 0 2 0 1 0 0-1 0-1 0-1h-4s0 0 0 1c0 0 1 1 1 1h1z" class="st4"/><path d="m256 273h1c1 0 1 0 1-1 0-1 0-1 0-1h-4s0 0 0 1c0 0 1 1 1 1h1z" class="st4"/><path d="m256 271h1c1 0 2 0 1 0 0-1 0-1 0-1h-5s0 0 0 1c0 0 1 1 1 1h1z" class="st4"/><path d="m256 270h1c1 0 2 0 1-1 0-1 0-1 0-1h-5s0 0 0 1c0 1 0 1 1 1h1z" class="st4"/><path d="m256 268h1c1 0 2 0 1-1 0-1 0-1 0-1h-5s0 0 0 1c0 0 1 1 1 1h1z" class="st4"/><path d="m256 266h1c1 0 2 0 1 0 0-1 0-1 0-1h-5s0 0 0 1c0 0 1 1 1 1h1z" class="st4"/><path d="m256 265h1c1 0 2 0 1-1 0-1 0-1 0-1h-5s0 0 0 1c0 0 1 1 1 1h1z" class="st4"/><path d="m256 263h1c1 0 2 0 1 0 0-1 0-1 0-1h-5s0 0 0 1c0 0 1 1 1 1h1z" class="st4"/><path d="m256 261h1c1 0 2 0 1-1 0-1 0-1 0-1h-5s0 0 0 1c0 1 0 1 1 1h1z" class="st4"/><path d="m256 260h1c1 0 2 0 1 0 0-1 0-1 0-1h-5s0 0 0 1c0 0 1 1 1 1h1z" class="st4"/><path d="m256 258h1c1 0 2 0 1-1 0-1 0-1 0-1h-5s0 0 0 1c0 1 1 1 1 1h1z" class="st4"/><path d="m256 256h1c1 0 2 0 1-1 0-1 0-1 0-1h-5s0 0 0 1c0 0 1 1 1 1h1z" class="st4"/><path d="m256 255h1c1 0 1 0 1-1 0-1 0-1 0-1h-5s0 0 0 1c0 0 1 1 1 1h1z" class="st4"/><path d="m256 253h1c1 0 2 0 1 0 0-1 0-1 0-1h-4s0 0 0 1c0 0 1 1 1 1h1z" class="st4"/><path d="m256 251h1c1 0 2 0 1 0 0-1 0-1 0-1h-4s0 0 0 1c0 1 1 1 1 1h1z" class="st4"/><path d="m256 250h1c1 0 1 0 1-1 0-1 0-1 0-1h-4s0 0 0 1c0 1 1 1 1 1h1z" class="st4"/><path d="m256 248h1c1 0 1 0 1-1 0-1 0-1 0-1h-4s0 0 0 1c0 0 0 1 1 1h1z" class="st4"/><path d="m256 247h1c1 0 1 0 1-1 0-1 0-1 0-1h-4s0 0 0 1c0 1 1 1 1 1h1z" class="st4"/><path d="m256 245h1c1 0 1 0 1 0 0-1 0-1 0-1h-4s0 0 0 1c0 1 0 1 1 1h1z" class="st4"/><path d="m256 243h1c1 0 1 0 1 0 0-1 0-1 0-1h-4s0 0 0 1c0 0 1 1 1 1h1z" class="st4"/><path d="m256 242h1c1 0 1 0 1-1 0-1 0-1 0-1h-4s0 0 0 1c0 0 1 1 1 1h1z" class="st4"/><path d="m256 240h1c1 0 1 0 1-1 0-1 0-1 0-1h-4s0 0 0 1c0 0 0 1 1 1h1z" class="st4"/><path d="m256 238h1c1 0 1 0 1 0 0-1 0-1 0-1h-4s0 0 0 1c0 0 0 1 1 1h1z" class="st4"/><path d="m256 237h1c1 0 1 0 1-1 0-1 0-1 0-1h-4s0 0 0 1c0 0 0 1 1 1h1z" class="st4"/><path d="m256 234h1c1 0 1 0 1-1 0-1 0-1 0-1h-4s0 0 0 1c0 0 0 1 1 1h1z" class="st4"/><path d="m256 232h1c1 0 1 0 1 0 0-1 0-1 0-1h-4s0 0 0 1c0 1 0 1 1 1h1z" class="st4"/><path d="m256 230h1c1 0 1 0 1 0 0-1 0-1 0-1h-4s0 0 0 1c0 0 0 1 1 1h1z" class="st4"/><path d="m256 229h1c1 0 1 0 1 0 0-1 0-1 0-1l-2 0-2 0s0 0 0 1c0 0 0 1 1 1h1z" class="st4"/><path d="m259 268v0c0-1 0-1 0-1 0 0 0 0 0 0v0c0-1 0-1 0-1 0 0 0 0 0 0v0c0-1 0-1 0-1 0 0 0 0 0 0v0c0-1 0-1 0-1 0 0 0 0 0 0v0c0-1 0-1 0-1 0 0 0 0 0 0v0c0-1 0-1 0-1 0 0 0 0 0 0v0c0-1 0-1 0-1 0 0 0 0 0 0v0c0-1 0-1 0-1 0 0 0 0 0 0v0c0-1 0-1 0-1 0 0 0 0 0 0v0c0-1 0-1 0-1 0 0 0 0 0 0v0c0-1 0-1 0-1 0 0 0 0 0 0v0c0-1 0-1 0-1 0 0 0 0 0 0v0c0-1 0-1 0-1 0 0 0 0 0 0v0c0-1 0-1 0-1 0 0 0 0 0 0v0c0-1 0-1 0-1 0 0 0 0 0 0v0c0-1 0-1 0-1 0 0 0 0 0 0 0 0 0 0 0 0 0-1 0-1 0-1 0 0 0 0 0 0v0c0-1 0-1 0-1 0 0 0 0 0 0v0c0-1 0-1 0-1 0 0 0 0 0 0v0c0-1 0-1 0-1v0c0 0 0 0 0 0v0c0-1 0-1 0-1 0 0 0 0 0 0v0c0-1 0-1 0-1 0 0 0 0 0 0v-1c0-1 0-1 0-1 0 0 0 0 0 0v0c0-1 0-1 0-1 0 0 0 0 0 0v0c0-1 0-1 0-1l-2 0-2 0s0 0 0 1v0c0 0 0 0 0 0 0 0 0 0 0 1v0c0 0 0 0 0 0 0 0 0 0 0 1v0c0 0 0 0 0 0 0 0 0 0 0 1v0c0 0 0 0 0 0 0 0 0 0 0 1v0s0 0 0 0l0 0s0 0 0 1v0c0 0 0 0 0 0v0s0 0 0 1c0 0 0 0 0 0 0 0 0 0 0 0 0 0 0 0 0 1v0c0 0 0 0 0 0 0 0 0 0 0 1v0c0 0 0 0 0 0v0s0 0 0 1v0c0 0 0 0 0 0 0 0 0 0 0 1 0 0 0 0 0 0 0 0 0 0 0 0 0 0 0 0 0 1v0c0 0 0 0 0 0 0 0 0 0 0 1v0c0 0 0 0 0 0 0 0 0 0 0 1v0c0 0 0 0 0 1 0 0 0 0 0 1v0c0 0 0 0 0 0 0 0 0 1 0 1v0c0 0 0 0 0 0 0 0 0 0 0 1v0c0 0 0 0 0 0 0 0 0 0 0 1v0c0 0 0 0 0 1 0 0 0 0 0 1v0c0 0 0 0 0 1 0 0 0 0 0 1v0c0 0 0 0 0 0 0 0 0 0 0 1v0c0 0 0 0 0 0 0 0 0 0 0 1v0c0 0 0 0 0 0 0 0 0 0 0 1v0c0 0 0 0 0 0 0 0 0 0 0 1v0c0 0 0 0 0 0 0 0 0 0 0 1v0c0 0 0 0 1 0 0 0 0 1 0 1v0c0 0 0 0 0 0 0 0 0 0 0 1v0c0 0 0 0 0 0 0 0 0 0 0 1v0c0 0 0 0 0 0 0 0 0 0 0 1v0c0 0 0 0 1 0 0 0 0 1 0 1v0c0 0 0 0 0 1 0 0 0 0 0 1v0c0 0 0 0 0 0 0 0 0 0 0 1v0c0 0 0 0 0 0 0 0 0 0 0 1 0 0 0 0 0 0 0 0 0 0 0 0 0 0 0 0 0 1v0c0 0 0 0 0 0 0 0 0 0 0 1v0c0 0 0 0 0 0 0 0 0 1 0 1v0c0 0 0 0 0 0 0 0 0 0 0 1v0c0 0 0 0 0 0s1 0 1 0h1 1c1 0 1 0 1 0v0c0-1 0-1 0-1 0 0 0 0 0 0v0c0-1 0-1 0-1 0 0 0 0 0 0v0c0-1 0-1 0-1 0 0 0 0 0 0 0 0 0 0 0 0 0-1 0-1 0-1 0 0 0 0 0 0v0c0-1 0-1 0-1 0 0 0 0 0 0v0c0-1 0-1 0-1 0 0 0 0 0 0v0c0-1 0-1 0-1 0 0 0 0 0 0v0c0-1 0-1 0-1 0 0 0 0 0 0v0c0-1 0-1 0-1 0 0 1 0 1 0v0c0 0 0-1 0-1 0 0 1 0 1 0v0c0-1 0-1 0-1 0 0 0 0 0 0v0c0-1 0-1 0-1-2 0-1 0-1 0zm-5-39v0c0 0 0-1 0-1l2 0 2 0c0 0 0 1 0 1v0c0 0 0 0 0 0 0 0 0 0-1 0h-2c0 0 0 0-1 0 0 0 0 0 0 0zm0 2v0c0-1 0-1 0-1h1 0 1s1 0 1 0h1c0 0 0 0 0 1v0c0 0 0 0 0 0 0 0 0 0-1 0h-2c0 0-1 0-1 0 0 0 0 0 0 0zm0 2v0c0-1 0-1 0-1h4c0 0 0 1 0 1v0c0 0 0 0 0 0 0 0 0 0-1 0h-2c0 0-1 0-1 0 0 0 0 0 0 0zm0 2c0-1 0-1 0-1h4c0 0 0 0 0 1v0c0 0 0 0-1 0h-1s-1 0-1 0c-1 0-1 0-1 0zm0 2c0 0 0 0 0 0v0c0-1 0-1 0-1h1 0 1s1 0 1 0h0 1c0 0 0 1 0 1v0c0 0 0 0 0 0 0 0 0 0 0 0h-3c0 0 0 0-1 0zm0 1v0c0 0 0-1 0-1h4c0 0 0 1 0 1v0c0 0 0 0 0 0 0 0 0 0-1 0h-1s-1 0-1 0c0 0-1 0-1 0 0 0 0 0 0 0zm0 2v0c0 0 0-1 0-1h4c0 0 0 1 0 1v0c0 0 0 0 0 0 0 0 0 0-1 0h-2c0 0-1 0-1 0 0 0 0 0 0 0zm0 2v0c0 0 0-1 0-1h4c0 0 0 1 0 1v0c0 0 0 0 0 0s0 0-1 0h-2c0 0-1 0-1 0 0 0 0 0 0 0zm0 2v0c0-1 0-1 0-1h4c0 0 0 1 0 1v0c0 0 0 0 0 0 0 0 0 0-1 0h-2c0 0-1 0-1 0 0 0 0 0 0 0zm0 2v0c0 0 0-1 0-1h1 1s1 0 1 0h1c0 0 0 1 0 1v0c0 0 0 0 0 0 0 0 0 0-1 0h-2c0 0-1 0-1 0 0 0 0 0 0 0zm0 2c0 0 0 0 0 0 0 0 0-1 0-1h1 1s1 0 1 0h1c0 0 0 1 0 1v0c0 0 0 0 0 0 0 0 0 0-1 0h-1s-1 0-1 0c0 0-1 0-1 0 0 0 0 0 0 0zm0 2v0c0 0 0-1 0-1h4c0 0 0 0 0 1v0c0 0 0 0 0 0 0 0 0 0-1 0h-2c0 0-1 0-1 0s0 0 0 0zm0 2s0 0 0 0c0-1 0-1 0-1h1 1s1 0 1 0h1c0 0 0 1 0 1v0c0 0 0 0 0 0s0 0-1 0h-1-1 0c0 0-1 0-1 0 0 0 0 0 0 0zm0 2c0-1 0-1 0-1h3 0 0 1 0 1c0 0 0 1 0 1v0c0 0 0 0 0 0s0 0-1 0h-1s-1 0-1 0c0 0-1 0-1 0 0 0 0 0 0 0zm0 2v0c0 0 0-1 0-1h4c0 0 0 1 0 1v0c0 0 0 0 0 0s-1 0-1 0h-1s-1 0-1 0c0 0-1 0-1 0s0 0 0 0zm0 2v0c0-1 0-1 0-1h4c0 0 0 1 0 1l0 0c0 0 0 0 0 0s-1 0-1 0h-1s0 0-1 0h-1c0 0-1 0-1 0 0 0 0 0 0 0zm0 2v0c0-1 0-1 0-1h3 1 1c0 0 0 1 0 1v0c0 0 0 0 0 0s0 0-1 0h-3c0 0-1 0-1 0s0 0 0 0zm0 2v0c0 0 0-1 0-1h1 1s1 0 1 0h1c0 0 0 0 0 1v0c0 0 0 0 0 0 0 0-1 0-1 0h-1-1c0 0-1 0-1 0 0 0 0 0 0 0zm0 2v0c0 0 0-1 0-1h4c0 0 0 1 0 1v0s0 0 0 0c0 0-1 0-1 0h-1-1c0 0-1 0-1 0 0 0 0 0 0 0zm0 2v0c0-1 0-1 0-1h4c0 0 0 1 0 1v0c0 0 0 0 0 0 0 0-1 0-1 0h-3c0 0-1 0-1 0 0 0 0 0 0 0zm0 2v0c0-1 0-1 0-1h4c0 0 0 0 0 1v0c0 0 0 0 0 0s-1 0-1 0h-3c0 0-1 0-1 0 0 0 0 0 0 0zm0 2v0c0 0 0-1 0-1h5c0 0 0 1 0 1v0c0 0 0 0 0 0s-1 0-1 0h-1s-1 0-1 0h0c0 0-1 0-1 0s0 0 0 0zm0 2v0c0 0 0-1 0-1h3 0 1c0 0 0 1 0 1v0c0 0 0 0 0 0s-1 0-1 0h-3c0 0-1 0-1 0 0 0 0 0 0 0zm0 2v0c0-1 0-1 0-1h3 0 1c0 0 0 0 0 1v0c0 0 0 0 0 0 0 0-1 0-1 0h-1-1 0c0 0-1 0-1 0 0 0 0 0 0 0zm5 20c0 0 0 1 0 1v0c0 0 0 0 0 0s0 0-1 0h-1s-1 0-1 0c0 0-1 0-1 0 0 0 0 0 0 0s0 0 0 0c0-1 0-1 0-1h1 1 0 1 1v0zm0 0c0 0 0 0 0 0s0 0-1 0h0-1 0-1 0c0 0-1 0-1 0s0 0 0 0v0c0-1 0-1 0-1h4c0 0 0 0 0 1zm0-2v0c0 0 0 0 0 0s0 0-1 0h-1 0-1 0c0 0-1 0-1 0s0 0 0 0v0c0 0 0-1 0-1h4c0 0 0 1 0 1zm0-3c0 0 0 1 0 1v0c0 0 0 0 0 0s0 0-1 0h-2c0 0-1 0-1 0s0 0 0 0v0c0 0 0-1 0-1h4zm0-1v0c0 0 0 0 0 0s0 0-1 0h-3c0 0-1 0-1 0 0 0 0 0 0 0s0 0 0 0c0-1 0-1 0-1h4c0 0 0 0 0 1zm0-3c0 0 0 1 0 1v0c0 0 0 0 0 0s0 0-1 0h-1 0 0-1c0 0-1 0-1 0s0 0 0 0v0c0 0 0-1 0-1h3 0 0 1 0 1zm0 0c0 0 0 0 0 0s0 0-1 0h-1-1 0c0 0-1 0-1 0s0 0 0 0 0 0 0 0c0 0 0-1 0-1h4c0 0 0 0 0 1 0 0 0 0 0 0zm0-2v0c0 0 0 0 0 0 0 0 0 0-1 0h0-1 0-1c0 0-1 0-1 0s0 0 0 0v0c0 0 0-1 0-1h4c0 0 0 1 1 1zm0-2s0 0 0 0c0 0 0 0 0 0 0 0 0 0-1 0h-1 0 0-1c0 0-1 0-1 0s0 0 0 0v0c0 0 0-1 0-1h4c0 0 0 1 0 1zm0-2c0 0 0 0 0 0s0 0-1 0h-1s0 0-1 0h0c0 0-1 0-1 0 0 0 0 0 0 0v0c0 0 0-1 0-1h1 0 3c0 0 0 1 0 1v0zm0-3c0 0 0 1 0 1v0c0 0 0 0 0 0 0 0-1 0-1 0h0-1-1c0 0-1 0-1 0s0 0 0 0v0c0 0 0-1 0-1h4v0zm0 0c0 0 0 0 0 0s-1 0-1 0h-3c0 0-1 0-1 0 0 0 0 0 0 0v0c0 0 0-1 0-1h4c0 0 0 1 0 1v0zm0-1c0 0-1 0-1 0h-3c0 0-1 0-1 0 0 0 0 0 0 0v0c0-1 0-1 0-1h2 0 1 0 1c0 0 0 1 0 1v0c0 0 0 0 0 0z"/><path class="st15" d="m256 227h1c1 0 1 0 1 0 0 0-1-17-1-18s-1-2-1-2-1 1-1 2c0 1-1 18-1 18 0 1 0 1 1 1h1z"/><path class="st16" d="m239 223c0 1-1 2 0 3 0-1 1-2 1-3 1 1 1 2 1 3 0-1 1-2 1-4 1 0 1 1 1 2 0-1 0-2 1-2 0 0 1-2 0-2 0 1 0 1 0 1 0 1 0 1 0 2 1-1 1-4 1-5 0 0 1 2 1 3 1-1 1-4 1-5 0 0 1 2 1 2 0-1 0-3 0-4 0 1 1 2 1 2 1-1 1-2 1-3 0 0 0 1 1 1 0-1 0-2 0-3 0 1 0 1 1 1 0-1 0-2 1-2 0 1 0 1 1 2 0-1 0-1 0-2 0 0 1 1 1 1 1-1 1-3 1-3 0 0-1-1-2 0-1 0-1 1-2 1 0 0 0 0 0 0 1 0 1 1 1 1-1 0-2 0-3 1 0 0 1 0 1 1-1 0-2-1-3 0 2 1 2 1 3 1-1 0-3-1-3 0 1 0 1 1 2 1-1 0-2 0-3 0 1 1 1 1 2 1-1 0-2-1-2 0 1 0 1 1 2 1-1 0-2 0-3 0 0 0 1 1 1 1 0 0 1 1 1 1-1 0-2-1-3 0 1 0 2 1 2 1-1 0-1 0-2 0 0 0-1 1-1 1 1 0 2 0 2 1-1 0-2 0-3 1 1 0 2 0 2 1-1 0-2 0-3 2 1 0 2 0 3 0 0 0-1 1-2 1-1 1-1 1-1 2 0 0 2-1 3-1z"/><path class="st15" d="m257 210l2-3s6 4 9 7 4 5 5 8 1 4 0 6l-1-3s0 1-1 2c0 0 1-3 0-4 0 0 0 2-1 2l0-3s0 1-1 1l1-2s-1 1-2 1l2-3s-1 1-3 0c0 0 1 0 2-1 0 0-1 0-2-1 0 0 1 0 2-1 0 0-1 0-3-1l1-1s-1 0-2-1l1-1s-1 0-2 0l1-1s-2 0-3-1l1-1c0 0-1 0-4 0z"/><path class="st15" d="m259 207l-1-3s6-3 11-3c4 0 6 0 9 1s4 2 6 3l-3-1s1 1 1 2c0 0-2-2-3-2 0 0 1 1 1 2l-3-2s1 1 0 2l-2-2s0 1-1 2l-1-3s0 2-1 2c0 0 0-1 0-2 0 0 0 1-2 1 0 0 1-1 0-2 0 0 0 1-2 2l0-1s-1 1-2 2l0-1s-1 1-2 2l0-1s-1 2-2 2l0-1c0 0 0 1-2 4z"/><path class="st15" d="m252 205c-7-1-11 0-12 0-1 0-6 2-7 2-1 1-4 4-4 4l2-1-1 2 2-2-1 3 2-3c0 1-1 3-1 3 0-1 3-4 3-4-1 1-1 4-1 4 0-1 3-4 3-4l-1 4s4-6 4-6c0 1-1 5-1 5 0-1 4-5 4-5 0 1-1 4-1 4 0-1 4-4 4-4 0 1-1 3-1 3 0-1 3-3 3-3-1 1-1 3-1 3 0-1 3-3 3-3-1 0-1 3-1 3 0-1 3-2 3-2l1-2z"/><path class="st15" d="m259 207c8 0 11 2 12 2 1 0 6 3 7 3 1 1 3 5 3 5l-2-1 1 2-2-3 0 3-1-3c0 1 0 3 0 3 0-1-2-4-2-4 1 1 1 4 1 4 0-1-2-4-2-4l0 4s-3-7-3-6 1 5 1 5c0-1-3-6-3-6 0 1 1 4 1 4 0-1-3-5-3-5 0 1 0 3 0 3 0-1-3-4-3-4 1 1 1 4 1 4 0-1-2-3-2-3 1 0 1 3 1 3 0-1-3-2-3-2l3 4-2-1 2 1c1 1 2 4 2 4l-2-1c1 0 2 3 2 3 0-1-1 0-1 0 1 0 2 6 2 6 0-1-2-3-2-3 1 1 1 7 1 7 0-1-2-3-2-3 1 1 0 7 0 7 0-1-1-5-1-5 0 1-3 4-3 4 1-1 2-4 2-4-1 1-2 1-2 1 1-1 3-3 3-3 0 1-2 0-2 0 1-1 2-5 2-5-1 2-3 3-3 3 1 0 2-4 2-4 0 1-2 2-2 2l2-3-2 2s2-3 2-3c0 0-2 1-2 1l2-3-2 2 1-3-2 1 1-3c0 1-1 2-1 2 1-2 0-4 0-4l0 2-1 0c1 0 1 1 1 1l-1 0c1 0 1 2 1 2 0-1-2-1-2-1 1 0 2 3 2 3 0-1-2 0-2 0 1 1 2 4 2 4 0-1-2-2-2-2 1 1 2 4 2 4 0-1-3-2-3-2 1 0 2 5 2 5 0-2-3-3-3-3 1 0 3 6 3 6 0-2-3-3-3-3 1 1 2 5 2 5 0-1-2-3-2-3 0 1 1 6 1 5s-2-4-2-4l0 5s-1-4 0-5l-2 1s1-2 2-3l-2 1s1-3 2-4l-2 2s2-3 2-3l-2 0s2-1 3-1l-3 0s3-2 4-2l-3 0s2-2 4-2l-3 0s2-1 4-2l-4 0s2-1 4-1l-3 0s2-1 3-1l-1 0 2-1h-5s-2 1-3 2l0-1s-1 1-1 2l0-2s-1 2-1 3c0 0-1-1 0-2l-1 3s-1-1 0-2c0 0-1 2 0 3l-1-2s1 3 1 3-2-2-2-2c0 0 0 2 1 3 0 0-1-1-1-2 0 0 0 2 1 3 0 0-1-1-1-2 0 0 0 3 0 4 0 0-1-2-1-2 0 0 0 4 0 5 0 0-1-2-1-2 0 0-1 3-1 3 0 0 0-5 0-5 0 0-1 5-1 6 0 0-1-2-1-3 0 0 0 5 0 5 0 0-1-2-1-3 0 0 0 3 0 4 0 0-1-1-1-2 0 0-1 3-1 3 0 0 0-4 0-6s4-6 5-6c1-1 5-4 6-4s3-2 4-2l6 0 0-2s-1 0-1 1c0 0-1-1 0-2 0 0-1 0-1 1 0 0 0-1 0-1 0 0-1 1-1 2 0 0 0-1 0-2 0 0-1 1-1 2 0 0 0-2 0-2 0 0-3 1-3 1 0 0 1-2 2-2 0 0-4 2-4 3 0 0 1-2 2-3 0 0-3 1-4 3l2-3-3 3 3-3s-4 3-5 4c0 0 2-4 3-5 0 0-4 3-5 4 0 0 1-3 2-4 0 0-4 4-4 5 0 0 0-2 1-3 0 0-2 0-2 1s-2 3-2 3 1-3 1-4c0-1 2-2 3-3s4-2 5-2 5 0 7 1c1 0 5 1 7 1s7 3 7 3-2-2-4-2 2-1 3 0c0 0-4-1-5-1 0 0 3-1 4-1 0 0-4-1-5-1 0 0 2-1 3-1 0 0-4-1-5 0 0 0 3-1 3-1 0 0-4-1-5-1 0 0 3-1 3-1 0 0-3-2-4-2 0 0 3 0 4 1 1 1 2 1 3 2 1 1 3 3 4 4s3 4 3 5c0 0 1-2 1-3s3-3 4-4c1-1 4-2 5-3 2-1 5-2 6-2s3 1 4 1c1 1 2 2 2 2 0 0-3-2-4-2 0 0 2 1 2 2l-2-1s2 2 2 3c0 0-3-2-4-2l1 1-2-1 2 2s-3-1-4-1c0 0 2 1 3 2 0 0-3-1-4-1 0 0 1 1 2 1 0 0-3-1-5-1 0 0 2 1 3 2 0 0-3-1-5 0 0 0 2 0 3 1 0 0-1 0-2 1l-2-1 2 1s-1 0-2 1l-2-1 1 1s-1 0-1 1l-1 0 1 1s-2 1-2 1c0 0 4 0 5 0s9 0 10 0c1 0 5 1 6 1s4 2 5 3 2 3 2 3 0 3 0 3l-1-4s0 3 0 4c0 0-2-5-2-6 0 0 1 3 1 5 0 0-1-3-1-3l0 1s-1-3-1-4c0 0 1 3 0 5 0 0 0-2-1-2 0 0 0 1 0 1 0 0-2-4-2-5 0 0 1 3 1 4l-1-2 0 2 0-2 0 2s0-3-1-4c0 0 0 3 0 4 0 0-1-3-1-3 0 0 1 2 0 3 0 0-1-3-1-3 0 0 0 2 0 3 0 0-1-3-2-3 0 0 0 2 0 3l-2-3 1 3s-1-1-2-2c0 0 1 1 1 1 0 0-1-1-2-1v1l-1-1 0 0-4-1z"/><path class="st2" d="m261 288c-1 0-3 0-5 0s-4 0-5 0c-1 0-1 0-2 1 0 0 1 0 2 1 1 0 3 1 5 1 2 0 4 0 5 0 1 0 1 0 2 0 0 0-1 0-2-1z"/><path class="st17" d="m263 289s-1-1-7-1c-6 0-7 2-7 2v-2s2-1 8-1c6 0 7 2 7 2v2z"/><rect y="286" x="256" height="1" class="st5" width="1"/><polygon points="252 288 251 288 251 287 252 287" class="st5"/><polygon points="261 287 260 287 260 288 261 288" class="st5"/><path class="st6" d="m249 288s2 2 8 2c6 0 7-1 7-1v14s-1 1-7 1c-6 0-7-1-7-1v-14z"/><polygon points="258 303 255 294 255 294 254 303 253 303 249 291 250 290 253 301 253 301 255 292 256 292 258 301 259 301 260 292 261 292 263 302 263 302 261 294 261 294 259 303" class="st0"/><path d="m250 290l4 10 1-9 1 0 3 9 2-9 1 0 3 11-1 0-2-8-1 9-1 0-3-9-1 9h-1l-4-12 1 0zm0 0l-1 0 4 12 1 0 1-9h0l3 9 1 0 1-9h0l2 8 1 0-2-10h-1l-1 9 0 0-3-9-1 0-1 9h0l-4-10z"/><path class="st17" d="m263 288s-1 2-7 2c-6 0-7-1-7-1v2s2 2 8 2c6 0 7-1 7-1v-2z"/><rect y="290" x="256" height="2" class="st5" width="1"/><polygon points="252 290 251 290 251 291 252 291" class="st5"/><polygon points="261 291 260 291 260 290 261 290" class="st5"/><path class="st5" d="m263 301s-1 1-7 1c-6 0-7-1-7-1v1s1 1 8 1 7-1 7-1v0z"/><path class="st17" d="m263 304s-1 1-7 1-7-1-7-1v-2s1 1 8 1 7-1 7-1v2z"/><rect y="303" x="256" height="2" class="st5" width="1"/><polygon points="252 303 251 303 251 305 252 305" class="st5"/><polygon points="261 305 260 305 260 303 261 303" class="st5"/><path class="st18" d="m225 310h0c1 0 1 0 2 1 0 0 0 0 1 1 0 0 0 0 0 1 0 1 0 1 0 2 2 0 5 1 7 1 7 1 14 1 21 1 5 0 10 0 15 0 4 0 9-1 13-1 0 0 0-1 0-1 0 0 0 0 0-1 0 0 0 0 1-1 1-1 1-1 2-1h0c2 0 3 0 5 1 1 0 3 1 4 1 4 0 8 0 12 0 1 0 2 0 3 1 1 0 2 1 3 1 2 1 4 2 5 2 3 1 5 2 8 3 1 0 2 1 3 1 1 0 2 0 4 0 1 0 1 0 2-1 0 0 0 0 0 0v0l0 0c-1 1-1 1-2 1-2 1-4 1-6 0 1 0 2 1 3 1 1 0 2 1 3 1 1 0 1 0 2 0 0 0 0 0 0 0 0 0-1 0-1 0s-1 0-1 0h0-2c-2 0-4 0-6-1-2-1-3-2-5-2-2-1-3-1-5-2-1 0-2-1-3-1-1 0-2 0-3 0-3 0-5 0-8 0-1 0-3 0-4 0-1 0-2 0-3 0 0 0 0 1 0 1 0 0 0 0 0 0 0 0 0 0-1 0-1 0-1 1-2 1-1 0-3 1-4 1-4 1-8 1-12 2-6 1-12 1-19 1-1 0-2 0-3 0-5 0-10 0-14-1-2 0-4 0-6-1-2 0-4-1-6-1-1 0-1 0-2 0-1 0-1 0-2-1 0 0 0 0 0 0 0 0 0-1 0-1-1 0-2 0-3 0-1 0-2 0-3 0-3 0-6 0-8 0-1 0-2 0-3 0-2 1-4 1-5 2-2 1-5 2-7 3-1 0-1 1-2 1-2 1-3 1-5 1h-1c-1 0-2 0-3 0v0c1 0 1 0 2 0 1 0 2-1 3-1 1 0 2-1 2-1-1 0-3 1-4 0s-3 0-4-1c0 0-1 0-1-1l0 0c0 0 1 0 1 0 1 0 2 0 3 0 2 0 3 0 5-1 1 0 2-1 2-1 3-1 7-3 10-4 1 0 2-1 3-1 1 0 2 0 4-1 3 0 6 0 9 0 1 0 2 0 3 0 1 0 2 0 3 0 1 0 2 0 3 0 1 0 2 0 3-1z"/><path class="st2" d="m217 311c3 0 5-1 8-1 1 0 2 0 2 0 0 0 1 0 1 1 0 0-1 0-1 0-1 0-2 0-3 0 0 0-1 0-1 0 0 0 0 0 0 1l-1 3c-1 0-2 0-3 0 0 0-1 0-1 0-1 0-3 0-4 0-1 0-3 0-5 0-1 0-2 0-3 0-1 0-2 0-3 1-2 1-4 1-6 2-2 1-5 2-7 3-2 1-4 1-6 1-1 0-2 0-2 0 1 0 2 0 3-1 2-1 4-1 5-2 0 0 0 0 0 0h0c-2 1-3 1-5 1-1 0-3 0-4-1 0 0 0 0-1 0 1 0 1 0 2 0 2 0 3 0 5-1 1 0 1 0 2-1 3-1 7-3 10-5 1 0 2-1 4-1 1 0 2 0 2-1 2 0 3 0 5 0s4 0 6 0h2c0 0 1 0 2 0z"/><path class="st2" d="m286 310c1 0 2 0 2 0 2 0 4 1 5 1 1 0 1 0 2 0h2c3 0 6 0 9 0 1 0 2 0 4 0 1 0 2 0 3 1 2 1 4 1 5 2 3 1 5 2 8 4 1 1 2 1 3 1s2 0 3 0c1 0 2 0 2 0-1 1-2 1-3 1-1 0-2 0-3 0-1 0-2 0-4-1 0 0 0 0 0 0 2 1 3 2 5 2 1 0 2 1 3 1-3 1-6 0-9-1-2-1-4-2-6-2-2-1-3-1-5-2l-3-1c-1 0-2 0-3 0l-8 0c-1 0-1 0-2 0-1 0-3 0-4 0 0-1-1-2-1-3 0 0 0 0 0-1 0 0-1 0-1 0-1 0-3 0-4 0 0 0-1 0-1 0 0 0 1 0 2-1z"/><path class="st2" d="m227 312c1 0 1 0 1 0 0 0 0 0 0 0 0 1 0 1 0 2 0 0-1 0-2 0-1 0-2 0-3-1 0 0-1 0-1-1 0 0 0 0 0 0 0 0 1 0 1 0 1 0 2 0 3 0z"/><path class="st2" d="m284 311c1 0 1 0 1 0 1 0 2 0 3 0 0 0 1 0 1 0 0 0 0 0 0 0 0 0-1 1-2 1-1 0-3 1-4 1l0-1c0 0 0-1 0-1z"/><path class="st2" d="m289 313c1 0 1 0 1-1 1 2 1 3 1 5 0 0-1 1-2 1 0 0-1 0-2 1-1 0-3 1-4 1-4 1-7 1-11 1-5 1-11 1-16 1-5 0-9 0-14 0-4 0-9-1-13-1-1 0-3 0-4-1-1 0-2 0-3-1 0 0-1 0-1-1 0 0 0 0 0 0 0-2 1-3 1-5h0c0 0 1 1 1 1l2 1c2 1 5 1 7 1 5 1 9 1 14 1 3 0 5 0 8 0 2 0 5 0 7 0 5 0 10 0 15-1 2 0 4 0 6-1 0 0 1 0 1 0 1 0 3-1 5-1z"/><path class="st18" d="m285 315c1 0 2 0 3 0h0v0c-1 0-1 0-2 0 0 0 0 1 0 1 1 0 1 0 2 0 0 0 0 0 0 0-1 0-1 0-2 0 0 0 0 1 0 1 1 0 1 0 2 0v0c-1 0-2 0-3 1 0-1 0-2-1-3z"/><path class="st18" d="m226 318l1-4c0 0 0 0 1 0 0 1 0 2 0 3l2 0c0 0 0 0 0 0-1 0-1 0-2 0z"/><path class="st18" d="m229 315c0 0 0 0 1 0 0 0 0 1 0 1 0 0 0 0-1 0 0 0 0 0 0 0 0 0 0 0 0 0 0 0 0 0 0 0 0 0 0 0 0 0z"/><path class="st18" d="m282 315c0 0 1 0 1 0 0 0 1 0 1 0 0 0 0 0 0 1 0 0 0 0 0 0 0 0 0 0-1-1 0 0 0 0-1 0 0 0-1 1-1 1s0 1 0 1c0 0 1 1 1 1 0 0 1 0 1 0 0 0 0 0 0-1 0 0 0 0 1 0 0 0 0 1 0 1s-1 1-1 1c0 0-1 0-1 0 0 0-1 0-1-1 0 0 0-1 0-2 0 0 0-1 1-1z"/><path class="st18" d="m230 315c0 0 0 0 1 0l0 2c0 0 0 0 0 1 0 0 0 1 1 1s1 0 1 0c0 0 0-1 0-1 0-1 0-1 0-2 0 0 0 0 1 0 0 1 0 1 0 2 0 0 0 1 0 1s0 1-1 1c0 0-1 0-1 0 0 0-1-1-1-1v-1c0-1 1-1 1-2z"/><path class="st18" d="m278 316c1 0 1 0 2 0 0 0 1 0 1 0 0 0 0 1 0 1s0 1 0 1c0 0 0 0 0 0 0 0 0 0 0 0 0 0 0 1 0 1 0 0 0 0 0 0 0 0 0 0-1 0l0-1c0 0 0 0 0 0h0c0 0-1 0-1 0 0 1 0 1 0 2 0 0 0 0 0 0 0-1 0-2 0-4z"/><path class="st18" d="m234 315c0 0 0 0 1 0 1 1 1 2 2 3 0-1 0-2 0-3 0 0 0 0 1 0 0 1 0 2 0 4h0c0-1-1-2-1-3 0 1 0 2 0 3 0 0 0 0 0 0 0-1 0-2 0-4z"/><path class="st18" d="m275 316c1 0 1 0 1 0 1 1 1 1 1 2 0 1 0 1-1 1 0 0-1 0-1 0s-1 0-1 0c0 0 0-1 0-1 0 0 0-1 0-1 0 0 1-1 1-1z"/><path class="st18" d="m238 316c0 0 0 0 1 0l0 4h-1c0-1 0-2 0-4z"/><path class="st2" d="m278 316c0 0 1 0 1 0 0 0 0 0 1 0s0 1 0 1c0 0 0 0-1 0 0 0-1 0-1 0 0 0 0-1 0-1z"/><path class="st18" d="m240 316c0 0 1 0 1 0 0 0 1 0 1 1 0 1 0 1 0 2 0 0 0 1-1 1 0 0-1 0-1 0s-1 0-1 0c0 0 0-1 0-1 0 0 0-1 0-1 0 0 1-1 1-1z"/><path class="st18" d="m271 316c1 0 2 0 2 0 0 0 0 0 0 0-1 0-1 0-2 0 0 0 0 1 0 1 1 0 1 0 2 0v0c-1 0-1 0-2 0 0 1 0 1 0 2 0 0 0 0 0 0 0 0 0 0 0 0 0-1 0-2 0-3z"/><path class="st18" d="m243 316h1c1 1 1 2 2 3 0-1 0-2 0-3h0c0 1 0 1 0 2 0 1 0 1 0 2 0 0 0 0-1 0 0-1-1-2-2-3 0 1 0 2 0 3 0 0 0 0 0 0 0-1 0-2 0-3z"/><path class="st2" d="m275 316c0 0 1 0 1 0 0 0 0 1 1 1 0 0 0 1 0 1 0 0-1 0-1 0s-1 0-1 0c0 0 0-1 0-1s0-1 0-1c0 0 0 0 1 0z"/><path class="st18" d="m266 317c0 0 0 0 1 0l2 4c0 0 0 0-1 0 0 0 0-1 0-1 0 0-1 0-1 0 0 0 0 1 0 1 0 0 0 0 0 0 0-1 1-3 1-4z"/><path class="st2" d="m240 317c0 0 1 0 1 0 0 0 1 0 1 1s0 1 0 1c0 0 0 1-1 1s-1 0-1 0c0 0 0-1 0-1 0 0 0-1 1-1z"/><path class="st18" d="m249 320c0-1 0-2 0-4 1 0 2 0 2 0h0v0h-2c0 0 0 1 0 1h2v1c-1 0-1 0-2 0v2c0 0 0 0 0 0z"/><path class="st18" d="m252 320c0-1 1-2 1-4 0 0 0 0 1 0 0 1 1 2 1 3 0 0 0 0 0 1h0c0 0 0-1 0-1h-1s0 0 0 0l0 1c0 0 0 0 0 0z"/><path class="st18" d="m262 317c0 0 0 0 1 0 0 1 0 2 0 3 1 0 1 0 2 0 0 0 0 0 0 1-1 0-2 0-2 0 0-1 0-2 0-4z"/><path class="st18" d="m255 317h1v4h0v-4z"/><path class="st18" d="m256 317h3v0h-1v3h0v-3h-1c0 0 0 0 0 0z"/><path class="st2" d="m266 317c0 0 0 1 1 1h-1c0 0 0-1 0-1z"/><path class="st2" d="m253 317c0 1 0 1 1 1h0c0 0-1 0-1 0 0 0 0-1 1-1z"/><path class="st2" d="m232 277s1-1 2-1c2 0 2 1 2 1l-2 6-2-6z"/><path d="m232 277h0 0c0 0 1-1 2-1h0c2 0 2 1 2 1v0l-2 6-2-6zm3 6l2-5c0 0 0 0-1 0s-1 0-2 0h0c-1 0-1 0-2 1 0 0 0 0-1 0l3 5z"/><path class="st3" d="m237 278s-1 1-2 1c-1 0-2-1-2-1s0 4 0 5c0 1 0 2 1 3 0 0 1 1 2 1 1 0 1-1 1-1s1-1 1-2c0-2 0-5 0-5z"/><path d="m233 285c-1-1-1-2-1-3 0-1 0-5 0-5v0l0 0s0 0 1 0c1 0 1 0 2 0 1 0 2-1 2-1h0v0s0 4 0 5c0 1 0 2-1 2s-1 1-1 1c-1 0-1 0-1-1zm3 0c0 0 0-1 1-2 0-1 0-4 0-5 0 0-1 1-2 1s-2 0-2-1c0 1 0 4 0 5 0 1 0 2 1 3 0 0 1 1 1 1 1 0 1 0 1-1z"/><path class="st3" d="m235 278l0 1h-1l0-1 0-4s0 0 1 0 1 0 1 0l0 4z"/><path d="m234 279l0-1 0-4s0 0 1 0c1 0 1 0 1 0l0 4 0 1h-1v0zm1-1l0 1h1l0-1 0-4 0 0c0 0 0 0 0 0 0 0-1 0-1 0l1 4z"/><path d="m234 278l0 0h0 0v0h0 0z"/><path class="st2" d="m235 281c1 0 2-1 2-1v-1s-1 1-2 1-2-1-2-1v1s1 1 2 1z"/><path d="m232 280v-1l0 0s0 0 1 1c1 0 1 1 2 1 1 0 2-1 2-1l0 0v1s-1 1-2 1v0c1 0 2-1 2-1v0c0 0-1 1-2 1-1 0-2-1-2-1v1c0 0 0 0 1 1 0 0 1 1 2 1v0c-1 0-2-1-2-1z"/><path class="st2" d="m235 284l1 0s0 1 0 1 0 1 0 1l0-1z"/><path class="st2" d="m235 282c0 0 0 1 0 1s0 0 0-1c0 0 0-1 1-1s1 0 1 1z"/></svg>