<?xml version="1.0" encoding="utf-8"?>
<!-- Generator: Adobe Illustrator 21.1.0, SVG Export Plug-In . SVG Version: 6.00 Build 0)  -->
<svg version="1.1" id="Warstwa_1" xmlns="http://www.w3.org/2000/svg" xmlns:xlink="http://www.w3.org/1999/xlink" x="0px" y="0px"
	 viewBox="0 0 512 512" style="enable-background:new 0 0 512 512;" xml:space="preserve">
<style type="text/css">
	.st0{fill:#00529B;}
	.st1{fill:#FFFFFF;}
	.st2{fill:#EE3424;}
</style>
<g>
	<path class="st0" d="M128,34.4C69.3,68.2,25.3,124.8,8,191.9h120V34.4z"/>
	<path class="st0" d="M256,191.9h247.9C475.5,81.6,375.4,0.1,256.2,0H256V191.9z"/>
	<path class="st0" d="M256,512h0.2c119.2-0.1,219.4-81.7,247.8-192.1H256V512z"/>
	<path class="st0" d="M8,320.1c17.3,67.2,61.3,123.7,120,157.7V320.1H8z"/>
	<path class="st1" d="M256,320.1h247.9c2.6-10.4,4.7-21.1,6-32H224V510c10.4,1.3,21.2,2,32,2l0,0V320.1z"/>
	<path class="st1" d="M2,288c1.3,10.8,3.3,21.6,6,32h120v157.7c10.2,5.9,21,11.1,32,15.7V288H2z"/>
	<path class="st1" d="M510,224c-1.3-10.9-3.3-21.6-6-32H256V0l0,0c-10.8,0-21.6,0.7-32,2V224H510z"/>
	<path class="st1" d="M160,18.6c-11,4.5-21.8,9.7-32,15.7v157.7H8c-2.6,10.4-4.7,21.1-6,32h158L160,18.6L160,18.6z"/>
	<path class="st2" d="M510,288c1.3-10.5,2-21.2,2-32s-0.7-21.5-2-32H224V2c-22.4,2.8-43.9,8.4-64.1,16.6V224H2
		c-1.3,10.4-2,21.2-2,32s0.7,21.5,2,32h158v205.3c20.2,8.2,41.7,13.8,64.1,16.6V288H510z"/>
</g>
</svg>
