<?xml version="1.0" encoding="utf-8"?>
<!-- Generator: Adobe Illustrator 21.1.0, SVG Export Plug-In . SVG Version: 6.00 Build 0)  -->
<svg version="1.1" id="Warstwa_1" xmlns="http://www.w3.org/2000/svg" xmlns:xlink="http://www.w3.org/1999/xlink" x="0px" y="0px"
	 viewBox="0 0 512 512" style="enable-background:new 0 0 512 512;" xml:space="preserve">
<style type="text/css">
	.st0{fill:#138808;}
	.st1{fill:#FF9933;}
	.st2{fill:#FFFFFF;}
	.st3{fill:#000066;}
</style>
<g>
	<path class="st0" d="M256,512c103.3,0,192.3-61.2,232.7-149.4H23.3C63.7,450.8,152.7,512,256,512z"/>
	<path class="st1" d="M256,0C152.7,0,63.7,61.2,23.3,149.3h465.5C448.3,61.2,359.3,0,256,0z"/>
	<path class="st2" d="M0,256c0,38.1,8.4,74.2,23.3,106.7h465.5c14.9-32.4,23.3-68.6,23.3-106.7s-8.4-74.2-23.3-106.6H23.3
		C8.3,181.8,0,217.9,0,256z"/>
	<g>
		<path class="st3" d="M330.2,228.6c-2,0.5-4.2-0.6-4.7-2.6c-0.5-2,0.6-4.1,2.6-4.7c2-0.5,4.1,0.7,4.7,2.6
			C333.4,226,332.2,228,330.2,228.6z"/>
		<path class="st3" d="M334.7,248.7c-2.1,0-3.7-1.6-3.7-3.7c0-2.1,1.6-3.7,3.7-3.7c2,0,3.7,1.6,3.7,3.7
			C338.5,247.1,336.8,248.7,334.7,248.7z"/>
		<path class="st3" d="M333.9,269.4c-2-0.5-3.2-2.6-2.6-4.7c0.5-2,2.6-3.1,4.7-2.6c2,0.5,3.1,2.6,2.6,4.6
			C338,268.8,336,269.9,333.9,269.4z"/>
		<path class="st3" d="M327.8,289.1c-1.8-1-2.4-3.3-1.3-5.2c1-1.8,3.3-2.4,5.2-1.3c1.8,1,2.4,3.3,1.3,5.2
			C331.9,289.5,329.6,290.2,327.8,289.1z"/>
		<path class="st3" d="M330.2,228.6c-2,0.5-4.2-0.6-4.7-2.6c-0.5-2,0.6-4.1,2.6-4.7c2-0.5,4.1,0.7,4.7,2.6
			C333.4,226,332.2,228,330.2,228.6z"/>
		<path class="st3" d="M334.7,248.7c-2.1,0-3.7-1.6-3.7-3.7c0-2.1,1.6-3.7,3.7-3.7c2,0,3.7,1.6,3.7,3.7
			C338.5,247.1,336.8,248.7,334.7,248.7z"/>
		<path class="st3" d="M333.9,269.4c-2-0.5-3.2-2.6-2.6-4.7c0.5-2,2.6-3.1,4.7-2.6c2,0.5,3.1,2.6,2.6,4.6
			C338,268.8,336,269.9,333.9,269.4z"/>
		<path class="st3" d="M327.8,289.1c-1.8-1-2.4-3.3-1.3-5.2c1-1.8,3.3-2.4,5.2-1.3c1.8,1,2.4,3.3,1.3,5.2
			C331.9,289.5,329.6,290.2,327.8,289.1z"/>
		<g>
			<path class="st3" d="M248.8,177.3c0,2.1-1.7,3.7-3.7,3.7s-3.7-1.7-3.7-3.7c0-2.1,1.7-3.7,3.7-3.7S248.8,175.1,248.8,177.3z"/>
			<path class="st3" d="M269.4,178.1c-0.5,2-2.6,3.2-4.6,2.6c-2-0.5-3.2-2.6-2.6-4.7c0.5-2,2.6-3.2,4.6-2.6
				C268.8,174,269.9,176,269.4,178.1z"/>
			<path class="st3" d="M289.1,184.1c-1,1.8-3.3,2.4-5.2,1.4c-1.8-1-2.4-3.3-1.4-5.2s3.3-2.4,5.2-1.4
				C289.5,180.1,290.2,182.4,289.1,184.1z"/>
			<path class="st3" d="M306.6,195.2c-1.4,1.5-3.9,1.4-5.4,0c-1.4-1.5-1.4-3.9,0-5.4c1.5-1.5,3.9-1.5,5.4,0
				C308.1,191.3,308.1,193.7,306.6,195.2z"/>
			<path class="st3" d="M320.6,210.3c-1.8,1-4.2,0.4-5.2-1.3c-1-1.8-0.4-4.2,1.4-5.2s4.2-0.4,5.2,1.4
				C323,206.9,322.4,209.3,320.6,210.3z"/>
			<path class="st3" d="M316.8,306.6c-1.5-1.5-1.5-3.9,0-5.4c1.4-1.5,3.9-1.5,5.3,0c1.5,1.5,1.5,3.9,0,5.4
				C320.7,308,318.2,308,316.8,306.6z"/>
			<path class="st3" d="M301.6,320.6c-1.1-1.8-0.5-4.2,1.3-5.2s4.2-0.4,5.2,1.4c1,1.8,0.4,4.1-1.4,5.2
				C304.9,323,302.6,322.4,301.6,320.6z"/>
			<path class="st3" d="M283.4,330.2c-0.5-2,0.7-4.1,2.6-4.6c2-0.5,4.1,0.6,4.7,2.6c0.5,2-0.7,4.1-2.6,4.6
				C285.9,333.3,283.9,332.1,283.4,330.2z"/>
			<path class="st3" d="M263.2,334.7c0-2.1,1.7-3.7,3.7-3.7c2.1,0,3.9,1.6,3.9,3.7s-1.7,3.7-3.9,3.7
				C264.9,338.5,263.2,336.8,263.2,334.7z"/>
			<path class="st3" d="M242.6,333.9c0.5-2,2.6-3.2,4.6-2.7c2,0.5,3.2,2.6,2.6,4.7c-0.5,2-2.6,3.1-4.6,2.6
				C243.2,338,242.1,335.9,242.6,333.9z"/>
			<path class="st3" d="M222.9,327.8c1-1.8,3.3-2.4,5.2-1.3c1.8,1,2.4,3.3,1.4,5.2c-1,1.8-3.3,2.4-5.2,1.3
				C222.5,331.9,221.8,329.6,222.9,327.8z"/>
			<path class="st3" d="M205.4,316.8c1.5-1.5,3.9-1.5,5.4,0c1.5,1.4,1.5,3.9,0,5.3c-1.5,1.5-3.9,1.5-5.4,0
				C203.9,320.6,203.9,318.2,205.4,316.8z"/>
			<path class="st3" d="M191.3,301.6c1.8-1,4.2-0.4,5.2,1.4s0.4,4.2-1.4,5.2c-1.8,1-4.1,0.4-5.2-1.4
				C189,305,189.6,302.6,191.3,301.6z"/>
			<path class="st3" d="M181.8,283.4c2-0.5,4.1,0.7,4.7,2.7c0.5,2-0.6,4.1-2.6,4.7c-2,0.5-4.1-0.7-4.6-2.6
				C178.7,285.9,179.8,283.9,181.8,283.4z"/>
			<path class="st3" d="M177.3,263.2c2.1,0,3.7,1.7,3.7,3.7c0,2.1-1.7,3.9-3.7,3.7c-2,0-3.7-1.6-3.7-3.7
				C173.5,264.9,175.1,263.2,177.3,263.2z"/>
			<path class="st3" d="M178.1,242.5c2,0.5,3.2,2.6,2.6,4.7c-0.5,2-2.6,3.2-4.7,2.6c-2-0.5-3.1-2.6-2.7-4.6
				C174,243.2,176,242,178.1,242.5z"/>
			<path class="st3" d="M184.1,222.9c1.8,1.1,2.4,3.3,1.4,5.2c-1,1.8-3.3,2.4-5.2,1.4c-1.8-1-2.3-3.3-1.4-5.2
				C180.1,222.5,182.4,221.8,184.1,222.9z"/>
			<path class="st3" d="M195.2,205.4c1.5,1.5,1.5,3.9,0,5.4c-1.4,1.5-3.9,1.5-5.4,0c-1.4-1.5-1.4-3.9,0-5.4
				C191.3,203.9,193.8,203.9,195.2,205.4z"/>
			<path class="st3" d="M210.3,191.3c1,1.8,0.4,4.2-1.3,5.2c-1.8,1-4.2,0.4-5.2-1.4c-1-1.8-0.4-4.2,1.3-5.2
				C207,189,209.4,189.6,210.3,191.3z"/>
			<path class="st3" d="M228.6,181.8c0.5,2-0.7,4.1-2.6,4.7c-2,0.6-4.2-0.7-4.7-2.7c-0.5-2,0.6-4.1,2.6-4.7
				C226.1,178.6,228.1,179.8,228.6,181.8z"/>
			<g>
				<polygon class="st3" points="254.3,255.7 256.6,224.3 254.2,176.8 251.9,224.3 				"/>
				<polygon class="st3" points="254.3,255.7 264.7,225.9 274.5,179.5 260.2,224.7 				"/>
				<polygon class="st3" points="254.3,255.7 272,229.5 293.6,187.3 268,227.3 				"/>
				<polygon class="st3" points="254.3,255.7 278.2,235.1 310,199.8 274.8,231.8 				"/>
				<polygon class="st3" points="254.3,255.7 282.7,241.9 322.6,216.1 280.4,237.9 				"/>
				<polygon class="st3" points="254.3,255.7 285.4,249.7 330.5,235.1 284.1,245.3 				"/>
				<polygon class="st3" points="254.3,255.7 285.8,258 333.2,255.5 285.8,253.3 				"/>
				<polygon class="st3" points="254.3,255.7 284.2,266 330.7,276 285.4,261.6 				"/>
				<polygon class="st3" points="254.3,255.7 280.5,273.4 322.8,295 282.8,269.4 				"/>
				<polygon class="st3" points="254.3,255.7 275.1,279.6 310.3,311.4 278.3,276.3 				"/>
				<polygon class="st3" points="254.3,255.7 268.2,284.2 294,324 272.2,281.8 				"/>
				<polygon class="st3" points="254.3,255.7 260.4,286.7 275,331.9 264.8,285.6 				"/>
				<polygon class="st3" points="254.3,255.7 252,287.2 254.6,334.6 256.8,287.2 				"/>
				<polygon class="st3" points="254.3,255.7 244,285.6 234.1,332 248.5,286.8 				"/>
				<polygon class="st3" points="254.3,255.7 236.6,281.8 215.2,324.2 240.7,284.2 				"/>
				<polygon class="st3" points="254.3,255.7 230.5,276.4 198.7,311.7 233.8,279.7 				"/>
				<polygon class="st3" points="254.3,255.7 226,269.6 186.1,295.4 228.3,273.6 				"/>
				<polygon class="st3" points="254.3,255.7 223.4,261.8 178.2,276.4 224.6,266.2 				"/>
				<polygon class="st3" points="254.3,255.7 222.9,253.5 175.4,256 222.9,258.2 				"/>
				<polygon class="st3" points="254.3,255.7 224.5,245.5 178.1,235.6 223.3,249.9 				"/>
				<polygon class="st3" points="254.3,255.7 228.2,238.1 185.9,216.5 225.9,242.1 				"/>
				<polygon class="st3" points="254.3,255.7 233.7,231.9 198.4,200.2 230.4,235.2 				"/>
				<polygon class="st3" points="254.3,255.7 240.5,227.3 214.7,187.6 236.4,229.7 				"/>
				<polygon class="st3" points="254.3,255.7 248.4,224.8 233.7,179.6 243.8,226 				"/>
			</g>
			<g>
				<path class="st3" d="M279.2,169.5c-47.7-12.8-96.9,15.5-109.8,63.3c-12.8,47.8,15.6,96.9,63.3,109.8
					c47.8,12.8,96.9-15.5,109.8-63.3C355.3,231.4,326.9,182.3,279.2,169.5z M235.4,332.7c-42.4-11.4-67.5-54.9-56.1-97.2
					c11.4-42.4,54.8-67.5,97.2-56.1c42.3,11.4,67.5,54.8,56.1,97.2C321.4,318.8,277.8,344,235.4,332.7z"/>
				<path class="st3" d="M271.4,260.2c-2.3,8.5-11,13.6-19.6,11.2c-8.5-2.2-13.6-11-11.2-19.6c2.3-8.5,11-13.6,19.6-11.2
					C268.7,242.8,273.6,251.6,271.4,260.2z"/>
			</g>
			<path class="st3" d="M289.1,184.1c-1,1.8-3.3,2.4-5.2,1.4c-1.8-1-2.4-3.3-1.4-5.2s3.3-2.4,5.2-1.4
				C289.5,180.1,290.2,182.4,289.1,184.1z"/>
			<path class="st3" d="M306.6,195.2c-1.4,1.5-3.9,1.4-5.4,0c-1.4-1.5-1.4-3.9,0-5.4c1.5-1.5,3.9-1.5,5.4,0
				C308.1,191.3,308.1,193.7,306.6,195.2z"/>
			<path class="st3" d="M320.6,210.3c-1.8,1-4.2,0.4-5.2-1.3c-1-1.8-0.4-4.2,1.4-5.2s4.2-0.4,5.2,1.4
				C323,206.9,322.4,209.3,320.6,210.3z"/>
			<path class="st3" d="M316.8,306.6c-1.5-1.5-1.5-3.9,0-5.4c1.4-1.5,3.9-1.5,5.3,0c1.5,1.5,1.5,3.9,0,5.4
				C320.7,308,318.2,308,316.8,306.6z"/>
			<path class="st3" d="M301.6,320.6c-1.1-1.8-0.5-4.2,1.3-5.2s4.2-0.4,5.2,1.4c1,1.8,0.4,4.1-1.4,5.2
				C304.9,323,302.6,322.4,301.6,320.6z"/>
			<path class="st3" d="M283.4,330.2c-0.5-2,0.7-4.1,2.6-4.6c2-0.5,4.1,0.6,4.7,2.6c0.5,2-0.7,4.1-2.6,4.6
				C285.9,333.3,283.9,332.1,283.4,330.2z"/>
			<path class="st3" d="M263.2,334.7c0-2.1,1.7-3.7,3.7-3.7c2.1,0,3.9,1.6,3.9,3.7s-1.7,3.7-3.9,3.7
				C264.9,338.5,263.2,336.8,263.2,334.7z"/>
			<path class="st3" d="M242.6,333.9c0.5-2,2.6-3.2,4.6-2.7c2,0.5,3.2,2.6,2.6,4.7c-0.5,2-2.6,3.1-4.6,2.6
				C243.2,338,242.1,335.9,242.6,333.9z"/>
			<path class="st3" d="M222.9,327.8c1-1.8,3.3-2.4,5.2-1.3c1.8,1,2.4,3.3,1.4,5.2c-1,1.8-3.3,2.4-5.2,1.3
				C222.5,331.9,221.8,329.6,222.9,327.8z"/>
			<path class="st3" d="M205.4,316.8c1.5-1.5,3.9-1.5,5.4,0c1.5,1.4,1.5,3.9,0,5.3c-1.5,1.5-3.9,1.5-5.4,0
				C203.9,320.6,203.9,318.2,205.4,316.8z"/>
			<path class="st3" d="M191.3,301.6c1.8-1,4.2-0.4,5.2,1.4s0.4,4.2-1.4,5.2c-1.8,1-4.1,0.4-5.2-1.4
				C189,305,189.6,302.6,191.3,301.6z"/>
			<path class="st3" d="M181.8,283.4c2-0.5,4.1,0.7,4.7,2.7c0.5,2-0.6,4.1-2.6,4.7c-2,0.5-4.1-0.7-4.6-2.6
				C178.7,285.9,179.8,283.9,181.8,283.4z"/>
			<path class="st3" d="M177.3,263.2c2.1,0,3.7,1.7,3.7,3.7c0,2.1-1.7,3.9-3.7,3.7c-2,0-3.7-1.6-3.7-3.7
				C173.5,264.9,175.1,263.2,177.3,263.2z"/>
			<path class="st3" d="M178.1,242.5c2,0.5,3.2,2.6,2.6,4.7c-0.5,2-2.6,3.2-4.7,2.6c-2-0.5-3.1-2.6-2.7-4.6
				C174,243.2,176,242,178.1,242.5z"/>
			<path class="st3" d="M184.1,222.9c1.8,1.1,2.4,3.3,1.4,5.2c-1,1.8-3.3,2.4-5.2,1.4c-1.8-1-2.3-3.3-1.4-5.2
				C180.1,222.5,182.4,221.8,184.1,222.9z"/>
			<path class="st3" d="M195.2,205.4c1.5,1.5,1.5,3.9,0,5.4c-1.4,1.5-3.9,1.5-5.4,0c-1.4-1.5-1.4-3.9,0-5.4
				C191.3,203.9,193.8,203.9,195.2,205.4z"/>
			<path class="st3" d="M210.3,191.3c1,1.8,0.4,4.2-1.3,5.2c-1.8,1-4.2,0.4-5.2-1.4c-1-1.8-0.4-4.2,1.3-5.2
				C207,189,209.4,189.6,210.3,191.3z"/>
			<path class="st3" d="M228.6,181.8c0.5,2-0.7,4.1-2.6,4.7c-2,0.6-4.2-0.7-4.7-2.7c-0.5-2,0.6-4.1,2.6-4.7
				C226.1,178.6,228.1,179.8,228.6,181.8z"/>
			<path class="st3" d="M248.8,177.3c0,2.1-1.7,3.7-3.7,3.7s-3.7-1.7-3.7-3.7c0-2.1,1.7-3.7,3.7-3.7S248.8,175.1,248.8,177.3z"/>
		</g>
	</g>
</g>
</svg>
