<?xml version="1.0" encoding="utf-8"?>
<!-- Generator: Adobe Illustrator 21.1.0, SVG Export Plug-In . SVG Version: 6.00 Build 0)  -->
<svg version="1.1" id="Warstwa_1" xmlns="http://www.w3.org/2000/svg" xmlns:xlink="http://www.w3.org/1999/xlink" x="0px" y="0px"
	 viewBox="0 0 512 512" style="enable-background:new 0 0 512 512;" xml:space="preserve">
<style type="text/css">
	.st0{fill:#CE1126;}
	.st1{fill:#FFFFFF;}
	.st2{fill:#009E49;}
</style>
<g>
	<g>
		<path d="M256,512c103.3,0,192.3-61.2,232.7-149.4H23.2C63.7,450.8,152.7,512,256,512z"/>
		<path class="st0" d="M256,0C152.7,0,63.7,61.2,23.2,149.3h465.5C448.3,61.2,359.3,0,256,0z"/>
		<path class="st1" d="M0,256c0,38.1,8.4,74.2,23.3,106.6h465.5c14.9-32.4,23.3-68.6,23.3-106.6c0-38.1-8.4-74.2-23.3-106.7H23.2
			C8.3,181.8,0,217.9,0,256z"/>
	</g>
	<g>
		<g>
			<g>
				<path class="st2" d="M387.2,202.2c-2.2,0.4-13,11.7-13,12.9c0,2.2,3.4,2.4,3.4,4.3c0,2.9,0,5.8,0,8.7c0,13.8,0,27.6,0,41.3
					c0,6.9,2.8,12.7-4.9,12.4c-7.2-0.2-4.9-3-4.9-10.1c0-7.8,3.9-49.3-0.6-51.7c-2.6-1.4-13.9,14.1-13.3,14.1c3,0,2.6,5.6,2.6,7.2
					c0.4,12.7,0.2,25.4,0.2,38.2c0,4.1-3.9,2.4-7.2,2.4c-4.6,0-2.4-7.3-2.4-11c0-4.6,0.2-33.1-0.5-33.1c-2.3,0-15.8,13.9-12.6,14.9
					c3.4,1.1,2.1,8.9,1.7,11.8c-14.7-2.1-19.8,6.9-20.3,19.9c-0.1,2.9-0.2,5.9-0.3,8.8c6.6,0,73.5,2.5,73.5,0
					C388.8,283.8,387.7,202.1,387.2,202.2z M326.5,280.6c0-6.5,11-12.4,9.6-3.2C338,285.1,326.5,281.7,326.5,280.6z"/>
				<path class="st2" d="M396.4,256.9c0-3.7-3.1-34,0.8-36.4c0.9-0.6,16.4,10.7,12.1,14.5c-4.5,3.9-1.8,19.6-1.8,24.2
					c0,7.3,0,14.5,0,21.8c0,4.1,19.4-2.3,19.2-2.5c0.7,0.7-2.3,8.9-2.4,10.1c-2.8,4.4,0.1,3.9-7.3,3.9c-6.9,0.1-13.7,0.2-20.5,0.3
					C396.4,280.9,396.4,269,396.4,256.9z"/>
				<path class="st2" d="M341.9,219.3c-2-0.1-3.1-1-3.2-2.4c3.5-0.7,6.7,1.2,10.2-0.5c1.4-0.7,3.7-4.2,5.4-4.7
					c0.7-0.2,5.3,1.8,6,1.9c4,0.7,4.7-6.6,5.7-6.5c5.4,0.9,0.4,9.9-3.9,9.9C355.4,217.2,348.2,221.6,341.9,219.3z"/>
				<path class="st2" d="M350.4,208c-1.5-1-8.3-10.4-4.1-11C351.4,196.2,351.2,208.5,350.4,208z"/>
			</g>
			<g>
				<path class="st2" d="M93.7,310.3c-3.1-1.1-7.2-4.9-8.5-7.8c3.3,7.4,18.5-0.5,19.7-6.8c1-6.4-9.5-14.5-3-17.5
					c8-3.5,7-13,11.7,0.9c1.8,5.4,9.3,3.2,14.4,3.2c-1.7-4.1-5.9-7.4-1.6-10.4c2.1-1.4,9.8-11.7,11.4-11.7c4.4,0-6,22,6,22
					c12.5,0,24.8,0,37.2,0c9.6,0,19.4,0,29,0c15.8,0,14.5,1.2,14.5-14.9c0-4.6,3.1-19.6-4.8-19.6c-8.1-0.1-4.9,20.3-4.9,25
					c0,2.9-72.3,0.3-72.3,0.9c0-7.9,18.7-25.6,24-32.5c4.3-5.6,8.5-11.1,12.7-16.8c3.2-4.5,15.8-27.5,21.3-28.2
					c-0.6,0.1,7.9,15.6,1.2,15.8c-2,0.1-4.7,4.5-5.7,5.7c-10.3,12.9-27.4,29.2-33.4,44.7c2.3-5.2,36.1,5.4,41.2,0.5
					c3.2-3-2.7-12.9,1.7-16.7c3-2.5,12.4-11.7,16.2-9c14.9,9.8,13.7,13.3,13.7,30.7c0,4.2,1.2,25.3-1.1,25.3c-21.7,0-43.3,0-65,0
					c-15,0-29.9,0-44.9,0c-3.6,0-8.2-1.6-9.2,2.2C112.4,305.7,105.6,314.7,93.7,310.3z"/>
				<path class="st2" d="M242.9,257.6c0-3.7-3.1-33.7,0.7-36.3c1.3-0.8,16,10.7,12,14.6c-4.4,4.1-1.7,19.3-1.7,24c0,6.7,0,13.4,0,20
					s14.9,0.2,18.6-0.6c0.4-0.1-1.9,9-2,9.8c-2.9,4.3,0.1,3.7-7.2,3.9c-6.8,0.1-13.6,0.2-20.4,0.3
					C242.9,281.5,242.9,269.6,242.9,257.6z"/>
				<path class="st2" d="M134.7,308.4c0,4.1-3.3,7.4-7.4,7.4s-7.3-3.3-7.3-7.4c0-4.1,3.2-7.4,7.3-7.4
					C131.3,301,134.7,304.2,134.7,308.4z"/>
			</g>
		</g>
	</g>
</g>
</svg>
