<?xml version="1.0" encoding="utf-8"?>
<!-- Generator: Adobe Illustrator 21.1.0, SVG Export Plug-In . SVG Version: 6.00 Build 0)  -->
<svg version="1.1" id="Warstwa_1" xmlns="http://www.w3.org/2000/svg" xmlns:xlink="http://www.w3.org/1999/xlink" x="0px" y="0px"
	 viewBox="0 0 512 512" style="enable-background:new 0 0 512 512;" xml:space="preserve">
<style type="text/css">
	.st0{fill:#007A3D;}
	.st1{fill:#FFFFFF;}
	.st2{fill:#CE1126;}
</style>
<g>
	<g>
		<path class="st0" d="M43,398c45.9,68.7,124.1,114,213,114c111,0,205.2-70.7,240.8-169.6H126.3L43,398z"/>
		<path class="st1" d="M256,256l-129.7,86.4h370.5c9.7-27.1,15.3-56,15.3-86.4c0-30.4-5.6-59.4-15.3-86.4H126.3L256,256z"/>
		<path d="M496.7,169.6C461.2,70.7,367,0,256,0C167.1,0,88.9,45.3,43,114l83.3,55.5H496.7z"/>
		<polygon points="126.3,169.6 496.8,169.6 496.7,169.6 		"/>
		<path class="st2" d="M126.3,169.6L126.3,169.6L43,114c-11.5,17.1-20.6,35.8-27.8,55.5l0,0C5.6,196.6,0,225.6,0,256
			s5.6,59.4,15.3,86.4c7.1,19.7,16.3,38.4,27.8,55.5l83.3-55.5L256,256L126.3,169.6z"/>
	</g>
	<polygon class="st1" points="93,226 99.5,244.1 117.7,237.9 107.5,254.3 123.8,264.6 104.7,266.8 106.7,286 93,272.4 79.4,286 
		81.4,266.8 62.3,264.6 78.5,254.3 68.4,237.9 86.5,244.1 	"/>
</g>
</svg>
