<?xml version="1.0" encoding="utf-8"?>
<!-- Generator: Adobe Illustrator 21.1.0, SVG Export Plug-In . SVG Version: 6.00 Build 0)  -->
<svg version="1.1" id="Warstwa_1" xmlns="http://www.w3.org/2000/svg" xmlns:xlink="http://www.w3.org/1999/xlink" x="0px" y="0px"
	 viewBox="0 0 512 512" style="enable-background:new 0 0 512 512;" xml:space="preserve">
<style type="text/css">
	.st0{fill:#009530;}
</style>
<path class="st0" d="M512.3,255.7C512.3,397.3,397.5,512,256,512C114.4,512-0.3,397.3-0.3,255.7S114.4-0.6,256-0.6
	S512.3,114.1,512.3,255.7z"/>
</svg>
