<?xml version="1.0" encoding="utf-8"?>
<!-- Generator: Adobe Illustrator 21.1.0, SVG Export Plug-In . SVG Version: 6.00 Build 0)  -->
<svg version="1.1" id="Warstwa_1" xmlns="http://www.w3.org/2000/svg" xmlns:xlink="http://www.w3.org/1999/xlink" x="0px" y="0px"
	 viewBox="0 0 512 512" style="enable-background:new 0 0 512 512;" xml:space="preserve">
<style type="text/css">
	.st0{fill:#E8A60D;}
	.st1{fill:#0E5A3F;}
	.st2{fill:#AB2034;}
</style>
<g>
	<path class="st0" d="M256-0.1C152.6-0.1,63.7,61.1,23.2,149.3h465.5C448.3,61.2,359.3-0.1,256-0.1z"/>
	<path class="st1" d="M0,256c0,38.1,8.4,74.2,23.3,106.7h465.5c14.9-32.5,23.3-68.6,23.3-106.7c0-38.1-8.4-74.2-23.3-106.7H23.3
		C8.3,181.8,0,217.9,0,256z"/>
	<path class="st2" d="M256,512c103.3,0,192.3-61.2,232.7-149.4H23.3C63.7,450.8,152.7,512,256,512z"/>
</g>
</svg>
