<?xml version="1.0" encoding="utf-8"?>
<!-- Generator: Adobe Illustrator 21.1.0, SVG Export Plug-In . SVG Version: 6.00 Build 0)  -->
<svg version="1.1" id="Warstwa_1" xmlns="http://www.w3.org/2000/svg" xmlns:xlink="http://www.w3.org/1999/xlink" x="0px" y="0px"
	 viewBox="0 0 512 512" style="enable-background:new 0 0 512 512;" xml:space="preserve">
<style type="text/css">
	.st0{fill:#CE2028;}
	.st1{fill:#F9D616;}
	.st2{fill:#D12026;}
</style>
<g>
	<path class="st0" d="M244.5,179.7L217.9,2.1C160.2,10.8,108.7,38.6,70.3,79l129.9,123.7C211.9,190.5,227.3,182.3,244.5,179.7z"/>
	<path class="st0" d="M311.6,202.7L441.6,79C403.2,38.5,351.8,10.8,294,2.1l-26.7,177.6C284.7,182.3,300.1,190.5,311.6,202.7z"/>
	<path class="st0" d="M267.4,331.6L294,509.2c57.8-8.5,109.1-36.5,147.6-76.8L311.6,308.6C300.1,320.8,284.7,329.1,267.4,331.6z"/>
	<path class="st0" d="M179.8,265.8L1.9,289.5c5.3,39.7,19.5,76.5,40.7,108.3L192,298.4C185.7,288.7,181.4,277.7,179.8,265.8z"/>
	<path class="st0" d="M200.4,308.6L70.4,432.4c38.4,40.3,89.8,68.2,147.6,76.7l26.7-177.6C227.3,329.1,211.9,320.8,200.4,308.6z"/>
	<path class="st0" d="M192.1,213L42.7,113.4C21.4,145.2,7.2,182,1.9,221.8l177.9,23.7C181.4,233.6,185.7,222.6,192.1,213z"/>
	<path class="st0" d="M332.2,245.5l177.9-23.7c-5.3-39.7-19.5-76.5-40.7-108.3l-149.4,99.5C326.3,222.6,330.6,233.6,332.2,245.5z"/>
	<path class="st0" d="M319.9,298.3l149.3,99.5c21.3-31.7,35.5-68.6,40.7-108.3l-177.9-23.7C330.6,277.7,326.3,288.7,319.9,298.3z"/>
	<path class="st1" d="M311.6,308.6l129.9,123.7c10.1-10.6,19.5-22.2,27.8-34.6L320,298.3C317.5,302,314.7,305.5,311.6,308.6z"/>
	<path class="st1" d="M200.4,202.7L70.4,79C60.2,89.7,51,101.2,42.7,113.5L192,213C194.5,209.3,197.3,205.8,200.4,202.7z"/>
	<path class="st1" d="M267.4,331.6c-3.6,0.5-7.5,0.9-11.4,0.9c-3.9,0-7.7-0.4-11.5-0.9l-26.7,177.6c12.5,1.8,25.1,2.8,38,2.8
		c12.9,0,25.6-0.9,38-2.8L267.4,331.6z"/>
	<path class="st1" d="M256,178.8c3.9,0,7.7,0.4,11.4,0.9L294,2.1c-12.3-1.8-24.8-2.8-37.7-2.8h-0.6c-12.9,0-25.4,1-37.7,2.8
		l26.7,177.6C248.3,179.1,252.1,178.8,256,178.8z"/>
	<path class="st1" d="M319.9,213l149.4-99.5c-8.2-12.3-17.5-23.8-27.8-34.6L311.6,202.7C314.7,205.8,317.5,209.3,319.9,213z"/>
	<path class="st1" d="M192.1,298.3L42.7,397.9c8.2,12.4,17.5,23.9,27.8,34.6l129.9-123.7C197.3,305.5,194.5,302,192.1,298.3z"/>
	<path class="st1" d="M332.9,255.6c0,3.4-0.3,6.8-0.7,10.1l177.9,23.7c1.5-11,2.3-22.4,2.3-33.8c0-11.5-0.8-22.8-2.3-33.8
		l-177.9,23.7C332.6,248.8,332.9,252.2,332.9,255.6z"/>
	<path class="st1" d="M179.1,255.6c0-3.4,0.3-6.8,0.7-10.1L1.9,221.8c-1.4,11.1-2.3,22.4-2.3,33.8c0,11.5,0.8,22.8,2.3,33.8
		l177.9-23.7C179.4,262.5,179.1,259.1,179.1,255.6z"/>
	<path class="st2" d="M311.6,308.6c3-3.2,5.9-6.7,8.3-10.3c6.4-9.5,10.6-20.6,12.2-32.5c0.4-3.3,0.7-6.7,0.7-10.1
		c0-3.4-0.3-6.8-0.7-10.1c-1.6-11.9-5.9-23-12.2-32.5c-2.4-3.6-5.3-7.1-8.3-10.3c-11.6-12.1-27-20.4-44.3-23
		c-3.6-0.5-7.5-0.9-11.4-0.9c-3.9,0-7.7,0.4-11.5,0.9c-17.3,2.6-32.7,10.8-44.3,23c-3,3.2-5.9,6.7-8.3,10.3
		c-6.4,9.5-10.6,20.6-12.2,32.5c-0.4,3.3-0.7,6.7-0.7,10.1c0,3.4,0.3,6.8,0.7,10.1c1.6,12,5.9,22.9,12.2,32.5
		c2.4,3.6,5.3,7.1,8.3,10.3c11.6,12.1,27,20.4,44.3,23c3.7,0.5,7.5,0.9,11.5,0.9c3.9,0,7.7-0.4,11.4-0.9
		C284.7,329.1,300.1,320.8,311.6,308.6z M256,319.8c-35.4,0-64.2-28.7-64.2-64.2c0-35.4,28.7-64,64.2-64c35.4,0,64,28.7,64,64
		C320,291.1,291.4,319.8,256,319.8z"/>
	<path class="st1" d="M320,255.6c0-35.4-28.7-64-64-64c-35.4,0-64.2,28.7-64.2,64s28.7,64.2,64.2,64.2
		C291.4,319.8,320,291.1,320,255.6z"/>
</g>
</svg>
