<?xml version="1.0" encoding="utf-8"?>
<!-- Generator: Adobe Illustrator 21.1.0, SVG Export Plug-In . SVG Version: 6.00 Build 0)  -->
<svg version="1.1" id="Warstwa_1" xmlns="http://www.w3.org/2000/svg" xmlns:xlink="http://www.w3.org/1999/xlink" x="0px" y="0px"
	 viewBox="0 0 512 512" style="enable-background:new 0 0 512 512;" xml:space="preserve">
<style type="text/css">
	.st0{fill:#339E35;}
	.st1{fill:#CE1126;}
</style>
<g>
	<path class="st0" d="M256,512c103.4,0,192.3-61.2,232.8-149.4H23.3C63.7,450.8,152.7,512,256,512z"/>
	<path d="M256,0C152.7,0,63.7,61.2,23.3,149.3h465.5C448.3,61.2,359.4,0,256,0z"/>
	<path class="st1" d="M0,256c0,38.1,8.4,74.2,23.3,106.7h465.5c14.9-32.5,23.3-68.6,23.3-106.7s-8.3-74.2-23.3-106.7H23.3
		C8.3,181.8,0,217.9,0,256z"/>
</g>
<g>
	<path class="st1" d="M260,28.4c0-4.3-1.1-8.4-3.9-8.4c-2.8,0-3.9,4.2-3.9,8.4c0,10.2,3.9,32.7,3.9,32.7S260,38.6,260,28.4z"/>
	<path class="st1" d="M247.8,61.4c0,0,1.9-22.7,1-32.9c-0.4-4.2-1.8-8.3-4.7-8c-2.8,0.2-3.5,4.6-3.1,8.7
		C241.9,39.4,247.8,61.4,247.8,61.4z"/>
	<path class="st1" d="M239.6,62.5c0,0,0-22.8-1.8-32.8c-0.7-4.2-2.5-8.1-5.3-7.6c-2.7,0.5-3.1,4.8-2.3,8.9
		C231.8,41,239.6,62.5,239.6,62.5z"/>
	<path class="st1" d="M231.5,64.4c0,0-2-22.7-4.7-32.6c-1.1-4.1-3.2-7.8-6-7.1c-2.7,0.7-2.6,5.1-1.6,9.1
		C221.9,43.6,231.5,64.4,231.5,64.4z"/>
	<path class="st1" d="M223.6,66.8c0,0-4.1-22.5-7.5-32c-1.4-4-4-7.5-6.6-6.6c-2.6,1-2.2,5.3-0.8,9.3C212.2,47,223.6,66.8,223.6,66.8
		z"/>
	<path class="st1" d="M216,69.9c0,0-6-22-10.2-31.2c-1.8-3.9-4.6-7.2-7.1-6c-2.5,1.2-1.7,5.5,0,9.2C202.9,51.3,216,69.9,216,69.9z"
		/>
	<path class="st1" d="M208.7,73.8c0,0-7.9-21.4-13-30.2c-2.1-3.6-5.2-6.7-7.6-5.4c-2.4,1.4-1.3,5.6,0.8,9.2
		C194,56.2,208.7,73.8,208.7,73.8z"/>
	<path class="st1" d="M201.7,78.2c0,0-9.7-20.7-15.6-29c-2.4-3.4-5.7-6.3-8-4.7c-2.3,1.6-0.8,5.7,1.6,9.1
		C185.6,62.1,201.7,78.2,201.7,78.2z"/>
	<path class="st1" d="M195.1,83.2c0,0-11.5-19.8-18-27.6c-2.7-3.2-6.3-5.7-8.4-4c-2.1,1.8-0.3,5.7,2.4,8.9
		C177.7,68.6,195.1,83.2,195.1,83.2z"/>
	<path class="st1" d="M189,88.9c0,0-13.2-18.6-20.4-25.8c-2.9-2.9-6.7-5.2-8.7-3.1c-2,2,0.2,5.7,3.2,8.7
		C170.4,75.7,189,88.9,189,88.9z"/>
	<path class="st1" d="M155.9,76.9c7.8,6.6,27.6,17.9,27.6,17.9s-14.7-17.4-22.5-23.9c-3.2-2.7-7.2-4.6-8.9-2.4
		C150.1,70.7,152.6,74.2,155.9,76.9z"/>
	<path class="st1" d="M149.4,85.9c8.4,5.9,29.1,15.5,29.1,15.5s-16.2-16.1-24.5-22c-3.4-2.3-7.5-4-9.1-1.6
		C143.1,80.3,145.9,83.5,149.4,85.9z"/>
	<path class="st1" d="M143.7,95.5c8.8,5.1,30.3,13,30.3,13s-17.6-14.6-26.5-19.7c-3.6-2.1-7.8-3.2-9.2-0.8
		C136.9,90.4,140.1,93.3,143.7,95.5z"/>
	<path class="st1" d="M138.8,105.6c9.2,4.3,31.3,10.2,31.3,10.2s-18.7-13.1-28-17.3c-3.9-1.7-8.1-2.5-9.2,0
		C131.7,101,135,103.8,138.8,105.6z"/>
	<path class="st1" d="M134.9,115.9c9.6,3.5,32,7.5,32,7.5s-19.9-11.4-29.4-14.8c-4-1.4-8.3-1.8-9.2,0.8
		C127.4,112,130.9,114.5,134.9,115.9z"/>
	<path class="st1" d="M124.8,120.7c-0.7,2.7,3,4.9,7.1,6c3.6,0.9,9.1,1.8,14.5,2.5h13.6c-6.7-2.9-19.1-8.3-26-10.1
		C129.9,118.1,125.5,118,124.8,120.7z"/>
	<path class="st1" d="M271,29.3c0.3-4.3-0.3-8.5-3.1-8.7c-2.8-0.2-4.3,3.9-4.7,8c-0.9,10.2,1,32.9,1,32.9S270.1,39.4,271,29.3z"/>
	<path class="st1" d="M279.6,22.1c-2.7-0.5-4.6,3.4-5.3,7.6c-1.8,10-1.8,32.8-1.8,32.8S280.3,41,282,31
		C282.7,26.9,282.3,22.6,279.6,22.1z"/>
	<path class="st1" d="M292.8,33.7c1.1-4.1,1.1-8.4-1.6-9.1c-2.7-0.7-4.9,3-6,7.1c-2.6,9.8-4.7,32.6-4.7,32.6S290.2,43.6,292.8,33.7z
		"/>
	<path class="st1" d="M303.2,37.4c1.4-4,1.8-8.3-0.8-9.3c-2.6-0.9-5.1,2.6-6.5,6.6c-3.4,9.6-7.5,32-7.5,32S299.8,47,303.2,37.4z"/>
	<path class="st1" d="M313.4,42.1c1.7-3.9,2.5-8.1,0-9.2c-2.5-1.2-5.3,2.1-7.1,6C302,48,296,70,296,70S309.1,51.3,313.4,42.1z"/>
	<path class="st1" d="M323.1,47.4c2.1-3.6,3.2-7.9,0.8-9.2c-2.4-1.4-5.5,1.7-7.6,5.4c-5.1,8.8-13,30.2-13,30.2S318,56.2,323.1,47.4z
		"/>
	<path class="st1" d="M332.3,53.7c2.4-3.4,4-7.5,1.6-9.1c-2.3-1.6-5.6,1.2-8,4.7c-5.8,8.3-15.6,29-15.6,29S326.4,62.1,332.3,53.7z"
		/>
	<path class="st1" d="M316.9,83.2c0,0,17.4-14.7,24-22.5c2.7-3.2,4.6-7.2,2.4-8.9c-2.1-1.8-5.7,0.7-8.4,4
		C328.4,63.5,316.9,83.2,316.9,83.2z"/>
	<path class="st1" d="M323,88.9c0,0,18.6-13.2,25.8-20.4c2.9-2.9,5.2-6.7,3.1-8.7s-5.7,0.2-8.7,3.1C336.2,70.1,323,88.9,323,88.9z"
		/>
	<path class="st1" d="M328.6,94.9c0,0,19.7-11.5,27.6-17.9c3.2-2.7,5.7-6.3,4-8.4c-1.8-2.1-5.7-0.2-8.9,2.4
		C343.4,77.5,328.6,94.9,328.6,94.9z"/>
	<path class="st1" d="M333.6,101.5c0,0,20.7-9.6,29-15.5c3.4-2.4,6.3-5.8,4.7-8c-1.6-2.3-5.7-0.8-9.1,1.6
		C349.8,85.4,333.6,101.5,333.6,101.5z"/>
	<path class="st1" d="M338.1,108.4c0,0,21.4-7.8,30.2-13c3.6-2.1,6.8-5.2,5.4-7.6c-1.4-2.4-5.6-1.2-9.2,0.8
		C355.6,93.8,338.1,108.4,338.1,108.4z"/>
	<path class="st1" d="M341.8,115.8c0,0,22-6,31.2-10.2c3.9-1.8,7.2-4.6,6-7.1c-1.2-2.5-5.4-1.7-9.2,0
		C360.6,102.8,341.8,115.8,341.8,115.8z"/>
	<path class="st1" d="M345,123.4c0,0,22.5-4.1,32-7.5c4-1.4,7.5-3.9,6.6-6.6c-1-2.6-5.3-2.2-9.2-0.8
		C364.8,112.1,345,123.4,345,123.4z"/>
	<path class="st1" d="M380,126.7c4.1-1.2,7.8-3.3,7.1-6c-0.7-2.7-5.1-2.6-9.1-1.6c-7,1.8-19.4,7.2-26,10.1h13.6
		C371,128.5,376.4,127.6,380,126.7z"/>
	<path class="st1" d="M256,73.2c-36.4,0-67.2,23.5-78.2,56.1h156.5C323.2,96.6,292.4,73.2,256,73.2z"/>
</g>
</svg>
