<?xml version="1.0" encoding="utf-8"?>
<!-- Generator: Adobe Illustrator 21.1.0, SVG Export Plug-In . SVG Version: 6.00 Build 0)  -->
<svg version="1.1" id="Warstwa_1" xmlns="http://www.w3.org/2000/svg" xmlns:xlink="http://www.w3.org/1999/xlink" x="0px" y="0px"
	 viewBox="0 0 512 512" style="enable-background:new 0 0 512 512;" xml:space="preserve">
<style type="text/css">
	.st0{fill:#D21034;}
	.st1{fill:#007E3A;}
	.st2{fill:#FFFFFF;}
</style>
<g>
	<g>
		<path class="st0" d="M256,0.1c-91.1,0-170.9,47.7-216.2,119.4h432.5C426.9,47.8,347.1,0.1,256,0.1z"/>
		<path class="st0" d="M256,512c91.1,0,170.9-47.8,216.2-119.4H39.8C85.1,464.2,164.9,512,256,512z"/>
		<path class="st1" d="M472.2,119.5H39.8C14.8,159,0.1,205.8,0.1,256s14.7,96.9,39.7,136.6h432.5c25-39.5,39.7-86.3,39.7-136.6
			C511.9,205.8,497.2,159,472.2,119.5z"/>
	</g>
	<path class="st2" d="M238.2,256c0-43.7,30.1-80.2,70.6-90.3c-4.7-0.7-9.4-1.1-14.3-1.1c-50.5,0-91.4,40.9-91.4,91.4
		s40.9,91.4,91.4,91.4c4.9,0,9.6-0.3,14.3-1.1C268.3,336.2,238.2,299.7,238.2,256z"/>
</g>
</svg>
