<?xml version="1.0" encoding="utf-8"?>
<!-- Generator: Adobe Illustrator 21.1.0, SVG Export Plug-In . SVG Version: 6.00 Build 0)  -->
<svg version="1.1" id="Warstwa_1" xmlns="http://www.w3.org/2000/svg" xmlns:xlink="http://www.w3.org/1999/xlink" x="0px" y="0px"
	 viewBox="0 0 512 512" style="enable-background:new 0 0 512 512;" xml:space="preserve">
<style type="text/css">
	.st0{fill:#DC171C;}
	.st1{fill:#47AECF;}
	.st2{fill:#FBEA0F;}
</style>
<path class="st0" d="M0.1,256c0,103.2,61.2,192.2,149.3,232.6V23.3C61.3,63.8,0.1,152.7,0.1,256z"/>
<path class="st0" d="M511.9,256c0-103.2-61.2-192.2-149.3-232.6v465.3C450.7,448.2,511.9,359.2,511.9,256z"/>
<path class="st1" d="M256,0.1c-38.1,0-74.2,8.4-106.7,23.3v465.3C181.7,503.6,217.9,512,256,512s74.2-8.4,106.7-23.3V23.3
	C330.2,8.4,294.1,0.1,256,0.1z"/>
<g>
	<path class="st2" d="M78.8,207.4c-12.2,0-22.6-7.3-27.2-17.8c0,0.2,0,0.3,0,0.5c0,15,12.2,27.2,27.2,27.2S106,205,106,190
		c0-0.2,0-0.3,0-0.5C101.4,200.1,91,207.4,78.8,207.4z"/>
	<path id="_x3C_Path_x3E__74_" class="st2" d="M67,148c0,6.6,5.3,11.9,11.9,11.9c6.5,0,11.9-5.3,11.9-11.9c0-4.8-2.9-5.3-2.9-7.1
		s1.7-4.2-1.8-7.1c1.8,2.9-1.1,4.4-1.1,7.3s1.1,2.2,1.1,4.6c0,1.3-1,2.3-2.3,2.3c-1.3,0-2.3-1-2.3-2.3c0-2.3,1.2-4.7,1.2-8.2
		s0.2-3.4-1.6-6.3c-1.8-3-2-3.5-0.8-8.8c-3.5,1.2-2.4,6.9-2.4,9.8c0,2.9-2.8,3.4-2.8,7.1c0,3.5,1.7,4.2,1.7,6.5c0,1.3-1,2.3-2.3,2.3
		c-1.3,0-2.3-1-2.3-2.3c0-2.3,1.1-1.6,1.1-4.6c0-2.9-2.9-4.4-1.1-7.3c-3.5,2.9-1.7,5.4-1.7,7.1C69.9,142.7,67,143.3,67,148z"/>
	<path id="_x3C_Path_x3E__73_" class="st2" d="M78.8,164.6c10.4,0,18.9,8.5,18.9,18.9s-8.5,18.9-18.9,18.9s-18.9-8.5-18.9-18.9
		C59.9,173,68.4,164.6,78.8,164.6z"/>
	<rect x="29.6" y="221.5" class="st2" width="20.8" height="113.6"/>
	<rect x="107.2" y="221.5" class="st2" width="20.8" height="113.6"/>
	<polygon class="st2" points="56.1,221.5 78.8,235.6 101.5,221.5 	"/>
	<rect x="56.1" y="240.3" class="st2" width="45.4" height="9.5"/>
	<rect x="56.1" y="306.7" class="st2" width="45.4" height="9.4"/>
	<polygon class="st2" points="56.1,320.8 78.8,335 101.5,320.8 	"/>
	<path id="_x3C_Path_x3E__72_" class="st2" d="M86.4,256.3c3,2.2,5.1,5.8,5.1,9.8c0,6.7-5.4,12.1-12,12.1s-12,5.4-12,12.1
		c0,4.1,2,7.7,5.1,9.9c2.2,0.7,4.5,1.1,6.9,1.1c12.6,0,22.7-10.3,22.7-23C102.2,268,95.6,259.2,86.4,256.3z M78.8,295
		c-2.5,0-4.6-2-4.6-4.6s2-4.6,4.6-4.6s4.6,2,4.6,4.6S81.3,295,78.8,295z"/>
	<path id="_x3C_Path_x3E__71_" class="st2" d="M84.9,255.5c-2.1-0.7-4.5-1-6.9-1c-12.6,0-22.7,10.2-22.7,23
		c0,10.3,6.7,18.9,15.8,21.9c-3-2.2-5.1-5.8-5.1-9.8c0-6.7,5.3-12.1,11.9-12.1s12-5.4,12-12.1C90,261.3,87.9,257.7,84.9,255.5z
		 M78.8,270.6c-2.5,0-4.6-2-4.6-4.6s2-4.6,4.6-4.6s4.6,2,4.6,4.6S81.3,270.6,78.8,270.6z"/>
</g>
</svg>
