<?xml version="1.0" encoding="utf-8"?>
<!-- Generator: Adobe Illustrator 21.1.0, SVG Export Plug-In . SVG Version: 6.00 Build 0)  -->
<svg version="1.1" id="Warstwa_1" xmlns="http://www.w3.org/2000/svg" xmlns:xlink="http://www.w3.org/1999/xlink" x="0px" y="0px"
	 viewBox="0 0 512 512" style="enable-background:new 0 0 512 512;" xml:space="preserve">
<style type="text/css">
	.st0{fill:#1F4085;}
	.st1{fill:#A20E23;}
	.st2{fill:#FFFFFF;}
</style>
<g>
	<path class="st0" d="M256,512c103.2,0,192.2-61.2,232.6-149.3H23.4C63.8,450.7,152.8,512,256,512z"/>
	<path class="st1" d="M256,0.1C152.8,0.1,63.8,61.3,23.4,149.3h465.3C448.2,61.3,359.3,0.1,256,0.1z"/>
	<path class="st2" d="M0.1,256c0,38.1,8.4,74.2,23.3,106.7h465.3C503.6,330.2,512,294.1,512,256s-8.4-74.2-23.3-106.7H23.4
		C8.4,181.8,0.1,217.9,0.1,256z"/>
</g>
</svg>
