<?xml version="1.0" encoding="utf-8"?>
<!-- Generator: Adobe Illustrator 21.1.0, SVG Export Plug-In . SVG Version: 6.00 Build 0)  -->
<svg version="1.1" id="Layer_1" xmlns="http://www.w3.org/2000/svg" xmlns:xlink="http://www.w3.org/1999/xlink" x="0px" y="0px"
	 viewBox="0 0 512 512" style="enable-background:new 0 0 512 512;" xml:space="preserve">
<style type="text/css">
	.st0{fill:#424242;}
	.st1{fill:#BFBFBF;}
	.st2{fill:#F9CF41;}
</style>
<circle class="st0" cx="256" cy="256" r="256"/>
<path id="XMLID_16784_" class="st1" d="M434.3,72.5c0.2,0.6,0.2,0.6,1.6,1.9c0.4,0.3,1.1,1.1,2,2C436.9,75,435.8,73.6,434.3,72.5z"
	/>
<path id="XMLID_16783_" class="st1" d="M433.8,71c-0.7-0.6-1.3-1.3-2-1.9l0,0C432.5,69.7,433.1,70.4,433.8,71
	c-0.1-0.1-0.2-0.2-0.3-0.3C433.6,70.9,433.7,71,433.8,71z"/>
<path id="XMLID_16780_" class="st1" d="M508.5,214.2c-2.2-13.7-5.5-26.9-9.8-39.8c-4.3-12.8-9.5-25.2-15.7-37.1
	c-0.4-0.8-0.8-1.5-1.2-2.2c-5.9-11-12.5-21.6-19.9-31.6c-7.8-10.7-16.5-20.8-25.8-30.1l0,0c-0.8-0.8-1.5-1.5-2.3-2.3
	c0.7,0.7,1.5,1.5,2.2,2.2c-0.3-0.3-0.6-0.6-0.9-0.9c0.5,0.5,1,1,1.5,1.6c0,0,4.6,4.8,6.1,6.8c-0.7-0.4-1.3-0.8-1.9-1.3
	c3,3.2,6.2,6.7,6.2,6.8c-0.1,0-0.1,0-2.1-1.9c2.4,3.7,6.8,5.8,7.9,10.5c-1.6-1.2-2.7-2.9-4.3-4.1c1.5,2.9,4.4,4.4,6.4,6.8
	c0,0.1-0.1,0.3-0.1,0.4c-0.9,0.1-2.2,0.2-15.2-14.9c2.3,0.3,3.1,3.2,5.4,3.5c1.8-1.7-12.2-13.7-16.7-16c0.1,0.3,0.1,0.3,0.7,1.1
	c-0.2-0.1-0.2-0.1-3.8-2.9c0.1,0.3,0.4,0.8,0.6,1c-0.5,0.2-0.9,0.4-3.5-1.6c0.7-2.9-3.7-4-3.7-4c0.4,0.8,0.4,0.8,2.3,2.7
	c-2.3-0.9-3-3.7-5.4-4.6c0.3,0.8,0.3,0.8,2.5,3.2c0.6,0.6,0.7,0.7,1,1c-2.2,0.5-2.3-2.3-3.6-3.2c-0.1,0.2-0.3,0.5-0.3,0.8
	c0.3,0.3,0.7,0.6,0.9,0.9c-0.7-0.5-0.7-0.5-1.2-0.8c1.4,1.9,3.4,3.3,4.7,5.2c-0.1,0-0.1,0-3-1.9c-0.1,0.1-0.2,0.2-0.3,0.3
	c0.9,1.2,2.4,1.8,3.5,3c-0.2-0.1-0.2-0.1-1.6-0.9c0.3,0.7,1.1,1.1,1.3,1.9c-1.2-0.3-1.6-1.5-2.5-2.2c0.5,1.2,1.7,1.8,2.5,2.7
	c-0.7-0.5-1.4-1.1-2.1-1.6c0.8,0.9,1.9,1.5,2.6,2.5c-0.1-0.1-0.1-0.1-3.2-2.7c1,1,2,2,2.9,3.1c0,0,0,0-1.9-1.3c1.1,1,1.1,1,1.4,1.4
	c-0.1,0-0.3,0.1-0.4,0.1c0.5,0.8,3.9,4.8,4,4.8c0.1-0.1,0.2-0.2,0.2-0.3c-0.1-0.1-0.1-0.3-0.2-0.4c1,1.1,0.9,1.3,0.8,1.8
	c0,0,0,0-1.6-0.9c0.4,0.9,1.8,2.4,2,2.7c-0.1,0.1-0.1,0.3-0.2,0.4c0.5,0.9,1.6,1.2,2,2.2c-0.2,0.1-0.2,0.1-1.1,0.2
	c0.5,0.5,1,1.1,1.5,1.6c-0.4,1.9,1.6,2.4,2.2,3.7c-0.1,0.1-0.2,0.1-0.3,0.2c1.2,1.7,1.9,3.7,3.4,5.1c-0.1,0.3-0.2,0.8-0.2,1.1
	c0.3,0.5,0.7,0.9,1,1.4c-0.1,0-0.3,0-0.4,0c0,0.1-0.1,0.3-0.1,0.4c0.3,0.4,0.7,0.7,1.1,1c-0.1,0.1-0.2,0.1-0.3,0.2
	c0,0,0.6,3.4,1.8,3.5c0.2-0.2,0.3-0.5,0.4-0.7c0.6,1.2,0.7,1.2,0.9,1.9c-0.4,0-0.4,0-1.3-0.4c0,0.1,0,0.3,0.1,0.4
	c-0.2,0.1-0.5,0.1-0.8,0c0,0.4-0.1,0.8-0.2,1.2c-0.7-0.3-0.7-0.3-1.2-0.3c0.3,0.6,0.3,0.6,2.1,1.7c0,0.2-0.1,0.6-0.2,0.8
	c-1-0.1-1.5-0.9-2.3-1.4c0.6,0.9,1.5,1.4,2.2,2.3c-0.3,0.4-0.3,0.4-2.1-0.2c1.2,1.9,1.2,1.9,0.8,3.1c0,0,2.2,2.9,3.5,3.4
	c0.1-0.2,0.3-0.4,0.5-0.5c0.8,0.8,0.9,1,1.2,1.4c-0.1,0.1-0.2,0.2-0.3,0.3c-1.3-0.1-1.3-0.1-2.1,0c0.3,1.6,0.3,1.6,2.1,1.4
	c0.1,0.5,0.2,0.7-0.4,1.1c0,0,0.6,1.7,2.4,1.4c-0.2,0.2-0.5,0.5-0.8,0.6c0,0.1-0.1,0.3-0.2,0.4c1.3,1.2,1.3,1.2,1.4,1.4
	c-0.1,0.2-0.4,0.4-0.6,0.5c0.3,0.7,1,0.9,1.4,1.5c-0.1,0.1-0.2,0.2-0.2,0.3c1.3,0.6,1.3,0.6,1.7,1.1c-0.2,0.1-0.4,0.2-0.5,0.3
	c-0.3,0-0.6,0-0.9,0c0.1,0.3,0.3,0.8,1.4,1c0.1,0,0.1,0,0.1,0h0h0h0h0h0h0h0c1.3,1.9,3.7,2.8,4.8,4.9c0.2-0.2,0.9-1.2,0.3-3
	c0.1-0.1,0.2-0.2,0.3-0.2c-0.6-1.3-0.8-2.7-1.5-3.9c1.1,1.5,1.2,1.6,1.6,1.9c0-0.1-0.1-0.3-0.1-0.4c0.1-0.1,0.2-0.1,0.3-0.2
	c0.1,0,0.2,0.1,0.4,0.1c0.1-0.5,0.1-0.5-0.5-1.9c4.1,3,5.2,8.2,8.4,11.8c0.3,0.3,0.3,0.3,0.6,0.5c0.4,0.3,1.2,1,1.8,2.8
	c0.2,0.4,0.2,0.9,0.4,1.3c0.3,0.5,0.7,0.9,0.9,1.4c0.3,0.5,0.3,1,0.7,1.5c0.2,0.3,0.5,0.4,0.8,0.6c0.2,0.2,0.4-0.2,0.7-0.2
	c0,0,0-0.1,0-0.1c-0.1-0.8-0.1-1.6-0.3-2.4c-0.1-0.6-0.4-1.1-0.5-1.7c0.1-0.1,0.2,0,0.4,0.1c0.1,0.1,0.2,0.1,0.2,0.2
	c0.3,0.2,0.5,0.6,0.7,0.8c0.1,0.1,0.3,0.1,0.5,0.2c0.1,0.1,0.2,0.2,0.3,0.4c0-0.1,0-0.1-0.1-0.4c-0.5-1.2-0.7-2.1-0.2-2.1
	c0,0,0-0.1,0-0.2c-0.3-0.9-0.6-1.8-0.9-2.7c0,0,0-0.1,0-0.1c-0.9-2.6-2.7-4.8-3.7-7.3c-1.1-2.4-1.1-2.4-0.4-2.9
	c0.1-1.1,0.1-1.1-3.6-2.4c0.5-0.4,1.2-0.5,1.7-1c-0.1-0.3-0.3-0.7-0.5-1.2c0,0-2.2-2.6-2.2-2.6l-5.2-6.8c-2.5-3.3-2.5-7.7-4.7-11.1
	c1-1.1-0.2-2.7-4-8.1c-0.2,0.1-0.5,0.3-0.7,0.4c0,0-0.6-1.1-0.1-2c0.2,0.1,0.5,0.2,0.7,0.2c0.1,0,0.3-0.1,0.4-0.1
	c3.9,2.6,6.4,6.5,7.5,11.6c-0.1,0-0.3,0.1-0.4,0.1c6.6,12.6,12.8,17.3,12.9,17.4c0.2-0.3,0.6-0.5,0.8-0.8c-0.1-0.2-0.1-0.6,0-0.8
	c0.1,0,0.1,0,0.1,0h0h0h0h0h0h0l0,0c0.1-0.1,0.1-0.3,0.2-0.4c-0.1-0.2-0.2-0.5-0.1-0.7c0.4,0.2,0.6,0.5,1,0.6c0-0.5,0-0.5-0.2-1.2
	c0.2,0.1,0.5,0.4,0.6,0.6c0.1-0.4,0.1-0.4-0.2-1.2c1.1,0.9,8.5,14.9,8.5,15c-1.2-0.9-1.6-2.4-2.4-3.4c-0.1,0-0.1,0-0.1,0h0h0h0h0h0
	h0h0c-0.7-1.1-0.9-2.3-1.4-3.4c-0.2-0.4-0.3-0.6-0.4-0.8c-0.4,0-0.6-0.1-2.1-1.1c-0.1-0.1-0.2-0.2-0.3-0.3c-0.1,0.1-0.1,0.3-0.2,0.4
	c0.1,0.2,0.1,0.5,0,0.6c0.1,0.3,0.2,0.7,0.2,1c-0.4-0.1-0.8-0.4-1.2-0.5c0.7,2,2.9,3.2,3,5.5c4.2,2.4,3.8,6.5,3.8,6.6
	c-1.3-0.8-1.3-2.7-2.7-3.4c-0.3,1,0.7,3.8,0.7,3.8c3,5.8,3,5.8,6.9,11c-1.9,0.2-1.9,0.3-2.5,1.5c-1.2-0.6-1.8-2.1-3.3-2.1
	c-1.5,4-1.8,5.1-1.5,6c-1.6-0.8-2.5-2.4-3.9-3.4c-0.4,0.5-0.7,1.3-0.7,1.9c-4.3-1.2-4.7-5.8-7.3-8.5c0.1-0.3,0.2-0.7,0.3-1
	c0.3-0.1,0.6-0.3,0.9-0.4c-0.2-1.9-2.6-2.8-2.5-4.8c-0.3-0.7-0.4-1.6-0.7-2.3c0-0.1,0-0.1-0.1-0.1l0,0c0,0,0,0-0.1,0.5
	c0,0.2-0.1,0.4-0.1,0.7c-0.1,0.3-0.2,0.7-0.3,1.1c0,0,0,0,0,0c-0.4,0-0.7,0-0.8,0c-0.2-0.1-0.3-0.1-0.3-0.1c-0.1,0-0.1,0-0.1,0.1
	c0.6,0.9,1.3,1.7,1.9,2.6c-0.2,0.2-0.5,0.5-0.7,0.7c0.8,1.8,0.8,1.8,3,5.3l-0.8,0.4c3.5,5.3,3.5,5.3,5,7.4c-0.3-0.1-0.6-0.3-0.9-0.4
	c0,0.3-0.1,0.7-0.1,1c-0.6,0-1.4-0.2-1.9-0.5c-0.1,0.2-0.2,0.5-0.3,0.8c0.1,0.3,0.2,0.8,0.3,1.1c-0.3-0.2-0.7-0.4-1-0.5
	c-0.2,0.2-0.5,0.5-0.7,0.7c-0.3,0-0.7-0.1-1-0.1c-0.4,0.9-0.1,2-0.4,2.9l-0.4,0.8l0.9,1.3l-0.1,0.5c-0.1,0.3-0.3,0.6-0.4,0.9
	c0.3,0.7,0.7,1.6,0.9,2.3c-0.1,0-0.1,0-0.2,0c-1.4,1.5-1.4,1.5-2.1,3.3l0.5,1.1c0.3,2.4-0.7,2.8-1.7,3.2c-0.1,0.5,0,1.3,0.3,1.8
	c-0.4,0.2-0.8,0.4-1.2,0.6l-1.2-0.1c-0.3-0.6-0.8-1.2-1.3-1.7c-0.2,0.2-0.4,0.5-0.6,0.8c1.4,1.8,1.8,3.5,1.8,3.5
	c-2,0.5-2,0.5-3.4,0.1c-0.2-0.2-0.4-0.5-0.6-0.8c-0.5,0.4-1.2,0.9-1.7,1.2c-0.3-0.1-0.6-0.3-0.9-0.4c2,4.2,2,4.2,2.1,4.5
	c2,0.8,2,0.8,3.1,0.6c0.4,0.5,0.8,1.2,1.1,1.7c0.3,0.1,0.7,0.2,1,0.2c0.1,0.4,0.3,1,0.4,1.5c0.4,1.8,2.3,2.8,2.9,4.5
	c0,0.6,0,0.6,1.4,4.2c-1.8,2.5,0.4,5.4-0.7,8c-5.7-0.7-5.7-0.7-8.5-1c-0.2-0.3-0.4-0.6-0.6-0.9c-3-0.6-4.6,0.1-5.2,0.4
	c0,0.6,0.1,1.5,0.1,2.1c-0.2-0.2-0.5-0.4-0.8-0.6c0.7,11.9,1.7,23,2.2,23.3c0.1,3.8,0.1,3.8,1.4,5.8c0.6-0.1,1.4-0.6,2-0.4
	c1.9,0.6,1.8,3.1,3.5,3.9c1.5,0.7,3-0.9,4.6-0.1c0-0.6-0.2-1.4-0.4-2c1.9-0.5,3.6,0.4,5.4,0.5c0.1-0.3,0.2-0.7,0.3-1
	c-0.3-0.2-0.6-0.4-0.9-0.6c0.9-1,2.1-1.5,3.1-2.4c-1-5.5,1.9-10.6,1.1-16.1c0.4-0.4,1.1-0.8,1.7-0.9c2.4-4.5,2.4-4.5,0.9-8
	c0.2-0.4,0.2-0.4,0.8-3c2.1-0.2,3.2,2.2,5.3,1.9c0.4-1.9,1.5-3.5,2-5.4c1.6-0.5,1.6-0.5,3.5,1.4c0.6,1.7,0.7,2.1,7.3,12.3
	c0.3,0,0.7,0.1,1,0.1c5.6,8.3,5.5,10,5.3,12.3c-0.2,2.8,0,3.1,0.7,3.9c0.4-4.2-0.9-8.3,0-12.5c1,1.8,1,1.8,1.6,2.5
	c0.1-2.1-4.9-10.4-6.8-10.3c-0.5-6-10.9-9.5-6.2-16.2c0.3,0,0.7-0.1,1-0.2c-0.1,0.6-0.1,0.6,0.7,3c0.4-0.5,0.8-1.3,0.8-2
	c1.4,5.1,5.7,8.5,7.9,13.2c1.4,1.2,1.4,1.2,7.3,20.4c0.6,0,1.3,0.3,1.8,0.6c0,0.3,0,0.7,0.1,1c-0.3-0.2-0.6-0.4-0.9-0.6
	c-0.2,2.2,1,6.3,1,6.4c0.2-0.2,0.6-0.4,0.8-0.6c0.2,0.3,0.5,0.6,0.6,0.8c-0.1-1.8-0.8-3.4-0.5-5.2c0.3,0.1,0.6,0.3,0.9,0.4
	c-0.4-4.6-2.6-8.8-3.2-13.4c0.6,0.8,0.6,0.8,1.1,2.9c0-0.3,0-0.7,0.1-1c0.2,0.2,0.5,0.5,0.6,0.7c0.1-1.9-0.4-3.8-0.4-5.7
	c0.1,0.6,0.3,1.4,0.6,2c0-0.3,0-0.8-0.1-1.1c0.3,0,0.7,0.1,1,0.1c0.3,0.4,0.6,1,0.9,1.4c0,0.3,0,0.7,0,1c0.4-1,0.4-1,0.6-3
	c0.3-0.1,0.7-0.2,1-0.3l-0.5-1.5c-3.2-7.1-4.1-23.2-4.2-25c0.7,0.2,1.4,1,1.7,1.6l0.5,0.8l0.2,1l-0.2,0.5c0.7,1.7,1.1,3.6,2.2,5.2
	c0.1-1.4,0.5-2.8,0.2-4.3c-0.1,0.3-0.2,0.7-0.2,0.9c-1.7-3.6-2.1-4.3-1.6-7.5c-0.1-0.4-0.2-0.9-0.3-1.2c1.7,2,2.6,8.8,2.6,8.9
	c0.4,1.4,0.6,1.8,2.2,5.7c1.3,4.1,2.1,6.3,2.5,8c0.2,0.9,0.4,1.8,0.6,2.8c0.1,0.8,0.2,1.6,0.3,2.7c-0.3,0-0.7,0-1,0
	c-0.4-0.5-0.8-1.2-1-1.8c-0.1-0.6-0.5-1.5-1-2c-0.9,0.7-0.9,0.7-1.3,3.7c-0.5,0.2-1.2,0.7-1.6,1.2c0.5,2.1,0.5,2.1,0.3,3
	c-0.3,0-0.7,0-1,0c-4.8,6.7,1.6,11.9,2.4,17.8c0.2-0.3,0.4-0.6,0.5-0.9c0.3,0.4,0.3,0.4,1.5,2.8c0.2-0.2,0.5-0.5,0.7-0.7
	c0-0.4,0-0.8,0-1.2c0-0.4,0-0.4,0-0.4h0h0h0h0h0h0h0c0.9,0.8,0.9,0.8,1.3,2.8c1.1-2.8,1.1-2.8,1.1-3c0.8,1.5,0.8,1.5,1.3,10.4l0,1.3
	c0.1,0.8,0.1,0.8,0,3.4c-0.1,6.4-0.1,6.4-0.4,9.4c-0.2,0.1-0.5,0.1-0.8,0.2l-0.2-0.4l-0.2,0.8c0-0.3-0.1-0.7-0.1-1
	c-1.6,0.6-1.6,0.8-1.9,2c-0.9-0.6-1.6-1.4-2.4-2c-0.5-0.3-0.5-0.3-0.5-0.3h0l0,0h0h0l0,0l0,0h0c-0.3,0-0.7-0.1-1-0.1
	c-0.9-1.9-2.2-3.5-2.9-5.5c-1.8,0.9-2,1-3.1,2.4c0,0.1,1.4,7.9-1.4,9.7c-1.3-2.4-5.4-10.1-5.4-10.1c-0.6-0.3-1.4-0.5-2.1-0.6
	c-0.3-0.5-0.7-1.3-0.8-1.9c-0.7,0-1.6,0.1-2.3,0.2c-1.6-1.6-2.3-3.8-3.9-5.5c1.4-1.7,1.4-1.7,1.2-12.3c-1-0.1-1-0.1-2.8-1.2
	c-0.2,0.6-0.4,1.5-0.6,2.1c-0.3,0-0.7-0.1-1-0.1c-0.2,0.3-0.4,0.6-0.6,0.9c-0.6-0.2-1.4-0.6-1.9-1c-2.7,0.7-2.7,0.7-3.4,1.7
	c-1.1-0.7-1.2-0.7-4.7-1.5c-1.2,1.6-1.2,1.6-3.3,2l-2.6,1.3l-1,2.2c0.1,0.3,0.3,0.7,0.4,0.9c-2.6,0.8-2.6,0.8-3.4,1.4l-1.7-0.2
	c-1.5-1-3.3-0.5-4.8-1.3c-0.1-0.6-0.2-1.4-0.3-2c-0.3,0-0.7,0-1,0c-0.2,0.3-0.5,0.8-0.8,1.1l-0.4,0l0.2,1.3
	c-0.3,1.3-0.3,2.6-0.6,3.8l0.1,0.7l-0.7,0.7c-1.5,1.9-6.4,7-6.4,7c0,0.1,0.6,9.4-2.1,14.4c-3.5,6.9-10.2,11.2-14.4,17.4
	c0.2,0.7,0.3,1.6,0.1,2.3l-6.1,11.5c-3.5,3.3,0.9,6.9-0.4,10.3c5,8.3-9.1,13.6-3.4,22l0.3,0.4l-1.1,0.9c0.1,0.2,0.3,0.5,0.5,0.8
	c-0.4,0.4-1.1,0.7-1.6,0.8c0.2,0.2,0.4,0.5,0.5,0.8c-1,2.2,0.5,4.3,3.3,4.6c-0.1,0.5-0.4,1.2-0.7,1.6c0.4,1,1.1,1.9,1.5,2.9l1,1.2
	l1.4,1.2l-0.6,1.7c-0.1,0.2-0.2,0.5-0.3,0.8c1.1,1.9,1.1,1.9,1.1,2.4c-0.4,0.3-0.8,0.8-1,1.2c3.5,4.3,3.5,4.3,4.3,4.7
	c0.4,1.6,1.7,3,1.4,4.9c1.5,1.9,4,4.2,4,4.2c3.3-2.9,4.9-4.3,10.2-2.9c1.4,0.2,1.5,0.3,2,1.1c5.8,0.1,8.3-5.4,12.8-7.4
	c0.8,0.7,1.9,1.6,2.7,2.3c-0.2,0.2-0.4,0.4-0.6,0.5c0.9,2.1-1.7,4.3-0.1,6.4c1.8-0.4,4.8-1.7,4.9-1.7c0.1,0.2,0.2,0.5,0.2,0.7
	c-0.2,0.2-0.4,0.4-0.5,0.6c0.3,2,0.3,2,0.2,2.5c0.1,0.2,0.3,0.4,0.5,0.6c-2.6,4.4-4.7,9.1-7.5,13.5l-0.6,0.6
	c-0.2,0.2-0.4,0.4-0.5,0.6c0.2,1.8-1.5,3.5-1.5,3.5c0.8,2.3,5.5,24.2-70.9,92.5c13.4-1.6,47.3-26.9,69.7-52c1.2-1.4,2.3-2.7,3.4-4.1
	c-1.1,1.4-2.3,2.7-3.4,4.1c2-2.2,2-2.2,4-4.6c5.3-6.5,8.3-10.8,9.3-12.2c5.5-7.9,5.5-7.9,8.8-13c0-0.1,4.3-6.7,7-11.5
	c1.6-2.8,3.1-5.5,4.5-8.2c6.1-11.9,11.4-24.3,15.7-37.1c0.9-2.7,1.8-5.5,2.6-8.2l0-0.1c0.1-0.5,0.3-1,0.4-1.6
	c1.7-6.7,1.7-6.7,2.1-8.2l4.9-33.9c0.6-7.5-0.9-15-0.4-22.5c0.7,2.5,0.4,5.1,1,7.6c0.1-0.4,0.1-0.4,0.5-6.7c0.4,18,0,21.1-2.3,38.2
	c0-0.1,0,0.1,0.1,0.2c-0.2,1.2-0.7,4.8-2.4,12.2c1.2-5.3,2.4-11.1,3.3-16.9c2.2-13.7,3.4-27.7,3.4-41.9
	C511.8,241.9,510.7,227.9,508.5,214.2z M447.2,121.7c0,0.1,0,0.1,0,0.2C447.1,121.7,447,121.6,447.2,121.7
	C447.1,121.6,447.1,121.7,447.2,121.7z"/>
<path id="XMLID_16779_" class="st1" d="M440.8,79.4c-1-1.1-2-2.1-2.8-3C438.9,77.5,439.8,78.5,440.8,79.4z"/>
<ellipse id="XMLID_16778_" transform="matrix(0.4472 -0.8944 0.8944 0.4472 133.3837 470.8454)" class="st1" cx="447.6" cy="127.5" rx="0" ry="0"/>
<polygon id="XMLID_16777_" class="st1" points="419.5,350.8 419.5,350.8 419.5,350.8 "/>
<path id="XMLID_16776_" class="st1" d="M498.5,227.5L498.5,227.5c0,0-0.1-0.3-0.3-0.5c0,0,0,0,0,0
	C498.4,227.3,498.5,227.5,498.5,227.5z"/>
<polygon id="XMLID_16775_" class="st1" points="419.5,350.8 419.5,350.8 419.5,350.8 "/>
<polygon id="XMLID_16774_" class="st1" points="419.5,350.8 419.5,350.8 419.5,350.8 "/>
<path id="XMLID_16773_" class="st1" d="M444.3,179.6c0,0-0.1,0-0.1,0c0,0,0,0,0,0C444.2,179.6,444.3,179.6,444.3,179.6L444.3,179.6
	L444.3,179.6z"/>
<path id="XMLID_16772_" class="st1" d="M452.5,130.1c0,0,0.1,0.4,0.2,0.4c0-0.1,0-0.1-0.1-0.1C452.6,130.3,452.5,130.2,452.5,130.1
	L452.5,130.1C452.5,130.2,452.5,130.1,452.5,130.1z"/>
<path id="XMLID_16771_" class="st1" d="M462.1,143.1C462.1,143.1,462.1,143.1,462.1,143.1C462.1,143,462.1,143,462.1,143.1
	L462.1,143.1C462.1,143.1,462.1,143.1,462.1,143.1z"/>
<path id="XMLID_16770_" class="st1" d="M458.7,366c0.1,0,0.1,0,0.1-0.1c0.1-0.1,0.3-1.2,0-1.2c-0.2,0-0.5,0.5-0.7,1l-0.3,0.3
	c-0.1,0.3-0.3,0.7-0.4,1c0,0,0,0,0,0.1c0,0.6,0.6,0.1,0.6,0.1c-0.1-0.2,0.3-0.7,0.3-0.8C458.5,366.1,458.6,366,458.7,366z"/>
<path id="XMLID_16769_" class="st1" d="M450.6,376.4c-0.2,0-0.4,0.1-0.5,0.3c0,0-0.4,0.5-0.3,0.8c0.2,0.4,0.7-0.7,0.8-0.7l0,0
	C450.8,376.4,450.7,376.4,450.6,376.4z"/>
<path id="XMLID_16768_" class="st1" d="M394.9,323.8C394.9,323.8,394.9,323.8,394.9,323.8c0,0.1,0.1,0.2,0.2,0.3
	c0.1,0.1,0.1,0.1,0.4,0c0,0,0,0,0.1,0l-0.2-1.1l-0.2-0.5c-0.1,0-0.1,0-0.2,0c-0.1,0-0.3,0.1-0.4,0.2c-0.1,0.1,0,0.2,0.1,0.3
	c0.1,0.1,0.2,0.1,0.2,0.3C395,323.4,394.9,323.6,394.9,323.8z"/>
<path id="XMLID_16767_" class="st1" d="M396,321.7c-0.1,0.2-0.2,0.5-0.3,0.8c0,0,0,0.1,0.1,0.1c0,0,0.5-0.2,0.5-0.2
	c0,0,0.1,0,0.1-0.1C396.4,322.1,396.2,321.7,396,321.7C396.1,321.7,396.1,321.7,396,321.7z"/>
<path id="XMLID_16766_" class="st1" d="M397.1,318.7C397.1,318.7,397.1,318.7,397.1,318.7c0,0,0.1,0.1,0.1,0.2c0,0.1,0,0.1,0.1,0.2
	c0.1,0.1,0.2,0.1,0.4,0.1l0.3-0.7l-0.9-0.3C397,318.3,397,318.5,397.1,318.7z"/>
<path id="XMLID_16765_" class="st1" d="M398,316.6c0,0,0,0.1,0,0.1c0,0,0.1,0,0.2-0.6c0,0,0-0.1,0-0.1c-0.2,0-0.4,0-0.7,0l0.1,0.5
	C397.8,316.5,397.9,316.5,398,316.6C398,316.5,398,316.5,398,316.6z"/>
<polygon id="XMLID_16764_" class="st1" points="394.8,317.1 394.8,317.1 394.8,317.1 "/>
<polygon id="XMLID_16763_" class="st1" points="395,316.1 394.4,316.6 394.8,317.1 395.1,316.5 "/>
<polygon id="XMLID_16762_" class="st1" points="393.4,316.2 393.4,316.8 393.7,316.9 393.9,316.4 393.7,316.4 "/>
<polygon id="XMLID_16761_" class="st1" points="392.3,315.4 391.9,315.3 391.8,315.6 392,315.9 "/>
<path id="XMLID_16760_" class="st1" d="M391,314.6l-0.1,0.5l0.5-0.2c0.1,0,0.1,0,0.2,0l0.3-0.3l-0.7-0.1L391,314.6z"/>
<path id="XMLID_16759_" class="st1" d="M428.2,268L428.2,268c-0.1,0-0.7,0.4-0.9,0.6l-0.3,0.8c0.1,0,0.2-0.1,0.3-0.1
	c-0.1,0.1-0.2,0.2-0.3,0.3c-0.1,0.2-0.1,0.2-0.2,0.3l0.2,0.6c0.4-0.1,0.4-0.1,0.5-0.3c0.3-0.2,0.4-0.4,0.5-0.7l0,0l0.2-0.7
	C428.4,268.6,428.3,268.2,428.2,268z"/>
<path id="XMLID_16758_" class="st1" d="M429.8,266.3c-0.2-0.1-0.3-0.2-0.5-0.3c-0.1-0.1-0.3-0.2-0.4-0.3c-0.1,0-0.1-0.1-0.1-0.1
	c0,0,0,0-0.1,0c-0.1,0.2-0.2,0.5-0.3,0.7c0,0.1,0,0.1,0.2,0.1c0.2,0,0.2,0.1,0.4,0.1c0.4,0.2,0.4,0.2,0.5,0.2c0.4,0,0.5-0.3,0.5-0.3
	l0,0C429.9,266.3,429.8,266.3,429.8,266.3z"/>
<path id="XMLID_16757_" class="st1" d="M422.9,270.4c0.1,0.3,0.4,1.1,1.1,0.1c0.1-0.2,0.2-0.5,0.3-0.7c-0.1,0-0.2,0-0.2,0.1
	c-0.1,0-0.3,0.2-0.5,0l-0.3-0.3c-0.1,0.1-0.3,0.3-0.3,0.4C422.9,270.1,422.8,270.2,422.9,270.4z"/>
<path id="XMLID_16756_" class="st1" d="M420.3,269.1c0,0-0.1,0-0.1,0c0,0-0.6,0.3-0.6,1l0.4,0.5c0.3-0.6,0.4-0.6,0.8-0.4
	c0.5,0.3,0.7,0.2,0.7,0.1c0.3-1,0.4-1.2,1.1-1.7c0.1-0.1,0.2-0.1,0.2-0.1c0,0,0,0,0-0.1c-0.5,0.1-1,0.3-1.5,0.4
	C420.9,269,420.6,269,420.3,269.1z"/>
<polygon id="XMLID_16755_" class="st1" points="418.6,270.3 418.6,270.3 419.1,270.3 418.8,269.7 "/>
<path id="XMLID_16754_" class="st1" d="M417.4,271.2l-0.3-0.2c-0.1,0.2-0.3,0.4-0.3,0.6c0,0.2,0.1,0.5,0.2,0.7
	c0.4,0.5,0.8-0.1,0.9-0.6c0-0.2,0-0.3-0.1-0.3c0,0-0.1,0-0.1-0.1C417.6,271.3,417.5,271.3,417.4,271.2z"/>
<path id="XMLID_16753_" class="st1" d="M418,267.8l-0.5-1c0,0-0.7,1-0.4,1.6c0.2,0.4,0.9,0.4,1,0.1l0,0
	C418.2,268.4,418.1,268.3,418,267.8z"/>
<path id="XMLID_16752_" class="st1" d="M463.1,221.7c0.1,0.2,0.4,0.1,0.7-1l0,0l0,0l-0.3-0.4l-0.4,0.4c0,0.2,0,0.4,0.1,0.6
	C463.1,221.5,463.1,221.6,463.1,221.7z"/>
<path id="XMLID_16751_" class="st1" d="M465.7,219l0.7-0.3l-0.6-0.9c-0.1-0.3-0.3-0.6-0.4-0.9c0,0,0,0-0.1,0c0,0,0,0,0,0
	c-0.1,0-0.5,1.2-0.6,1.3c-0.1,0.4,0.1,0.5,0.2,0.5L465.7,219z"/>
<path id="XMLID_16750_" class="st1" d="M467.5,216.9l0.2-0.5l-0.3-0.4c-0.1,0-0.3,0-0.4,0c0,0.1,0,0.2,0,0.2c0,0.2,0.1,0.5,0.1,0.7
	C467.2,216.9,467.3,216.9,467.5,216.9z"/>
<path id="XMLID_16749_" class="st1" d="M477.8,220c0,0,0.3-0.5-0.3-1.7c-0.1-0.2-0.1-0.2-0.1-2.5c0-1-0.3-1.9-0.3-2.9l0,0
	c0-0.5-1.1-2.5-1.6-2.7c-0.4,0-0.5,1.2-0.6,2c-0.2,0-0.4-0.2-0.6-0.3c0,0,0,0-0.1,0c0.3,0.8,0.9,1.3,1.1,2.1l-0.2,1.1l0,0.7l0.4,0.5
	l-0.2,1.2l0.3,1c0,0.3,0.1,0.6,0.1,1l0,0l0,0h0h0l0,0h0l0,0c0,0,0,0,0,0c-0.1,0.2,0.9,1.6,0.9,1.7c0.2-0.3,0-0.9,0-1.3
	c-0.1-0.4,0-0.5,0-0.5C477,219,477.3,220,477.8,220z"/>
<path id="XMLID_16748_" class="st1" d="M473.6,204.9c0,0.2,0,0.2,0.4,0.9c0,0.3,0.1,0.5,0.1,0.8c0.1,0.4,0.7,1.7,0.8,1.8
	c0.2,0.2,0.3,0,0.3-0.3l0.4-0.1l0-1.1l0-0.9c0-0.5-0.3-0.8-0.5-1.3c-0.1-0.2-0.1-0.4-0.2-0.6c-0.3-0.8-0.4-1.7-0.7-2.5
	c-0.1-0.2-0.1-0.2-0.2-0.2c0,0.1,0,0.2,0,0.3c0,0.1,0.4,1.4,0.2,1.5c-0.1,0-0.2-0.1-0.3-0.2c-0.2,0-0.2,0.1-0.2,0.1
	c-0.1,0.2,0.2,0.3,0.2,0.5c-0.1,0.3-0.3,0.6-0.3,1C473.6,204.8,473.6,204.9,473.6,204.9z"/>
<path id="XMLID_16747_" class="st1" d="M488,225.6c0-0.5-0.2-0.9-0.4-1c0,0-0.4,0.2-0.6,0.6c-0.1,0.3-0.2,0.2-0.5-0.1
	c-0.5-0.5-0.5-0.5-0.6-0.4c0,0-0.1,0-0.1,0.4c0,0.3,0,0.4,0,0.5c-0.1,0.4-0.3,0.3-1-0.1c-0.2-0.2-0.4-0.3-0.5-0.3
	c-0.4,0-1.1,0.6-0.2,2.2c0,0,0.7,0.9,1.1,1.4c0.4,0.4,0.4,1,0.8,1.3c0.4,0.3,0.7-0.3,1.1-0.1c0.4,0.3,0.2,0.9,0.5,1.2
	c0.1,0.1,0.6,0.3,0.6,0c0-1-0.2-1.9-0.3-2.8c-0.1-0.6-0.1-1.4-0.1-1.5C487.9,226.5,488,225.9,488,225.6z"/>
<path id="XMLID_16746_" class="st1" d="M487.9,235L487.9,235c0,0.1,0.1,0.8,0.6,1.2c0.2,0.2,0.2,0,0.2-0.2c0-0.3-0.1-0.7-0.1-1.1
	C488.1,235,488.1,235,487.9,235z"/>
<path id="XMLID_16745_" class="st1" d="M499.9,237.8c0,0.1,0.2,0.4,0.7,0.6c0.2,0.1,0.3,0.1,0.4,0.5c0.1,0.1,0.3,0.2,0.4,0.3
	c0.1-0.1,0-0.3,0.1-0.4c0,0,0.1-0.1,0.4-0.1c0.1,0,0.2,0.1,0.3,0c0,0,0.1-0.1,0.1-0.1c0.1,0,0.1,0.1,0.2,0c0,0,0,0,0-0.2
	c0-0.7-0.3-1.1-0.3-1.1c-0.1-0.1-0.1-0.2-0.2-0.2c0,0,0,0,0,0c-0.1,0.1-0.2,0.1-0.2,0.1c-0.2-0.5-0.3-0.7-0.4-0.8
	c0,0-0.1,0.1-0.1,0.2c-0.1,0.4-0.2,0.6-0.3,0.6c-0.1,0-0.1,0-0.4-0.4c0-0.1-0.1-0.1-0.1-0.1c-0.2-0.1-0.4,0-0.4,0.1
	C500.1,237,499.8,237.5,499.9,237.8z"/>
<path id="XMLID_16744_" class="st1" d="M507.6,237.5c-0.1,0.1,0.1,2.4,0.1,2.4c0,0.1,0.1,0.2,0.1,0.2c0,0,0,0,0.2-0.1
	c0.1-0.1,0.1,0.1,0.2,0.1c0-0.3,0.4-0.5,0.4-0.8c0.1-0.5-0.1-0.9-0.1-1.3c0-0.3,0.1-1.4,0.1-1.4l0,0c0,0,0-1-0.2-1.2
	c-0.2,0.1-0.1,0.3-0.1,0.5c0,0.1-0.1,0.3-0.1,0.4c0,0-0.1,0.3-0.2,0.4c-0.1-0.2-0.1-0.2-0.2-0.2c-0.1,0.1-0.1,0.1,0,0.4
	c0,1,0,1.1-0.1,1.2C507.7,237.8,507.7,237.6,507.6,237.5z"/>
<path id="XMLID_16743_" class="st1" d="M504,233.7c0,0-0.1-1.3-0.3-1.4c0,0-0.1,0.2-0.2,0.8c-0.1,1.6,0,1.6,0.1,1.7
	C504,235.1,504.1,234.4,504,233.7z"/>
<path id="XMLID_16742_" class="st1" d="M503.3,236c0,0.6,0.1,1.1,0.1,1.7c0.1,0.2,0.1,0.2,0.1,0.2c0,0,0.1,0,0-0.3l0,0
	c0-1-0.3-2.4-0.4-2.5C503.2,235.1,503.2,235.7,503.3,236z"/>
<path id="XMLID_16741_" class="st1" d="M500.5,227.2c0-0.3-0.1-1-0.3-1.1c-0.2,0.1,0.2,1.6,0.2,1.7
	C500.5,227.8,500.6,227.6,500.5,227.2z"/>
<path id="XMLID_16740_" class="st1" d="M498.8,232.8C498.8,232.8,498.8,232.8,498.8,232.8c-0.1,0-0.1,0,0,1.2c0,0.4,0.1,0.6,0.2,0.6
	c0,0,0-0.2,0-0.7c0-0.5,0-0.5,0-0.9C498.9,232.9,498.9,232.8,498.8,232.8z"/>
<path id="XMLID_16739_" class="st1" d="M498.6,215.1l0.1,1.1l0.3,0.3c0-0.2-0.1-0.5-0.1-0.7l0-0.7
	C498.8,215.1,498.7,215.1,498.6,215.1z"/>
<path id="XMLID_16738_" class="st1" d="M498.1,221.1C498.1,221.1,498,221.1,498.1,221.1c0,0-0.1,0.2,0,0.5c0.2,0.6,0.6,1.2,0.8,1.8
	c0.1,0.4,0.1,0.9,0.3,1.3c0,0,0.3,0.9,0.5,0.9c0.1-0.2,0.1-0.2,0.1-0.2c0-0.1-0.4-0.9-0.5-1.2c-0.1-0.1-0.2-0.3-0.3-1.3
	c-0.1-0.2-0.1-0.6-0.2-0.8c-0.2-0.3-0.2-0.5-0.2-0.5L498.1,221.1z"/>
<path id="XMLID_16737_" class="st1" d="M499.1,221.3c0.3,0.6,0.3,0.6,0.3,0.6c0,0,0,0,0-0.1c0-0.1,0-0.2,0-0.3
	c0-0.1-0.1-0.2-0.1-0.3c-0.1-0.1-0.1-0.3-0.1-0.4c0,0,0-0.1,0-0.1c0,0-0.2-0.4-0.2-0.5c0,0,0,0.1,0,0.2L499.1,221.3z"/>
<path id="XMLID_16736_" class="st1" d="M501.5,228.1c0,0,0-0.1,0-0.1c0,0,0-0.1,0-0.1c0-0.1,0-0.2-0.1-0.3l-0.1,0.3l0.1,0.4
	C501.5,228.1,501.5,228.1,501.5,228.1z"/>
<polygon id="XMLID_16735_" class="st1" points="427.4,136.4 427.4,136.4 427.4,136.4 "/>
<circle id="XMLID_16734_" class="st1" cx="427.4" cy="136.4" r="0"/>
<path id="XMLID_16733_" class="st1" d="M426.2,130.8c-0.1,0.2-0.2,0.4-0.3,0.5l0.6,1.2l0,0.9l0.5,0.7l0,0.5l0.5,0.8l-0.1,0.9l0,0
	c0,0,0,0,0,0c0,0,0,0,0,0c0,0,0,0,0,0c0,0,0,0,0,0c0,0,0,0,0,0.1c0,0,0,0,0,0.1c0,0,0,0.1,0,0.1c0.2,0.5,0.3,0.7,0.7,0.7
	c0.1-0.2,0.1-0.2,0.4-0.7c0.1,0,0.1,0.1,0.2,0.1c-0.2,0.4-0.5,0.7-0.6,1.1c1.4,2.1,1.4,2.1,1.7,4.2c0.1,0,0.1,0.1,0.2,0.1
	c0-0.6,0-1,0.5-1.5c0.1,0,0.2,0.1,0.2,0.1c0.3,1.3,1.1,2.4,1.4,3.7c-0.1,0-0.2,0-0.2,0.1c0,0.1,0.5,1.5,0.9,1.9
	c0.8-0.4,0.8-0.4,1.6,0c0.1,0,0.1-0.1,0.2-0.1c0.1-0.8,0.1-0.9,0.5-0.9c0-0.1,0-0.2,0-0.2c0.1,0.2,0.2,0.4,0.3,0.5
	c-0.8,1.1,1.3,3.6,1.9,3.5c0.1,0,0.1-0.1,0.2-0.1c0.5,0.4,0.8,2.7,0.8,2.7c0,0.5,0,0.5,0.9,1.8c-0.2,0.3-0.2,0.3-0.6,0.3
	c-0.5-0.6-0.5-0.6-0.7-0.7c-0.2,0.1-0.2,0.1-1.4-0.1c-0.1,0.1-0.7,1.3,0,2.3c2,2.8,2.3,3.1,0.2,4c0.5,2.6,2.2,1.7,2.2,1.7
	c1.2,0.8,1.2,0.8,2.1,1.2c0.6-0.3,0.6-1.1,1.2-1.4c0.5,0.4,0.8,2.6-0.9,2.9c-0.4,0.1-0.8,0-1.3,0c0,0.2,0.1,0.4,0.2,0.5
	c-1.1,3.6-1.6,5.4-1.8,5.6c0,0.1,0.1,0.2,0.1,0.3c0.4,0.1,0.4,0.1,0.7,0.1c2-2.1,2-2.1,2.9-1.5c0.4-1.2,0-1.6-0.3-1.9
	c1.5-0.4,1.5-0.4,3.1,0.1c0.5-0.3,0.3-1,0.7-1.3c2.5,0.5,2.5,0.5,4.2-0.9c0,0,0,0,0,0c0,0,0,0,0,0c0,0,0,0,0,0c0,0,0,0,0,0
	c0,0,0,0,0,0c0,0,0,0,0,0c0,0,0,0,0,0c0,0,0,0,0,0c0.1-0.1,0.4-0.3,0.4-2.4c-0.2-0.2-0.2-0.2-1.5,0.2c-1.2-1.4,0.1-2.9,0.2-2.9
	c0.2-0.6,0.2-1.1,0.2-1.1l0,0c0,0-1.1-3.7-2.9-4.4c-0.3,0.1-0.5,0.2-0.6,1c-0.3-0.2-0.7-0.4-1-0.5l-2.4-4.9l-2.8-3.4
	c-0.3-0.2-0.7-0.1-1-0.4c-0.9-1.2-1.4-2.7-2.4-3.8c0-0.1,0-0.1,0-0.2c0,0-0.7-0.8-3.1-1.8c0-0.1,0.1-0.3,0.2-0.4
	c0.1,0,0.3,0.1,0.4,0.2c0-0.1,0-0.1-1.4-1.6c0-0.1,0-0.2,0.1-0.3c2.2-0.8,0.4-5.2,0.3-5.2c-0.1,0-0.1-0.1-3.1-1
	c-0.3,0.3-0.5,0.7-0.7,1c-0.5-0.8-0.7-1.4-0.6-1.8c0.1,0,0.2,0,0.2,0c0.1-0.3,0.1-0.3,0.4-0.6c0-0.6-0.1-1.6-1.2-2.9
	c-0.8,0.8-0.8,0.8-0.9,0.8c-0.7,0-1-0.7-1.6-0.8C425.3,128,425.3,128,426.2,130.8z"/>
<path id="XMLID_16732_" class="st1" d="M428.7,141.4c0,0.1,0.1,0.1,0.1,0.3c0,0.1,0,0.2,0,0.2c0,0,0.4,0,0.3-0.4
	c-0.1-0.1-0.1-0.3-0.2-0.4c0-0.2-0.1-0.3-0.1-0.5c-0.1-0.3-0.2-0.3-0.3-0.3l-0.1,0.4l-0.1,0.3c0,0.1,0.1,0.2,0.1,0.4
	C428.5,141.4,428.6,141.4,428.7,141.4z"/>
<path id="XMLID_16731_" class="st1" d="M429.2,140.2c-0.1-0.2-0.1-0.3-0.2-0.5l0,0.5c0,0.1,0,0.2,0,0.2c0.1,0.2,0.2,0.4,0.2,0.4
	C429.3,141,429.2,140.2,429.2,140.2z"/>
<path id="XMLID_16730_" class="st1" d="M430.8,141.9c0,0,0,0,0,0.1l0.1,0.6c0.4,0.4,0.4,0.4,0.5,0.5c0.1,0.1,0-0.4,0-0.4
	C431.3,142.7,431,142,430.8,141.9z"/>
<path id="XMLID_16729_" class="st1" d="M428.2,138.2l-0.4-0.6l-0.3-0.4l0.1,0.5c0,0.1,0.1,0.2,0.1,0.3l0,0.3
	c0.1,0.2,0.1,0.3,0.2,0.5c0.1,0,0.2,0,0.4,0l0.2-0.1L428.2,138.2z"/>
<path id="XMLID_16728_" class="st1" d="M424.8,132.9c0,0.1,0,0.1,0.1,0.2c0.1,0.1,0.2,0.2,0.2,0.3c0,0,0,0,0,0c0,0,0,0,0,0.1
	c0.1,0.1,0.1,0.1,0.1,0h0h0c0,0,0,0,0,0h0c0,0,0,0,0,0h0h0h0l0.4,0.2c0.5,0.7,0.5,0.7,0.5,0.7c0.2,0.2,0.5,0.1,0.5,0.1c0,0,0,0,0,0
	c0-0.1-0.1-0.2-0.2-0.3l-0.5-0.6l-0.3-0.5l-0.6-1c0.1,0.2,0.2,0.6,0.3,0.8c0,0,0,0-0.1,0c-0.1-0.1-0.1-0.2-0.2-0.2
	c-0.1-0.1-0.2-0.2-0.3-0.3l0,0c0,0.1,0,0.1,0,0.2C424.8,132.9,424.8,132.9,424.8,132.9z"/>
<path id="XMLID_16727_" class="st1" d="M423.9,128.7c-0.2,0.1-0.4,0.6-0.4,0.8c-0.1,0.3-0.1,0.3-0.2,0.4l-0.2,0.3l0.2,0.7l0.3,0.2
	c0.1,0.6,0.2,0.6,0.3,0.6c0.2,0.1,0.4,0,0.4-0.2c-0.1-0.4-0.5-0.5-0.7-0.8c0,0,0.1,0,0.4,0.1c0.3,0.1,0.3,0.1,0.3-0.1
	c-0.1-0.2-0.2-0.4-0.2-0.6l0.2-0.4c-0.1-0.2-0.2-0.4-0.2-0.6C423.9,129,424,128.8,423.9,128.7C424,128.7,423.9,128.7,423.9,128.7z"
	/>
<path id="XMLID_16726_" class="st1" d="M423.8,132.8C423.8,132.8,423.8,132.8,423.8,132.8c0.1,0,0-0.4,0-0.5c0,0,0,0,0,0l-0.2-0.3
	c-0.1,0.1-0.2,0.1-0.3,0.2C423.3,132.3,423.6,132.7,423.8,132.8z"/>
<polygon id="XMLID_16725_" class="st1" points="423.9,133.1 423.9,133.5 424.1,133.6 424.1,133.5 "/>
<polygon id="XMLID_16724_" class="st1" points="424.1,133.6 424.1,133.6 424.1,133.6 "/>
<path id="XMLID_16723_" class="st1" d="M424.6,134.9c-0.1-0.1-0.2-0.3-0.2-0.4l-0.3-0.3c0.1,0.3,0.2,0.5,0.3,0.8
	c0,0.1,0.2,0.3,0.2,0.3C424.8,135.4,424.6,135,424.6,134.9L424.6,134.9z"/>
<path id="XMLID_16722_" class="st1" d="M428.3,126.7c-0.1-0.1-0.1-0.3-0.2-0.4c-0.1-0.1-0.3-0.3-0.4-0.4c0,0-0.1,0-0.1-0.1
	c0,0,0,0-0.1,0c0,0-0.1,0-0.1,0c0,0,0,0,0,0c0,0-0.1-0.1-0.2-0.3c0,0-0.1-0.1-0.1-0.1c0,0,0.4,0.9,0.8,1.3
	C428,126.7,428.1,126.7,428.3,126.7z"/>
<path id="XMLID_16721_" class="st1" d="M423.4,148c-1.3-0.1,1.5,3.5,1.6,3.5c0.5,0.5,0.8,0.9-0.2,2.4c2.8,1.6,2.8,1.6,2.2,2.6
	c0,0-1.2,1.9-0.7,3.2c0.1,0.2,0.1,0.2,1.6,1.2c0.5,0.3,0.6,0.9,1.1,1.3c0.1,0.1,0.1,0.1,0.2,0.2c0.1,0.1,0.3,0.1,0.4,0.2
	c1.4-1.1-1.1-4.3,0.9-4c1,0.1,1.6-0.2,2.1-0.5c0.6-0.4,0.6-0.4,1.2-0.1c0,0,0.1,0,0.1,0c0-0.2,0-0.2,0-0.5c-0.1-0.8-0.6-1.4-0.7-2.2
	c-0.1-0.9,0.1-1.8-0.2-2.6c-0.3-0.9-0.3-0.9,0-1.7c0.1-0.4-0.4-0.6-0.4-0.9c0-0.4,0.1-0.8,0-1.2c0,0-0.5-2.2-2.2-3.9l-1.6-0.5
	l-0.2-0.5l-0.3-0.4l-0.5-0.2l-0.3,0.3c-0.1,0.1-0.1,0.3-0.2,0.5c-0.4-0.7-1,0.3-1,0.3l-0.2,0.6c0.1,0.2,0.2,0.4,0.3,0.5
	c-0.1,0.1-0.2,0.1-0.3,0.2c0,0,0,0.1,0,0.1c0.2,0.3,0.6,0.5,0.8,0.7C426,148.2,425.6,148.2,423.4,148z"/>
<path id="XMLID_16720_" class="st1" d="M379.4,98.1C379.3,98.2,379.3,98.2,379.4,98.1c0.1,1.8,2.6,3.1,2.7,3.1c0,0,0-0.1,0-0.1
	c-0.3-0.6-0.2-0.6,0.7-0.7c0,0,0-0.1,0.1-0.1c-0.3-0.2-0.3-0.2-0.4-0.3c0.9-0.1,0.9-0.1,2.1,0.8c0.5,0.4,0.5,0.4,1.9,0.5
	c0.6,0.1,0.7,0.8,1.2,1c0.3,0.1,0.6,0.1,0.9,0.1c0.2,0,0.5,0.1,0.6-0.1c0.2-0.2,0-0.6,0.2-0.8c0.1,0,0.1,0,0.7,0.5l0.5-1.2
	c0,0,0-0.1,0-0.2c0-0.4-0.5-0.3-0.6-0.6c0-0.1,0.2-0.1,0.2-0.2c0.8-0.2,1.4,0,1.6,0.1c0.7,0.2,0.9-0.7,1.5-0.7
	c0.3-0.4,0-1.4,0.7-1.3c0,0,0.1-0.1,0.1-0.1c0-0.4,0.3-0.6,0.3-1c-0.1-0.7-0.2-0.9-0.7-1.5c0.5,0.1,0.5,0.1,0.6,0.1
	c0.1-0.1,0.2-0.4-0.5-1.6c-0.4-0.7-0.4-0.7-0.5-2.1c0-0.4-0.4-0.5-0.7-0.6c-1.6-0.5-2.3-1.8-2.4-1.9l-0.6-1.1
	c-1.8-1.4-1.8-0.9-1.8-0.3c0,0,0,0.7-0.4,0.5c-0.4-0.2-0.3-0.7-0.5-0.9c-0.3-0.3-1.3,0.2-1.5,0.4c-0.3,0.6,0.6,0.9,0.5,1.4
	c-0.7,0.1-1.1-0.6-1.8-0.5c0,0.4,0.6,0.8,0.1,1.2c-0.2-0.1-1-1.2-1.1-1.3c-0.2-0.2-0.7-1-1.2-1c-0.3,0-1,0.5-0.5,1
	c0.6,0.7,0.7,1.2,0.6,1.3c0,0-0.9,1.1-1.6-1.8c-0.9,0.3-0.5,1.5-0.4,1.7c0.3,0.6,0.5,1.5,0.5,1.5l-0.6,1.3c0,0-0.1,0-0.1,0
	c-0.1-0.1-0.2-0.2-0.4-0.9c-0.3-1.1-0.6-1.8-1.1-2.5c0,0-2.2-2.8-2.8-2.9c-0.9,0.3-0.4,1.3,0,2c-0.5,0.6-1.4-0.5-1.7,0.3
	c-0.3,0.7,0.6,0.9,0.7,1.4c0.1,0.5-0.8,0.2-0.8,0.6c0,0.3,0.3,0.4,0.4,0.7c0.4,0.2,1,0.1,1,0.1c0.4-0.1,0.6-0.6,1-0.6
	c0.4-0.1,0.5,0.5,0.9,0.4c0,0,0,0,0.3-0.4c0.3,0,0.7,0.5,0.9,0.7c0,0.2-0.2,0.5-0.1,0.7c0.1,0.4,0.4,0.5,0.6,0.9
	c-0.3,0.4-0.5,0.4-1.1,0.2c-0.9-0.3-1.6,0.3-1.6,0.3c0.1,0.2,0.2,0.5,0.4,0.7c2.9,1.2,2.9,1.2,3.3,1.1c0.1,0,0.2,0,0.2,0l1.8,1.6
	c0.2,0.3-0.1,0.5-0.1,0.7c-0.2,0.2-0.5,0-0.7,0.2c0,0.3,0.2,0.4,0.4,0.5C380.7,98.5,380.7,98.5,379.4,98.1z"/>
<path id="XMLID_16719_" class="st1" d="M456.7,142.4c0,0.2-0.1,0.4-0.1,0.6c0,0.1,0.5,1,0.5,1c0.2,0.4,0.8,0.9,1.1,1
	c0.2,0.1,0.4,0.2,0.1-0.6c-0.1-0.2-0.2-0.5-1.1-1.7L456.7,142.4z"/>
<path id="XMLID_16718_" class="st1" d="M460.1,145.4l-0.2,0.3l-0.5-0.3l0.1,0.5c0.3,0.4,0.3,0.4,0.3,0.4c0.1,0.1,0.2,0,0.3-0.1
	c0.1,0,0.1,0,0.2,0l0.5,0.2c0,0,0.1,0,0.1,0.1c0,0,0,0,0,0c0.1,0,0.2-0.1,0.1-0.4C460.9,145.9,460.4,145.4,460.1,145.4
	C460.1,145.3,460.1,145.3,460.1,145.4z"/>
<path id="XMLID_16717_" class="st1" d="M458.2,141.3c0,0-0.3-0.8-0.5-0.8c0,0,0,0,0,0c-0.1,0.1,0.1,1.1,0.1,1.1
	c0.1,0.2,0.3,0.4,0.4,0.7c0,0,0.6,1.4,0.7,1.5c0,0,0,0.1,0.1,0.1c0,0,0,0.1,0.1,0.1c0.2,0.1,0.2-0.2,0.4-0.2c0.1,0,0.1,0.1,0.2,0.1
	c0.5,1,0.9,0.9,0.9,0.9c-0.1-0.2-0.2-0.5-0.3-0.7c0-0.1,0-0.2,0-0.3c0.2-0.3,0-0.6,0-0.6c-0.1-0.2-0.4-0.3-0.5-0.6
	c-0.1-0.1,0-0.3,0-0.3c0.1-0.2,0.1-0.2,0-0.4c0,0-0.8-1.9-1.6-2c-0.2,0-0.2,0.1,0.2,0.6c0.7,1,0.7,1.4,0.7,1.5
	C458.8,142,458.6,142,458.2,141.3z"/>
<path id="XMLID_16716_" class="st1" d="M463,146.6C463,146.5,463,146.5,463,146.6c-0.1-0.1-0.2-0.2-0.2-0.2c-0.1,0-0.3,0.1-0.2,0.2
	c0.1,0.2,0.2,0.4,0.3,0.6c0,0-0.1,0.1-0.1,0.2c0.1,0.1,0.1,0.1,0.2,0.2c0,0,0.1,0.1,0.1,0.1l0,0c0,0,0.1,0,0.1,0c0.1,0,0.3,0,0.4,0
	l-0.4-0.7C463.2,146.9,463.1,146.7,463,146.6z"/>
<polygon id="XMLID_16715_" class="st1" points="464.6,145 464.6,145 464.6,145 "/>
<path id="XMLID_16714_" class="st1" d="M464,144.6l0.5,0.4l-0.2-0.6c-0.8-1.2-0.8-1.2-1-1.2C463.2,143.2,463.7,144.3,464,144.6z"/>
<path id="XMLID_16713_" class="st1" d="M462.7,133.4c0.2,0.5,0.7,0.9,1,1.4c0.1,0.2-0.1,0.4,0.1,0.6c0,0,0,0,0.1,0.1
	c0,0,0.6,0.2,0.5-0.1c0-0.1,0-0.2-0.2-0.4c-0.2-0.4-0.4-0.8-0.6-1.2c-0.1-0.2-0.1-0.3-0.2-0.5c0,0,0-0.1-0.1-0.1
	c-0.2-0.3-0.2-0.3-0.2-0.4c0-0.1,0-0.1,0-0.1c0,0,0.2-0.2,0-0.5c-0.1-0.2-0.2-0.3-0.2-0.3c-0.1,0-0.1,0-0.1,0.1c-0.1,0-0.2,0-0.3,0
	c0.3,1,0.3,1,0.3,1.1C462.7,133.2,462.6,133.3,462.7,133.4z"/>
<path id="XMLID_16712_" class="st1" d="M463,131.4C463,131.4,463,131.3,463,131.4c0.1,0,0.2,0,0.3,0c0,0,0,0,0,0c0,0,0-0.1-0.1-0.4
	c0,0,0-0.1,0-0.1l-0.6-0.2C462.7,130.9,462.8,131.1,463,131.4C462.9,131.4,462.9,131.4,463,131.4C462.9,131.4,463,131.4,463,131.4z"
	/>
<path id="XMLID_16711_" class="st1" d="M464.6,127.7c0.1,0,0.1-0.2,0.1-0.3c0,0,0-0.1,0-0.1l0,0c0,0-0.2-0.7-0.6-0.7
	c0,0-0.1,0-0.2,0.1c-0.1,0.1,0,0.1-0.1,0.2c0,0-0.1,0-0.1,0.1c0,0,0,0.1,0,0.1c0,0.1,0.1,0.1,0.1,0.2c0,0.1,0,0.2,0,0.2
	c0,0.1,0,0.1,0.1,0.2c0.2,0.4,0.5,0.7,0.7,1.1c0.1,0.3,0.3,0.5,0.4,0.8c0,0,0,0,0,0c0.2,0.1,0.2-0.1,0.2-0.1c-0.1-0.6-0.5-1-0.6-1.5
	C464.5,127.8,464.6,127.8,464.6,127.7z"/>
<path id="XMLID_16710_" class="st1" d="M463.2,125.1C463.1,125,463.1,125,463.2,125.1C463.1,125,463.1,125,463.2,125.1L463.2,125.1
	c0,0-0.1,0.1-0.2-0.1c-0.1-0.1-0.3-0.3-0.4-0.4c0,0,0,0-0.1-0.1l0.1,0.5c0.1,0.2,0.2,0.4,0.3,0.6c0.1,0,0.1,0,0.2,0
	c0.1,0,0.1,0,0.2,0C463.2,125.4,463.2,125.1,463.2,125.1L463.2,125.1z"/>
<path id="XMLID_16709_" class="st1" d="M455.5,118.1c0,0.1,0.1,0.4,0.2,0.5c0,0,0,0,0.1,0c0.1,0,0.1-0.1,0.1-0.1
	c0.1-0.1,0.2,0,0.2,0.1c0.2,0.2,0.3,0.4,0.4,0.6c0.3,0.4,0.4,0.1,0.4,0.1c-0.1-0.1-0.3-0.3-0.4-0.4c-0.1-0.2-0.1-0.4-0.2-0.7l0,0
	c-0.1-0.2-0.2-0.3-0.3-0.4c0,0-0.6-0.5-0.7-0.5c0,0,0,0,0,0c0,0,0,0.1,0.2,0.4c0,0.1,0.1,0.2,0.1,0.3
	C455.5,117.9,455.4,117.9,455.5,118.1z"/>
<path id="XMLID_16708_" class="st1" d="M419.2,75.3c-0.5-0.5-0.6-0.6-0.7-0.6c0,0,0,0,0,0c0,0,0.5,0.8,1,1.4
	c1.4,1.7,1.5,1.8,1.6,1.8c0-0.2-0.2-0.5-0.2-0.5c-0.2-0.8-0.2-1-1-1.9c-0.3-0.3-0.5-0.5-0.6-0.5c0,0,0,0,0,0c0,0,0,0.1,0.3,0.5
	c0.3,0.4,0.4,0.6,0.3,0.7C419.9,76.1,419.9,76.1,419.2,75.3z"/>
<path id="XMLID_16707_" class="st1" d="M420,77.2L420,77.2C420,77.3,420,77.3,420,77.2c0,0.1,0,0.2,0,0.2c0,0.1,0,0.2,0,0.3
	c0,0,0,0,0,0c0,0,0.1,0,0.1,0.1c0,0,0.1,0.1,0.1,0.1c0,0,0,0,0,0c0,0,0.1,0.1,0.1,0.1c0,0,0.1,0.1,0.1,0.1c0.1,0-0.1-0.2-0.4-0.6
	C420.1,77.4,420,77.2,420,77.2z"/>
<path id="XMLID_16706_" class="st1" d="M420.7,79c0-0.1,0-0.3-0.1-0.4c0,0-0.3-0.3-0.5-0.4c0,0,0,0,0,0c-0.1,0.1,0,0.2,0,0.2
	c0,0,0,0,0,0c0.1,0.1,0.1,0.1,0.2,0.2c0.1,0.1,0.2,0.2,0.2,0.3c0,0,0.1,0.1,0.2,0.1h0h0h0h0h0h0h0h0L420.7,79L420.7,79z"/>
<polygon id="XMLID_16705_" class="st1" points="420.8,80.3 420.8,80.3 420.8,80.3 "/>
<path id="XMLID_16704_" class="st1" d="M420.3,79.5c-0.1-0.1-0.2-0.2-0.3-0.4l0.1,0.4c0.1,0.2,0.3,0.3,0.4,0.5l0.3,0.3l0.1-0.2
	L420.3,79.5z"/>
<path id="XMLID_16703_" class="st1" d="M420.4,79.3c0.1,0,0.1,0,0.2,0c-0.1-0.1-0.2-0.3-0.3-0.4l-0.3-0.1
	C420.1,79,420.3,79.2,420.4,79.3z"/>
<path id="XMLID_16702_" class="st1" d="M421.9,81.5c-0.1-0.1-0.2-0.2-0.3-0.3c-0.1,0-0.1-0.1-0.2-0.1c0,0-0.1-0.1-0.2-0.1l0,0
	c0,0,0,0,0.1,0.1c0.1,0.1,0.2,0.3,0.4,0.4C421.8,81.5,421.8,81.5,421.9,81.5z"/>
<path id="XMLID_16701_" class="st1" d="M418.3,74.8c0,0-0.1-0.1-0.1-0.1l0,0c0,0,0.1,0.3,0.1,0.3c0,0.1,0.1,0.2,0.1,0.2l-0.6-0.4
	c0.1,0.2,0.2,0.4,0.3,0.7c0,0,0,0,0,0.1c0.2,0.2,0.4,0.2,0.4,0.1c0.1,0.1,0.2,0.2,0.2,0.3l0.2,0.1c-0.1-0.2-0.2-0.3-0.2-0.5
	c0,0,0-0.1-0.1-0.1C418.7,75.4,418.3,74.8,418.3,74.8L418.3,74.8z"/>
<path id="XMLID_16700_" class="st1" d="M418.1,74l-0.5-0.5c-0.2-0.3-0.4-0.6-0.6-0.9c0,0,0,0-0.1,0c0,0,0,0,0,0c0,0,0,0,0,0
	c0,0.2,0.7,1.6,0.9,1.5c0.1,0.2,0.4,0.5,0.5,0.5l0,0L418.1,74z"/>
<path id="XMLID_16699_" class="st1" d="M417.1,71.5c-0.1-0.1-0.5-0.5-0.7-0.5l0,0c0,0,0,0,0.4,0.6c0.5,0.6,0.5,0.6,0.6,0.7
	c0,0,0,0,0,0c0,0,0,0,0,0c-0.2,0.1,0.3,0.6,0.6,0.8c0.1-0.4,0.1-0.4,0.1-0.5C417.8,72.1,417.4,71.9,417.1,71.5z"/>
<path id="XMLID_16698_" class="st1" d="M418.4,73.7c0,0,0,0.1,0.1,0.2l0.4,0.4c0.1,0.1,0.2,0.1,0.4,0.2c-0.1-0.2-0.2-0.3-0.2-0.4
	C418.9,73.9,418.5,73.7,418.4,73.7z"/>
<path id="XMLID_16697_" class="st1" d="M417.2,70c-0.1-0.2-0.3-0.3-0.5-0.5c-0.1-0.1-0.1-0.2-0.2-0.2c0,0,0,0,0,0
	c0,0-0.2-0.2-0.3-0.2c0,0-0.1,0,0,0.1c0,0.1,0,0.1,0,0.2l0.6,0.5C417.3,70.1,417.3,70.1,417.2,70C417.3,70.1,417.3,70.1,417.2,70z"
	/>
<path id="XMLID_16696_" class="st1" d="M415.2,68c0,0,0,0,0.1,0.2c0,0.1,0,0.1,0,0.2c0,0,0,0,0,0c0,0,0,0.1,0,0.1
	c0.1,0.2,0.4,0.3,0.4,0.3C415.8,68.9,415.4,68.3,415.2,68C415.2,68.1,415.2,68,415.2,68z"/>
<path id="XMLID_16695_" class="st1" d="M415.2,67.6c0,0-0.1,0,0.1,0.2c0.2,0.2,1.1,1,1.1,1c0.1,0,0.1,0.1,0.4,0.1c0.1,0,0.1,0,0-0.1
	c-0.1-0.1-0.4-0.4-0.5-0.5C415.4,67.6,415.4,67.6,415.2,67.6C415.3,67.6,415.3,67.6,415.2,67.6z"/>
<path id="XMLID_16694_" class="st1" d="M416.2,68c0.1,0.1,0.3,0.3,0.4,0.4c0.2,0.1,0.4,0.2,0.5,0.3c0.2,0.1,0.2,0.1,0.2,0.1
	c0,0,0-0.1-0.1-0.1c-0.1-0.1-1-1-1.2-1C416.1,67.8,416.1,67.9,416.2,68z"/>
<path id="XMLID_16693_" class="st1" d="M416.4,66.6l0.2,0.2c0.2,0.1,0.4,0.2,0.6,0.4c0,0,0.1,0.2,0.2,0.2c0,0,0-0.2-0.3-0.4
	c-0.2-0.2-0.4-0.4-0.4-0.4C416.6,66.5,416.5,66.5,416.4,66.6C416.5,66.5,416.4,66.5,416.4,66.6z"/>
<path id="XMLID_16692_" class="st1" d="M414.9,65.1L414.9,65.1L414.9,65.1C414.9,65.1,414.9,65.1,414.9,65.1
	C414.8,65.1,414.8,65.1,414.9,65.1c-0.1,0-0.1,0-0.1,0c0,0,0,0,0,0c0,0,0,0,0,0c0,0,0,0-0.1,0c0,0.1,0.2,0.4,0.2,0.4
	c0-0.1,0-0.1,0-0.2c0,0,0-0.1,0-0.1c0.1,0,0.3,0.2,0.4,0.3c0.1,0.1,0.4,0.4,0.5,0.4c0.1,0,0-0.1,0-0.1c0,0-0.1-0.1-0.1-0.2
	c-0.1-0.1-0.2-0.2-0.3-0.4c-0.1-0.2-0.2-0.5-0.4-0.8c0,0,0,0-0.1-0.1c0,0,0,0,0,0c0,0.1,0,0.1,0,0.2c0,0,0,0.1,0,0.1c0,0,0,0,0,0
	c0.1,0.1,0.2,0.2,0.3,0.4L414.9,65.1L414.9,65.1z"/>
<path id="XMLID_16691_" class="st1" d="M416.2,65.8L416.2,65.8c-0.1-0.1-0.1-0.1-0.1-0.1c-0.1,0-0.1,0,0.1,0.3
	c0.1,0.1,0.3,0.3,0.4,0.4c0.1,0.1,0.3,0.2,0.4,0.3c0,0,0-0.1-0.1-0.2C416.8,66.5,416.2,65.8,416.2,65.8z"/>
<path id="XMLID_16690_" class="st1" d="M414.5,63.5L414.5,63.5l-0.3-0.4c0,0-0.1,0.1-0.1,0.1C414.3,63.6,414.5,63.5,414.5,63.5z"/>
<path id="XMLID_16689_" class="st1" d="M414.7,62.8l-0.2-0.3l-0.2-0.2c-0.1,0-0.2,0-0.2,0c0,0,0,0,0,0.1l0.5,0.4
	C414.5,62.8,414.6,62.8,414.7,62.8z"/>
<path id="XMLID_16688_" class="st1" d="M414.3,62.9c-0.1-0.1-0.1-0.1-0.4-0.2l0.1,0.1L414.3,62.9L414.3,62.9z"/>
<path id="XMLID_16687_" class="st1" d="M432.4,69.8c-2.2-2.1-2.7-2.4-2.7-2.4c0,0,0,0,0.3,0.3c1,0.9,2,1.9,2.9,2.8l0.5,0.5
	c0.6,0.6,0.6,0.6,0.6,0.6h0h0h0h0h0h0h0c0,0,0,0,0,0C434,71.5,434,71.5,432.4,69.8c0.1,0.1,0.2,0.3,0.4,0.4
	C432.6,70.1,432.6,70.1,432.4,69.8z"/>
<path id="XMLID_16686_" class="st1" d="M418,56.8c0.5,0.4,1,0.8,1.6,1.3C419,57.6,418.4,57.2,418,56.8z"/>
<path id="XMLID_16685_" class="st1" d="M382.9,32.4c2,1.2,3.9,2.3,5.9,3.5C386.8,34.7,384.6,33.4,382.9,32.4z"/>
<path id="XMLID_16684_" class="st1" d="M390.4,37c4,2.5,7.7,5.5,11.8,7.8c-0.1-0.1-0.3-0.2-0.4-0.3c2,1.5,2,1.5,17.2,13.2
	c-0.5-0.4-1.1-0.9-1.6-1.3c0.2,0.1,0.4,0.3,0.6,0.5c-1.4-1.2-2.8-2.3-4.2-3.4c-7.9-6.2-14.3-10.6-16.4-12c-2.8-1.9-5.7-3.7-8.6-5.5
	c0.8,0.5,1.5,1,2.2,1.4C390.8,37.2,390.6,37.1,390.4,37z"/>
<path id="XMLID_16683_" class="st1" d="M419.5,58.1c1,0.8,2,1.7,3,2.5C422.5,60.6,421,59.3,419.5,58.1z"/>
<path id="XMLID_16682_" class="st1" d="M379.7,30.5c1.1,0.6,2.1,1.2,3.2,1.8C381.1,31.3,379.8,30.6,379.7,30.5z"/>
<path id="XMLID_16681_" class="st1" d="M375.6,36.5c-0.2-0.2-0.3-0.2-1.1-0.8l-15.4-10.1c0,0,0-0.1,0.1-0.2
	c-0.1-0.1-0.1-0.1-0.2-0.2c-0.5-0.3-14-6.1-14.1-6.2c0.1,0.1,0.1,0.1,1.1,0.6c2.8,1.3,7.6,3.7,8.2,4.2c-2.4-1-4.5-2.6-7.1-3.3
	c0.9,0.7,2,1,3,1.6c-1.7-0.7-3.2-1.8-4.9-2.3c0,0-0.1,0.1-0.1,0.1c0.6,1,14.1,7.5,14.2,7.5c0,0,0-0.1,0-0.2
	c-0.5-0.7-1.3-0.9-1.9-1.5c1.4,0.3,1.4,0.3,1.4,0.3c1.2,0.7,1.6,2.1,2.9,2.7c0.6,0.2,1.2,0.1,1.8,0.4c0,0,1.7,1,1.8,1.3
	c-0.6-0.2-0.7-0.1-0.9-0.1c0,0,2.1,1.2,2.2,1.3l4,2.1c-0.1-0.1-0.1-0.3-0.1-0.4C375.2,36.5,375.2,36.5,375.6,36.5z"/>
<path id="XMLID_16680_" class="st1" d="M360.1,25.7C360.1,25.7,360.1,25.7,360.1,25.7C360.1,25.7,360.1,25.7,360.1,25.7
	c0,0.1,0.1,0.2,0.3,0.3c-0.5-0.2-0.6-0.2-0.6-0.2c0,0.1,1.3,0.8,1.6,0.9c0.1,0,0.8,0.3,0.8,0.3c0.1,0,0.2-0.1-1.2-0.9
	C360.6,25.8,360.3,25.7,360.1,25.7z"/>
<path id="XMLID_16679_" class="st1" d="M364.3,28c1.1,0.5,1.2,0.8,1.2,0.8c0,0-0.1,0-0.1,0c0.5,0.5,1.2,0.7,1.8,1
	c0.4,0.2,0.8,0.6,1.2,0.9c0.2,0.1,0.4,0.2,0.6,0.3c1.5,0.9,1.7,0.8,1.7,0.8c-0.1-0.1-0.1-0.1-0.5-0.4c-0.2-0.1-0.5-0.4-0.3-0.4
	c0.3-0.1,0.4,0.4,0.7,0.3c-0.3-0.3-3-2-3-2h0c-0.4-0.2-1.1-0.7-1.5-0.7c0,0.1-0.1,0.1-1.2-0.5c-0.2-0.1-1.6-1-2.1-1.1l0.8,0.8
	C363.7,27.7,363.9,27.8,364.3,28z"/>
<path id="XMLID_16676_" class="st1" d="M344.8,17.9c-0.1,0-0.3-0.1-0.4-0.1c0.2,0.1,0.4,0.2,0.6,0.3c-1-0.1-1.7-1-2.8-1
	c0,0,4.1,2.2,5.1,2.4c0.4,0.1,0.8,0,1.2,0.2c0.4,0.2,0.6,0.8,1,1c0.1,0,0.2,0,0.2,0c0.4,0,0.7,0.1,2.1,0.8c1.2,0.6,1.9,0.8,1.9,0.8
	c0,0,0,0,0.1,0c-0.5-0.4-1.1-0.7-1.7-1.1c3.4,1.6,3.4,1.6,3.5,1.6c-1.4-0.9-2.8-1.8-4.3-2.6c-3.3-1.7-5.7-2.4-8.2-3.1
	C343.6,17.4,344.2,17.7,344.8,17.9z M347.6,19.3c-0.7-0.2-1.3-0.6-1.9-1C346.4,18.5,347,18.8,347.6,19.3z"/>
<path id="XMLID_16675_" class="st1" d="M362,25.6c-0.1-0.1-0.9-0.6-1.2-0.7l0,0c-0.7-0.4-0.9-0.5-1.4-0.6c0.1,0.1,0.4,0.3,0.8,0.5
	C360.2,24.8,361.9,25.6,362,25.6z"/>
<path id="XMLID_16674_" class="st1" d="M359.3,28.4L359.3,28.4c-0.4-0.3-4.8-2.9-5.8-3c0,0,0,0,0,0c0,0.1,5.9,3.1,5.9,3.1
	C359.4,28.5,359.3,28.5,359.3,28.4z"/>
<path id="XMLID_16671_" class="st1" d="M338,12.4c0,0,0.1,0.1,0.4,0.2c1,0.4,2,0.8,2.9,1.2c1.3,0.5,2.1,0.8,2.3,0.8
	c-0.1,0-0.1-0.1-0.2-0.1c0.2,0.1,0.4,0.2,0.6,0.2c-0.2-0.1-1.1-0.4-1.7-0.7c0,0-2.5-0.9-2.9-1.2c0.4,0.1,0.8,0.3,1.2,0.4
	c-0.2-0.1-0.3-0.1-0.5-0.2c-0.5-0.2-0.9-0.3-1.2-0.4c1,0.3,2.1,0.6,3.1,1.1c-0.3-0.1-0.6-0.2-0.9-0.3l1.3,0.5
	c0.7,0.2,1.7,0.6,1.9,0.7c-0.2,0-0.3-0.1-0.5-0.1c0,0,4,1.6,4.4,1.7c-0.4-0.2-0.8-0.3-1.1-0.5c0.4,0.2,0.8,0.3,1.2,0.5
	c-0.5-0.2-7.7-3.1-8.7-3.5l0,0c0,0-1.6-0.6-2.3-0.8c0.1,0,0.2,0.1,0.4,0.1c-0.3-0.1-0.5-0.2-0.8-0.3c0.4,0.2,0.8,0.4,1.3,0.6
	C338.2,12.4,338.1,12.4,338,12.4C338,12.4,338,12.4,338,12.4z M338.8,12.6c-0.1,0-0.1,0-0.1,0l0,0l0,0l0,0l0,0c0,0-0.1,0-0.1-0.1
	C338.7,12.6,338.7,12.6,338.8,12.6z"/>
<path id="XMLID_16670_" class="st1" d="M345.3,15c-0.3-0.1-0.5-0.2-0.7-0.3C344.6,14.7,344.9,14.8,345.3,15z"/>
<path id="XMLID_16669_" class="st1" d="M345.7,15.1c-0.1,0-0.3-0.1-0.4-0.1c0.8,0.3,2.1,0.8,2.2,0.8c-0.1-0.1-0.7-0.3-0.8-0.3
	C346.7,15.5,345.7,15.1,345.7,15.1C345.6,15.1,345.7,15.1,345.7,15.1z"/>
<path id="XMLID_16668_" class="st1" d="M347.5,15.8c0,0,1.4,0.6,1.6,0.6c-0.1,0-0.2-0.1-0.2-0.1c0.1,0,0.1,0,0.2,0.1c0,0,0,0,0,0
	c0,0-0.8-0.3-1.6-0.6c0.1,0,0.2,0.1,0.3,0.2C347.6,15.8,347.6,15.8,347.5,15.8z"/>
<path id="XMLID_16667_" class="st1" d="M346.2,15.2c0.3,0.2,0.7,0.3,1,0.4C346.7,15.4,346.3,15.3,346.2,15.2z"/>
<path id="XMLID_16666_" class="st1" d="M333.9,10.8l0.3,0.1L333.9,10.8l-0.5-0.2l-0.4-0.1c0,0,0,0,0,0l0.4,0.1L333.9,10.8z"/>
<path id="XMLID_16665_" class="st1" d="M344.9,14.6c-0.9-0.3-1.3-0.5-1.3-0.5c0,0,2.5,1,2.6,1C346.1,15,346.1,15,344.9,14.6
	L344.9,14.6z"/>
<path id="XMLID_16664_" class="st1" d="M343.9,14.1c-0.5-0.2-1.3-0.5-1.4-0.5c0,0,1.5,0.6,1.7,0.6C344.1,14.2,344,14.2,343.9,14.1
	L343.9,14.1z"/>
<path id="XMLID_16663_" class="st1" d="M345,14.6c-0.2-0.1-0.4-0.1-0.6-0.2c-0.3-0.1-0.6-0.2-0.9-0.3c0.2,0.1,0.3,0.1,0.5,0.2
	C344.4,14.4,344.7,14.5,345,14.6z"/>
<path id="XMLID_16662_" class="st1" d="M340.3,12.9l0.5,0.2l0.7,0.3h0c0,0,0,0-0.1,0h0C341.1,13.2,340.7,13,340.3,12.9z"/>
<path id="XMLID_16661_" class="st1" d="M342.1,13.4c0,0,0.1,0.1,0.2,0.1c0,0,0,0,0,0c0,0,3.1,1.1,3.2,1.2c-0.2-0.1-0.4-0.2-0.7-0.3
	C344.8,14.4,342.3,13.5,342.1,13.4z"/>
<path id="XMLID_16660_" class="st1" d="M340.9,13L340.9,13C340.9,13,340.9,13,340.9,13l0.7,0.3c0.1,0,0.2,0.1,0.3,0.1c0,0,0,0,0.1,0
	c-0.1,0-0.1,0-0.2-0.1C341.6,13.2,341,13,340.9,13z"/>
<path id="XMLID_16659_" class="st1" d="M341.3,13.2c0,0,0.1,0,0.1,0.1c0.2,0.1,0.4,0.2,0.7,0.2l0.5,0.2l-0.8-0.3
	C341.6,13.3,341.4,13.2,341.3,13.2z"/>
<path id="XMLID_16658_" class="st1" d="M340,12.7c0,0,0.3,0.1,0.7,0.3c0.2,0.1,0.5,0.2,0.7,0.3c-0.3-0.1-0.6-0.2-1-0.4
	C340.3,12.8,340.1,12.8,340,12.7z"/>
<path id="XMLID_16657_" class="st1" d="M340.4,12.7c-0.1,0-0.3-0.1-0.4-0.2c0,0,4.6,1.7,4.8,1.7c-0.2-0.1-0.3-0.1-0.5-0.2
	c-0.8-0.3-1.6-0.6-2.4-0.9c-0.1,0-0.7-0.2-0.7-0.2c0,0,0,0,0.1,0C340.9,12.9,340.6,12.8,340.4,12.7z"/>
<path id="XMLID_16656_" class="st1" d="M346.2,14.9C346.3,14.9,346.3,14.9,346.2,14.9C346.2,14.9,346.2,14.9,346.2,14.9L346.2,14.9
	c-0.5-0.2-2.4-0.9-2.6-1C343.8,14,346.2,14.9,346.2,14.9C346.3,14.9,346.3,14.9,346.2,14.9z"/>
<path id="XMLID_16655_" class="st1" d="M347.4,15.3c-0.2-0.1-0.6-0.2-0.6-0.2l0,0l0.3,0.1L347.4,15.3z"/>
<path id="XMLID_16654_" class="st1" d="M334.2,10.5c-0.1,0-0.1,0-0.2,0c0.3,0.1,0.6,0.2,0.9,0.3c-0.1,0-0.1,0-0.2-0.1
	c0.1,0,5.7,2,5.7,2c0,0-1.1-0.4-1.6-0.6l0,0c0,0-4.1-1.4-6-2C333.3,10.3,333.8,10.4,334.2,10.5z"/>
<path id="XMLID_16653_" class="st1" d="M331.8,9.8c-0.3-0.1-0.6-0.2-0.9-0.3c0.1,0,2.6,0.9,2.7,0.9c-0.1,0-0.1,0-0.2-0.1
	c0,0,0.1,0,0.1,0C333.3,10.2,332.7,10.1,331.8,9.8z"/>
<path id="XMLID_16652_" class="st1" d="M329.9,9.1c0,0-2.8-0.9-4.2-1.3c2.7,0.8,5.4,1.7,8,2.5C333.3,10.2,330.2,9.2,329.9,9.1z"/>
<path id="XMLID_16651_" class="st1" d="M337.7,11.9C337.7,11.9,337.7,11.9,337.7,11.9c0,0,0.1,0.1,0.2,0.1c0.2,0.1,0.4,0.2,0.7,0.2
	c0.2,0.1,0.4,0.1,0.6,0.2c0,0,0.1,0,0.2,0c-0.1,0-0.2-0.1-0.3-0.1c-0.2-0.1-0.4-0.1-0.6-0.2C338.2,12,338,11.9,337.7,11.9z"/>
<path id="XMLID_16650_" class="st1" d="M337.5,11.9c0.2,0.1,0.4,0.2,0.7,0.2c0,0,0,0,0,0c-0.4-0.1-1.6-0.6-2.1-0.7
	C336.1,11.4,336.7,11.6,337.5,11.9C337.5,11.9,337.5,11.9,337.5,11.9z"/>
<path id="XMLID_16649_" class="st1" d="M339.3,12.4L339.3,12.4c-0.3-0.1-0.5-0.2-0.8-0.3C338.8,12.2,339.3,12.4,339.3,12.4
	C339.3,12.4,339.3,12.4,339.3,12.4z"/>
<path id="XMLID_16648_" class="st1" d="M336.5,11.5c0.2,0,0.4,0.1,0.6,0.2C336.9,11.6,336.7,11.5,336.5,11.5c-0.6-0.3-2.6-0.9-3.2-1
	c0,0,1.6,0.5,1.7,0.6c-0.1,0-0.1-0.1-0.2-0.1C335.4,11.1,335.9,11.3,336.5,11.5L336.5,11.5z"/>
<path id="XMLID_16647_" class="st1" d="M332.9,10.2c0.6,0.2,1.2,0.5,1.9,0.6c-0.2-0.1-0.4-0.1-0.6-0.2l0,0c-0.1,0-0.2-0.1-0.3-0.1
	c0,0,0,0,0,0c-0.6-0.2-1.2-0.4-1.8-0.6C332.5,10.1,333,10.3,332.9,10.2C333,10.3,332.9,10.3,332.9,10.2z"/>
<path id="XMLID_16646_" class="st1" d="M332.1,10c-0.5-0.2-2.9-1-2.9-1l0,0c-0.1,0-0.3-0.1-0.4-0.1c0.1,0,0.1,0.1,0.2,0.1l-0.2-0.1
	c0,0,0,0,0,0c0.8,0.3,1.7,0.5,2.5,0.8c0,0,0,0-0.1,0C331.5,9.8,331.8,9.9,332.1,10z"/>
<path id="XMLID_16645_" class="st1" d="M326.5,8.2L326.5,8.2c-0.2-0.1-0.5-0.1-0.7-0.2c0.1,0,2,0.6,2.1,0.6c-0.1,0-0.3-0.1-0.4-0.1
	c0.2,0.1,0.5,0.2,0.7,0.2C327.7,8.5,327.1,8.4,326.5,8.2z"/>
<path id="XMLID_16644_" class="st1" d="M323.9,7.5c0.1,0,0.3,0.1,0.4,0.1c-0.3-0.1-0.6-0.2-0.9-0.3c-0.2-0.1-0.4-0.1-0.6-0.2
	c-0.2-0.1-1.2-0.3-1.3-0.3C321.6,6.9,323.9,7.5,323.9,7.5C323.9,7.5,323.9,7.5,323.9,7.5z"/>
<path id="XMLID_16643_" class="st1" d="M327.5,8.5c-0.4-0.1-0.8-0.3-1.2-0.4c0.3,0.1,0.6,0.2,0.9,0.3c0.4,0.1,0.8,0.3,1.2,0.4
	C328,8.7,327.7,8.6,327.5,8.5z"/>
<path id="XMLID_16642_" class="st1" d="M332.2,10c-0.5-0.2-1.3-0.4-1.3-0.4c0,0,2.1,0.7,2.3,0.7C332.9,10.2,332.6,10.1,332.2,10z"/>
<path id="XMLID_16641_" class="st1" d="M336,11.2c-0.2-0.1-0.3-0.1-0.5-0.2l0,0c-0.4-0.1-0.7-0.2-1.1-0.3l0,0
	c-0.2-0.1-0.4-0.1-0.5-0.2C334,10.6,335.8,11.2,336,11.2z"/>
<path id="XMLID_16640_" class="st2" d="M355.6,62.4c1.6,1.1,2.3,3.2,4.3,3.9c1.1-3.2-2.7-3.9-3.5-6.2c3,1.9,4.7,5.7,8.8,6
	c0,0-2-2.5-2.7-3.8c0.1-0.2,0.2-0.5,0.3-0.7c-2.5-3.5-7.8-3.4-9.7-7.6c1.8,0.6,2.8,2.9,5.1,2.5c-1.8-2.5-5-3.7-6.3-6.6
	c0.1-0.1,0.3-0.3,0.4-0.4c2.2,1.4,2.2,1.4,2.7,1.4c0.1-0.1,0.3-0.3,0.4-0.4c-0.8-1.6-2.9-1.9-3.6-3.6c0.6-0.2,0.8-0.3,1-1.5
	c0.1,0.1,0.3,0.3,0.5,0.5c-1.2-1.6-3.5-1.9-4.4-3.7c0.2-0.3,0.6-0.5,1-0.6c-0.6-1.7-0.6-1.7-4.3-3.5c-3.2-3-3.2-3-3.6-4.4
	c1,0.1,1.7,0.7,2.7,0.8l-14.9-11.7c-8-5.6-8-5.6-8.1-5.8h0h0h0h0h0h0h0h0c0.7,0.1,0.7,0.1,2,0.5c0.1-0.1,0.3-0.3,0.5-0.4
	c-0.8-1-2.2-0.7-3.1-1.5c0.1-0.1,0.3-0.3,0.5-0.4c-1.4-1.3-1.5-1.4-3.2-2.3c-4.3-2.2-5.1-1.7-5.7-1.3c0.3,0.7,0.3,0.7,2.4,2.9
	c-0.1,0.1-0.2,0.3-0.3,0.5c-2.2-1.4-3.7-3.6-6.3-4.5c-0.2,0.1-0.4,0.3-0.5,0.4l-1.7-0.4c-3.9-1.4-3.9-1.4-4.2-1.9
	c0.8,0,1,0.1,1.8-0.1c0,0-5.8-2.5-7.2-2.9c-1.8-0.5-3.9,0.4-5.6-1.1c0.4,0,0.8,0,1.2,0c-3.6-1.2-5.2-1.2-6.3-1.3
	c-0.1,0.1-0.2,0.2-0.3,0.3c1.8,0.8,1.8,0.8,2.1,1c-0.8-0.2-1.5-0.4-2.3-0.5c8.2,3.4,8.2,3.4,8.7,4c-2.2-0.9-4.2-2.1-6.5-2.7
	c0.2,0.3,0.5,0.7,0.8,1c-1.8-0.6-1.8-0.6-2.6-0.8c3,1.5,6.8,1.6,9.2,4.4c-4,0.9-5.8-3.4-9.2-3.8c2.8,2,2.8,2,3,2.7
	c-2.8-0.6-4.8-5.1-8.1-2.8c2.4,1.6,2.4,1.6,2.4,1.7c0,0.2,0,0.5-0.1,0.7c-1.6-0.6-1.6-0.6-2.3-0.7c1,0.9,1,0.9,1.1,1.6
	c-0.2,0.1-0.4,0.3-0.5,0.4c-0.3-0.1-0.8-0.1-1.1,0c0.1,0.2,0.1,0.4,0.2,0.6c-0.2,0.3-0.6,0.7-0.8,0.9c0.7,0.9,1.9,1.1,2.5,2.1
	c-0.3,0.7-0.3,0.7,0.1,2.5c-1.4,0.2-2.7-0.5-4.1,0.1c-1,0.4-0.7,1.8-1.7,2.2c-0.2,0.1-0.4,0-0.6,0.1c-0.2,0.1-0.3,0.2-0.5,0.3
	c3.2,2,3.2,2,3,3.3c0.9,0.4,1.3,0.6,4.8,0.4c0.1,0.1,0.3,0.3,0.4,0.5c-1.3,1.2-1.3,1.2-4.5,0.4c-0.5,0.4-0.8,1-1.2,1.5
	c0.7,0.8,1.8,1.1,2.5,1.9l3.2,4.4c0.2,0,0.4-0.1,0.6-0.1c0-0.2,0.1-0.5,0.1-0.7l9.6,1c2.9,1.6,3.2,5.3,5.7,7.2
	c0.4,0.7,0.7,1.4,0.8,2c-0.1,0.1-0.3,0.3-0.4,0.4c0.7,0.9,0.8,0.9,1.8,2.1c0,2.1,0,2.1,0.9,3.9c-0.2,0.3-0.4,0.8-0.5,1.2
	c0.6,0.9,1.9,1.1,2.2,2.3c0.4,1.7-0.9,3.1-0.6,4.8c2.4,1.4,5.3,0,7.7,1.4c0.2,1-0.4,2-0.1,2.9c-0.2,0.1-0.4,0.2-0.6,0.3
	c-2.7-0.7-2.7-0.7-4.2-0.1c-0.2,1,0.5,1.8,0.7,2.8c-0.2,0.1-0.4,0.3-0.5,0.5c-0.1,0.1-1.6,5.9,4.8,4.4c0.6,0.5,0.6,0.5,3,5.9
	c-1.1,0.5-2.6,1.1-3.8,1.6c-0.1,2.1-1.5,4.2-0.2,6.3c1.3,2.2,1.3,2.2,2.1,6c0,0.2,0.1,0.5,0.2,0.7c0.5,1.8,2.3,2.5,3.2,3.9
	c1.2,1.9-1.7,3.4-0.6,5.3l7.4,11.9c2.5,2.4,6.1,1.9,8.9,3.4c-0.1,3.3,4.6,3.9,5.2,3.8c0-0.4-0.2-1-0.2-1.5c0.2-2.5,2.6-4.1,2.4-6.6
	c-0.1-2-2.3-3.4-1.3-5.6c4-1.5,1.3-5.9,2.1-8.8c1.1-1.8,1.1-1.8,4.7-4.7c0.1-1.5-1.1-2.9-0.4-4.4c1.9,1,2.6,3.7,5.3,3.6
	c1.5-0.1,2.5-0.9-0.8-4.2c0.6-0.4,0.6-0.4,5.9-0.3c0.1-0.2,0.2-0.4,0.2-0.5c0,0-2.4-5.2-2.7-7.3c0.1,0.1,0.3,0.3,0.5,0.5
	c9.1-1,9.1-1,13.4-6.5c-2.4-1.3-5.3-0.4-7.6-2C358.3,67.4,356.3,64.1,355.6,62.4z"/>
<path id="XMLID_16639_" class="st2" d="M262.2,25.3c0,0,0.1-0.1,0.1-0.1c-0.2-0.4-0.5-1.2,0.5-1.1c0.9,0.1,1.3,0.9,2,1.3
	c2.5,1.1,6.3,1.1,3.1-1.2c0,0-3-2.4-2.9-3.3c1.6-0.5,2.1,2,3.8,1.2c1.8-0.9,1.5-1.7,1.4-2.3c-0.1-0.4-0.1-0.4,0.8-0.8
	c0.7-0.3,1.6,0.1,2.1-0.7l0.2-1.8c0-0.2-0.2-0.5-0.3-0.7c-2-3.2-0.8-2.9,0.2-2.6c0.3,0.1,0.3,0.1,0.4,0c0,0,0-0.1,0-0.1
	c0.5-0.7,1.4-0.9,1.8-1.7c0.4-0.7,0.4-1,0.4-2.3c0.7-0.4,1.6-0.1,2.3-0.5c0-0.1,0-0.1,0-0.2c-0.4-0.1-0.8-0.1-1.1-0.4
	c0-0.1,0-0.1,0-0.2c0.8-0.6,0.8-0.6,0.5-1.3c0.4-0.4,1.2,0,1.4-0.7c0,0-0.1-0.1-0.1-0.1c0,0-3.4-3.2-14.4-4.5c0,0,0,0-0.1,0
	c0.3,0.4,0.6,0.7,0.5,1c-0.5-0.3-1.7-0.9-2.4-1c0,0,0,0.1-0.1,0.1c0.2,0.2,0.2,0.2,1.1,1.2c0,0.1,0,0.1,0,0.2
	c-1.2,0.5-2-1.2-3.2-0.4c0,0.4-0.4,0.7-0.2,1c0.2,0.3,0.6,0.3,0.8,0.5c0.4,0.4,0.5,1,0.9,1.4c0.4,0.5,1.1,0.3,1.6,0.5
	c-1.3,0.5-1.3,0.5-1.6,0.7c0,0,0,0.1,0,0.2l3.8,1.3c0.4,0.1,1.8-0.4,1.8-0.4c0.3-0.1,0.4-0.2,1.3,0.1c0,1.4-1.8,0.7-2.6,1.2
	c0.2,0.9,1.2,1.4,1.5,2.2c0,0-0.1,0.1-0.1,0.1c-2.7-2.8-3.7-3.7-5-4c0,0-0.1,0.1-0.1,0.2c0.5,1.2,0.5,1.2,0.8,2.3
	c0.2,0.6,0.1,1.3,0.4,1.9c0.4,0.8,1.3,1,1.7,1.8c0,0,0,0.1-0.1,0.2c-0.2,0-0.3,0-1-0.1c-1.2-0.3-2.7,0.4-2.7,0.4c0,0-1.5,2.4-1.4,3
	c0.8,0.4,1.4-0.3,2.1-0.4c1.9,4.3-1.5,2.6-2.9,0.7c-0.2-0.3-0.4-0.5-0.6-0.4c0,0-0.2,2.3,0.4,3.1c-0.2-0.1-0.4-0.1-0.6-0.2
	c-1.7,1.5-2.7,1.4-3,1.4c-0.2,0-0.5,0.1-0.7,0.2C251.8,23.3,262.1,25.2,262.2,25.3z"/>
<path id="XMLID_16638_" class="st2" d="M255.9,13.9c0.1,0.2-0.1,0.3,0,0.5c0.2,0.2,2.8,1.1,2.9,1.1c0.3-0.3-0.1-1,0.5-1.1
	c0.6-0.1,0.6-0.1,1-0.6c0.1-0.1,0.1-0.2,0.1-0.3c0.1-0.2,0.1-0.3,0.2-0.3c0.2-0.2,0.5-0.1,0.8,0c0.5-0.4,0-0.9,0.1-1.3
	c0.4,0,0.7,0.4,1.1,0.4c0.4-0.1,0.2-0.5,0.5-0.6c0-0.2-0.2-0.8-0.6-1.3c0.1-0.2,0.1-0.2,0-0.3c-0.3,0-0.6,0.1-1,0c0,0,0,0,0-0.1
	c0.2-0.2,0.6-0.1,0.8-0.4c-0.1-0.1-0.1-0.1,0-0.8c0-0.4,0-0.4-0.2-0.8c0,0,0-0.1,0-0.1c0,0,0,0,0.1,0c0,0-0.5-0.9-0.9-1.1
	c0,0.1,0,0.1-0.2,0.1c-0.6-0.1-1.1-0.9-1.1-0.9c-0.1-0.3-0.1-0.3,0.4-0.7l-0.8-1.3c-0.2-0.2-0.3-0.3-0.4-0.4c-0.1-0.1-0.2-0.2-1-0.2
	c0,0-0.1,0-0.1,0.1c0.2,0.3,0.6,0.4,0.8,0.7c-0.3,0.1-0.8-0.1-1,0.4c-0.1,0.2-0.1,0.2,0.4,1c0,0,0,0.1,0,0.1c-0.5,0.3-1.1-0.3-1.6,0
	c-0.1,0.7,0.6,0.8,0.8,1.2c-0.3,0.2-0.9-0.1-1.1,0.4c-0.2,0-0.3-0.1-0.5-0.1c-0.2,0.6,0.5,1,0.5,1.5c0,0.3-0.2,0.6-0.2,0.9
	c0,0,0,0.1,0,0.1c0,0.1,0,0.1,0.5,0.5c-0.5-0.3-0.7-0.2-0.5,0.2c0.2,0.6,0.2,0.6-0.6,1.3c0,0-0.6,0.8-0.2,1.3L255.9,13.9z"/>
<path id="XMLID_16637_" class="st2" d="M251,12.9c-0.1,0.2-0.1,0.5-0.1,1c2,0.5,2,0.5,2.1,0.5c0.3-0.1,0.4-0.8,0.4-1.1
	c0-0.4,0-0.8-0.1-1c-0.1-0.4-0.4-0.8-0.6-1.1c-0.1-0.1-0.1-0.3-0.1-0.4c-0.1-0.2-0.6-0.7-0.7-0.7c-0.2,0.1-0.1,0.4-0.2,0.5
	c-0.1,0.2-0.4,0.4-0.5,0.6c0,0,0,0.1-0.1,0.2c-0.1,0.3,0,0.5-0.1,0.8c0,0.2-0.1,0.4-0.1,0.6c0,0,0,0,0,0.1
	C250.8,12.9,250.9,12.9,251,12.9C250.9,13,250.9,12.9,251,12.9z"/>
<path id="XMLID_16636_" class="st2" d="M250.7,15.6c0,0,0,0.1-0.2,0.1c-0.1,0-0.2,0-0.3,0c-0.3,0-0.3,0-0.4,0.1c0,0,0,0,0,0
	c0,0.1,0.9,0.6,1.9,0.8c0.2,0,0.4,0,0.5,0.2c0.1,0.1,0.2,0.2,0.2,0.3c0,0.1,0.1,0.2,0.1,0.2c0.2,0.1,0.6,0,0.6,0c0,0,0,0-0.2-0.4
	c-0.2-0.2-0.1-0.3,0-0.4c0,0,0.1-0.1,0.1-0.2c0-0.1-0.1-0.2-0.3-0.4c-0.1-0.1-0.3-0.1-0.4-0.2c-0.1,0-0.2,0-0.2,0
	c-0.2,0-0.3,0-0.5,0c-0.3,0-0.6-0.1-0.9-0.1C250.8,15.6,250.7,15.6,250.7,15.6C250.7,15.6,250.7,15.6,250.7,15.6z"/>
<path id="XMLID_16635_" class="st2" d="M256.2,18c0-0.2,0-0.6-0.4-0.6c0,0,0,0,0,0c0,0-0.8,0.2-0.8,0.2c-0.1,0-0.1,0.1-0.2,0.2
	c-0.1,0.1,0,1.4,0.2,1.6C255.3,19.5,256.2,19.1,256.2,18z"/>
<path id="XMLID_16634_" class="st2" d="M250.2,22.7c-0.2,0.1-0.5,0.2-0.8,0.8c-0.3,0.6,0,1.4-0.4,2c-0.5,0.7-1.2,1.1-1.5,1.9
	c0,0.1,0,0.1,0.6,0.5c-0.1,0.6-0.1,0.6-0.1,0.6c1.1,1.3,1.2,1.4,1.6,1.1c0.2-0.2,0.6-0.4,1-0.2c0.5,0.2,0.5,0.9,1,1.2
	c0.5,0.2,1.1,0.1,1.6,0.4c0.5,0.4,0.5,0.4,1,0.4c0.6,0.1,1.2-0.3,1.8-0.2c1.5,0.4,1.5,0.4,2.1,0.5c0.8,0.1,1.4-0.6,2.2-0.6
	c0.3,0,0.3,0.4,0.4,0.8c0,0.6,0,0.6,0.2,0.6c0.1,0,1.4-0.1,1.9-0.1c0,0,0.1,0,0.1,0c0,0,0,0,0,0c0,0,0.6-0.3,0.4-1.4
	c-0.1-0.4-0.6-0.7-0.3-1.2c0.5-0.6,1.5-0.4,1.9-1c0.9-1.3-4.9-2.5-7.3-2.1c-0.6,0.1-1.2,0.7-1.9,0.6c-0.5-0.1-0.4-0.6-0.6-0.9
	c-0.6-0.1-1.2,0.3-1.8-0.1c-0.3-0.2-0.8-0.6-0.7-1.5c-0.7,0.4-0.9-0.6-0.8-0.7c0.3-0.7,0.3-0.7-0.2-1.9c0.7,0.2,1.1,0.9,1.7,1.2
	c0,0,0.1,0,0.1-0.1c0-0.2,0-0.3-0.2-0.8c-0.2-0.6-1-0.8-1.3-1.5c-0.2-0.4,0.6-0.5,0.3-0.9c0,0-0.1-0.1-0.1-0.1
	c-0.1-0.1-0.3-0.1-0.4-0.1c-0.2,0-0.6,0.1-1.4-0.6c-0.5-0.4-0.3-1.2-0.8-1.6c-0.3-0.2-0.5-0.2-0.7-0.2c-0.5,0-1.2,0.2-1.3,0.9
	c0,0.1,0,0.2,0,0.3c0.1,0.6,0.7,2.3,0.7,2.3c0.1,0.1,0.1,0.1,0.5,0.1c0.8,0.1,1.5,0.7,1.5,1.1C250.5,22.5,250.4,22.6,250.2,22.7z"/>
<path id="XMLID_16633_" class="st1" d="M262.9,32.5C262.9,32.5,262.9,32.5,262.9,32.5C262.9,32.5,262.9,32.5,262.9,32.5L262.9,32.5z
	"/>
<path id="XMLID_16632_" class="st1" d="M262.7,32.6L262.7,32.6c0,0,0.1,0,0.2,0l0,0l0,0c0,0,0,0,0,0
	C262.8,32.5,262.7,32.5,262.7,32.6C262.7,32.5,262.7,32.5,262.7,32.6z"/>
<path id="XMLID_16631_" class="st1" d="M262.8,32.5c0,0-0.1,0-0.1,0C262.7,32.5,262.8,32.5,262.8,32.5z"/>
<path id="XMLID_16630_" class="st2" d="M246.1,10.7c0.3,0,0.7-0.1,1,0.1c0.3,0.2-0.1,0.5,0,0.7c0.1,0.3,0.5,0.3,0.6,0.6
	c-0.4,1.3-0.4,1.3-0.3,1.5c0.3,0.1,1.1-0.2,1.4-0.4c0,0,0,0,0.4-0.8c0.5-0.9,0.5-0.9,0.5-1c0.2-0.3,0.6-0.5,0.9-0.7
	c0.1-0.1,0.1-0.2,0.1-0.3c0-0.1,0-0.1,0-0.2c-0.1-0.3-0.3-0.9-0.4-1c-0.2-0.4,0.2-0.8,0-1.1c-0.3-0.4-0.5,0.7-1,0.5
	c0-0.3,0.3-0.5,0.1-0.8c-0.2-0.4-0.9-0.8-1.1-0.9c-0.2,0.1-0.4,0.2-0.5,0.2c0,0-0.1,0-0.1,0.1c-0.2,0.2,0.2,0.4,0.1,0.7
	c0,0.1-0.1,0.1-0.4,0.2c-0.6,0.3-0.7,0.4-0.7,0.4c0,0,0,0,0,0c0.1,0.1,0.8,0,0.8,0c0.1,0,0.2,0,0.3,0c0.1,0.3-0.7,0.9-1.1,1.1
	c-0.4,0.1-0.5-0.4-0.7-0.5c-0.2-0.1-0.7,1.4-0.7,1.6C245.5,10.8,245.8,10.8,246.1,10.7z"/>
<path id="XMLID_16629_" class="st2" d="M245.3,13.6c0,0,0,0.1,0,0.1c0.1,0.2,1.1-0.1,1.2-0.5c0.1-0.5-0.5-1.1-0.9-1.1
	c0,0-0.1,0-0.1,0.1c0,0-0.2,0.4-0.3,0.6c0,0.2,0,0.3,0.1,0.5C245.3,13.3,245.3,13.5,245.3,13.6z"/>
<path id="XMLID_16628_" class="st2" d="M253.3,6.3c0,0,0,0.1,0,0.2c0,0.1,0.1,0.1,0.3,0.1c0.1,0,0.2,0,0.3,0.1
	c0.2,0.1,0.2,0.2,0.2,0.4c0,0,0,0.1,0,0.2c0.1,0.1,0.3-0.6,0.4-1.1c0.1-0.4-1-0.6-1-0.6c-0.1,0-0.1,0-0.1,0.1c0,0.2,0,0.3,0,0.5
	C253.3,6.2,253.3,6.3,253.3,6.3z"/>
<path id="XMLID_16627_" class="st2" d="M242.2,12.6c-0.2,0.2-0.3,0.5-0.5,0.8c-0.2,0.3-0.4,0.6-0.6,0.9c0,0.1-0.1,0.2-0.1,0.2
	c0,0,0.3,0.5,0.9-0.1c0.3-0.4,0.8-1.4,1.1-2.2l0,0c0,0,0,0,0,0C242.4,12.2,242.2,12.4,242.2,12.6z"/>
<path id="XMLID_16626_" class="st2" d="M245.6,24.4c-0.1-0.1-0.5-0.6-0.8-0.4l-0.4-0.3L244,24c0,0.1,0,0.3-0.1,0.4
	c-0.1,0-0.2-0.1-0.3,0c-0.1,0.1-0.1,0.2-0.2,0.2c-0.1,0.1-0.2,0-0.3,0.1c0,0,0,0-0.1,0.2c0,0.1-0.1,0.2-0.2,0.3
	c-0.2,0.1-0.6,0.4-0.7,0.4c-0.1,0.1-0.2,0.1-0.2,0.1c0,0.1,0.2,0.3,0.5,0.5c0.1,0,0.1,0.1,0,0.2c-0.1,0.1-0.2,0.2-0.3,0.3
	c-0.2,0.3,0.3,0.3,0.5,0.5c0.3,0.3,0.3,0.3,0.4,0.5c0.1,0.1,1,0.4,1.3,0.2c0.1-0.1,0.1-0.3,0.3-0.4c0.1-0.2,0.4-0.3,0.5-0.5
	c0,0,0.1-0.1,0.1-0.1c0.2-0.5,0.3-1,0.4-1.6l0,0c0,0,0,0,0,0C245.7,25.3,245.8,24.7,245.6,24.4z"/>
<path id="XMLID_16625_" class="st2" d="M241.9,18.2c-0.1,1.4-0.1,1.7-0.3,1.8c-0.4-0.4,0-0.8-0.1-1.2c-0.4-0.3-0.9-0.3-1.4-0.5
	c-0.3-0.2-0.3-0.2-0.4-0.5c0,0,0-0.2-0.1-0.3c-0.1-0.1-1,0.3-1.3,2c-0.1,0.4-0.1,1.4,0,1.5c0.1,0.1,0.3,0,0.4,0.1
	c0.1,0.1,0.2,0.3,0.3,0.3c0,0,0.1,0,0.1,0c0.2,0.1,0.4,0.1,0.5,0.1c1,0,1.1,0,1.1,0.4c0,0.7-0.6,1.1-1.6,1.8c-0.7,0.5-1,0.7-0.9,0.9
	c0.1,0.4,1.7,0.7,1.7,0.7c0.3,0,0.3,0,0.5-0.4c0,0,0.1,0,0.1-0.1c0.3-0.3,0.2-0.8,0.5-1.2c0.6-0.7,1.7-0.9,2.1-1.8
	c0.6-1.2,1.6-2.1,2.3-3.2c0,0,0,0,0-0.1c-1.3-0.4-1.5-0.7-1.6-0.9c-0.5-0.8-0.8-0.8-1.2-0.8C242.1,17,241.9,17.2,241.9,18.2z"/>
<path id="XMLID_16624_" class="st2" d="M236.9,12.1C236.9,12.1,236.9,12.1,236.9,12.1C236.9,12.1,236.9,12.1,236.9,12.1
	C236.9,12.1,236.9,12.1,236.9,12.1c0.1,0,0.1,0,0.1,0c0,0,0,0,0,0s0,0,0,0c0,0,0,0,0,0c0,0,0,0,0,0c0.2,0,0.5,0,1.4-0.7
	C239,11,239,11,239.1,11c0.4,0.4,1.6-0.5,1.8-0.8c0.4-0.5-1.3-1.4-2-1.4c-0.5,0-0.6,0-2.6,2.1C235.1,12.1,236.2,12.1,236.9,12.1z"/>
<path id="XMLID_16623_" class="st2" d="M240.5,8.2C240.5,8.2,240.5,8.2,240.5,8.2c0,0,0.1,0,0.2,0c0,0,0,0,0,0c0,0,0,0,0,0
	c0,0,0,0,0,0c0,0,0,0,0,0c0,0,0,0,0,0c0,0,0,0,0,0.1c0,0,0,0,0,0.1c0,0,0,0,0,0.1c0,0.1-0.1,0.2,0.2,0.1c0.1,0,0.2-0.1,0.3-0.1
	c0,0.2-0.1,0.3,0,0.5c0.1,0.2,0.3,0.2,0.3,0.2c0.2,0,0.3-0.1,0.4-0.1c0.1,0,0.2,0,0.3-0.1c0,0,0.1,0,0.1,0c0.2-0.1,0.1-0.4,0.2-0.6
	c0.1-0.2,0.2-0.3,0.4-0.5c0.1-0.2,0.2-0.4,0.1-0.4c0,0-0.1,0-0.2,0.1c-0.1,0.1-0.4,0.2-0.7,0.2c-0.3,0-0.6-0.3-0.9-0.2
	c-0.1,0-0.9,0.4-0.9,0.5C240.2,8.1,240.3,8.1,240.5,8.2C240.4,8.1,240.4,8.2,240.5,8.2z"/>
<path id="XMLID_16622_" class="st2" d="M237.7,9.1c0.2-0.2,0.1-0.3-0.1-0.3c-0.1,0-0.2,0-0.3,0.1c-0.1,0-0.1,0.1-0.2,0.2
	c0,0-0.1,0.1-0.1,0.1c0,0,0,0,0,0c-0.1,0.1-0.3,0.4-0.3,0.5C236.7,9.9,237.5,9.5,237.7,9.1z"/>
<path id="XMLID_16621_" class="st2" d="M231.9,13.2C231.9,13.2,231.9,13.2,231.9,13.2c0.1,0.2,0.8,0.2,1.2-0.3
	c0.1-0.1,0.2-0.5-0.2-0.5c-0.3,0-0.7,0-0.8,0.1c0,0,0,0,0,0.1c0,0,0,0,0,0.1c0,0.1,0.1,0.1,0,0.2C232,12.9,232,13,231.9,13.2
	C231.9,13.2,231.9,13.2,231.9,13.2z"/>
<path id="XMLID_16620_" class="st2" d="M224.7,21c-1.1-0.5-3.3,0-3.3,0c-0.4,0.1-0.9,1.3-0.9,1.3l1,0.8c0,0,0.1,0.1,0.4,0.1
	c0,0,1.5-0.2,1.9-0.3c0.8-0.2,1.6-0.7,2.5-0.8c0.8,0,0.8,0,1-0.1c0.3-0.1,0.5-0.4,0.8-0.5c0,0,0.5,0,0.3,0.5c0.2,0,0.5,0.1,0.7,0
	c0,0,0,0,0.1,0c0,0.2-0.1,0.3-0.1,0.5c0.8,0.1,1.1,0.2,1.6,0c0.3-0.1,0.5-0.4,0.7-0.5c0.2-0.1,0.5,0.1,0.7,0
	c0.5-0.3,0.8-0.8,1.2-1.1c0-0.1,0-0.2,0-0.2c0.3-0.3,0.8-0.2,1.2-0.4c0.1-0.7,0.9-0.8,1.1-1.3c0,0-0.1-1.7-1-0.6
	c-0.4,0.4-0.8,0.9-1,0.8c-0.1-0.3,0.3-0.8-0.1-0.8c-0.6,0-0.6,0.7-1,0.8c0,0-0.1-0.1-0.1-0.1c0.1-0.4,0.5-0.4,0.8-0.6
	c0-0.6,1.1-0.3,1-0.9c-0.3,0-0.6,0.1-0.8-0.1c0.1-0.1,0.1-0.1,0.2-0.1c0,0,0.8-0.3,0.9-0.4c0.3-0.3,0.3-0.9,0.6-1.2
	c0-0.2,0-0.2,0.2-0.3c0.6-0.3,0.8-0.7,0.8-1c-0.3-0.1-1.5,0.4-1.5,0.6c0.1,0.3-0.5,0.4-0.6,0.4c0,0,0,0,0-0.1
	c-0.6,0.2-0.6,0.2-1.1,0.7c-0.4,0.5-0.1,1-0.2,1.5c-0.2,0.5-0.9-0.1-1.2,0.3c0,0,0,0.1,0,0.1c-0.2,1.1-0.2,1.1-0.4,1.2
	c-0.1,0-2-0.2-2-0.2c-0.1-0.3,0-0.4,0.3-0.7c-0.1-0.7,0.6-1.1,0.8-1.7c0,0,0.4-1.2,0.5-1.8c-0.1,0-0.3,0-0.4,0c0,0,0.1,0,0.1,0
	c0.2-0.1,0.7-0.9,0-1c-0.8,0.1-1.1,0.6-1.4,1.1c-0.2,0.3-0.6,0.3-0.8,0.3c-0.3-0.1-0.1-0.4-0.2-0.5c-0.2,0-0.8,0.5-0.8,0.5
	c-0.2,0.3,0,0.6-0.1,0.9c-0.5,0.1-0.9-0.1-1.4,0c0,0-0.5,0.2-0.7,0.4c0,0,0,0,0.2,0.3c0.3,0.5-1.1,0.6-1.5,0.5c0,0,0-0.1,0-0.1
	c-0.2,0-1.4,0.3-1.6,0.6c0.2,0.5-0.4,0.6-0.6,0.9c-0.3,0.4,0.5,0.6,0.4,1c0,0.1-0.1,0.2-0.1,0.3c0.1,0.1,0.9,0.4,1.5-0.2
	c0.3-0.3,1.5-0.4,1.5-0.4c-0.1,0.2-0.4,0.3-0.6,0.4c0.7,0.1,1.3,0.3,2,0.4c0.3,0,0.6-0.1,1-0.1C226.3,20.7,225.1,21.2,224.7,21z"/>
<path id="XMLID_16619_" class="st2" d="M233.6,22.8c0.2,0,0.7,0,0.9-0.3c0.1-0.2,0.1-0.4,0.1-0.5c0,0,0-0.1,0.1-0.1c0,0,0,0,0,0
	c0,0-0.1-0.1-0.5-0.2c-0.2,0-0.3,0.1-0.4,0.2c-0.1,0.1-0.2,0.2-0.4,0.3c-0.2,0.1-0.2,0.1-0.3,0.1c-0.1,0-0.1,0-0.2,0c0,0,0,0,0,0
	c0,0,0.4,0.5,0.4,0.5C233.4,22.8,233.5,22.8,233.6,22.8z"/>
<path id="XMLID_16618_" class="st2" d="M223.6,13.2c-0.2,0.2-0.4,0.3-0.5,0.5c0,0.1,0.1,0.2,0.2,0.1c0.4-0.2,0.7-0.5,1.1-0.6
	c0,0,0,0,0,0c-0.3,0.4-1.1,0.5-0.9,1.1c0.7-0.2,0.7-0.2,1-0.3c0.7-0.4,0.9-0.4,1-0.4c0,0.1-0.1,0.2-0.8,0.6c0.4,0,0.6-0.2,0.6-0.2
	c0,0,3.8-2.5,4-2.6c0.4-0.1,0.2,0.7-1.4,1.6c-0.2,0.1-0.8,0.4-1.2,1.2c0.1,0,0.1,0,0.2-0.1c0,0,0.1,0,0.1-0.1
	c0.5-0.2,0.8-0.6,1.3-0.8c0.2-0.1,0.4,0,0.6,0c0.1,0,0.3-0.1,0.6-0.3l0.6-0.2l0.3-0.4l0.3-0.1c0.6-0.2,1-0.7,1.5-1
	c0.4-0.2,0.8-0.3,1.1-0.6c0.1,0,0.2-0.1,0.2-0.1l0.5-1c-0.2-0.2-1,0.4-1,0.4c-0.2,0.1-0.3,0.2-0.4,0.2c0,0,0,0-0.1,0
	c0-0.5,0-0.8-0.8-0.9c-0.7,0.1-1.1,0.7-1.8,0.9c0,0-1.9,0.6-1.9,0.6c-2.6,0.9-2.6,0.9-2.8,1c-0.2,0.1-0.2,0.1-0.3,0
	c-0.3,0-1.7,0.4-1.7,0.4c-0.4,0.1-0.9,0.7-1,0.9C223.1,13.3,223.4,12.9,223.6,13.2z"/>
<path id="XMLID_16617_" class="st2" d="M222.1,16.6c0,0,0.9-0.2,1.2-0.3c0.2-0.1,0.2-0.4,0.4-0.5c0.6-0.4,1.3-0.5,1.9-0.9h0
	c0,0,0.1-0.1,0.1-0.1c0,0,0,0-0.1,0c-1.5,0.1-3.7,1.6-3.7,1.6L222.1,16.6C222.1,16.6,222.1,16.6,222.1,16.6z"/>
<path id="XMLID_16616_" class="st2" d="M279.7,56.6c-1.3-1.4-2.3-2-2.9-1.8c0,0-0.6,1.1-1.7,1.5c-0.7-0.4-0.6-1.2-0.5-1.4
	c1.5-0.8-2.2-1.2-2.7-2.5c1-0.2,2.1-1.1,2.1-1.2c-1.4-1.7-4.4-0.4-5.5-2.8c0.6-0.3,1.4-0.2,1.9-0.7c-1-0.3-2.1-0.7-3-2.1
	c0.4-0.2,0.8-0.3,1.2-0.6c0-0.1,0-0.2,0-0.3c-2.6-2-5.5-1.5-6.1-0.8c0.4,0.8,0.4,0.8,0.2,1.3c-0.5-0.1-0.5-0.1-2.3-2.1
	c-1.3,1.8-1.3,1.8-1.7,1.9c-0.1-0.1-0.2-0.2-0.3-0.2c0.5-1.7,0.5-1.7-0.2-2.3c1.4-1.8,2.1-2.7,1.8-4.3c-0.3-1.5-5.5-1.1-7.3,0.5
	c0,0.5,0.3,0.8,0.4,1.3c-0.1,0.1-0.2,0.2-0.3,0.2c-0.2-0.1-0.3-0.4-0.4-0.6c-0.1,0-0.3,0-0.4-0.1c-1.2,0.9-1.3,1.6-1.4,1.9
	c1.3,0.4,1.3,0.4,1.4,1.1c-0.7,0.5-1.6,0.5-2.3,0.9l-0.1,5.1c-0.1,0.4-1.4,1-2-0.1c0.9-0.7,0.3-2.1-0.2-2.9c0.2-0.2,0.4-0.4,0.6-0.5
	c-0.1-0.6-0.7-1-0.9-1.6c1.6-3.3,1.6-3.3,6.8-7.4c-0.1-0.9-1.6-1.2-1.6-1.2c-3.3,0.2-3.4,0.2-9.7,5.9c-1.6,1.4-1.5,3.7-2.7,5.3
	c0.6,1.7,2.7,0.9,3.6,2c-0.4,0.4-0.4,0.4-3.7,0c-0.1,0.1-0.2,0.2-0.2,0.3c0.3,0.9,0.3,1.9,1,2.7c2.3-0.9,1.8,3,3.5,3.7
	c2.3,0.9,4.7-0.9,7,0c3.3,1.3,3.7,1.5,4.7,2.2c0,0,1.3,0.8,2.2-0.8c0.5-0.8-0.5-1.3-0.6-2c0.5-0.5,0.7-0.5,1.2-0.6
	c0,0,1.4,1.8,1.6,2.7c-0.1,0.1-0.2,0.3-0.3,0.4c1,0.4,1.4,1.5,2.3,2c0,0.1,0.1,0.3,0.1,0.5c-0.8,0.2-0.8,0.2-1.2,0.4
	c1.2,2.1,1.2,2.1-0.6,3.9c0,0.1,0.1,0.3,0.1,0.4c1.5,0,3-0.1,4.5-0.1c1.1,0,0.9,1.2,1.4,1.7c0.2,0.2,0.8,0.1,0.9,0.4
	c0,0,0.6,4.8,0,5.7c-0.1,0-0.1,0-1.3,2.4c-0.7-0.4-5.7,4-5.7,4c0.2,1.1,1.1,2.1,0.8,3.3l-4.6,0.3c-0.2,0-0.4,0.3-0.5,0.5
	c-0.5,0.8-1.6,0.8-1.9,0.8c0,0-1.6-4.1-3.1-3.1c-0.2,2.1-3.4,4-1.3,6.1c0.7,0.7,1.5,0.6,4.4,0.2c0.8-0.1,1.4-0.9,2.3-0.7
	c0.9,0.2,1,1.3,1.9,1.4c0.2-0.2,0.4-0.4,0.5-0.6c0.2-0.3,2.5-1,2.5,1.6c0,2,0,2,2.6,3.3c0,0,0.4,2.4,1.6,3.5
	c0.9,0.9,0.9,0.9,0.5,1.6c0.1,0.1,0.2,0.3,0.3,0.4c1.3,0.9,2.9,1,4.3,1.7c1.7,0.8,2.2,2.9,4,3.7c0,0,1.7,0.3,2-0.8
	c0,0-0.7-3.9-0.7-3.9c-0.5-1.9-2.6-2.3-3.4-3.9c2.4-4.2,4.3,6,8.6,5.7c-0.2-1-0.9-1.8-1.4-2.7c0-0.1,0.1-0.2,0.2-0.3
	c2.3-0.3,2.3-0.3,2.4-0.7c0.4-1.9-1-3.4-1.1-5.1c-0.1-1.5-2.1-1.1-2.4-2.3c-0.5-1.9-2.5-2.7-2.9-4.6c0.3-0.2,0.7-0.4,1-0.6
	c-1.1-2.5-1.1-2.5-1.1-3c0.1,0,0.1,0,1.9,0.9c1.3-0.5,0.7-1.9,1.1-2.7c1.4,0.4,1.2,2.1,2.2,2.7c0.1,0.1,1.5,0.1,2.8,0.2
	c-0.1,3.6-0.2,5.6,2.3,5.7c0.8-0.9,0.3-2,0.5-3c0.1,0,0.2,0,0.3,0c0.2,0.2,0.4,0.4,0.5,0.6c1.6,0.2,1.8-1.8,3.1-2
	c0-0.3,0-0.3-0.5-1.2c0.1-0.4,0.1-0.8,0.2-1.2c0.9-0.5,0.9-0.5,0.9-1l0,0c-0.1-0.6-0.1-0.6-1.8-1.5c-0.3-1.9-2.6-0.7-3.5-1.9
	c0.4-1.2,0.4-1.2,0.4-1.3c-0.5-0.5-1.4-0.4-1.8-1.1c-0.3-0.6,0.7-0.9,0.3-1.5c-0.2-0.2-0.5-0.5-0.8-0.6c-0.1,0.1-0.1,0.1-0.4,1
	c-0.1,0-0.3,0.1-0.4,0.1c-1.1-0.8-1.9-2-3.1-2.5c-0.2-0.3-0.5-0.8-0.7-1.1c0.1-0.1,0.2-0.2,0.3-0.2c0-0.1,0-0.3,0-0.4
	c-0.8-0.8-0.8-0.8-0.7-1.6c-0.1-0.2-0.3-0.4-0.4-0.5c0.1-0.1,0.1-0.2,0.2-0.3c0.9-0.1,1.8,0.3,2.7,0.1c0.6-0.9-0.1-2.1-0.1-2.1
	c-0.6-0.8-1.8-0.4-2.5-1.1c0-0.2,0-0.4,0-0.5c1.1-0.5,2.4,0.7,3.4-0.5c-2.1-2.4-2.1-2.4-2.5-2.2c-1.5,0.7-2.3,0.1-2.6-0.3
	C277.4,58.2,279.2,58.2,279.7,56.6z"/>
<path id="XMLID_16615_" class="st2" d="M260,66.7c-0.2-0.2-1.5-1-2-1.1c-0.1,0-0.3,0-0.5,0.3c0,0-0.1,0.1-0.1,0.1
	c-0.3,0.4-0.4,0.9-0.6,1.4c-0.3,0.6-1,0.9-1.2,1.6c-0.1,0.3-0.2,0.8,0.6,1.5c0.3,0.3,0.8,0.7,1.4,0.7c0.1,0,0.2,0,0.3-0.1
	c0,0,1.3-0.4,1.5-0.6c0.6-0.3,1-1.7,1-2.5l0,0C260.4,67.1,260.3,67,260,66.7z"/>
<path id="XMLID_16614_" class="st2" d="M263.3,69.3c0.2,0,0.5,0.1,0.7,0.1c0,0,0.1,0,0.1,0c0.1,0,0.2,0,0.2,0c0.3,0,0.3-0.6,0.3-0.8
	c0.1-1.3-0.8-1.6-1.4-1.6c-0.4,0-0.5,0.1-0.5,0.2c-0.1,0.2-0.1,0.4-0.2,0.6c-0.1,0.2-0.2,0.4-0.3,0.6c0,0,0,0.1,0,0.1
	c0,0.1,0,0.3,0.1,0.4c0.1,0.1,0.2,0.1,0.3,0.2C262.8,69.2,263,69.2,263.3,69.3z"/>
<path id="XMLID_16613_" class="st2" d="M256,60.2c-0.5,0.1-0.7,0.2-0.8,0.2c-0.6,0.4-0.9,1-1.3,1.5c-0.3,0.3-0.6,0.6-0.4,0.8
	c0.2,0.3,2.4,0.1,2.8-0.2c0.3-0.2,0.3-0.7,0.5-1c0.2-0.2,0.5-0.3,0.7-0.5c0.1-0.1,0.1-0.2,0.2-0.2c0.3-0.5,0.4-1.1,0.4-1.5
	c0-0.3,0-0.4-0.2-0.5c-0.3,0-0.6,0.3-1,0.7C257,60.1,256.4,60.1,256,60.2z"/>
<path id="XMLID_16612_" class="st2" d="M240.2,86.6c-0.4-0.1-0.8-0.2-0.9-0.5c-0.2-0.3-0.1-0.6,0-1c0.2-0.9-0.9-1-1.2-1.6
	c-0.1-0.2,0.1-0.5,0-0.7c-0.3-0.4-0.4-0.5-1.4-1c-0.6-0.3-0.6-0.3-0.7-0.7c-0.6-0.3-0.6-0.3,0-2.3c-0.9,0.2-1.2,0.1-1.2,0
	c0.1-0.5-0.5-0.4-0.7-0.4c-0.7,0.2-0.6,1-1.2,1.3c-0.2-0.2-0.2-1.6,0.1-2.5c0.2-0.4,0.4-1.2,0-1.3c-0.9,0.3-2.5,1.7-2.9,2.3
	c-0.4,0.5,0.1,1.1-0.1,1.6c-0.4,0.7-1.2,0.9-1.6,1.6c-0.2,0.4-0.3,1.1-0.3,1.4c0,0.8,0,0.9-0.1,1c-0.4,0.3-0.9,0.3-1.3,0.6
	c-0.2,0.1-0.3,0.4-0.5,0.5c-0.3,0.1-0.7,0.1-1,0.2c-0.9,0.1-0.9,0.1-1.2,0.3c0.3,0.8,3.4,2.2,3.4,2.2c-0.2,1.2-0.3,1.4-0.7,1.9
	c-0.4,0.6-0.4,0.6-0.4,0.8c0.6,0.1,1.6,0.1,1.6-1.3c0-0.5,0.2-0.8,0.7-0.9c1-0.4,2.1-0.1,3.2-0.5c0.7-0.2,1-1,1.7-1.4
	c0.1-0.1,0.3-0.1,0.4-0.1c0,0,2,0.4,1.6,1.2c-0.7,1.2-0.2,1.4,1.9,1.4c0,0,0,0,0,0s0,0,0,0s0,0,0,0c0,0,0,0,0,0s0,0,0,0c0,0,0,0,0,0
	c0,0,0,0,0,0c0,0,0,0,0,0c0.6,0,1.2,0,2.3,1.2c0.4,0.4,0.5,0.4,0.6,0.4c0.3,0,0.5-1.3,0.5-1.6C241.3,86.9,240.7,86.7,240.2,86.6z"/>
<path id="XMLID_16611_" class="st2" d="M233,92.2c0-0.1,0-0.1-0.1-0.2c-0.1-0.2-0.2-0.3-0.5-0.3c-1.2,0-1.7,1.3-2.8,1.6
	c-0.4,0.1-0.8,0-0.9-0.1c-0.3-0.1-0.4-0.2-0.4-0.1c-0.1,0-0.1,0.2,0,0.6c0.1,0.4,0.1,1,1.1,1c0.3,0,0.7-0.1,1.1-0.2
	c2.8-0.7,2.8-0.7,2.9-0.8c0.3-0.4-0.2-0.7-0.3-1C233,92.5,233,92.3,233,92.2z"/>
<path id="XMLID_16610_" class="st2" d="M240.2,94.5c-0.2,0-1.3,0.2-1.9,0.9c-0.3,0.4-0.3,0.9-0.3,1.2c0,0.3-0.1,0.4-0.4,0.7
	c-0.3,0.3-0.4,0.4-0.4,0.6c0,0.1,0,0.1-0.1,0.2c-0.1,0.2-0.3,0.2-0.5,0.4c0,0,0,0,0,0c0,0,0,0.1,0,0.1c0.1,0.1,1.1,0.5,1.6,0.1
	c0,0,2.5-2.8,2.5-3.3l0,0C240.9,94.7,240.5,94.6,240.2,94.5z"/>
<path id="XMLID_16609_" class="st2" d="M247.1,89.7c-0.1-0.2-0.1-0.4-0.2-0.6c0,0,0-0.1,0-0.1c-0.1-0.1-0.1-0.1-0.2-0.1
	c-0.6,0.2-1.2,2.1-1.2,2.1c-0.1,0.3-0.1,0.5-0.1,0.7c0,0.1,0.1,0.1,0.1,0.2c0.1,0.2,0.1,0.4,0.1,0.6c0,0,0,0.1,0,0.1
	c0.4,0.9,1.7,0.7,1.7,0.6c0,0,0,0,0,0c0-0.1-0.1-0.2-0.2-0.3c-0.2-0.2-0.3-0.3-0.4-0.5c-0.4-0.9,0.8-1.1,0.7-1.9
	C247.5,90,247.2,89.9,247.1,89.7z"/>
<path id="XMLID_16608_" class="st2" d="M253.3,90.1c0,0-0.1-0.1-0.1-0.2c-0.1-0.1-0.2-0.1-0.2-0.1c-0.6,0-1.3,1.4-1.1,1.8
	c0.2,0.4,2.2-0.2,2.4-0.5c0,0,0-0.2-0.1-0.3c-0.2-0.2-0.4-0.2-0.5-0.3C253.5,90.3,253.4,90.3,253.3,90.1z"/>
<path id="XMLID_16607_" class="st2" d="M233.8,33.6c1.7-0.9,1.7-0.9,2.3-2.2c0.1-0.2,0.1-0.5,0.2-0.7l0,0c0.1-0.3,0.2-0.6,0-0.7
	c-0.4-0.1-0.7,0.2-1.1,0.1c-0.6-0.1-1.1-0.4-1.6-0.5c-0.1,0-0.2,0-0.2,0c-0.7,0.1-1,0.7-1.6,1c-0.3,0.1-0.6,0.1-0.8,0.2
	c0,0-0.1,0-0.1,0.1c-0.1,0.1-0.6,0.7-0.2,1.7c0.1,0.3,0.1,0.3,0,0.4c-0.3,0.3-1.4,0.2-1.8,0.1c-0.4-0.1-0.6-0.5-0.9-0.6
	c-0.3-0.1-1.9,0.7-2.1,2.4c-0.2,1.1,1,1.3,1.4,2c-0.1,0.4-0.8,0.5-1.2,0.5c-0.1,0-0.6,0.1-0.6,0.3c0,0.1,0,0.2,0,0.2
	c0.1,0.6,0.4,1.2,0.6,1.8c0.2,0.9,0.2,1.1,0,1.6c-0.2,0.4-0.2,0.5-0.1,0.6c0.8,0.9,1.9-0.4,2.6-1.7c0.6-0.9,0.6-1,1.1-1.2
	c0.1-0.1,0.3-0.1,0.4-0.2c0.5-0.2,0.9-0.4,1.3-0.6c0.4-0.1,0.8,0,1.1-0.2c0.1,0,0.2-0.1,0.3-0.1c0.3-0.3,0.1-0.7-0.5-1.8
	c-0.5-1-0.4-1.3-0.4-1.4C232.1,34.6,232.4,34.4,233.8,33.6z"/>
<path id="XMLID_16606_" class="st2" d="M235.7,40.4c0.9-0.2,1-0.9,1.2-1.9c0.1-0.7,0.2-0.9,0.6-0.9c3.1,0.3,3.1,0.3,3.3,0.3
	c0.1,0,0.2,0,0.2-0.1c0.9-0.3,1.5-1.1,2.3-1.6c1.3-0.9,2.8-1.3,4.1-2.2c0.1,0,0.2-0.1,0.2-0.2c0-0.1,0-0.1,0-0.2
	c-1-0.9-2.6-0.8-3.7-1.7c0.7-1-0.1-1.1-0.7-1.1c-1.1,0-1.7,0.4-2.1,0.7c0,0-0.5,0.5-0.3,1.1c0,0.1,0.1,0.2,0.1,0.3
	c0,0.2-1.1,0.4-1.3,0.2c-0.6-0.5-0.2-1.4-0.6-1.9c-0.2-0.2-0.4,0-0.6,0.3c-0.1,0.1-0.1,0.1-1.1,2c-1.6,2.8-1.6,2.9-1.9,3.1
	c-0.4,0.3-1,0.2-1.3,0.6l-0.7,2.1C233.4,40.2,234.8,40.6,235.7,40.4z"/>
<path id="XMLID_16605_" class="st2" d="M221.6,51.3c0,0-0.5-1-1.3-1.1c-0.4,0-1.3,0.2-2.1,1.2c-0.2,0.2-2.9,4.3-2.8,4.7
	c0,0.1,0.3,0,0.6-0.1c0.6-0.3,1.1-0.5,1.5-0.3c1,0.3,0.8,1.7,1.7,2.1c0.1,0,0.2,0.1,0.4,0.1c0.7,0,2.2-0.9,2.7-2
	c0.2-0.5,0.1-1.5,0.1-1.5c-0.1-0.2-0.3-0.3-0.3-0.5c0-0.1,0-0.1,0-0.5C222.2,52.8,222.2,52.5,221.6,51.3z"/>
<path id="XMLID_16604_" class="st2" d="M191.9,47.5c0.3,0.5,0.5,0.9,0.4,1.2c-0.3,0.6-1.1,0.6-1.4,1.2c0,0-0.5,1.6,0.2,1.7
	c0.4,0.1,7.1,0.5,8.6,0.2c-0.4-0.4-0.4-0.4-0.5-0.5c3.2-1.7,3.2-1.7,3.6-1.7c0.1,0,0.3,0.1,0.3,0.7c0,0.7-0.1,2,1.2,1.4
	c0.8-0.4,1.3-1.5,2.4-1.5c0.4,0,0.5,0.5,0.6,1.5c0.1,0.8,0.2,2,3,0.8c1.2-0.5,2-2,2-2c0.8-1.5,2.7-1.5,3.8-2.5
	c0.4-0.3,0.4-0.3-0.5-1.3c0.4-1.5-1-2.2-1.4-3.4c0.2-0.3,0.3-0.5,1.4-0.6c0.1-4.6,0.3-4.7,2.6-6.2c1-0.6,3.6-2.3,3.1-3.5
	c0-0.1-3.9-5.2-4.4-1.1c-0.5,4.3-3,5.6-3.6,5.4c-0.3-1,1.4-3.1,2-3.9c0.4-0.5,0.4-0.5,0.5-0.9c-0.8,0.4-1.3,1.3-2.2,1.5
	c0,0-1.6,0.3-2.2-0.3c0.1-0.4,0.1-0.4,1.6-1.8c0.4-0.4,1.3-1.4,1-1.8c-0.6-0.9-1.5,0-2.2,0c0,0,0-0.1,0-0.2c0.6-0.6,1.5-0.8,2.1-1.4
	c-0.1-0.1-0.3-0.1-0.4-0.2c-0.4,0-8.2,1.5-7.6,2.8c-1.4,0.9-3.4,0.8-4.4,2.5c-0.6,1.1,1.8,0.8,1.8,2c-2,1.4-5.1-0.6-6.5,2.2
	c-0.6,1.2,0.9,1.3,2.5,1.3c1.7,0,1.7,0,1.9,0.6c1.3,0.2,0.8,2.3,0.3,2.4c-0.8,0.3-4.3-0.4-4.7-0.9c0,0-1.3-1.4-2.4-0.7
	c0,0-3.6,4.4-3.8,5C190.2,46.6,191.5,46.8,191.9,47.5z"/>
<path id="XMLID_16603_" class="st2" d="M226.7,29.7c-0.1-0.1-0.2-0.1-0.3-0.1c-0.1-0.1-0.1-0.2-0.1-0.2c-0.1-0.3-0.2-0.5-0.6-0.7
	c-0.5-0.3-1.6-0.3-1.6-0.3c-0.5,0-0.7,0.1-0.9,0.3c-0.2,0.3-0.1,0.6-0.2,0.9c-0.1,0.3-0.3,0.5-0.3,0.7c-0.2,0.6,0.8,0.9,1.4,0.8
	c0.4-0.1,0.5-0.2,0.5-0.3c0.1-0.3,0.2-0.4,0.4-0.5c0.5-0.4,1.1-0.5,1.4-0.6C226.6,29.7,226.6,29.7,226.7,29.7L226.7,29.7
	C226.7,29.7,226.7,29.7,226.7,29.7z"/>
<path id="XMLID_16602_" class="st2" d="M195,34.8c0.5-0.2,1.8-1,2.5-1.5c0.2-0.1,0.4-0.2,0.5-0.3c0,0,3.1-1.9,3.7-2.1
	c1.1-0.5,2-1.5,3.1-2c0,0,4.1-1.8,5.7-1.6c0.6,0.1,1,0,1.5-0.2c0,0,1.7-0.9,2.8-2.4l0,0c1-1.3-0.2-2.9-0.2-2.9c0,0-0.1-0.1-0.2-0.1
	c-0.5-0.1-0.9,0.2-1.4,0.1c-0.4-0.1-0.7-0.5-1.1-0.6c0,0-1.4-0.3-1.7-0.3c0,0-0.1,0-0.1,0c-1,2-3.4,1.5-4.9,2.7l-2.5,1.7
	c-3.8,2.4-3.8,2.4-3.9,2.5c-0.9,0.9-1.7,1.9-2.6,2.8c-0.7,0.7-1.8,1-2.4,1.9c-0.6,0.8-0.2,2.2-0.1,2.4
	C193.8,35.3,194.4,35.1,195,34.8z"/>
<path id="XMLID_16601_" class="st1" d="M302.2,384.2c0.1,0.1,0.1,0.1,0.1,0.1C302.3,384.3,302.2,384.2,302.2,384.2
	C302.2,384.2,302.2,384.2,302.2,384.2z"/>
<path id="XMLID_16600_" class="st2" d="M185.5,343.5c-6.2-4.7-1.5-12.1-4.4-17.6c0.7-0.6,1.6-1.4,2.3-1.9c-4.2-4.1-4.2-4.1-22.2-5
	c3.1-6.6,3.3-14.2,7-20.7c-0.3-0.8-0.6-1.8-0.9-2.5c-11,0.5-11,0.5-11.1,5.3c-2.6,2.4-2.6,2.4-2.9,8.2c-10.9,6.2-24.8-7.3-23.6-19.1
	l5.7-23.4c7.7-7,17.7-3.9,26.5-6c0.1-1.5,0.1-3.6,0-5.1c6.1,1.1,12,2.9,18,4c0-0.8,0-1.8,0.1-2.6c0.7,0.3,1.7,0.7,2.5,1
	c0.1,0.2,0.1,0.2,4,8.2c-0.2,0.5-0.2,0.5-0.2,0.5c0,0,0,0,0,0c0,0,0,0,0,0c0,0,0,0,0,0h0c0,0,0,0,0,0h0h0
	c1.3,10.7,3.5,12.4,4.4,13.1c6.9-3.6,1.5-10.9,3.4-16.1c-0.9-1.4-2.3-3.3-3.4-4.6c1.8-6,1.4-10.5,1.4-10.5
	c0.2-0.1,19.9-12.1,24.7-20.9c-2.1-4.4-2.1-4.4-1.7-7.4c0.8-0.1,1.8-0.2,2.6-0.3c0.5-0.7,1.1-1.5,1.5-2.2c-0.3-1.6-0.7-3.7-0.9-5.3
	c0.6,0.6,1.4,1.4,2,2.1c0.8,0,1.8,0,2.5-0.1c0.9-1.3,1.6-3.4,1.8-4.9c5.5-3.4,12-4,17.7-6.8c-0.3-8.8-0.3-8.8,13.2-12.5
	c0.3-0.7,0.7-1.6,0.9-2.3c1.8-0.4,4.2-1.1,5.9-1.5c-0.2,1.5-1.3,3.6-2.4,4.5c1.4,0.7,3.6,1.3,5.2,1.3c0.8-2.2,0.8-2.2,7.5-7
	c0.8,0.2,1.8,0.4,2.6,0.5c-2.6-1.5-2.6-1.5-7.1-3.6c-0.2-0.7-0.6-1.7-0.8-2.4c-0.7-1-0.7-1-0.7-1h0h0h0h0c0,0,0,0,0,0c0,0,0,0,0,0h0
	c-0.4-0.7-0.9-1.6-1.3-2.3c0.3-0.8,0.6-1.9,0.9-2.7c-0.8-0.1-1.8-0.2-2.6-0.3c1.4-0.7,3.5-1.3,5-1.7c0.3-0.7,0.6-1.7,0.8-2.4
	c-0.6-0.5-1.4-1.2-1.9-1.7c-0.1,0-14.6,2.3-18.4,6.7c6.4-20.4,31.1-3.9,41.8-17.4c2.2-0.2,5-0.4,7.2-0.5c0.2-2.8,1.1-5.5,1.4-8.2
	c-2-1.6-3.5-3.8-5.8-4.9c-1.3,0.7-3.5,0.8-5,0.5c1.6-0.7,3.9-1.5,5.6-1.8c-8.6-6.9-8.5-18.5-14.7-26.7c0.6-0.8,1.3-1.8,1.8-2.5
	c-0.8-1.3-2.3-2.8-3.6-3.7c-4.3,11-13.8,11.2-13.9,11.2c-0.5-3.5-0.6-4.1-2-7.8c1.6-1.9,1.6-1.9,2.3-7.3c-1.5,0-3.4-0.9-4.5-1.9
	c0.1-0.8,0.2-1.9,0.3-2.7c-4.8-3.8-4.8-3.8-14.9-5c-0.5,0.6-1.3,1.3-1.8,1.8c0.9,3.5-0.7,7.1,0.6,10.6c-2.5,1.7-4.7,3.8-7.2,5.5
	c0.5,1.3,0.5,1.3,0.3,15c-4.1,1.7-6.9,5.5-10.9,7.3c-1.1,3.7-6.6,18.2-7,18.5c-0.9-0.3-2-0.6-2.8-0.9c0-0.1,0-0.1-1.9-7.8
	c1-1.3,2.3-3.1,3.1-4.5c-0.7-1.6-1.7-3.6-2.6-5c0.6-0.7,1.4-1.5,2-2.2c-0.5-0.6-1.2-1.4-1.8-2c-1.5,0.2-3.6,0.2-5.1,0.1
	c-0.1-0.1-10.4-11.1-17.8-10.8c3.5-6.6-1.3-14.3,2.9-20.8c3-4.7,3-4.7,16.4-9.2c0.3-0.7,0.6-1.7,0.9-2.4c-0.7-0.5-1.6-1.2-2.3-1.6
	c0.6-0.5,1.3-1.2,1.9-1.8c1.8,0.3,4.6,0.8,9.8-1.3c0.1-0.5,0.1-0.5,4.2-6.2c-0.6-0.9-1.5-2.1-2.2-3.1c1.5,0.6,3.7,1,5.3,0.8
	c0.4-0.7,1-1.6,1.4-2.2c2.6-0.6,5-1.9,7.6-2.5c0.3,0.8,0.7,1.8,1.1,2.6c0.8,0.1,1.8,0.2,2.5,0.2c1.6-2.4,4.2-4,5.6-6.6
	c-0.3-0.8-0.6-1.8-0.9-2.6c1.4-1.3,3.2-3.1,4.4-4.5c-2.3-1-4.4-2.4-6.9-3.1c-2.7,1.6-2.7,1.6-9.3,10.5c-0.3-4.9,0.2-5.5,2.2-7.6
	c-1.3-0.6-3.3-0.9-4.7-0.5c0.9-5.6-1.3-9.9-1.3-10c3.4-5,3.4-5,4.1-7.3c-8.2,1.4-8.7,2.7-11.8,10.2c0.7,0.5,1.6,1.1,2.4,1.6
	c-1.3,5.3-1.3,5.3-6.6,8c-0.2,0.7-0.5,1.7-0.7,2.4c-0.7,0.3-1.6,0.7-2.3,0.9c-0.1-0.7-0.3-1.7-0.4-2.5c0.6-0.5,1.3-1.2,1.9-1.7
	c-0.3-0.7-0.7-1.6-1-2.3c-0.7-0.2-1.7-0.5-2.5-0.7c-2.1,1.5-3.4,2.5-9.6,1.6c-2.1-3.7-2.1-3.7-2.8-7c-0.8,0-1.8-0.1-2.6-0.1
	c-0.2,0.8-0.4,1.8-0.6,2.5c-1.4,0.4-1.4,0.4-7.3,6.9c0.7-5.8,0.7-5.8,0-7.7c-0.7,0.3-1.7,0.8-2.4,1.1c-1.4-0.7-3.5-1.4-5-1.7
	c0.6-1.4,2-2.9,3.3-3.6c0.3-4.8-3.9-8.7-6.9-9.6c0.6-1.5,2-3.4,3.3-4.5c-4.9-0.2-8.9,3.1-13.7,3.6c2.3-1.7,5.2-2.2,7.7-3.5
	c-5.8-0.2-5.8-0.2-9.9,2.3c-0.2-0.7-0.6-1.7-0.8-2.4c1.4-2.2,2-4.8,3.5-6.9c-0.4-0.7-0.9-1.5-1.2-2.2c2.3-3.1,2.3-3.1,8.9-9.6
	c-23,9.9-23,9.9-44.3,20.9c0.3-0.7,0.8-1.6,1.1-2.3c-7.2-0.4-14.5,7.7-15.3,8.7c0.8,0.1,1.8,0.3,2.5,0.4c-7.5,8.1-19.6,9.1-27,17.3
	c0.1,0.2,0.1,0.6,0.2,0.8l-1.5,1.1c-1.4,0.6-3.2,1.8-4.2,2.9c0.7-0.1,1.7-0.3,2.5-0.4c-8,8.1-8,8.1-10.5,13.1c0.7-0.6,1.6-1.4,2.2-2
	c-1.1,3-2.1,5.9-24.6,19.9c17.1-4,26-20.4,41.3-27.1c-0.9,2-0.9,2-7.4,7c4.6,0.6,4.6,0.6,9.1-4.9c0.6,1.4,1.2,3.4,1.4,4.9
	c-0.5,0.6-1.2,1.3-1.7,1.8c2.6,1,2.6,1,4.4,5.7c-9.7,15.2-17.7,54-17.7,54.3c1.9,2.4,2.6,3.4,0.7,7.9c2.2,4.9,4.1,9.1-0.8,12.6
	c-0.7-0.2-1.7-0.5-2.4-0.8c0.2-0.7,0.5-1.7,0.7-2.5c-0.7,0.3-1.7,0.6-2.5,0.8c-2.1,9.4-7.4,17.6-11.5,22.9
	c1.3,5.2-5.3,41.1-6.5,43.7c3,5.5,8.9,9,10.3,15.5c0,0.2,0,0.2,0,0.2c0,0.1,0,0.1,0,0.2c0,0.1,0,0.2,0,0.3c0,0.1,0,0.3,0,0.4
	c0,0.2,0,0.3,0,0.5c0,0.2,0,0.4,0,0.5c0,0.2,0,0.4,0,0.6c0,0.2,0,0.4,0,0.6c0.4,2.7,1.2,5.4,1.6,8.2c0,0.3,0,0.6,0,0.9
	c0,0.2,0,0.5,0,0.7c0,0.2,0,0.4,0,0.6c0,0.2,0,0.3,0,0.5c0,0.1,0,0.2,0,0.4c0,0.1,0,0.2,0,0.3c0,0.1,0,0.2,0,0.2c0,0.1,0,0.1,0,0.2
	c2.6,3.6,2.8,4.4,3.3,7.4c-0.5,0.6-1.1,1.5-1.6,2.1c1.9,9.1,8.7,15.5,12.9,23.4c0.3-0.7,0.8-1.7,1.1-2.5c-2.6-4.1-15-25.2-9.1-37.4
	c19.1,22.9,15.4,62.5,52.6,72.3c1.4-0.9,3.2-2.1,4.7-2.8c9,7.1,24,5.1,28.4,19c1.5,0.6,3.5,1.6,5,2.4c-0.2,0.7-0.6,1.7-0.8,2.4
	c1,0.2,2.4,0.5,3.4,0.6c0.8,1.5,1.7,3.6,2.1,5.3c4.7-1.3,8.1,2.3,12.1,3.4c0.6-0.5,1.5-1.1,2.1-1.6c0.1-0.8,0.1-1.8,0.2-2.5
	c1.3-0.6,3.2-0.9,4.7-0.7l0.1-0.5L185.5,343.5z"/>
<path id="XMLID_16599_" class="st1" d="M305.9,382.8c-0.5,2.7-2.4,4.6-3.5,7c-1.2-5.5-1.3-6.1,3.9-9c-0.7-0.3-0.7-0.3-10.1,1.6
	c3.2-3.2,3.8-8,6.6-11.5c-0.8-1.6-2.3-3.6-3.7-4.7c0.8-0.4,1.9-0.9,2.7-1.3c-2.4-1-5-1.1-7.3-2.4c0.1-0.8,0.2-1.9,0.3-2.7
	c-0.8,0-2,0-2.8,0c-0.4-0.7-1-1.6-1.4-2.3c-7.8-1.3-7.8-1.3-9.8,0.6c-1.5-1.6-1.5-1.6-7.3-3.1c0.1-0.8,0.1-1.8,0.2-2.5
	c-7.2-2.8-11.2-10-17.8-13.7c-10.2,9.1-19-4-28.7-4.5c0.6,1.8,1.3,4.3-2.3,9.9c-2.5-4,0.3-9-2.5-12.9c-0.2,3.4-0.4,8-9.5,5.5
	c-1.7,2.2-3,3.9-4.2,9.9l-9.5-1.3l-0.1,0.5c0.1,0,0.1,0,0.2,0c2.4,7,2.4,7,4.8,7.7c0.3,1.5,0,3.6-0.6,5c1.4,2.2,1.4,2.2-3.4,14.2
	c-0.7,0.3-1.7,0.6-2.4,0.9c-0.8,7.7-0.8,7.7,0.2,10.4c-0.5,0.8-1.1,1.8-1.6,2.5c0.7-0.1,1.7-0.3,2.5-0.4c-0.2,0.7-0.4,1.7-0.5,2.5
	c-0.7,0.4-1.5,0.8-2.2,1.2c0.5,9.4,3.4,10.7,9.3,13.3c0,0.2,5.1,18.5,25.9,28.8c12.7,6.3,9,53.1,8.9,53.5c2.5,2.8,3.3,6.8,3.9,10.9
	c-0.2-0.1-0.4-0.2-0.5-0.4c-0.1-0.1,0-0.2,0-0.2c0.3-0.2,0.3-0.8-0.1-0.9h0c-0.2,0-0.6,0.1-0.7,0.5c0,0,0.1,0.7,0.3,1.3
	c0.1,0.2,0,0.4,0,0.6c0,0.1,0,0.2,0.1,0.3c0.1,0.1,0.6,0.3,1,0.4c1,6.6,2.2,13.1,10.7,14.5c-1.5-3.8-1.5-3.8,1.7-8.9l-1.2-0.5
	c-0.4-0.7-0.8-1.6-1.2-2.2c1.7-1.8,2.7-4.2,4.3-6.1c-0.6-0.5-1.4-1.1-1.9-1.6c0.7-0.2,1.7-0.5,2.4-0.7c0.7-1.3,1.4-3.2,1.8-4.6
	c0.7-0.1,1.7-0.2,2.5-0.3c2.2,0,2.8,0,3.5,0c4.3-3.2,4.8-3.8,2.1-8.8c2.6-0.6,5.4,0.7,7.8-1.1c2-1.5,2-1.5,16.5-20.5
	c5.5-7.2,15.7-6.3,21.8-12.6l29.2-43.2l0,0c0.4-1.6-0.6-3.9-0.9-5.5C333.3,390.1,316.1,380.3,305.9,382.8z"/>
<path id="XMLID_16598_" class="st2" d="M53.9,101.7c-0.2,0.2-1,0.8-1.1,0.8c0.1-0.3,0-0.4,0-0.4c0,0-0.1,0-0.2,0.1
	c-0.6,0.6-0.7,1.5-1.3,2.1c-0.3,0.2-1,0.8-1.1,0.8c-0.3,0.2-0.4,0.3-0.5,0.4c0,0.1-0.1,0.1-0.1,0.6c0,0.1,0,0.4,0.3,0.1
	c0.5-0.4,0.8-1,1.2-1.4c0.5-0.6,1.2-0.9,1.7-1.4c0.4-0.3,0.6-0.5,0.6-0.6l0,0c0.1-0.1,0.1-0.2,0.2-0.3c0,0,0,0,0,0c0,0-0.1,0-0.1,0
	C53.7,102.2,54,102,53.9,101.7C54,101.7,54,101.7,53.9,101.7z"/>
<path id="XMLID_16597_" class="st2" d="M49.3,105.1c-0.1,0-0.3,0.1-0.3,0.2c-0.4,0.3-0.7,0.7-1,1c-0.2,0.1-0.4,0.2-0.6,0.4
	c-0.3,0.3-0.6,0.7-0.6,0.9c0,0.2,0.1,0.1,0.4-0.1c0.1-0.1,0.3-0.2,0.4-0.3c0.3-0.3,0.7-0.6,1-0.9c0.3-0.2,0.6-0.4,0.8-0.7
	C49.6,105.1,49.3,105.1,49.3,105.1z"/>
<path id="XMLID_16596_" class="st2" d="M44.2,108.9c0,0-0.3,0.4-0.3,0.6c0.1,0.1,0.5-0.3,0.7-0.6l0,0c0.1-0.2,0.2-0.3,0.2-0.4
	c0,0,0,0,0,0C44.7,108.5,44.3,108.8,44.2,108.9z"/>
<path id="XMLID_16592_" class="st2" d="M109.3,49.9C109.3,49.9,109.4,49.9,109.3,49.9L109.3,49.9c0.4-0.3,0.7-0.6,0.8-0.7
	c0.7-0.6,1.2-1.3,1.8-1.9c0.6-0.6,1.3-1.1,1.8-1.7c0.1-0.1,0.3-0.3,0-0.3c-1.1,0.1-1.3,0.2-4.4,2.8c-0.8,0.6-1,0.9-1.1,1.1
	c0,0-0.9,1.3-0.9,1.4c0.1-0.1,0.3-0.2,1.8-1.6C109.3,49.1,109.5,49.4,109.3,49.9z"/>
<path id="XMLID_16591_" class="st2" d="M203.9,308.5c-0.6-0.4-1.4-0.2-2-0.5c-0.8-0.3-1.5-0.8-2.3-1.1c-0.1,0-0.2,0-0.3-0.1
	c-1.3,0.2,0.5,3.9,0.5,4c0.8,1.7,1.8,2,2.1,2.1c0.6,0.1,0.6,0.1,2-0.4c0.8-0.3,2-0.4,2.4,0c0,0,0.1,0,0.1,0c0.1,0,0.4-0.3,0.4-0.4
	C207.1,311.4,204,308.6,203.9,308.5z"/>
<path id="XMLID_16590_" class="st2" d="M215.6,301.1c0.1-0.1,0.1-0.1,0.2-0.2c-0.2-0.3-0.4-0.3-1.7-0.7l-9.5-3
	c-0.6-0.3-0.4-1-0.9-1.4c-1-0.7-2.7-1.4-4.2-2c-3.4-1.5-3.4-1.5-3.5-2.2c-3.4-1.5-3.4-1.5-5-1.3c-1.8,0.3-2,0.3-2.4,0.1
	c-0.2-0.6-0.5-1.5-3.2-1.8c0,0,0,0-2.3,1c-0.7,0.3-1.4,0.2-2.1,0.3c0,0-4,1.8-2.2,2.7l1.5,1.2c5.1-3.5,5.3-2.4,5.5-1.5
	c-0.2,0.1-0.4,0.3-0.6,0.4c0,0.1,0,0.2,0,0.3c1.8,0.5,3.7,0,5.5,0.6c2.1,0.7,3.4,2.7,5.6,3.3c0,0,3-0.1,3.4-0.4
	c0.3,0.3,0.3,0.3,0.5,3c0,0.7,0,0.7,1.5,0.7c0.2,0.2,0.2,0.3,1.7,0.3c1.3,0,2,0.1,2.2,0.5c0.8,1.6-2.6,1.6-1.9,3.3c0,0,0.1,0,0.1,0
	c0.1,0,0.2,0,0.2,0c0.1,0,0.2,0,0.4,0c0.2,0,0.3,0,0.5,0c0.2,0,0.4,0,0.5,0c0.2,0,0.4,0,0.6,0c0.2,0,0.4,0,0.6,0c0.2,0,0.4,0,0.6,0
	C210.7,304.2,215.6,301.1,215.6,301.1z"/>
<path id="XMLID_16589_" class="st2" d="M222.7,311.5c1.7,2.3,3.7-1.8,5.9-1.5l5.1,0.2c0.1,0,0.2,0,0.3-0.1c0.6-0.1,1.5-1,1.7-1.9
	c0.1-0.8-0.2-1.4-0.5-1.5c-0.7-0.6-1.7-0.5-2.4-1c-0.4-0.3-0.3-0.9-0.7-1.2c-0.1-0.1-0.3-0.2-0.5-0.3c-0.1-0.1-0.8-0.4-1.6-0.6
	c-0.1,0-0.3-0.1-0.5-0.2c0,0-0.2-2-3.7-0.2c-1.7,0.9-3.2-0.2-3.8-0.5c-0.4-0.3-0.5-0.3-0.8-0.3c-0.2,0-0.3,0-0.5,0.1
	c-2.8,1.5-2.8,1.5-2.9,1.6c0,0.1-0.2,0.6,1.9,1.2c2.3,0.7,2.2,1.6,1.8,2.2c-0.2,0.2-1.9,0.8-3.7,0.5c-1.5-0.2-3.5,0.9-3.5,0.9
	c0,0-0.1,0.1-0.1,0.2c0.5,0.5,3.7,1,4.6,1C221.8,310.2,221.8,310.2,222.7,311.5z"/>
<path id="XMLID_16588_" class="st2" d="M247.1,309c-0.6-0.2-2.2-0.2-2.3-0.2c-1,0.1-3.7,1.5-3.6,1.9c0,0.1,0.1,0.2,0.2,0.2
	c0.5,0.3,1.1,0.5,1.6,0.8c0.4,0.3,0.7,0.6,1.2,0.9c0.2,0.1,0.4,0.1,0.5,0.1c0,0,4.3-1.1,4.3-1.1c0.2,0,0.4-0.1,0.6-0.2
	c0.6-0.2,1-0.4,1.1-0.5c0,0,0-0.1,0-0.2c-0.8-0.8-1.9-0.8-2.8-1.2c-0.2-0.1-0.4-0.3-0.5-0.3C247.3,309.1,247.1,309.1,247.1,309z"/>
<path id="XMLID_16587_" class="st1" d="M266.8,338.9c0.4-0.1,0.9-0.2,1.3-0.6c0.1-0.1,0.3-0.3,0.3-0.5c0.2-0.8-0.4-1.2-0.8-1.2
	c-1.1,0.2-3.8,2.5-3.8,2.5c-1,0.8-0.8,1.5-0.8,1.5c0.1,0.2,0.2,0.3,0.6,0.4c0,0,0.2,0.1,0.4,0.2c0,0,0.1,0,0.1,0.1
	c0,0,0.1,0.1,0.2,0.1c0.1,0,0.2,0,0.5-0.1c0.3-0.2,0.6-0.4,0.6-0.4c0.3-0.2,0.3-0.4,0.3-0.9c0-0.2,0-0.5,0.1-0.6
	C266.1,339,266.3,339,266.8,338.9z"/>
<path id="XMLID_16586_" class="st1" d="M163.4,380.2c-0.4-0.8-0.5-1.7-0.9-2.5c-0.3-0.6-0.5-0.7-0.7-0.7c-0.3,0-0.9,0.5-0.8,1.4
	c0,0.5,0.3,0.8,0.4,1.3c0.1,0.5,0.1,1.1,0.2,1.6c0,0.1,0.1,0.3,0.1,0.4c0,0.2,0.2,0.9,0.4,1.1c0.5,0.8,2.1-0.7,2.1-1.1
	c0-0.1,0-0.2,0-0.3C164,381,163.6,380.7,163.4,380.2z"/>
<path id="XMLID_16585_" class="st1" d="M166,379.5c-0.5,0.1-0.7,0.9-0.9,1.3c0.8,0.4,0.8,0.4,0.9,0.6c0.1,0,0.2,0.2,0.6-0.2
	c0.2-0.1,0.3-0.3,0.3-0.6l0,0C166.9,380.2,166.3,379.5,166,379.5z"/>
<path id="XMLID_16584_" class="st1" d="M263.1,508c-0.2,0.1-0.3,0.2-0.6,0.4c-0.1,0.1-0.1,0.1-0.3,0.2c-0.1,0.1-0.1,0.1-0.4,0.3
	c-0.1,0.1-0.3,0.1-0.4,0.2c-0.1,0.1-0.1,0.1-0.1,0.2c0,0.1,0.1,0.2,0.1,0.2c0.1,0,0.2-0.1,0.3-0.1c0.2-0.1,0.5-0.1,0.7-0.2
	c0.1,0,0.1-0.1,0.2-0.1c0.1-0.1,0.2-0.1,0.3-0.2c0,0,0.6-0.6,0.7-0.7c0.2-0.2,0.1-0.2,0-0.3C263.5,507.9,263.3,507.9,263.1,508z"/>
<path id="XMLID_16583_" class="st1" d="M261.7,508.5c0.1-0.1,0.1-0.4-0.2-0.3c0.1-0.2,0-0.2,0-0.2c-0.2,0-0.4,0.2-0.4,0.2
	c0,0-0.1,0.1-0.1,0.1c-0.1,0.1-0.2,0.2-0.3,0.3c0,0,0,0,0,0c-0.1,0-0.1,0.1-0.2,0.1c0,0-0.1,0.1-0.1,0.1c0,0,0,0.2,0.3,0.2
	C260.9,509,261.5,508.7,261.7,508.5C261.6,508.6,261.6,508.5,261.7,508.5z"/>
<path id="XMLID_16582_" class="st1" d="M251.6,511.4c-0.1-0.1-0.2-0.2-0.3-0.2c0,0-0.2-0.1-0.4-0.2c-0.1,0,0.1,0.3,0.1,0.3
	c0.2,0.3,0.4,0.4,0.4,0.4c0.2,0.1,0.6,0.3,0.6,0.1c0,0,0-0.1-0.1-0.2C251.8,511.5,251.7,511.5,251.6,511.4z"/>
<path id="XMLID_16581_" class="st1" d="M255,512.5c0,0-0.1,0-0.1,0c0,0,0,0.1-0.1,0.1c0,0-0.1,0-0.1,0c0-0.1-0.1-0.1-0.1-0.1
	c-0.1,0-0.2,0.1-0.4,0.1c-0.1,0-0.2,0-0.3,0c0,0,0,0,0,0c-0.1,0,0,0.1,0,0.1c0.1,0.1,0.2,0.1,0.3,0.1c0,0.1,0,0.1,0.1,0.1l0,0
	c0,0,0,0,0,0c0,0,0.1,0,0.2,0c0.1,0,0.2,0.1,0.3,0.1c0.1,0,0.1-0.2,0.2-0.2c0.1,0,0.2,0.1,0.3,0l0,0l0,0
	C255.4,512.8,255.2,512.5,255,512.5z"/>
</svg>
