<?xml version="1.0" encoding="utf-8"?>
<!-- Generator: Adobe Illustrator 21.1.0, SVG Export Plug-In . SVG Version: 6.00 Build 0)  -->
<svg version="1.1" id="Warstwa_1" xmlns="http://www.w3.org/2000/svg" xmlns:xlink="http://www.w3.org/1999/xlink" x="0px" y="0px"
	 viewBox="0 0 512 512" style="enable-background:new 0 0 512 512;" xml:space="preserve">
<style type="text/css">
	.st0{clip-path:url(#SVGID_2_);fill:#0038A8;}
	.st1{clip-path:url(#SVGID_2_);fill:#FFFFFF;}
	.st2{clip-path:url(#SVGID_2_);fill:#D52B1E;}
	.st3{clip-path:url(#SVGID_2_);}
	.st4{clip-path:url(#SVGID_2_);fill:#009B3A;}
	.st5{clip-path:url(#SVGID_2_);fill:#FEDF00;}
</style>
<g>
	<defs>
		<path id="SVGID_1_" d="M512,256c0,141.4-114.6,256-256,256C114.6,512,0,397.4,0,256C0,114.6,114.6,0,256,0
			C397.4,0,512,114.6,512,256z"/>
	</defs>
	<clipPath id="SVGID_2_">
		<use xlink:href="#SVGID_1_"  style="overflow:visible;"/>
	</clipPath>
	<rect x="-213.1" y="-2" class="st0" width="938.2" height="516"/>
	<rect x="-213.1" y="-2" class="st1" width="938.2" height="344"/>
	<rect x="-213.1" y="-2" class="st2" width="938.2" height="172"/>
	<path class="st1" d="M321.4,255.9c0,36.1-29.3,65.4-65.4,65.4c-36.1,0-65.4-29.3-65.4-65.4c0-36.1,29.3-65.4,65.4-65.4
		C292.1,190.6,321.4,219.8,321.4,255.9z"/>
	<path class="st3" d="M256,322.8c-36.8,0-66.8-30-66.8-66.8c0-36.8,30-66.8,66.8-66.8c36.8,0,66.8,30,66.8,66.8
		C322.8,292.8,292.8,322.8,256,322.8z M256,192c-35.3,0-63.9,28.7-63.9,63.9c0,35.3,28.7,64,63.9,64c35.3,0,63.9-28.7,63.9-64
		C319.9,220.7,291.3,192,256,192z"/>
	<path class="st4" d="M287.6,245.8c-1.6-0.1-1.6,1.7-1.6,1.7s0.1-0.5,0,0.1c0,0.6,0.3,2,1.4,2.1c1.2,0.1,1.6-1.3,1.7-2
		C289.1,247.3,289.1,245.8,287.6,245.8"/>
	<path class="st3" d="M287.6,250.1c-0.1,0-0.1,0-0.2,0c-1.4-0.1-1.8-1.8-1.8-2.5c0,0,0,0,0-0.1l0,0c0,0,0-1,0.6-1.6
		c0.3-0.3,0.8-0.5,1.4-0.5c1.5,0,1.9,1.4,1.9,2.2c0,0.5-0.2,1.4-0.8,2C288.4,249.9,288,250.1,287.6,250.1z M286.4,247.3
		c0,0.1,0,0.2,0,0.3c0,0.4,0.2,1.6,1.1,1.7c0.2,0,0.5-0.1,0.7-0.2c0.4-0.4,0.6-1.1,0.6-1.4c0-0.2-0.1-1.4-1.1-1.4h0
		c-0.4,0-0.6,0.1-0.8,0.3C286.6,246.7,286.5,247.1,286.4,247.3z"/>
	<g id="path2462" class="st3">
		<path d="M215,282.1l-0.6-0.9c-0.1-0.1-0.2-0.3-0.4-0.5c-0.1-0.1-0.3-0.2-0.4-0.2c-0.2,0-0.3,0-0.5,0.1c-0.2,0.1-0.4,0.3-0.4,0.5
			c0,0.2,0.1,0.5,0.3,0.9l0.6,1L215,282.1z M220.5,281.8l-7.1,4.2l-2.2-3.7c-0.4-0.7-0.6-1.2-0.7-1.7c-0.1-0.4-0.1-0.8,0.1-1.3
			c0.2-0.4,0.5-0.8,1-1c0.4-0.2,0.8-0.3,1.2-0.4c0.4,0,0.8,0.1,1.1,0.3c0.2,0.1,0.5,0.3,0.7,0.6c-0.1-0.3-0.1-0.5-0.1-0.7
			c0-0.1,0.1-0.3,0.2-0.6c0.1-0.3,0.2-0.5,0.2-0.6l1.4-2.3l1.5,2.5l-1.5,2.5c-0.2,0.3-0.3,0.6-0.3,0.7c0,0.2,0,0.4,0.2,0.6l0.1,0.2
			l2.9-1.7L220.5,281.8z"/>
	</g>
	<g id="path2466" class="st3">
		<path d="M208,276l-2.2-6.5l1.7-0.6l1.4,4.1l1.3-0.4l-1.3-3.8l1.6-0.5l1.3,3.8l1.5-0.5l-1.4-4.2l1.8-0.6l2.2,6.6L208,276z"/>
	</g>
	<g id="path2470" class="st3">
		<path d="M208.2,262.8l-0.1-0.6c-0.1-0.5-0.2-0.8-0.4-1c-0.2-0.2-0.4-0.3-0.7-0.2c-0.3,0-0.5,0.1-0.6,0.3c-0.2,0.2-0.2,0.5-0.1,1
			l0.1,0.7L208.2,262.8z M205,265.7l-0.5-4.2c-0.1-0.9,0-1.6,0.4-2.1c0.4-0.5,1-0.8,1.8-0.9c0.8-0.1,1.5,0.1,2,0.5
			c0.5,0.4,0.8,1.2,1,2.2l0.2,1.4l3-0.4l0.3,2.6L205,265.7z"/>
	</g>
	<g id="path2474" class="st3">
		<path d="M204.7,249.6l0.3-2.5l4.9,0.5c0.5,0.1,0.9,0.2,1.3,0.4c0.4,0.2,0.8,0.5,1.1,0.8c0.3,0.4,0.5,0.7,0.6,1.1
			c0.1,0.5,0.2,1.1,0.1,1.8c0,0.4-0.1,0.8-0.2,1.3c-0.1,0.5-0.3,0.9-0.5,1.1c-0.2,0.3-0.5,0.6-0.8,0.8c-0.3,0.2-0.7,0.4-1,0.4
			c-0.5,0.1-1,0.1-1.4,0.1l-4.9-0.5l0.3-2.5l5,0.5c0.5,0,0.8,0,1.1-0.3c0.3-0.2,0.4-0.6,0.5-1c0-0.5,0-0.8-0.3-1.1
			c-0.2-0.3-0.6-0.4-1-0.5L204.7,249.6z"/>
	</g>
	<g id="path2478" class="st3">
		<path d="M213,242.7l0.4-1.2c0.1-0.4,0.2-0.7,0.1-1c-0.1-0.2-0.3-0.4-0.5-0.5c-0.2-0.1-0.4-0.1-0.6,0.1c-0.2,0.1-0.4,0.4-0.5,0.8
			l-0.4,1.2L213,242.7z M209.9,241.6l0.4-1c0.1-0.4,0.2-0.7,0.1-0.9c-0.1-0.2-0.2-0.3-0.5-0.4c-0.2-0.1-0.4-0.1-0.6,0
			c-0.2,0.1-0.3,0.3-0.5,0.7l-0.4,1.1L209.9,241.6z M206,243l1.6-4.5c0.3-0.8,0.7-1.3,1.2-1.5c0.5-0.3,1-0.3,1.6-0.1
			c0.5,0.2,0.8,0.5,1,0.9c0.1,0.3,0.2,0.6,0.2,1c0.3-0.5,0.7-0.8,1.1-1c0.4-0.2,0.9-0.1,1.4,0c0.4,0.1,0.7,0.4,1,0.7
			c0.2,0.3,0.4,0.7,0.5,1c0,0.3,0,0.6-0.1,1c-0.1,0.6-0.2,1-0.3,1.1l-1.5,4.2L206,243z"/>
	</g>
	<g id="path2482" class="st3">
		<path d="M210.2,232.4l1.3-2.2l5.3,3.2l2.1-3.4l1.7,1.1l-3.4,5.6L210.2,232.4z"/>
	</g>
	<g id="path2486" class="st3">
		<path d="M215.7,224.2l1.6-2l6.3,5.3l-1.6,2L215.7,224.2z"/>
	</g>
	<g id="path2490" class="st3">
		<path d="M227.1,219.8l2.1-0.9c0.3,0.6,0.4,1.1,0.5,1.7c0,0.5-0.1,1-0.3,1.5c-0.2,0.5-0.6,0.9-1.2,1.4c-0.7,0.6-1.3,0.9-2,1.1
			c-0.6,0.2-1.3,0.1-2-0.1c-0.7-0.2-1.4-0.8-2.1-1.5c-0.9-1.1-1.3-2.1-1.2-3.1c0.1-1,0.6-2,1.7-2.8c0.8-0.7,1.6-1,2.3-1.1
			c0.7-0.1,1.5,0.1,2.3,0.6l-1.4,1.8c-0.2-0.1-0.4-0.2-0.5-0.3c-0.2-0.1-0.5-0.1-0.7,0c-0.2,0-0.4,0.2-0.6,0.3
			c-0.4,0.4-0.6,0.8-0.6,1.4c0,0.4,0.3,0.9,0.8,1.5c0.6,0.7,1.1,1.1,1.5,1.2c0.4,0.1,0.9,0,1.2-0.4c0.4-0.3,0.6-0.7,0.6-1
			C227.5,220.7,227.4,220.2,227.1,219.8"/>
	</g>
	<g id="path2494" class="st3">
		<path d="M235.5,214.8l-2.2-2.2l0.5,3.1L235.5,214.8z M236.8,216.2l-2.6,1.3l0.3,1.4l-2.3,1.2l-1-8.8l2.5-1.3l6.5,6l-2.4,1.2
			L236.8,216.2z"/>
	</g>
	<g id="path2498" class="st3">
		<path d="M246.8,207.5l0.6,4.5l0.6-0.1c0.5-0.1,0.9-0.2,1.1-0.3c0.2-0.2,0.3-0.4,0.4-0.7c0.1-0.3,0.1-0.8,0-1.4
			c-0.1-0.9-0.4-1.4-0.7-1.7c-0.3-0.3-0.8-0.4-1.5-0.3L246.8,207.5z M244,206l3.8-0.5c0.7-0.1,1.3-0.1,1.8,0
			c0.5,0.1,0.9,0.4,1.3,0.7c0.3,0.3,0.6,0.7,0.8,1.2c0.2,0.5,0.4,1,0.4,1.6c0.1,0.9,0.1,1.6,0,2.1c-0.1,0.5-0.3,1-0.7,1.3
			c-0.3,0.4-0.7,0.6-1,0.8c-0.5,0.2-1,0.4-1.5,0.5l-3.8,0.5L244,206z"/>
	</g>
	<path class="st3" d="M255.3,204.4l6.8,0.5l-0.1,1.8l-4.3-0.3l-0.1,1.3l4,0.3l-0.1,1.7l-3.9-0.3l-0.1,1.6l4.4,0.3l-0.1,1.9l-7-0.5
		L255.3,204.4z"/>
	<path class="st3" d="M265.8,205.4l2.5,0.7l-1.7,6l3.8,1.1l-0.6,1.9l-6.3-1.8L265.8,205.4z"/>
	<path class="st3" d="M279.8,214.6l0.5,0.3c0.4,0.3,0.8,0.4,1,0.4c0.3,0,0.5-0.1,0.6-0.4c0.1-0.2,0.2-0.4,0.2-0.7
		c0-0.2-0.3-0.5-0.7-0.8l-0.6-0.4L279.8,214.6z M279.5,210.2l3.6,2.3c0.8,0.5,1.2,1.1,1.4,1.7c0.1,0.6,0,1.3-0.5,2
		c-0.4,0.7-1,1.1-1.7,1.2c-0.7,0.1-1.4-0.1-2.3-0.7l-1.2-0.8l-1.7,2.6l-2.1-1.4L279.5,210.2z"/>
	<path class="st3" d="M288.5,222.8l1.4-2.8l-2.7,1.5L288.5,222.8z M287.6,224.5l-2.1-2l-1.2,0.7l-1.9-1.8l3.8-1.8l4.2-1.9l2,2
		l-3.6,8.1l-1.9-1.9L287.6,224.5z"/>
	<path class="st3" d="M295.3,228.1l0.6,0.9c0.1,0.1,0.2,0.3,0.5,0.5c0.1,0.1,0.3,0.2,0.4,0.2c0.2,0,0.3,0,0.5-0.1
		c0.2-0.1,0.3-0.3,0.4-0.5c0-0.2-0.1-0.5-0.3-0.9l-0.6-0.9L295.3,228.1z M289.8,228.6l7-4.4l2.3,3.6c0.4,0.7,0.7,1.2,0.8,1.6
		c0.1,0.4,0.1,0.8-0.1,1.3c-0.2,0.4-0.5,0.8-0.9,1c-0.4,0.3-0.8,0.4-1.2,0.4c-0.4,0-0.8-0.1-1.1-0.2c-0.2-0.1-0.5-0.3-0.8-0.6
		c0.1,0.3,0.1,0.6,0.1,0.7c0,0.1-0.1,0.3-0.1,0.6c-0.1,0.3-0.2,0.5-0.2,0.6l-1.3,2.3l-1.6-2.4l1.4-2.5c0.2-0.3,0.3-0.6,0.3-0.7
		c0-0.2,0-0.4-0.2-0.6l-0.1-0.2l-2.8,1.8L289.8,228.6z"/>
	<path class="st3" d="M299.6,239.7l2.5-1.9l-3.1,0.2L299.6,239.7z M298.1,240.8l-1-2.7l-1.4,0.1l-0.9-2.5l8.8,0.1l1,2.6l-6.7,5.7
		l-0.9-2.5L298.1,240.8z"/>
	<path class="st3" d="M302,249.6l1.7-0.2l0.5,3.9l-3.5,0.4c-0.6-0.7-1-1.3-1.3-1.9c-0.3-0.6-0.4-1.2-0.5-2c-0.1-1-0.1-1.8,0.2-2.4
		c0.2-0.7,0.7-1.2,1.3-1.6c0.6-0.4,1.3-0.7,2.2-0.8c0.9-0.1,1.7,0,2.4,0.3c0.7,0.3,1.3,0.8,1.7,1.4c0.3,0.5,0.6,1.3,0.7,2.2
		c0.1,0.9,0.1,1.6,0,2.1c-0.1,0.5-0.3,0.9-0.6,1.2c-0.3,0.3-0.7,0.6-1.2,0.8l-0.7-2.4c0.3-0.1,0.5-0.3,0.6-0.6
		c0.1-0.3,0.2-0.6,0.1-0.9c-0.1-0.6-0.3-1-0.7-1.3c-0.4-0.3-1.1-0.4-1.9-0.3c-0.9,0.1-1.5,0.4-1.8,0.7c-0.3,0.4-0.5,0.9-0.4,1.5
		c0,0.3,0.1,0.5,0.2,0.8c0.1,0.3,0.3,0.5,0.5,0.8l0.8-0.1L302,249.6z"/>
	<path class="st3" d="M307.3,262l-0.3,2.5l-4.9-0.6c-0.5-0.1-0.9-0.2-1.3-0.4c-0.4-0.2-0.8-0.5-1.1-0.8c-0.3-0.4-0.5-0.7-0.6-1.1
		c-0.1-0.5-0.1-1.1-0.1-1.8c0.1-0.4,0.1-0.8,0.2-1.3c0.1-0.5,0.3-0.8,0.5-1.1c0.2-0.3,0.5-0.6,0.8-0.8c0.4-0.2,0.7-0.4,1-0.4
		c0.5-0.1,1-0.1,1.4-0.1l4.9,0.6l-0.3,2.5l-5-0.6c-0.5,0-0.8,0-1.1,0.3c-0.3,0.2-0.4,0.5-0.5,1c0,0.4,0,0.8,0.3,1.1
		c0.2,0.3,0.6,0.4,1,0.5L307.3,262z"/>
	<path class="st3" d="M299.6,271.4l3.1,0.1l-2.5-1.8L299.6,271.4z M297.8,271.3l0.9-2.7l-1.2-0.8l0.9-2.5l6.8,5.6l-0.9,2.6l-8.8,0.2
		l0.9-2.5L297.8,271.3z"/>
	<path class="st3" d="M302.4,278.9l-1.4,2.4l-3.3,0l1.6,2.9l-1.4,2.4l-2.5-5.2l-3-1.8l1.3-2.2l3,1.8L302.4,278.9z"/>
	<path class="st3" d="M256,311.3c-30.5,0-55.3-24.8-55.3-55.3c0-30.5,24.8-55.3,55.3-55.3c30.5,0,55.3,24.8,55.3,55.3
		C311.3,286.5,286.5,311.3,256,311.3z M256,201.8c-29.9,0-54.2,24.3-54.2,54.2c0,29.9,24.3,54.2,54.2,54.2
		c29.9,0,54.2-24.3,54.2-54.2C310.2,226.1,285.9,201.8,256,201.8z"/>
	<path class="st3" d="M256,297.1c-22.8,0-41.3-18.5-41.3-41.3c0-22.8,18.5-41.3,41.3-41.3c22.8,0,41.3,18.5,41.3,41.3
		C297.3,278.5,278.8,297.1,256,297.1z M256,215.6c-22.1,0-40.2,18-40.2,40.1c0,22.1,18,40.2,40.2,40.2c22.1,0,40.2-18,40.2-40.2
		C296.2,233.6,278.2,215.6,256,215.6z"/>
	<path class="st5" d="M256,241.1l3.4,9.8l10.4,0.2l-8.3,6.3l3,9.9l-8.5-5.9l-8.5,5.9l3-9.9l-8.3-6.3l10.4-0.2L256,241.1z"/>
	<path class="st3" d="M265,267.9l-8.9-6.2l-8.9,6.2l3.1-10.4l-8.7-6.6l10.9-0.2l3.6-10.3l3.6,10.3l10.9,0.2l-8.7,6.6L265,267.9z
		 M242.9,251.3l7.9,6l0,0.2l-2.8,9.3l8.1-5.6l8.1,5.6l-2.9-9.4l7.8-6l-9.8-0.2l-0.1-0.2l-3.2-9.2l-3.3,9.3l-0.2,0L242.9,251.3z"/>
	<path class="st4" d="M274.8,283.9c-0.3,0.3-1.7,0.4-2.1,0.5c-0.4,0-1.8,0.1-2.4,0.1c-0.3,0-1,0.1-1.3,0.1
		C265.9,284.2,273.8,284.3,274.8,283.9 M267,281.6c0.2-0.3,1.2-2.5,1.5-3.2c0.4-0.6,1.2-2.2,1.7-2.9c0.2-0.4,1.2-1.4,1.5-1
		c-1.7,1.5-3,4-3.8,5.8c-0.1,0.2-0.7,1.1-0.9,1.4c-0.2,0.2-0.1,0.7-0.4,0.8c-0.3,0-0.1,0.1-0.1,0.1S266.8,281.9,267,281.6z
		 M278.3,283.2c0,0-1.4-0.2-2.2-0.5c-0.8-0.3-2.2-0.5-3.4-0.5c-1.2,0-2.3,0.4-3.2,0.7c-1,0.4-2.2,0.4-2.2,0.4s-0.7,0.1-0.4-0.1
		c0.3-0.2,1.4-1,1.4-1l0.7-1c0.2-0.1,3.8-4.8,3.4-6c0.5-0.9,1.2-2.6,0.9-2.9c-0.1-0.1-2.8,0.8-3.4,1.4c-0.7,0.6-1.2,1.8-1.4,2.5
		c-0.2,0.7-1.2,1.3-1.2,1.3c-0.8,0.6-1.4,2.5-1.7,4.1c-0.3,1.5-4.1,2.4-4.1,2.4s-1,0.4-0.1,0.7c0.2,0,0.6,0.7,0.9,0.8
		c0.5,0.1,2.8-1,3.2-0.9c0.4,0.1,1.5,0.4,2.4,0.6c0.9,0.3,1.6,0.5,2.3,0.2c0.6-0.2,1.5-0.1,2.2,0c0.7,0.1,1.4,0.1,1.9,0
		c0.5-0.1,1.7-0.8,1.7-0.8s1.3-0.6,2.1-0.9C278.7,283.4,278.3,283.2,278.3,283.2"/>
	<path class="st3" d="M269.5,285.9c-0.5,0-1.1-0.1-1.7-0.4c-0.9-0.3-1.9-0.6-2.3-0.6c0,0,0,0,0,0c-0.2,0-0.9,0.2-1.4,0.4
		c-0.9,0.3-1.5,0.5-1.8,0.5c-0.3,0-0.6-0.3-0.8-0.6c-0.1-0.1-0.1-0.2-0.2-0.2c-0.1,0-0.5-0.2-0.6-0.5c0-0.4,0.5-0.6,0.7-0.7
		c1-0.2,3.7-1.1,3.9-2.2c0.1-0.8,0.7-3.4,1.8-4.2c0.3-0.2,1-0.6,1.1-1.1c0.1-0.3,0.6-1.9,1.4-2.7c0.3-0.3,3.4-1.8,3.8-1.4
		c0.5,0.6-0.6,2.6-0.8,3.1c0.1,0.3,0,0.9-0.8,2.3c-0.7,1.2-2.1,3.3-2.7,3.9l0,0l-0.8,1c-0.1,0-0.3,0.3-0.6,0.5c0.4,0,1-0.1,1.5-0.3
		c1-0.4,2.1-0.7,3.3-0.8c1.2,0,2.6,0.2,3.5,0.5c0.8,0.3,2.1,0.5,2.1,0.5l0.1,0c0.1,0.1,0.3,0.2,0.3,0.4c0,0.3-0.3,0.5-0.6,0.7
		c-0.8,0.4-2.1,0.9-2.1,0.9c-0.1,0.1-1.2,0.7-1.7,0.8c-0.5,0.1-1.3,0.2-2,0.1c-0.5-0.1-1.4-0.2-2.1,0
		C270,285.9,269.7,285.9,269.5,285.9z M265.4,284.4c0,0,0.1,0,0.1,0c0.5,0.1,1.5,0.4,2.4,0.7c0.7,0.2,1.5,0.4,2.1,0.2
		c0.7-0.3,1.7-0.2,2.4,0c0.6,0.1,1.3,0.1,1.7,0c0.4-0.1,1.3-0.6,1.6-0.8c0,0,1.3-0.6,2.1-0.9c0,0,0,0,0,0c-0.5-0.1-1.3-0.2-1.9-0.5
		c-0.9-0.3-2.3-0.5-3.3-0.5c-1.1,0-2.2,0.4-3.1,0.7c-1,0.4-2.3,0.4-2.3,0.4c-0.3,0.1-0.7,0.1-0.8-0.2c0-0.1,0-0.3,0.2-0.4
		c0.2-0.1,0.9-0.6,1.3-0.9l0.8-1c0.5-0.5,3.5-4.7,3.2-5.7l0-0.1l0.1-0.1c0.5-0.8,0.9-1.9,1-2.4c-0.7,0.2-2.5,0.9-2.9,1.3
		c-0.6,0.5-1,1.6-1.3,2.4c-0.2,0.8-1.2,1.4-1.4,1.5c-0.7,0.5-1.3,2.4-1.6,3.9c-0.3,1.7-3.9,2.5-4.3,2.6c-0.1,0-0.1,0.1-0.2,0.1
		c0,0,0.1,0,0.1,0c0.1,0,0.2,0.2,0.4,0.3c0.1,0.1,0.3,0.4,0.4,0.4c0.2,0,1-0.3,1.5-0.4C264.7,284.5,265.2,284.4,265.4,284.4z
		 M268.9,284.9c-0.6-0.1-1-0.1-1-0.4c0-0.4,0.1-0.4,2.8-0.5c1.5-0.1,3.6-0.2,4-0.3l0.3,0.5c-0.3,0.3-1.2,0.4-2,0.5l-0.2,0
		c-0.3,0-1.1,0.1-1.8,0.1c-0.3,0-0.5,0-0.7,0c-0.1,0-0.3,0-0.5,0C269.5,284.8,269.2,284.9,268.9,284.9z M266.6,282.9l-0.2-0.1
		c-0.3-0.1-0.3-0.3-0.3-0.4c0-0.1,0.1-0.2,0.2-0.3c0.1-0.2,0.3-0.6,0.4-0.8c0.1-0.1,0.3-0.6,0.5-1.1c0.4-0.8,0.8-1.7,1-2
		c0.1-0.2,0.3-0.5,0.5-0.9c0.4-0.7,0.8-1.6,1.2-2c0,0,0.9-1.2,1.5-1.2c0,0,0,0,0,0c0.2,0,0.3,0.1,0.4,0.3l0.1,0.2l-0.2,0.1
		c-1.9,1.7-3.3,4.7-3.7,5.7c-0.1,0.2-0.7,1.2-0.9,1.5c0,0-0.1,0.1-0.1,0.2c0,0.2-0.1,0.5-0.4,0.6L266.6,282.9z"/>
	<path class="st4" d="M268,287.8c0,0-5.2-2.7-5.5-2.8c-0.2,0-2.4-1.2-3.4-1.5c-0.7-0.2-1.7-0.3-2.1-0.3c-0.9,0.1-2.3,0.4-2.3,0.4
		l1.3,0.5c0,0,1.2,0.6,1.8,0.9c0.9,0.4,0.9,1,0.9,1l4.7,2.1l1,0.7C264.4,288.8,265.3,287.6,268,287.8"/>
	<path class="st3" d="M264.5,289.1l-1.1-0.8l-4.8-2.1l0-0.1c0,0-0.1-0.4-0.8-0.8c-0.6-0.3-1.8-0.9-1.8-0.9l-1.9-0.8l0.7-0.2
		c0.1,0,1.4-0.4,2.3-0.4c0.4,0,1.4,0,2.2,0.3c0.7,0.2,1.8,0.8,2.6,1.2c0.3,0.2,0.7,0.3,0.8,0.4c0.3,0.1,4.3,2.2,5.5,2.8L268,288
		c-2.5-0.2-3.3,0.9-3.3,0.9L264.5,289.1z M259,285.9l4.6,2l0.8,0.6c0.3-0.3,1.1-0.9,2.6-1c-1.9-1-4.4-2.3-4.6-2.3
		c-0.1,0-0.2-0.1-0.9-0.4c-0.8-0.4-1.9-1-2.5-1.1c-0.7-0.2-1.7-0.3-2-0.3c-0.4,0-1,0.2-1.5,0.3l0.6,0.3c0,0,1.2,0.6,1.8,0.9
		C258.7,285.2,258.9,285.7,259,285.9z"/>
	<path class="st4" d="M273.2,277c1.6-1.5,2.4-3.5,3.8-4.7c0.2,0.2,0.2,0.4,0,0.9c-0.3,0.5-0.6,0.6-0.7,0.8c-0.3,0.4-1.1,1.1-1.3,1.5
		c-0.2,0.4-0.5,0.9-1.2,1.3c-0.7,0.4-0.5,1.1-0.5,1.4c-0.1,0.3-1.2,1.1-1.7,2.1c-0.1,1-0.1,0.6-0.8,0.9
		C271.9,279.5,272.4,278.4,273.2,277 M269.5,281.6c-0.1,0.2-3.3,2.1-2.3,1.8c1-0.3,4-1.3,4.8-1.7c1-0.5,1.7-1.4,2.4-2.2
		c0.8-0.8,3.3-3.1,3.7-4c0.4-0.9,0.8-2.2-0.9-5.1c0,0-0.3,0.6-0.9,1.1c-0.6,0.6-1.5,1.2-1.5,1.2l-1.1,1
		C273.8,273.6,270,280.5,269.5,281.6"/>
	<path class="st3" d="M267.1,283.7c-0.1,0-0.3,0-0.3-0.2c-0.1-0.3,0.1-0.5,1.5-1.4c0.4-0.2,0.9-0.6,1-0.7c0.6-1.2,4.1-7.7,4.3-8
		l0.1-0.1l1.1-1c0,0,0.9-0.6,1.5-1.2c0.6-0.5,0.8-1,0.8-1l0.3-0.5l0.3,0.5c1.6,2.9,1.4,4.3,0.9,5.4c-0.4,0.9-2.4,2.8-3.4,3.8
		l-0.3,0.3c-0.2,0.2-0.4,0.4-0.6,0.6c-0.6,0.6-1.1,1.2-1.9,1.6c-0.9,0.4-3.9,1.5-4.9,1.7C267.2,283.7,267.2,283.7,267.1,283.7z
		 M274.1,273.8c-0.3,0.6-3.8,6.9-4.2,8l0,0c-0.1,0.1-0.2,0.3-1.2,0.9c1.2-0.4,2.7-1,3.3-1.2c0.7-0.3,1.2-0.9,1.7-1.5
		c0.2-0.2,0.4-0.4,0.6-0.7l0.3-0.3c0.9-0.9,2.9-2.9,3.3-3.6c0.4-0.9,0.7-2-0.6-4.4c-0.2,0.2-0.4,0.5-0.7,0.7
		c-0.6,0.6-1.5,1.2-1.6,1.2L274.1,273.8z M270.9,281.5l-0.4-0.4c1.1-1.7,1.7-2.8,2.5-4.2l0.1-0.1c0.8-0.7,1.4-1.6,2-2.5
		c0.6-0.8,1.1-1.6,1.8-2.2l0.2-0.2l0.2,0.1c0.6,0.4,0.2,1.1,0,1.3c-0.2,0.3-0.4,0.5-0.5,0.7c-0.1,0.1-0.2,0.1-0.2,0.2
		c-0.1,0.2-0.4,0.4-0.6,0.6c-0.3,0.3-0.6,0.6-0.7,0.8c-0.2,0.4-0.5,1-1.3,1.5c-0.4,0.2-0.4,0.6-0.4,0.9c0,0.1,0,0.2,0,0.3
		c0,0.2-0.3,0.4-0.6,0.8c-0.4,0.4-0.8,0.8-1.1,1.3c-0.1,0.6-0.1,0.9-0.6,1C271.2,281.4,271.1,281.4,270.9,281.5z M276.6,273.1
		c-0.1,0.1-0.1,0.2-0.2,0.2C276.5,273.3,276.6,273.2,276.6,273.1z"/>
	<path class="st4" d="M282.7,279.2c0,0-2.1-0.2-2.2-0.2c-0.2,0-1.3-0.2-3-0.2c-1.6,0-2.2,0.6-2.7,1c-0.5,0.5-1.8,1.7-1.8,1.7
		l0.7-0.1c1.7-1.3,2.9-0.8,3.5-0.9c0.5,0,1.2,0,2.8-0.6c1.7-0.6,1.6,0,1.4,0c-0.2,0.1-1.3,0.5-2.5,0.5c-1.2,0.1-2.3,0.3-2.8,0.3
		c-0.5,0-4.1,1-4.1,1s3.9,0.2,4.4,0.4c0.4,0.2,1.1,0.1,1.6-0.2c1.5-0.7,2.2-0.8,2.8-1c0.6-0.1,1.4-0.5,1.4-0.5s0.4-0.3,0.8-0.9
		C283.3,279,282.7,279.2,282.7,279.2"/>
	<path class="st3" d="M276.8,282.6c-0.2,0-0.5,0-0.6-0.1c-0.2-0.1-2.7-0.3-4.3-0.4l-0.1-0.6c0.2,0,0.5-0.1,0.9-0.2l0.1-0.1
		c0,0,1.3-1.2,1.7-1.7c0.5-0.5,1.2-1.1,2.9-1.1c1.2,0,2.2,0.1,2.7,0.1c0.2,0,0.3,0,0.3,0c0.2,0,1.8,0.1,2.2,0.2c0.2,0,0.4,0,0.6,0.1
		c0.2,0.3,0,0.7-0.1,0.8c-0.4,0.7-0.8,1-0.9,1c0,0-0.8,0.5-1.5,0.6l-0.1,0c-0.6,0.1-1.3,0.3-2.7,0.9
		C277.7,282.5,277.2,282.6,276.8,282.6z M273.9,281.7c1.1,0.1,2.3,0.2,2.5,0.3c0.3,0.1,0.9,0.1,1.4-0.2c1.5-0.7,2.2-0.8,2.8-1l0.1,0
		c0.6-0.1,1.3-0.5,1.3-0.5l0,0c0,0,0.3-0.2,0.7-0.8c0,0,0,0,0-0.1l0,0c-0.8-0.1-2.1-0.2-2.2-0.2c-0.1,0-0.2,0-0.4,0
		c-0.5,0-1.4-0.1-2.6-0.1c-1.6,0-2.1,0.6-2.5,0.9c-0.2,0.2-0.4,0.4-0.7,0.7c1.1-0.6,2-0.5,2.5-0.4c0.1,0,0.3,0,0.3,0l0.2,0
		c0.5,0,1.1,0,2.6-0.5c1.2-0.4,1.6-0.3,1.7-0.1c0.1,0.1,0.2,0.2,0.1,0.4c0,0.2-0.1,0.3-0.3,0.3l0,0c0,0-1.2,0.5-2.6,0.5
		c-0.7,0-1.3,0.1-1.8,0.2c-0.4,0.1-0.8,0.1-1,0.1C275.9,281.2,274.9,281.4,273.9,281.7C273.9,281.7,273.9,281.7,273.9,281.7
		L273.9,281.7z M281.3,279.8C281.3,279.8,281.3,279.8,281.3,279.8C281.3,279.8,281.3,279.8,281.3,279.8z"/>
	<path class="st4" d="M284.6,268.4c0.2-0.6,0.9-2.1,1.5-2.6c0.4-0.3,1.1-0.5,1.5-0.7c0.2-0.1,1.3-0.1-0.1,0.3
		c-0.6,0.2-1.4,0.5-1.7,1.1c-0.5,1.4-0.9,2.6-1.8,3.4c-0.7,0.7-1.1,1.6-1.1,1.6l-0.7,0.3C283.4,270.9,284,269.4,284.6,268.4z
		 M291,267.6c-0.8,0.3-1,0.5-1,0.5c-1.7,0.5-2.4,1.6-3.1,2.4c-0.4,0.5-0.9,0.8-2.7,1.6c-1.6,0.7-2.9,1.8-2.9,1.8
		c0,0-0.5,0.1-0.4,0.4c0,0.1,0.5,0,0.5,0s3.4-0.5,4.8-1.3c0.9-0.6,1.4-1,2.2-2.3c0.4-0.6,0.8-1.7,0.8-1c0.1,1.9-2.8,3.7-4.1,4.2
		c-0.7,0.3-1.6,0.4-2.7,0.6c-1.2,0.2-1.9,0.1-1.8-0.1c0.1-0.4,0.3-0.4,0.6-0.8c0.6-0.7,1.9-0.9,2.9-1.3c1.2-0.5,2.3-1.3,2.8-1.9
		c0.6-0.7,0.8-0.9,0.9-1.5c0.4-1.5,0.5-2.3,0.9-2.8c1.4-1.7,1.6-2.3,1.7-3.1c0-0.2-0.7,0.4-1.1,0.6c-0.8,0.5-1,0.5-2.6,0.9
		c-1.6,0.4-1.6,1.4-1.8,1.9c-0.1,0.2-0.7,1-1,1.1c-0.3,0.2-1.1,1.2-1.3,1.9c-0.2,0.5-0.6,0.8-0.9,0.8c-0.3-0.1,0.6-3.4,0.8-4
		c0.2-0.6,0.3-1.6,0.3-2c0-0.3,0-1.3-0.6-1.4c-0.6-0.1-0.6-0.9-0.6-0.9c-1.5,1.3-0.6,3.5-0.5,4.8c0.2,1.3-0.3,3.7-0.3,3.7
		c1.4,0.6,0.3,2.3-0.1,2.9c-0.5,0.6-1.3,0.7-1.7,1.2c-0.4,0.5-3.4,4.6-3.4,4.6l3.7-1c0,0,0.3,0.1-0.2-0.4c-0.6-0.4,0.2-2,0.7-2.3
		c0.9-0.7,2.1-0.2,2.1-0.2s1.7,0.3,3.8-0.6c1.8-0.7,2.5-1.8,3.3-2.7c0.5-0.5,1.3-2,1.8-2.9C290.8,268.5,291.4,267.5,291,267.6"/>
	<path class="st3" d="M274.5,279.5l0.5-0.7c0.1-0.2,3-4.1,3.4-4.7c0.2-0.3,0.6-0.5,0.9-0.6c0.3-0.2,0.6-0.3,0.8-0.5
		c0.3-0.4,0.9-1.3,0.7-1.9c-0.1-0.2-0.2-0.4-0.5-0.5l-0.2-0.1l0-0.2c0,0,0.4-2.4,0.3-3.7c0-0.2-0.1-0.5-0.1-0.8
		c-0.3-1.3-0.6-3.1,0.7-4.3l0.5-0.4l0,0.6c0,0,0,0.6,0.4,0.7c0.8,0.1,0.8,1.2,0.8,1.6c0,0.1,0,1.4-0.3,2.1c-0.2,0.6-0.8,2.7-0.8,3.5
		c0.1-0.1,0.3-0.3,0.4-0.5c0.3-0.6,1.1-1.8,1.5-2c0.2-0.1,0.8-0.8,0.9-1c0.1-0.1,0.1-0.2,0.1-0.3c0.2-0.6,0.4-1.4,1.9-1.8
		c0.3-0.1,0.6-0.2,0.8-0.2c0.9-0.2,1.1-0.3,1.7-0.6c0.1-0.1,0.3-0.2,0.5-0.3c0.5-0.3,0.7-0.5,0.9-0.4l0.2,0.1l0,0.2
		c-0.1,0.9-0.4,1.5-1.8,3.2c-0.2,0.3-0.3,0.7-0.4,1.3c-0.1,0.4-0.2,0.8-0.3,1.3c0.5-0.4,1.1-0.8,1.9-1c0.1-0.1,0.4-0.3,1.1-0.5
		c0.2-0.1,0.4,0.1,0.4,0.1c0.1,0.2,0.2,0.4-0.6,1.7l-0.3,0.5c-0.5,1-1.2,2-1.6,2.4c-0.2,0.2-0.3,0.3-0.5,0.5c-0.7,0.8-1.5,1.6-3,2.2
		c-2.1,0.9-3.9,0.6-4,0.6c-0.1,0-1.1-0.5-1.9,0.1c-0.3,0.2-0.8,1.1-0.7,1.6c0,0.1,0,0.2,0.1,0.2c0.2,0.2,0.5,0.4,0.4,0.7
		c-0.1,0.1-0.2,0.2-0.3,0.2c0,0,0,0,0,0L274.5,279.5z M280.8,270.2c0.4,0.2,0.6,0.6,0.6,0.8c0.2,1-0.6,2.1-0.9,2.4
		c-0.3,0.3-0.7,0.5-1,0.7c-0.3,0.1-0.6,0.3-0.7,0.5c-0.3,0.4-2,2.8-2.9,4l2.5-0.7c-0.1-0.1-0.2-0.3-0.2-0.6c0-0.7,0.5-1.7,1-2.1
		c0.4-0.3,0.8-0.4,1.2-0.4c0,0,0,0,0,0c-0.1-0.1-0.1-0.3-0.1-0.4c0.1-0.3,0.2-0.5,0.4-0.7c0.1-0.1,0.1-0.1,0.2-0.2
		c0.4-0.5,1.2-0.8,1.9-1c0.2-0.1,0.3-0.1,0.5-0.2c0.2-0.1,0.5-0.2,0.7-0.4c0.2-0.1,0.3-0.1,0.5-0.2c0.8-0.5,1.6-1,2-1.5
		c0.6-0.7,0.7-0.9,0.9-1.4c0.2-0.5,0.3-1,0.3-1.3c0.2-0.7,0.3-1.2,0.6-1.5c1-1.3,1.4-1.9,1.5-2.4c0,0-0.1,0-0.1,0.1
		c-0.2,0.1-0.4,0.2-0.5,0.3c-0.6,0.4-1,0.5-1.8,0.7c-0.2,0.1-0.5,0.1-0.8,0.2c-1.1,0.3-1.3,0.9-1.5,1.4c0,0.1-0.1,0.3-0.1,0.4
		c-0.1,0.2-0.8,1.1-1.2,1.3c-0.2,0.1-0.9,1.1-1.2,1.7c-0.3,0.6-0.8,1-1.2,0.9l-0.1,0l-0.1-0.2c-0.3-0.5,0.8-4.2,0.8-4.2
		c0.2-0.5,0.2-1.5,0.2-1.9c0-0.3,0-1-0.4-1.1c-0.4-0.1-0.6-0.3-0.7-0.6c-0.6,0.9-0.4,2.2-0.2,3.3c0.1,0.3,0.1,0.6,0.1,0.9
		C281.2,267.7,280.9,269.5,280.8,270.2z M281.6,274.8c0.1,0,1.7,0.2,3.6-0.6c1.1-0.4,1.8-1.1,2.4-1.7c-0.9,0.7-1.9,1.3-2.4,1.5
		c-0.6,0.3-1.4,0.4-2.4,0.5l-0.5,0.1C282.1,274.8,281.9,274.8,281.6,274.8C281.6,274.8,281.6,274.8,281.6,274.8
		C281.6,274.8,281.6,274.8,281.6,274.8z M283.6,272.7c-0.8,0.4-1.5,0.9-1.8,1.2c1-0.2,3.2-0.6,4.2-1.2c0.9-0.5,1.3-0.9,2.1-2.2
		c0.1-0.2,0.2-0.4,0.3-0.6c0.3-0.5,0.4-0.8,0.8-0.8c0.3,0.1,0.3,0.4,0.3,0.5c0,0.3,0,0.5-0.1,0.8c0.2-0.4,0.4-0.7,0.6-1.1l0.3-0.5
		c0.2-0.4,0.4-0.6,0.5-0.8c-0.4,0.1-0.5,0.3-0.5,0.3l-0.1,0c-1.4,0.4-2.1,1.2-2.7,2c-0.1,0.1-0.2,0.2-0.3,0.3
		c-0.4,0.5-0.9,0.8-2.3,1.4c-0.2,0.1-0.5,0.2-0.7,0.4C283.9,272.5,283.7,272.6,283.6,272.7z M282.2,272l-0.3-0.5
		c1-0.6,1.5-1.7,2-2.6c0.1-0.2,0.3-0.5,0.4-0.7c0.4-0.9,1-2.2,1.6-2.7c0.3-0.3,0.8-0.5,1.2-0.6c0.1,0,0.2-0.1,0.3-0.1
		c0,0,0.7-0.2,0.9,0l0.1,0.1l0,0.2c0,0.2-0.2,0.3-0.9,0.5c-0.3,0.1-1.2,0.4-1.6,1c-0.5,1.4-0.9,2.6-1.9,3.5c-0.6,0.7-1,1.5-1,1.5
		l-0.1,0.1L282.2,272z"/>
	<path class="st4" d="M280.5,277.5c0.3-0.1,0.3-0.2,0.8-0.7c0.5-0.6,0.1-1.5-0.7-1.5c-0.4,0-0.8-0.1-1.6,1c-0.7,1,0.4,1.4,0.8,1.4
		C280,277.7,280.3,277.6,280.5,277.5"/>
	<path class="st3" d="M279.9,278C279.9,278,279.9,278,279.9,278c-0.4,0-1-0.2-1.3-0.8c-0.1-0.2-0.2-0.7,0.2-1.2
		c0.7-1,1.2-1.1,1.7-1.1l0.1,0c0.5,0,1,0.2,1.2,0.7c0.2,0.5,0.1,1-0.2,1.3c-0.5,0.6-0.6,0.7-1,0.8C280.3,278,280.1,278,279.9,278z
		 M280.7,275.6C280.7,275.6,280.7,275.6,280.7,275.6l-0.1,0c-0.3,0-0.6,0-1.2,0.8c-0.1,0.2-0.2,0.4-0.2,0.5c0.1,0.2,0.5,0.3,0.7,0.4
		c0,0,0,0,0,0c0.1,0,0.4-0.1,0.5-0.2l0,0c0.2-0.1,0.2-0.1,0.7-0.6c0.2-0.2,0.2-0.5,0.1-0.6C281.1,275.8,281,275.6,280.7,275.6z"/>
	<path class="st4" d="M278.6,271.1c-0.5,0.8-0.8,1.8-0.4,2c0.1,0,0.4,0.3,0.7,0.3c0.3,0,1.1-0.4,1.5-1.1c0.5-0.7,0.8-1.4-0.1-1.9
		C279.6,270.1,279,270.4,278.6,271.1"/>
	<path class="st3" d="M279,273.8c-0.3,0-0.7-0.2-0.8-0.4l-0.1-0.1c-0.6-0.5-0.2-1.6,0.3-2.5c0.5-0.9,1.3-1.2,2.2-0.7
		c0.4,0.2,0.6,0.5,0.7,0.8c0.1,0.5-0.2,1.1-0.5,1.6C280.3,273.3,279.4,273.8,279,273.8z M278.5,272.9
		C278.5,272.9,278.5,272.9,278.5,272.9c0.2,0.1,0.4,0.3,0.5,0.3c0.2,0,0.9-0.3,1.3-0.9c0.2-0.3,0.5-0.8,0.4-1.1
		c0-0.1-0.2-0.3-0.4-0.4c-0.2-0.1-0.9-0.4-1.3,0.5l0,0C278.4,272.1,278.3,272.8,278.5,272.9C278.5,272.9,278.5,272.9,278.5,272.9z"
		/>
	<path class="st4" d="M281.4,261.1c0,0,0.1-0.1-0.2-0.5c-0.5-0.5-1.1-1.5-1.1-1.5c-1,0.6-1.4,1.7-1.4,2.1c0,0.5,0.2,1.5,0,2.5
		c-0.1,0.3-0.1,0.7-0.6,2c-0.5,1.3,0.1,2.4,0.2,2.8c0.1,0.4,0.5,1.7,0.5,1.7s0.4-0.3,0.5-0.3c0.2,0,0.7,0,0.7,0s0.6-1.1,0.6-1.7
		c0-0.5-0.1-1.2-0.3-2.4c-0.3-1.7-0.3-2.2-0.1-3.2C280.5,261.7,281.4,261.1,281.4,261.1"/>
	<path class="st3" d="M278.6,270.7l-0.1-0.4c0-0.1-0.4-1.3-0.5-1.7c0,0,0-0.1-0.1-0.2c-0.2-0.5-0.6-1.6-0.1-2.8
		c0.5-1.2,0.5-1.6,0.6-1.9c0.1-0.7,0.1-1.4,0-1.9c0-0.2,0-0.4,0-0.5c0-0.5,0.4-1.8,1.5-2.4l0.2-0.1l0.2,0.2c0,0,0.6,0.9,1.1,1.4
		c0.4,0.4,0.4,0.7,0.3,0.8l-0.1,0.1c0,0-0.8,0.6-1,1.4c-0.2,0.9-0.2,1.3,0.1,3.1c0.2,1.1,0.3,1.9,0.3,2.5c0,0.7-0.6,1.7-0.7,1.9
		l-0.1,0.2l-0.2,0c-0.3,0-0.5,0-0.6,0c-0.1,0-0.3,0.1-0.5,0.2L278.6,270.7z M279.9,259.6c-0.7,0.5-1,1.4-1,1.7c0,0.1,0,0.3,0,0.5
		c0,0.5,0.1,1.3,0,2.1c-0.1,0.4-0.1,0.8-0.6,2.1c-0.4,1-0.1,1.9,0.1,2.4c0,0.1,0.1,0.2,0.1,0.3c0.1,0.3,0.3,0.9,0.4,1.3
		c0.1-0.1,0.2-0.1,0.3-0.1c0.1,0,0.4,0,0.6,0c0.2-0.4,0.5-1,0.5-1.4c0-0.3,0-1-0.3-2.3c-0.3-1.7-0.3-2.3-0.1-3.3
		c0.2-0.8,0.8-1.4,1.1-1.7c0,0-0.1-0.1-0.1-0.1C280.6,260.5,280.2,259.9,279.9,259.6z"/>
	<path class="st4" d="M282.9,262.8c0,0,0.6-0.1,0.9-0.7c0.4-0.6,0.3-1.3,0.3-1.3c-0.9-1.7-2.1-0.3-2.1-0.3
		C280.9,262.7,282.9,262.8,282.9,262.8"/>
	<path class="st3" d="M283,263.1L283,263.1c-0.1,0-1-0.1-1.4-0.8c-0.3-0.5-0.2-1.2,0.2-2l0-0.1c0,0,0.7-0.7,1.4-0.6
		c0.5,0.1,0.9,0.4,1.2,1l0,0.1c0,0,0.1,0.8-0.3,1.5C283.7,262.9,283,263.1,283,263.1L283,263.1z M282.2,260.7
		c-0.2,0.4-0.4,1-0.2,1.3c0.2,0.3,0.7,0.4,0.8,0.4c0.1,0,0.4-0.2,0.6-0.5c0.3-0.4,0.2-0.9,0.2-1c-0.2-0.4-0.4-0.6-0.7-0.6
		C282.7,260.3,282.4,260.5,282.2,260.7z"/>
	<path class="st4" d="M286,259.6c-1.3,0.1-2,2.5-2,2.5s-0.2,0.6-0.9,1c-0.8,0.5-0.3,1.1-0.3,2.3c0,1.2-0.8,3.3-0.8,3.3l-0.3,0.7
		c0,0,0,0.5,0.5-0.4c0.8-1.6,1.7-1.2,2.1-3c0.2-1.3,2.4-1.7,2.4-1.7l-0.6-0.1c-2.3-1.1,0.1-3.7,0.5-4.2
		C286.9,259.6,287.3,259.6,286,259.6"/>
	<path class="st3" d="M281.7,270C281.7,270,281.6,270,281.7,270c-0.3-0.1-0.5-0.3-0.5-0.5l0-0.1l0.3-0.8c0,0,0.8-2,0.8-3.1
		c0-0.3,0-0.6-0.1-0.9c-0.1-0.6-0.2-1.3,0.6-1.8c0.6-0.4,0.8-0.9,0.8-0.9c0.1-0.2,0.8-2.6,2.3-2.7l0.1,0c0.8,0,1,0,1.1,0.3
		c0.1,0.3-0.1,0.5-0.2,0.6c-0.1,0.1-0.1,0.1-0.2,0.2l-0.1,0.1c-1,1.2-1.4,2.1-1.3,2.7c0.1,0.3,0.3,0.6,0.7,0.7l0.6,0.1l0,0.8
		c-0.5,0.1-1.9,0.6-2.1,1.4c-0.2,1.1-0.7,1.5-1.1,1.9c-0.3,0.3-0.7,0.6-1,1.2C282.3,269.6,282,270,281.7,270z M286,260
		c-0.9,0-1.5,1.6-1.6,2.2c0,0.1-0.3,0.7-1.1,1.3c-0.3,0.2-0.3,0.3-0.2,1c0,0.3,0.1,0.6,0.1,1c0,0.6-0.2,1.5-0.4,2.2
		c0.1-0.1,0.2-0.1,0.2-0.2c0.4-0.3,0.7-0.6,0.9-1.4c0.1-0.8,0.9-1.4,1.6-1.7c-0.4-0.3-0.6-0.6-0.7-1C284.4,262,285.5,260.6,286,260
		L286,260z"/>
	<path class="st4" d="M285.6,262.5c-0.6,1.3,1.1,1.4,1.5,1.1c0.2-0.1,0.5-0.5,0.5-0.5c0.7-1,0.1-1.7-0.3-1.8
		C287,261.2,286.2,261.1,285.6,262.5"/>
	<path class="st3" d="M286.6,264c-0.4,0-0.8-0.1-1.1-0.4c-0.2-0.2-0.5-0.6-0.1-1.3c0.7-1.6,1.7-1.5,2.1-1.4c0.3,0.1,0.6,0.3,0.8,0.8
		c0.1,0.3,0.2,0.9-0.3,1.5c-0.1,0.2-0.4,0.5-0.6,0.6C287.1,264,286.9,264,286.6,264z M287,261.6c-0.4,0-0.8,0.4-1.1,1l0,0
		c-0.2,0.4,0,0.5,0,0.6c0.3,0.2,0.9,0.2,1.1,0.1c0.1,0,0.3-0.3,0.4-0.5c0.2-0.3,0.3-0.6,0.2-0.9c-0.1-0.2-0.3-0.3-0.3-0.4
		C287.2,261.6,287.1,261.6,287,261.6z"/>
	<path class="st4" d="M282.3,257.4c0.5,0.8,1.7,3.2,2,3.1c0.2-0.1,0-0.6,0-0.6s0-0.6-0.2-1.4c-0.2-0.8-0.2-1.8-0.6-2.4
		c-0.4-0.6-1.3-1.4-1.7-2.4c-0.4-1-0.1-2.9,0-3.2c0-0.2,0.1-0.1,0-0.3c-0.2-0.2-1.8-1.1-1.8-1.1s0.1,0.6,0.1,1.8
		c0,0.3-0.1,0.6-0.1,1.1c0,0.5,0.2,1,0.9,2.3C281.5,255.7,281.9,256.7,282.3,257.4"/>
	<path class="st3" d="M284.3,260.8c-0.3,0-0.8-0.5-2.2-3.2c-0.2-0.4-0.4-0.8-0.6-1.3c-0.2-0.5-0.5-1.1-0.9-1.9
		c-0.7-1.3-1-1.9-0.9-2.5c0-0.3,0.1-0.5,0.1-0.7c0-0.2,0-0.3,0.1-0.4c0-1.1-0.1-1.7-0.1-1.7l-0.1-0.6l0.5,0.3
		c0.5,0.3,1.7,0.9,1.9,1.2c0.1,0.1,0.3,0.3,0.1,0.5c-0.2,1.4-0.2,2.4,0,3c0.2,0.6,0.7,1.1,1.1,1.6c0.2,0.3,0.5,0.5,0.6,0.8
		c0.3,0.5,0.4,1.1,0.4,1.6c0,0.3,0.1,0.6,0.1,0.9c0.2,0.8,0.3,1.4,0.3,1.5c0,0.1,0.2,0.7-0.2,0.9
		C284.4,260.7,284.3,260.8,284.3,260.8z M280.3,249.6c0,0.3,0,0.7,0,1.2c0,0.1,0,0.3-0.1,0.5c0,0.2-0.1,0.4-0.1,0.6
		c0,0.4,0.3,1,0.9,2.2c0.4,0.8,0.7,1.4,0.9,1.9c0.2,0.5,0.4,0.9,0.6,1.3l0,0c0.8,1.5,1.2,2.2,1.5,2.6c0-0.2-0.1-0.7-0.2-1.3
		c-0.1-0.3-0.1-0.6-0.2-0.9c-0.1-0.5-0.1-1-0.4-1.4c-0.1-0.2-0.3-0.5-0.6-0.7c-0.4-0.5-0.9-1.1-1.2-1.8c-0.2-0.7-0.3-1.8-0.1-3.3
		c0,0,0-0.1,0-0.1C281.4,250.2,280.8,249.9,280.3,249.6z"/>
	<path class="st4" d="M291.9,246.2c0,0-0.5,0.8-0.6,0.9c-0.2,0.2-2.8,2.4-2.9,2.5c-0.1,0.1-1.5,0.5-2.7,3.9
		c-1.2,3.4-0.7,6.5-0.7,6.5l0.6-0.1l0.1-0.3c0,0,0.2-1.1,0.4-2c0.2-0.8,1.1-2,1.7-2.9c0.6-0.8,1.1-2,1.1-2c0.7-1.4,1-2.7,1.7-3.7
		c0,1.2-4.4,8.4-4.9,10.9l1.3-0.2c1.1-1,2.4-3,3.4-4.3c0.9-1.3,1.3-3.4,1.5-4.3C292,250.3,291.9,246.2,291.9,246.2"/>
	<path class="st3" d="M284.7,260.3l0-0.3c0-0.1-0.5-3.3,0.7-6.6c0.8-2.1,1.7-3.4,2.8-4c0.2-0.1,2.8-2.3,2.9-2.5
		c0.1-0.1,0.4-0.6,0.6-0.9l0.5-0.9l0,1c0,0.2,0,4.1-0.1,5.1c-0.2,0.9-0.6,3-1.6,4.4l-0.4,0.5c-0.9,1.3-2.1,3-3,3.8l-0.1,0.1
		l-1.8,0.3l0,0L284.7,260.3z M288.5,249.9C288.5,249.9,288.5,249.9,288.5,249.9c-1.3,0.7-2.1,2.4-2.6,3.8c-1,2.7-0.8,5.2-0.7,6.1
		l0.1,0l0-0.1c0,0,0.2-1.1,0.4-1.9c0.2-0.8,0.9-1.7,1.5-2.6l0.3-0.4c0.6-0.8,1-2,1-2c0.3-0.6,0.5-1.1,0.7-1.6
		c0.3-0.8,0.6-1.5,1.1-2.1l0.5-0.7l0,0.9c0,0.6-0.8,2.2-2.1,4.7c-1.1,2.1-2.3,4.4-2.7,5.8l0.8-0.1c0.9-0.8,2-2.5,2.9-3.7l0.4-0.5
		c0.9-1.3,1.3-3.4,1.5-4.2c0.1-0.6,0.1-2.7,0.1-4c0,0.1-0.1,0.1-0.1,0.2C291.4,247.4,288.7,249.7,288.5,249.9L288.5,249.9z"/>
	<path class="st4" d="M283,246.9c-0.7-0.6-1.2-0.8-1.2-0.8s0.2,1.2,0.2,2c0,0.7,0.1,2,0,2.7c0,0.7-0.4,1.8,0.1,2.9
		c0.5,1.1,1,1.6,1.4,2.3c0.4,0.7,1,4.1,1,4.1s-0.2-4.6,0-5.9c0.2-1.3,0.2-3.3,0-4.3C284.2,248.7,283.7,247.5,283,246.9"/>
	<path class="st3" d="M284.3,260c-0.3-1.4-0.7-3.5-1-4c-0.1-0.2-0.3-0.5-0.5-0.7c-0.3-0.4-0.7-0.9-1-1.6c-0.4-0.9-0.3-1.8-0.2-2.5
		c0-0.2,0-0.4,0.1-0.5c0-0.4,0-1,0-1.7c0-0.4,0-0.7,0-1c0-0.7-0.2-1.9-0.2-1.9l-0.1-0.5l0.5,0.2c0,0,0.6,0.2,1.3,0.9l0,0
		c0.8,0.8,1.3,2.2,1.5,3c0.3,1,0.2,3.1,0,4.4c-0.2,1.3,0,5.8,0,5.9L284.3,260z M282.2,246.6c0,0.4,0.1,1,0.1,1.4c0,0.3,0,0.6,0,1
		c0,0.6,0,1.3,0,1.7c0,0.2,0,0.4-0.1,0.6c-0.1,0.6-0.2,1.4,0.1,2.2c0.3,0.6,0.6,1.1,0.9,1.5c0.2,0.3,0.3,0.5,0.5,0.7
		c0.1,0.2,0.2,0.6,0.3,1c0-1.1,0-2.2,0.1-2.8c0.2-1.3,0.2-3.2,0-4.2c-0.4-1.2-0.9-2.2-1.4-2.7C282.6,246.9,282.4,246.7,282.2,246.6z
		"/>
	<path class="st4" d="M286.1,242.4c0.2-0.4,0.7-1.2,0.9-2.5c0.1-0.5,0.1-1.4,0.1-2c0-0.4-0.2-1.1,0-1.1c0.2,0,0,0.2,0.1,0.8
		c0,0.2-0.1,0.8-0.1,1.5c0,0.6-0.1,1.1-0.3,1.9c-0.2,0.7,0,1.5-0.2,1.7c-0.2,0.2-0.6,1.1-0.6,1.1s-0.2,0.7-0.2,1.3
		c0,0.6,0.1,1.3,0.1,1.3s0.3-0.5,1-0.6c0,0,0.1-1.1,0.1-1.4c0-0.3,0.4-2.5,0.6-3.2c0.3-1,0.5-2.7,0-4.7c-0.1-0.5-0.2-2.2-0.2-2.2
		s-0.6,0.5-1,2.4c-0.1,0.6,0.1,2.1,0,3.8c0,0.9-0.9,4.6-1,4.9"/>
	<path class="st3" d="M285.7,247.5l-0.1-1c0,0,0-0.5,0-1l-0.4-0.2c0.1-0.2,0.5-1.7,0.7-3l0,0l0.1-0.1c0,0,0,0,0,0
		c0.1-0.7,0.2-1.3,0.2-1.5c0.1-0.9,0-1.7,0-2.4c0-0.6-0.1-1.1,0-1.5c0.4-2,1-2.5,1.1-2.6l0.4-0.4l0,0.6c0,0.5,0.1,1.7,0.2,2.2
		c0.6,2.4,0.1,4.3,0,4.8c-0.2,0.7-0.6,2.8-0.6,3.1c0,0.3-0.1,1.3-0.2,1.4l0,0.2l-0.2,0c-0.5,0.1-0.7,0.5-0.7,0.5L285.7,247.5z
		 M286.3,244c0,0-0.2,0.6-0.2,1.2c0,0.2,0,0.5,0,0.7c0.1-0.1,0.3-0.2,0.4-0.2c0-0.4,0.1-0.9,0.1-1.2c0-0.4,0.5-2.6,0.7-3.3
		c0.1-0.4,0.5-2,0.1-4.1c0,0,0,0,0,0c0,0.1,0,0.3,0,0.5c0,0.1,0,0.3,0,0.6c0,0.3-0.1,0.6-0.1,0.9c0,0.6-0.1,1.2-0.3,2
		c-0.1,0.3-0.1,0.7-0.1,1.1c0,0.3,0,0.6-0.1,0.7C286.7,243.1,286.5,243.6,286.3,244L286.3,244z M287.2,235.2
		c-0.2,0.3-0.3,0.9-0.5,1.6c0,0.2,0,0.7,0,1.3c0,0.3,0,0.6,0,0.9c0-0.4,0-0.8,0-1.1c0-0.1,0-0.2,0-0.4c-0.1-0.5-0.1-0.9,0.3-1l0.1,0
		l0.2,0.1c0,0,0,0,0.1,0.1c0,0,0,0,0,0C287.3,236.3,287.3,235.7,287.2,235.2z"/>
	<path class="st4" d="M286.1,242.4C286.1,242.4,286.1,242.5,286.1,242.4C286.1,242.5,286.1,242.4,286.1,242.4"/>
	<path class="st3" d="M286.3,242.7l-0.4-0.4l0-0.1l0,0c0,0,0,0,0,0.1l0.1,0l-0.1-0.1l0.5,0.2C286.4,242.6,286.3,242.7,286.3,242.7z"
		/>
	<path class="st4" d="M283.6,232.7c0.3,0,0.3,0.4,0.3,0.7c-0.1,0.3,0,0.8,0,1c0,0.1,0.1,0.9,0.3,1.3c0.1,0.4,0.3,0.6,0.2,1.4
		c-0.1,0.5-0.6,1.2-0.4,2.1c0.1,0.5,0.4,1,0.6,1.4c0.1,0.3,0.1,1,0.1,1.6c0,0.6,0.3,0.9,0.3,0.9s-0.4,0.7-0.5-0.2
		c-0.1-1-0.2-1.5-0.4-1.9c-0.3-0.8-0.6-2.1-0.1-3.2c0.1-0.2,0.2-0.6,0.2-1c0-0.5-0.3-1.2-0.3-1.7c0-0.4,0-1.2,0-1.5 M282,237.8
		c0.1,0.6,0.3,0.9,0.9,2.1c0.2,0.4,0.7,1.5,0.7,1.8c0.1,0.3,0.1,0.7,0.1,0.8c0,0.1,0.1,0.9,0.1,0.9v0.3c0,0-1.8-1-2.6-1.6
		c-0.8-0.6-1.7-1.3-2.2-1.8c-0.6-0.5-2.2-2.3-2.2-3.8l-0.7-0.6c0,0-0.5,3.2,2,5.3c0.7,0.6,1.5,1.3,3.2,2c1.7,0.8,1.5,1.5,2.2,3
		c0.7,1.5,1.1,2.4,1.2,2.8c0.1,0.5-0.2,6.9-0.2,6.9l0.1,0.6c0,0,1.6-6,2.3-6.7c0,0-1.5-0.2-1.4-2.6l-0.3-1.5c0,0-0.3-1.9,0.3-3
		c0,0,0.7-2.1,0.4-3.9c-0.1-1.1-0.2-1.4-0.3-2.5c-0.2-1.6-0.9-4-0.9-4.2c-0.2-0.8-0.3-0.9-0.6-1.6c-0.1-0.2-0.2-1-0.5-1
		c-0.1,0-0.3,1-0.3,1s-0.3,1.1-0.4,1.4c-0.2,0.9-0.7,1.6-0.9,3.5c0,0.3-0.1,1.3-0.1,1.4C282,237.1,282,237.6,282,237.8"/>
	<path class="st3" d="M284.9,256.8l-0.6,0l-0.1-0.6c0.1-2.5,0.2-6.6,0.2-6.9c-0.1-0.3-0.3-0.9-0.8-1.8l-0.4-0.9
		c-0.2-0.4-0.3-0.7-0.4-1c-0.3-0.8-0.5-1.3-1.6-1.8c-1.7-0.8-2.5-1.5-3.3-2c-2.7-2.2-2.2-5.5-2.1-5.6l0.1-0.5l1.2,1.1l0,0.1
		c0,1.3,1.5,3.1,2.1,3.6l0.4,0.4c0.5,0.4,1.2,1,1.8,1.4c0.5,0.4,1.5,1,2.1,1.3c0-0.2-0.1-0.6-0.1-0.7c0-0.1-0.1-0.4-0.1-0.8
		c-0.1-0.3-0.5-1.3-0.7-1.7l-0.1-0.2c-0.6-1.1-0.7-1.4-0.8-2c-0.1-0.3,0-0.9,0-1c0-0.1,0.1-0.5,0.1-0.8c0-0.2,0-0.5,0-0.6
		c0.2-1.4,0.4-2.1,0.7-2.8c0.1-0.3,0.2-0.5,0.3-0.8c0.1-0.3,0.4-1.4,0.4-1.4c0.2-1.1,0.4-1.2,0.6-1.2c0.4,0,0.6,0.6,0.7,1
		c0,0.1,0,0.1,0,0.2l0.1,0.3c0.2,0.4,0.3,0.6,0.4,1.3l0,0.1c0.5,1.8,0.8,3.2,0.9,4.1c0.1,0.6,0.1,0.9,0.2,1.3l0.1,1.1
		c0.2,1.9-0.4,4-0.4,4.1c-0.5,1.1-0.3,2.9-0.3,2.9l0.3,1.5c-0.1,2.1,1.1,2.3,1.1,2.3l0.6,0.1l-0.5,0.4
		C286.7,250.7,285.5,254.5,284.9,256.8z M276.4,236.6c0,1,0.2,3,1.9,4.5c0.8,0.6,1.5,1.2,3.2,2c1.4,0.6,1.6,1.3,1.9,2.2
		c0.1,0.3,0.2,0.6,0.4,1l0.4,0.9c0.5,1,0.7,1.6,0.8,2c0,0.4-0.1,3.4-0.1,5.4c0.5-1.6,1.1-3.5,1.6-4.3c-0.5-0.3-1.3-1-1.2-2.7
		l-0.3-1.5c0-0.1-0.2-1.5,0.1-2.7c-0.1,0.2-0.3,0.3-0.5,0.3c-0.4-0.1-0.4-0.5-0.4-0.7l0-0.3c-0.1-0.8-0.2-1.2-0.3-1.6
		c-0.4-0.9-0.6-2.3-0.1-3.4c0.1-0.1,0.1-0.5,0.1-0.9c0-0.2-0.1-0.6-0.2-0.9c-0.1-0.3-0.1-0.5-0.2-0.8c0-0.3,0-0.8,0-1.2l0-0.3h0.1
		c0-0.1,0-0.2,0-0.2c0-0.2,0-0.3,0-0.3l0-0.6c0.2,0,0.4,0.1,0.5,0.2c0.2,0.2,0.2,0.6,0.1,0.8c0,0.2,0,0.7,0,0.9
		c0,0.1,0.1,0.9,0.2,1.3c0,0.1,0.1,0.2,0.1,0.3c0.1,0.3,0.2,0.6,0.2,1.3c0,0.2-0.1,0.4-0.2,0.7c-0.2,0.4-0.3,0.8-0.2,1.3
		c0.1,0.3,0.2,0.6,0.4,0.8c0.1,0.2,0.2,0.3,0.2,0.5c0.1,0.2,0.1,0.6,0.1,1.1c0,0.2,0,0.4,0,0.6c0,0.5,0.3,0.8,0.3,0.8l0.1,0.1
		c0-0.1,0-0.1,0.1-0.2h0c0,0,0.6-2,0.4-3.8l-0.1-1.1c-0.1-0.4-0.1-0.8-0.2-1.3c-0.1-1-0.4-2.3-0.9-4.1l0-0.1
		c-0.2-0.7-0.3-0.8-0.4-1.3l-0.1-0.3c0-0.1,0-0.1-0.1-0.2c0-0.1,0-0.2-0.1-0.3c0,0.1-0.1,0.3-0.1,0.4c0,0-0.3,1.1-0.4,1.4
		c-0.1,0.3-0.2,0.6-0.3,0.9c-0.2,0.6-0.5,1.3-0.6,2.6c0,0.1,0,0.4,0,0.6c0,0.6-0.1,0.8-0.1,0.9c0,0.1,0,0.6,0,0.7l0,0
		c0.1,0.5,0.2,0.8,0.8,1.8l0.1,0.2c0.2,0.4,0.7,1.5,0.7,1.9c0.1,0.3,0.2,0.7,0.2,0.9c0,0.1,0.1,0.9,0.1,0.9l0,0.9l-0.4-0.3
		c-0.1,0-1.8-1.1-2.6-1.6c-0.6-0.4-1.3-1-1.8-1.5l-0.4-0.4c-0.6-0.5-2.2-2.3-2.3-3.9L276.4,236.6z"/>
	<path class="st4" d="M283.3,246c0,0-0.3-0.6-0.5-0.9c-0.5-0.6-1.2-1.2-3.3-2.2c-2-1-2.6-2.7-3.6-3.4c-0.5-0.3-1.4-0.5-1.4-0.5
		s0.9,1.2,1.1,1.7c0.3,0.5,0.3,0.9,1.5,2c1.1,1,2.5,1.4,3.3,1.7C281.7,244.8,283.3,246,283.3,246"/>
	<path class="st3" d="M284,246.9l-0.9-0.6c0,0-1.6-1.2-2.8-1.5l-0.1,0c-0.9-0.3-2.2-0.7-3.3-1.7c-1-0.9-1.2-1.4-1.4-1.8l-0.1-0.2
		c-0.2-0.3-0.8-1.3-1.1-1.6l-0.4-0.6l0.7,0.1c0,0,1,0.2,1.5,0.5c0.4,0.3,0.8,0.7,1.2,1.2c0.6,0.7,1.2,1.5,2.4,2.1
		c2.1,1,2.8,1.6,3.4,2.2c0.3,0.3,0.6,0.9,0.6,0.9L284,246.9z M275.2,239.6c0.3,0.4,0.6,0.8,0.7,1.1l0.1,0.2c0.2,0.4,0.4,0.8,1.3,1.6
		c1,0.9,2.2,1.3,3.1,1.6l0.1,0c0.5,0.2,1.2,0.5,1.7,0.8c-0.5-0.5-1.2-0.9-2.8-1.7c-1.3-0.6-2-1.6-2.6-2.3c-0.4-0.5-0.7-0.8-1-1.1
		C275.6,239.8,275.4,239.7,275.2,239.6z"/>
	<path class="st4" d="M276.9,236.4c0.1,0.2,0.6,2,1.7,3.3c1.7,2.1,4.9,3.6,4.9,3.6c-0.3-1.3-0.8-2.9-1.2-3.5
		C280.8,237.5,276.9,236.3,276.9,236.4C276.9,236.3,276.9,236.2,276.9,236.4"/>
	<path class="st3" d="M283.9,243.9l-0.5-0.3c-0.1-0.1-3.3-1.6-5-3.7c-0.9-1.2-1.5-2.6-1.7-3.4l0,0l0,0l0,0c0-0.1-0.2-0.3,0.1-0.5
		l0.2-0.1l0.1,0.2c0.6,0.2,4,1.4,5.4,3.6c0.4,0.7,1,2.2,1.3,3.6L283.9,243.9z M277.4,236.8c0.3,0.8,0.7,1.9,1.5,2.8
		c1.2,1.5,3.3,2.7,4.2,3.3c-0.3-1.1-0.7-2.3-1.1-2.8C281,238.2,278.5,237.2,277.4,236.8z"/>
	<path class="st4" d="M281.6,237.4c0.9-1.9-1.7-3.7-2.5-5.1c0.3-0.2,0.6,0.3,0.9,0.7c0.4,0.6,1.6,2.2,1.6,2.2l0.4-1.7l-3.1-2.8
		c0,0.4-1,0.7-1,0.7C277.4,234,281.6,237.4,281.6,237.4"/>
	<path class="st3" d="M281.7,237.8l-0.3-0.2c-0.2-0.1-4.3-3.5-3.8-6.2l0-0.2l0.2-0.1c0.4-0.1,0.8-0.4,0.8-0.5l0.1-0.5l0.4,0.3
		l3.2,2.9l-0.5,2.2c0.2,0.6,0.3,1.2,0,1.9L281.7,237.8z M278.2,231.7c-0.2,2,2.3,4.4,3.3,5.2c0.2-1.1-0.7-2.1-1.6-3.1
		c-0.4-0.5-0.8-0.9-1-1.3l-0.1-0.2l0.2-0.2c0.1-0.1,0.2-0.1,0.4-0.1c0.3,0,0.5,0.3,0.8,0.7c0.1,0.1,0.1,0.1,0.2,0.2
		c0.3,0.4,0.9,1.2,1.2,1.7l0.2-0.9l-2.7-2.5C278.7,231.4,278.4,231.6,278.2,231.7z"/>
	<path class="st4" d="M276.2,233c-0.7,0.3-1,0.3-1,0.3l0.4,1.1l0.2,0.3c0,0,1,1.4,1.5,1.6c0.2,0.1,1.1,0.2,2,0.6
		c1.1,0.5,2.9,2.1,2.9,2.1s-3-3.4-4.2-6l-0.4-1.5l-1.1,0.1C276.6,231.6,276.9,232.6,276.2,233"/>
	<path class="st3" d="M282.1,239.2c0,0-1.8-1.6-2.9-2c-0.6-0.3-1.2-0.4-1.6-0.5c-0.2,0-0.3-0.1-0.4-0.1c-0.6-0.2-1.5-1.4-1.7-1.7
		l-0.3-0.4l-0.6-1.5h0.4c0,0,0.2,0,0.9-0.3c0.5-0.2,0.3-1,0.3-1l-0.1-0.4l1.7-0.1l0.5,1.7c1.1,2.4,4.1,5.8,4.1,5.9L282.1,239.2z
		 M275.8,234.3l0.2,0.3c0.4,0.6,1.1,1.4,1.4,1.5c0.1,0,0.2,0.1,0.3,0.1c0.4,0.1,1,0.3,1.7,0.5c0.3,0.1,0.6,0.3,1,0.5
		c-0.9-1.2-2-2.7-2.6-4.1l-0.3-1.3l-0.5,0c0,0.5-0.1,1.1-0.7,1.4l0,0c-0.3,0.1-0.6,0.2-0.7,0.3L275.8,234.3z"/>
	<path class="st4" d="M264.8,230.8c0.3,0.3,0.9,0.8,1.7,1.2c0.7,0.4,2.6,1.5,4,1.8c0.3,0.1,2.2,0.3,2.2,0.3c0.1-0.8,0.9-0.9,0.9-0.9
		l-2.6-0.3c-2.1-0.2-3.6-1-4.9-2.4c1.6,1,4,2.6,5.9,2.5c7.9-0.8-2.4-1-3.3-1.5c-0.9-0.6-1.7-1.5-1.7-1.5l-2.3-0.1
		C264.8,229.8,263.6,229.8,264.8,230.8"/>
	<path class="st3" d="M272.9,234.4l-0.3,0c0,0-1.8-0.2-2.2-0.3c-1-0.2-2.5-0.8-4.2-1.9c-0.6-0.3-1.2-0.8-1.7-1.3
		c-0.4-0.3-0.8-0.7-0.6-1.1c0.1-0.4,0.7-0.4,0.8-0.3l2.4,0.1l0.1,0.1c0,0,0.8,0.9,1.7,1.5c0.3,0.2,1.9,0.3,3.1,0.5
		c2.8,0.3,3.2,0.4,3.2,0.8c0,0.3-0.1,0.4-1.7,0.7l0,0.4c-0.1,0-0.6,0.1-0.7,0.6L272.9,234.4z M264.6,230.1c0,0.1,0.2,0.2,0.4,0.4
		l0,0c0.5,0.5,1.1,0.9,1.6,1.2c2.1,1.2,3.3,1.6,3.9,1.8c0.2,0,1.4,0.2,1.9,0.2c0-0.1,0.1-0.3,0.2-0.3l-0.9-0.1c-0.1,0-0.3,0-0.4,0
		l-0.3,0c-2-0.2-3.7-1-5.1-2.5l0.4-0.4l0.5,0.3c0.5,0.3,1,0.6,1.5,0.9c-0.6-0.5-1.1-1-1.3-1.2l-2.2-0.1
		C264.7,230.1,264.7,230.1,264.6,230.1z M271.8,232.7c0.1,0,0.2,0,0.3,0c0.9-0.1,1.5-0.2,1.9-0.2c-0.6-0.1-1.3-0.2-1.9-0.2
		c-1.4-0.1-2.4-0.3-3-0.4c0.7,0.4,1.5,0.7,2.2,0.8L271.8,232.7z"/>
	<path class="st4" d="M274.1,235.3c0.5,0,0.9-0.1,1-0.7c0.1-0.6-0.1-1.1-0.9-1.2c-0.4-0.1-1.1-0.1-1.4,0.6c-0.3,0.8,0.9,1.2,0.9,1.2
		S273.8,235.3,274.1,235.3"/>
	<path class="st3" d="M274,235.6c-0.3,0-0.5-0.1-0.5-0.1c-0.1,0-0.8-0.3-1-0.9c-0.1-0.2-0.1-0.5,0-0.7c0.3-0.8,1.1-0.9,1.8-0.8
		c0.8,0.2,1.2,0.7,1.1,1.6c-0.2,0.8-0.7,0.9-1.2,0.9C274.1,235.6,274,235.6,274,235.6z M273.8,233.6c-0.3,0-0.6,0.1-0.8,0.5
		c0,0.1,0,0.2,0,0.3c0.1,0.3,0.6,0.5,0.7,0.6c0,0,0.2,0.1,0.3,0h0c0.5,0,0.6-0.1,0.7-0.5c0.1-0.5-0.1-0.8-0.7-0.9
		C274,233.6,273.9,233.6,273.8,233.6z"/>
	<path class="st4" d="M275,230.7c-0.7,0-0.9,0.5-0.8,1.6c0.2,1.1,1.8,0.6,1.8,0.6l0.3-0.2c0,0,0.2-0.2,0.1-1
		C276.3,230.9,275.6,230.7,275,230.7"/>
	<path class="st3" d="M275.3,233.3c-0.3,0-0.6-0.1-0.9-0.2c-0.3-0.2-0.4-0.4-0.5-0.7c-0.1-0.8,0-1.3,0.3-1.6
		c0.2-0.2,0.5-0.3,0.8-0.3c0.4,0,1.6,0,1.8,1.3c0.1,0.9-0.1,1.2-0.2,1.3l-0.3,0.2C276.1,233.2,275.7,233.3,275.3,233.3z M275,231
		c-0.2,0-0.3,0.1-0.3,0.1c-0.1,0.1-0.2,0.4-0.1,1.1c0,0.1,0.1,0.3,0.2,0.3c0.3,0.2,1,0.1,1.2,0l0.2-0.1c0-0.1,0.1-0.3,0-0.8
		C276.1,231.3,275.7,231,275,231z"/>
	<path class="st4" d="M277.7,231.5L277.7,231.5C277.6,231.5,277.7,231.5,277.7,231.5"/>
	<polygon class="st3" points="277.5,231.8 277.3,231.4 277.5,231.2 277.6,231.2 277.7,231.5 277.9,231.4 277.7,231.5 277.7,231.6 
		277.8,231.7 277.7,231.6 277.7,231.8 	"/>
	<path class="st4" d="M277.6,231.5c0,0,0.1,0,0.2-0.1c0.3-0.1,0.7-0.9,0.7-0.9c0.2-1.1-0.6-1.4-0.6-1.4c-1.3-0.3-1.4,0.9-1.4,0.9
		C276.2,231.5,277.4,231.5,277.6,231.5"/>
	<path class="st3" d="M277.6,231.8c-0.3,0-0.8-0.1-1.1-0.5c-0.3-0.3-0.3-0.8-0.2-1.4c0,0,0,0,0,0c0,0,0-0.6,0.5-0.9
		c0.3-0.2,0.7-0.3,1.2-0.2c0.4,0.1,1,0.6,0.9,1.7c-0.1,0.3-0.4,1-0.9,1.2c-0.2,0-0.2,0.1-0.2,0.1L277.6,231.8
		C277.6,231.8,277.6,231.8,277.6,231.8z M277.6,231.5L277.6,231.5L277.6,231.5L277.6,231.5z M277.6,229.3c-0.2,0-0.3,0-0.5,0.1
		c-0.2,0.2-0.3,0.5-0.3,0.5c-0.1,0.3-0.1,0.7,0.1,1c0.2,0.2,0.5,0.2,0.6,0.2c0,0,0.1,0,0.2-0.1c0.1,0,0.3-0.4,0.5-0.8
		c0.1-0.8-0.4-1-0.4-1C277.7,229.3,277.7,229.3,277.6,229.3z"/>
	<path class="st4" d="M271.7,226.3c0.1,0.5,0.8,1.2,0.9,1.4c0.1,0.1,1,1.1,1.4,1.5c0.3,0.4,1.3,2.4,1.3,2.4s0.2,0,0.3-0.2
		c0.2-0.3-0.7-2.7-0.8-2.8c-0.3-0.7-0.8-1.3-1.4-1.8c-0.1-0.1-0.6-0.6-1-1.2c0.9,1.2,3.3,4.6,4,6.1c0,0-0.1-1.6-0.2-2.5
		c-0.3-2.5-1-3.3-1.2-3.7c-0.4-0.7-1.3-1.3-2-1.6c-0.7-0.2-1.5-0.6-2.3-0.9c-0.9-0.3-0.2,0.5,0.1,1.2
		C271.3,225,271.6,225.7,271.7,226.3"/>
	<path class="st3" d="M275.1,231.8l-0.1-0.2c-0.3-0.5-1.1-2-1.3-2.3c-0.3-0.4-1.2-1.3-1.3-1.5l-0.1-0.1c-0.4-0.4-0.9-1-0.9-1.5v0
		c-0.1-0.5-0.4-1.3-0.8-2c-0.1-0.2-0.2-0.3-0.3-0.5c-0.3-0.4-0.5-0.8-0.2-1.1c0.2-0.3,0.6-0.1,0.7-0.1c0.6,0.2,1.1,0.4,1.6,0.6
		c0.3,0.1,0.5,0.2,0.7,0.3c0.7,0.3,1.7,1,2.1,1.7l0.1,0.1c0.3,0.4,0.8,1.3,1.1,3.6c0.1,0.9,0.2,2.4,0.2,2.5l-0.6,0.1
		c-0.1-0.2-0.2-0.4-0.3-0.6c0,0.2,0,0.3-0.1,0.4c-0.1,0.3-0.4,0.3-0.5,0.3L275.1,231.8z M272,226.2c0,0.2,0.3,0.6,0.8,1.1l0.1,0.1
		c0.1,0.1,1.1,1.1,1.4,1.5c0.2,0.3,0.7,1.1,1,1.7c-0.1-0.4-0.2-0.9-0.4-1.3c-1-1.5-2.1-3.1-2.6-3.7l0.5-0.4l0.2,0.2
		c0.3,0.4,0.7,0.9,0.8,1l0.1,0.1c0.5,0.5,1,1.1,1.3,1.8c0,0,0.1,0.3,0.3,0.8c0.3,0.4,0.5,0.8,0.7,1.1c0-0.4-0.1-0.8-0.1-1.1
		c-0.3-2.2-0.8-3-1-3.4l-0.1-0.1c-0.3-0.6-1.2-1.2-1.8-1.4c-0.2-0.1-0.5-0.2-0.8-0.3c-0.5-0.2-1-0.4-1.5-0.5
		c0.1,0.1,0.1,0.2,0.2,0.3c0.1,0.2,0.2,0.3,0.3,0.5C271.5,224.8,271.9,225.6,272,226.2L272,226.2z"/>
	<path class="st4" d="M268.4,230.4c0.9,0.7,1.3,1.3,3.1,1.5c1.8,0.3,2,0.2,2,0.2s0.9-0.5,0.5-0.9c-2.7-1.2-5.2-2.6-6.5-4.1
		c0,0,0.2-0.2,1.1,0.7c0.5,0.5,0.9,0.8,1.2,1.1c1,0.7,1.4,0.9,2.4,1.4c0.5,0.3,1.8,0.6,1.8,0.6s0.2-0.4,0.3-0.4
		c0.2,0-0.1-0.7-1.2-1.6c-1-0.8-1.6-1.8-1.6-1.8s-1.3-0.3-2.8-0.5c-1.1-0.2-3.1-1.7-3.1-1.3c0,0.4,0.3,1.8,0.8,2.7
		C267,228.8,267.5,229.6,268.4,230.4"/>
	<path class="st3" d="M273.2,232.4c-0.3,0-0.8,0-1.8-0.2c-1.7-0.2-2.2-0.7-2.9-1.3l-0.3-0.2c-0.8-0.7-1.3-1.6-1.9-2.4l-0.1-0.2
		c-0.6-0.9-0.8-2.3-0.9-2.8l0-0.2l0.2-0.2c0.3-0.2,0.6,0,1.4,0.5c0.6,0.3,1.4,0.8,1.9,0.9c1.4,0.2,2.8,0.5,2.8,0.5l0.1,0l0.1,0.1
		c0,0,0.6,1,1.6,1.7c0.7,0.6,1.5,1.4,1.4,1.8l0,0.2l-0.2,0.1c0,0-0.1,0.2-0.2,0.3l0,0.1c0.2,0.2,0.2,0.4,0.2,0.5
		c-0.1,0.4-0.6,0.7-0.8,0.8C273.5,232.4,273.5,232.4,273.2,232.4z M268.6,230.2l0.3,0.2c0.7,0.6,1.1,1,2.6,1.2
		c1.5,0.2,1.8,0.2,1.8,0.2c0.2-0.1,0.4-0.3,0.4-0.3c-3.3-1.4-5.4-2.8-6.6-4.2l-0.2-0.2l0.2-0.2c0.3-0.3,0.8,0,1.6,0.7
		c0.5,0.5,0.8,0.8,1.2,1c0.8,0.6,1.2,0.8,1.9,1.2l0.5,0.3c0.3,0.2,1.1,0.4,1.5,0.5c0.1-0.1,0.1-0.2,0.2-0.3
		c-0.1-0.2-0.4-0.6-1.1-1.2c-0.8-0.7-1.4-1.5-1.6-1.7c-0.4-0.1-1.5-0.3-2.6-0.5c-0.6-0.1-1.4-0.6-2.1-0.9c-0.2-0.1-0.4-0.2-0.6-0.3
		c0.1,0.6,0.3,1.5,0.7,2.2l0.1,0.2C267.4,228.7,267.8,229.5,268.6,230.2z M274.2,230.1C274.2,230.1,274.2,230.1,274.2,230.1
		C274.2,230.1,274.2,230.1,274.2,230.1z"/>
	<path class="st4" d="M253.4,284.8c-0.8,0.2-6.7,2.5-6.7,2.5l-1.7,0.7c2.3-0.5,4,0.6,4,0.6l6.6-3c0,0,0-0.1-0.2-0.2
		C255.3,285.2,254.2,284.6,253.4,284.8"/>
	<path class="st3" d="M249,288.8l-0.1-0.1c0,0-1.7-1.1-3.8-0.6l-0.1-0.4l1.7-0.7c0.2-0.1,5.9-2.2,6.7-2.5c0.9-0.3,2,0.3,2.3,0.5
		c0.2,0.2,0.3,0.3,0.3,0.4l0,0.2L249,288.8z M246.5,287.6c1.3,0.1,2.2,0.5,2.5,0.7l6.2-2.9c-0.3-0.2-1.2-0.6-1.8-0.4h0
		c-0.8,0.2-6.6,2.4-6.7,2.4L246.5,287.6z"/>
	<path class="st4" d="M244.8,288.1c0,0-0.1,0.2,0,0.2c0.3,0.2,0.2,0.3,1.7,0.4c1.5,0.2,2.5-0.1,2.7-0.4
		C249.6,288.1,245.5,287.4,244.8,288.1"/>
	<path class="st3" d="M247.4,289.1c-0.3,0-0.6,0-0.9,0c-1.3-0.2-1.5-0.2-1.7-0.4l-0.1-0.1c-0.1,0-0.2-0.1-0.2-0.3
		c0-0.1,0-0.3,0.1-0.4l0,0c0.8-0.7,4.4-0.2,4.8,0.2c0.1,0.1,0.1,0.3,0,0.4C249.2,288.8,248.5,289.1,247.4,289.1z M245.1,288.2
		c0.2,0.1,0.3,0.2,1.5,0.3c1.1,0.1,1.9,0,2.3-0.2C248,288.1,245.8,287.9,245.1,288.2z M244.9,288.1
		C244.9,288.1,244.9,288.1,244.9,288.1C244.9,288.1,244.9,288.1,244.9,288.1z"/>
	<path class="st4" d="M235.3,266.8L235,265c0,0-0.3-5-0.9-6c-0.1-0.2-0.1-0.7-0.4-0.7c-0.7-0.1-0.7,1.6-0.8,3
		c-1.1,7.4,4.8,13.1,4.8,13.1L235.3,266.8z"/>
	<path class="st3" d="M237.5,274.6c-0.1-0.1-6-5.9-4.9-13.4l0-0.4c0.1-1.2,0.1-2.3,0.6-2.7c0.1-0.1,0.3-0.2,0.5-0.2
		c0.5,0,0.6,0.5,0.6,0.8c0,0.1,0,0.1,0,0.2c0.6,1,0.9,5.6,0.9,6.1l0.3,1.8l2.4,7.5L237.5,274.6z M233.7,258.6
		c-0.3,0.3-0.3,1.4-0.4,2.3l0,0.5c-0.8,5.3,2.1,9.7,3.7,11.7l-2-6.1l-0.3-1.8c-0.1-2-0.5-5.2-0.9-5.9c-0.1-0.1-0.1-0.2-0.1-0.4
		C233.7,258.7,233.7,258.6,233.7,258.6z"/>
	<path class="st4" d="M264.6,288.8c0,0-0.6-0.1-0.2-0.6c0.4-0.5,1.5-0.7,1.7-0.7c0.2,0,0.8,0,1.3,0.2c0.5,0.1,1.1,0.5,0.9,0.8
		c-0.2,0.3-0.8,0.6-1.7,0.6c-0.7,0-1.1,0-1.5-0.1C264.9,288.9,264.6,288.8,264.6,288.8"/>
	<path class="st3" d="M266.7,289.5c-0.8,0-1.2,0-1.5-0.1c-0.3-0.1-0.5-0.2-0.6-0.2c-0.1,0-0.4-0.1-0.5-0.4c-0.1-0.1-0.1-0.4,0.2-0.7
		c0.5-0.6,1.7-0.8,2-0.8c0.3,0,0.9,0.1,1.4,0.2c0.3,0.1,1,0.4,1.1,0.8c0.1,0.2,0.1,0.3,0,0.5C268.3,289.1,267.6,289.5,266.7,289.5z
		 M264.6,288.5c0,0,0.1,0,0.1,0l0,0c0,0,0.3,0.1,0.6,0.2c0.3,0.1,0.6,0.1,1.4,0.1c0.8,0,1.3-0.3,1.4-0.5c-0.1-0.1-0.4-0.3-0.7-0.4
		c-0.4-0.1-1-0.2-1.2-0.2c-0.2,0-1.2,0.2-1.5,0.6C264.6,288.5,264.6,288.5,264.6,288.5C264.6,288.5,264.6,288.5,264.6,288.5z"/>
	<path class="st4" d="M258.2,285.3c0,0-2-0.9-4-1.9c-2.5-1.2-5.6-3-7.7-6.1c-2.7-3.9-5-6-5.5-6.4c-0.6-0.4-0.7-0.6-0.9-0.3
		c-0.2,0.3-0.1,0.5,0.1,0.8c0.5,0.9,1.9,2.6,2.4,3.5c0.8,1.6,2.6,3.4,2.5,4.4c0,0.1-0.5-0.1-0.5-0.1s-4-1.4-5.7-6.3
		c-1.2-3.5-0.7-4.6-1-6.3c-0.5-3.1-0.6-3.4-2.1-6.9c0-0.1-1-1.6-1.1-1.2c-0.2,0.4,0.2,2,0.2,2l0.2,1.8c0,0-0.1,4-0.1,4.3
		c0,0.2-1,2.8,3.3,7c0,0,0.1,0.7-0.5,0.1c-0.4-0.5-3.5-2.8-4.4-6.7c-1-3.9-1.1-7.8-0.4-9.4c0.7-1.5,2-5,1.4-8.2
		c-0.1-0.3-0.2-1.3-0.4-1c-0.1,0.1-0.5,1.7-0.7,2.3c-0.3,0.7-0.8,1.5-1,2c-0.3,0.9-1.8,2.2-1.5,4.7c0.3,2.9,0.5,3.3,0.9,4.3
		c0.1,0.4,0.4,1.3,0.2,1.4c-0.2,0.1-0.8-1.1-0.8-1.1s-2.7-5.4-1-9.7c1.7-4.3,6-8.4,6-8.4s3.5-2.9,4.2-3.5c0.3-0.3,0.2-0.5,0.1-0.4
		c-0.9,0.2-7.5,1.6-9.9,9.5c0,0-0.1,0.3-0.3,0.3c-0.2-0.1,0-0.5,0-0.5s1.5-5.6,5.6-8.2c4.5-2.8,4-2.4,5.5-3.3
		c0.9-0.6,1.8-1.4,2.8-3.1c0.1-0.2,0.5-1.2,0.5-1.4c0-0.2-0.2,0.1-0.3,0.3c0,0-1.3,2-3.2,2.6c-1.9,0.7-3.5-0.3-5.4,1.8
		c-1.9,2.1-3.5,5.1-3.5,5.1s-0.5,0.8-0.6,0.7c-0.2-0.1,0.1-0.8,0.1-0.8s2.6-5.4,4.6-6.6c2.1-1.1,3.9-2.2,5.1-3.1
		c1.4-1.1,3.9-3.9,4.8-4.8c0.2-0.2,1.5-1.5,1.8-2c0.2-0.2,0.6-0.6,0.5-0.6c-0.2-0.1-1.4,0.5-1.4,0.5s-6.8,1.9-11,8.3
		c-0.2,0.3-0.7,0.9-0.9,1.2c-0.5,0.5-0.7,1.2-0.7,1.2c-0.3-0.2,2.4-3.6,2.4-3.6l0.5-2.2c0,0,0.8-3.2,2.4-5.5
		c0.2-0.2,1.1-1.2,1.3-1.4c0.3-0.4-0.6,0.3-0.5,0.2c0,0-6.3,4.6-6.3,10.3c0,1-0.6,2-1.5,3.3c-1,1.5-1.4,2.4-1.8,4.6
		c-0.3,1.6-0.6,2.8-0.6,2.8s0.1,0.8-0.2,0.8c-0.3-0.1-0.2-0.7-0.2-0.7s0.6-4.3,1.1-5.6c0.4-1.3,0.7-2.1,0.7-2.1s-0.3-3.2,0.4-5
		c0.6-1.5,2.1-3.6,2.4-4.1c0.1-0.2,0.8-1.7,1-3.3c0-0.2-0.1,0-0.4,0.6c-0.7,1.6-1.3,2-2.4,3.5c0,0-2.9,2.1-4,8.5c0,0,0,2.4-0.4,6.1
		c-0.3,2.7,0,5.3,0.3,6.8c0.2,0.9,0.6,0.9,0.3,1.1c-0.1,0.1,0.1,0-0.2-0.7c-0.4-0.8-0.7-2.2-0.7-4c0-3.3,0.3-6,0.3-6s0.2-5.3-2-7.7
		c-0.1-0.1,0.4,1.1,0.6,2.3c0.3,1.5-0.2,3.6-0.4,4.4c-0.1,0.8-1.6,4.3-1.1,7.7c0,0,1.2,5.6,2.9,8.3c0,0,1,1.2,0.1,0.1
		c-0.9-1.1-2.7-5.5-2.8-5.8c-0.1-0.4-1.4-3.1-2.6-4.2c-0.6-0.6-2.4-1.6-2.4-1.6s-0.9-0.7-0.2,0.2c0.6,0.7,1.3,2.1,1.7,2.7
		c0.9,1.5,1.6,2.9,2,3.8c0.6,1.3,1.9,5,1.9,5l0.9,2.4c0,0,1.4,0.8,2.2,1.7c0.6,0.7,2,2.3,3.1,5.2c0.5,1.3,1.5,2.4,1.5,2.4
		s-0.2,0.4-1.1-1.1c-0.9-1.6-1.7-4.5-3.8-6.7c-1.6-1.7-5.9-3.5-5.9-3.5s2.8,4.8,3.4,5.7c1.2,1.4,2.8,3.3,3.3,3.8
		c0.4,0.5,3,3.7,3.4,4.2c0.6,0.8,1,1.2,1.3,1.5c0.7,0.7,2.7,2.1,2.9,2.3c0,0.2,0.1,0-0.1-0.1c-0.9-0.5-2-1.4-3.1-2.1
		c-1.1-0.7-5.4-2.6-8.3-6.5c-0.7-1.2-1-1.6-1.2-1.5c-0.4,0.2,1.9,7.8,6.7,10.2c0,0,5.2,2.3,6.4,3c0.6,0.4,1.9,0.9,2.5,1.4
		c0.3,0.3-0.3,0.3-0.3,0.3c-2.8-0.2-6.7-0.6-9.2-2c0,0-1-0.7-0.2,0.3c0.7,0.8,2,2.8,4.5,3.9c2.5,1.1,6.1,1.7,7.5,1.8
		c1.3,0.1,6,0.1,6.9,0.4c0.9,0.3,2.4,1.2,3.2,1.5c0.8,0.3,3.1,1.1,3.1,1.1s0.7,0.4,1.1,0.5c0.4,0.2,2.2,0.2,2.3-0.2
		C258.8,285.8,258.2,285.3,258.2,285.3"/>
	<path class="st3" d="M257.4,286.6c-0.4,0-0.8,0-1-0.1c-0.4-0.1-1.1-0.5-1.1-0.5l0,0c0,0-2.3-0.9-3.1-1.1c-0.5-0.1-1.1-0.5-1.7-0.8
		c-0.6-0.3-1.1-0.6-1.5-0.7c-0.6-0.2-3.3-0.3-5.1-0.3c-0.7,0-1.3,0-1.7-0.1c-1.3-0.1-5-0.7-7.5-1.8c-2.2-1-3.5-2.6-4.2-3.5
		c-0.1-0.2-0.2-0.3-0.3-0.4c-0.3-0.4-0.5-0.6-0.3-0.9c0.1-0.2,0.4-0.1,0.8,0.2c2.5,1.4,6.7,1.8,9,1.9c-0.4-0.3-0.9-0.5-1.4-0.8
		c-0.3-0.2-0.7-0.3-0.9-0.5c-1.1-0.7-6.3-3-6.3-3c-4.5-2.3-6.8-9.1-6.8-10.3c0-0.1,0-0.3,0.2-0.3c0.4-0.2,0.8,0.4,1.6,1.6
		c2.3,3.2,5.5,5,7.3,5.9c0.1,0.1,0.2,0.1,0.3,0.2c-0.2-0.2-0.4-0.5-0.7-0.9c-0.4-0.5-3-3.7-3.4-4.2c-0.1-0.2-0.4-0.5-0.8-0.9
		c-0.7-0.8-1.7-2-2.5-2.9c-0.7-0.9-3.4-5.5-3.5-5.7l-0.3-0.6l0.6,0.3c0.1,0,1.8,0.8,3.5,1.7l-0.6-1.8c0,0-1.3-3.7-1.9-5
		c-0.3-0.7-1-2.2-2-3.7c-0.1-0.1-0.2-0.3-0.3-0.6c-0.4-0.7-0.9-1.5-1.3-2.1c-0.2-0.3-0.4-0.6-0.2-0.8c0.2-0.2,0.4-0.1,0.8,0.2
		c0,0,1.7,1,2.4,1.6c1.3,1.2,2.6,4,2.7,4.3l0,0.1c0,0,0,0.1,0.1,0.1c-0.4-1.5-0.7-2.6-0.7-2.7c-0.4-2.7,0.4-5.5,0.9-6.9
		c0.1-0.4,0.2-0.6,0.2-0.8c0-0.1,0-0.2,0.1-0.4c0.2-0.9,0.5-2.6,0.3-3.9c-0.1-0.7-0.4-1.4-0.5-1.9c-0.1-0.4-0.2-0.6,0-0.7l0.2-0.1
		l0.1,0.2c1.4,1.5,1.9,4.1,2,5.9c0-0.8,0-1.3,0-1.3c1-6.1,3.7-8.4,4.1-8.6c0.3-0.4,0.6-0.7,0.8-1c0.6-0.8,1.1-1.3,1.5-2.4
		c0.3-0.8,0.5-0.9,0.7-0.8c0.1,0,0.2,0.1,0.2,0.3c-0.1,1-0.5,2.2-1,3.3c-0.1,0.2-0.3,0.5-0.6,1c-0.6,0.8-1.4,2.1-1.8,3.1
		c-0.7,1.7-0.4,4.8-0.4,4.9l0,0l0,0c0,0-0.3,0.9-0.7,2.2c-0.2,0.6-0.5,2-0.7,3.3c0-0.2,0.1-0.4,0.1-0.6c0.5-2.3,0.8-3.2,1.9-4.7
		c0.8-1.2,1.5-2.1,1.5-3.1c0-5.8,6.2-10.3,6.4-10.5l0.1,0.1l0-0.1c0,0,0.1,0,0.1-0.1c0.4-0.2,0.5-0.3,0.7-0.1c0.1,0.2,0,0.4-0.1,0.4
		c-0.1,0.1-0.3,0.4-0.6,0.7c-0.3,0.3-0.6,0.6-0.7,0.7c-1.6,2.2-2.4,5.4-2.4,5.4l-0.3,1.2c4.2-4.9,9.7-6.5,9.7-6.5
		c1.3-0.6,1.5-0.5,1.6-0.4l0.1,0.1l0,0.1c0,0.2-0.1,0.3-0.3,0.5c-0.1,0.1-0.2,0.2-0.3,0.3c-0.2,0.3-0.9,1-1.6,1.8l-0.2,0.2
		c-0.1,0.2-0.3,0.3-0.5,0.6c-1.1,1.2-3,3.3-4.3,4.2c-1,0.8-2.7,1.8-5.1,3.1c-1.9,1-4.3,6-4.5,6.4c0,0,0.1-0.1,0.1-0.1
		c0,0,1.6-3,3.5-5.1c1.3-1.5,2.5-1.5,3.7-1.6c0.6,0,1.2-0.1,1.8-0.3c1.8-0.6,3-2.5,3.1-2.5c0,0,0.2-0.5,0.5-0.5c0,0,0,0,0,0
		c0.1,0,0.2,0.1,0.3,0.2c0.1,0.3-0.5,1.5-0.5,1.5c-1.2,1.9-2.1,2.7-2.9,3.2c-0.4,0.3-0.7,0.4-1,0.6c-0.6,0.4-1.3,0.7-4.5,2.7
		c-1.5,0.9-2.7,2.3-3.5,3.7c2.4-3.4,5.7-4.7,7.8-5.2l0.1,0c0.1,0,0.3,0,0.3,0.1c0.1,0.1,0.1,0.4-0.2,0.7c-0.7,0.7-4,3.4-4.2,3.6
		c0,0-4.2,4.1-5.9,8.3c-1.6,4.2,1,9.5,1,9.5c0.1,0.2,0.2,0.4,0.3,0.6c0-0.2-0.1-0.4-0.2-0.7l-0.1-0.2c-0.3-0.9-0.5-1.5-0.8-4.2
		c-0.2-1.9,0.6-3.2,1.1-4.1c0.2-0.3,0.3-0.6,0.4-0.8c0.1-0.3,0.3-0.7,0.5-1.1c0.2-0.3,0.3-0.6,0.5-1c0.1-0.3,0.3-0.9,0.4-1.4
		c0.2-0.7,0.2-0.8,0.3-0.9c0.1-0.2,0.3-0.1,0.3-0.1c0.2,0.1,0.3,0.4,0.4,1c0,0.1,0,0.2,0,0.2c0.6,3.4-0.9,7.2-1.4,8.3
		c-0.7,1.6-0.5,5.5,0.4,9.3c0.7,3,2.7,5,3.8,6c-1.6-1.7-3-4-2.6-6.2c0,0,0-0.1,0-0.1c0-0.2,0.1-4.1,0.1-4.3l-0.2-1.8
		c-0.1-0.2-0.3-1.6-0.1-2.1c0-0.1,0.1-0.2,0.3-0.2c0,0,0,0,0,0c0.4,0,1.2,1.4,1.2,1.4c1.6,3.6,1.7,3.9,2.1,7
		c0.1,0.6,0.1,1.1,0.1,1.6c0,1.1,0,2.3,0.8,4.7c1.6,4.7,5.5,6.1,5.5,6.1c0.1,0,0.1,0,0.2,0.1c-0.1-0.6-0.7-1.3-1.2-2.1
		c-0.4-0.6-0.9-1.3-1.2-1.9c-0.3-0.5-0.8-1.2-1.3-2c-0.4-0.6-0.8-1.1-1-1.5c-0.2-0.3-0.4-0.6-0.1-1c0.1-0.1,0.2-0.2,0.3-0.2
		c0.2,0,0.4,0.1,0.6,0.3c0.1,0.1,0.2,0.1,0.2,0.2c0.7,0.5,3,2.7,5.6,6.5c2,3,5,4.8,7.6,6c1.9,0.9,3.9,1.9,4,1.9l0,0
		c0.2,0.1,0.8,0.6,0.6,1c0,0.1-0.1,0.2-0.3,0.3C258.4,286.5,257.8,286.6,257.4,286.6z M230.6,277c0,0.1,0.1,0.1,0.2,0.2
		c0.7,0.9,2,2.5,4.1,3.4c2.4,1.1,6,1.7,7.4,1.8c0.4,0,1,0,1.7,0.1c2.5,0.1,4.6,0.1,5.2,0.3c0.4,0.2,1,0.5,1.6,0.8
		c0.6,0.3,1.2,0.6,1.6,0.8c0.8,0.3,3,1.1,3.1,1.1c0,0,0.7,0.4,1.1,0.5c0.4,0.2,1.8,0.1,2-0.1c0,0-0.2-0.3-0.4-0.4
		c-0.2-0.1-2.1-1-3.9-1.9c-2.7-1.3-5.7-3.1-7.8-6.2c-2.6-3.8-4.8-5.9-5.5-6.4c-0.1-0.1-0.2-0.1-0.3-0.2c-0.1-0.1-0.2-0.2-0.3-0.2
		c0,0,0,0,0,0c-0.1,0.1-0.1,0.2,0.1,0.5c0.2,0.4,0.6,0.9,1,1.5c0.5,0.7,1.1,1.5,1.4,2c0.3,0.6,0.8,1.2,1.2,1.9
		c0.7,1,1.4,1.9,1.4,2.6l0,0.1l-0.1,0.1c-0.1,0-0.2,0.1-0.7-0.1c-0.1,0-4.1-1.5-5.8-6.4c-0.8-2.4-0.8-3.7-0.9-4.8c0-0.5,0-1-0.1-1.5
		c-0.5-3-0.5-3.3-2.1-6.9c-0.1-0.1-0.4-0.7-0.7-1c0,0.4,0.1,1.1,0.2,1.6l0.2,1.8c0,1.4-0.1,4.1-0.1,4.3c0,0,0,0.1,0,0.2
		c-0.5,2.4,1.5,4.9,3.2,6.6l0.1,0.1l0,0.1c0,0.1,0,0.5-0.2,0.6c-0.3,0.1-0.6-0.2-0.7-0.3c-0.1-0.1-0.2-0.1-0.3-0.3
		c-0.8-0.7-2.7-2.5-3.8-5.2c0,0,0,0-0.1,0c-0.2,0-0.5-0.2-1.2-1.3c-0.3-0.5-0.5-1-0.8-1.7c-0.7-1.5-1.5-3.4-3-5
		c-1.2-1.3-3.9-2.6-5.2-3.2c0.8,1.3,2.6,4.4,3.1,5c0.8,0.9,1.7,2,2.5,2.9c0.4,0.4,0.7,0.8,0.8,0.9c0.4,0.5,3,3.7,3.4,4.3
		c0.5,0.6,0.8,1,1.1,1.3l0.2,0.2c0.4,0.4,1.3,1.1,2,1.6c0.6,0.4,0.8,0.6,0.9,0.7l0,0.1c0,0.1,0,0.2,0,0.2l-0.1,0.2l-0.2,0
		c-0.1,0-0.2-0.1-0.2-0.2c-0.5-0.3-1.1-0.7-1.7-1.1c-0.5-0.3-1-0.7-1.4-1c-0.2-0.1-0.5-0.3-0.9-0.5c-1.8-1-5.1-2.8-7.4-6.1
		c-0.2-0.3-0.6-1-0.8-1.3c0.2,1.5,2.5,7.6,6.5,9.6c0.2,0.1,5.2,2.3,6.4,3c0.2,0.1,0.5,0.3,0.9,0.5c0.6,0.3,1.3,0.7,1.7,1
		c0.2,0.2,0.2,0.4,0.2,0.4c-0.1,0.3-0.7,0.2-0.7,0.2C237.3,278.7,233.2,278.4,230.6,277z M227,258.4c0.3,0.2,1.5,0.9,2.2,1.7
		c1.2,1.4,2.3,3.2,3.1,5.3c0.2,0.6,0.5,1.1,0.8,1.6c0,0,0-0.1,0-0.1c-1-3.9-1.1-7.9-0.4-9.6c0.5-1.1,2-4.8,1.4-8c0-0.1,0-0.2,0-0.3
		c0-0.1,0-0.1,0-0.2c0,0.1-0.1,0.2-0.1,0.3c-0.2,0.5-0.3,1.1-0.5,1.4c-0.2,0.3-0.3,0.7-0.5,1c-0.2,0.4-0.4,0.7-0.5,1
		c-0.1,0.3-0.3,0.5-0.5,0.9c-0.5,0.9-1.2,2-1,3.8c0.3,2.7,0.5,3.2,0.8,4.1l0.1,0.2c0.4,1.3,0.3,1.6,0.1,1.7l-0.1,0l-0.1,0
		c-0.1,0-0.3-0.1-0.9-1.3c-0.1-0.2-2.8-5.5-1.1-9.9c1.7-4.3,6-8.5,6-8.5c0,0,3.2-2.7,4.1-3.5c-2.8,0.8-7.4,2.9-9.3,9.3
		c0,0.1-0.1,0.3-0.3,0.4c-0.1,0-0.2,0-0.3,0c-0.1,0-0.2-0.1-0.2-0.2c-0.1-0.2,0-0.4,0.1-0.5c0.1-0.5,1.6-5.8,5.7-8.3
		c3.2-2,3.9-2.4,4.5-2.7c0.3-0.1,0.5-0.3,0.9-0.5c0.8-0.5,1.6-1.2,2.7-3c0,0,0.1-0.1,0.1-0.2c-0.5,0.7-1.6,1.7-2.9,2.1
		c-0.7,0.2-1.3,0.3-1.9,0.3c-1.2,0.1-2.2,0.1-3.4,1.5c-1.9,2.1-3.4,5-3.4,5c-0.6,0.9-0.7,0.9-0.9,0.9c-0.1,0-0.2-0.1-0.2-0.2
		c-0.1-0.2,0-0.7,0.2-1c0.1-0.2,2.6-5.5,4.7-6.7c2.4-1.3,4-2.3,5-3.1c1.2-0.9,3.1-3,4.2-4.2c0.2-0.2,0.4-0.4,0.5-0.6l0.2-0.2
		c0.4-0.4,1.3-1.4,1.6-1.7c0-0.1,0.1-0.1,0.1-0.2c-0.2,0.1-0.5,0.2-0.7,0.3c-0.1,0-6.8,1.9-10.9,8.2c-0.2,0.3-0.7,0.9-0.9,1.2
		c0,0-0.1,0.1-0.1,0.1c-0.1,0.1-0.1,0.2-0.2,0.3c-0.2,0.4-0.3,0.7-0.3,0.7l-0.1,0.3l-0.3-0.2c-0.1-0.1-0.3-0.2,0.3-1.1
		c0-0.1,0.1-0.1,0.1-0.2c0.4-0.6,1-1.4,1.9-2.6l0.5-2.1c0-0.1,0.8-3.1,2.4-5.4c-1.8,1.7-4.9,5.1-4.9,9c0,1.1-0.7,2.1-1.6,3.4
		c-1,1.4-1.3,2.3-1.8,4.5c-0.3,1.4-0.5,2.6-0.6,2.8c0,0.3,0,0.7-0.2,0.9c-0.1,0.1-0.2,0.1-0.3,0.1c-0.5-0.1-0.4-0.8-0.4-1
		c0-0.2,0.7-4.3,1.1-5.6c0.4-1.1,0.7-1.9,0.7-2.1c0-0.4-0.2-3.3,0.5-5c0.4-1.1,1.3-2.3,1.8-3.2c0.3-0.4,0.5-0.7,0.6-0.9
		c0.3-0.6,0.5-1.3,0.7-1.9c-0.4,0.8-0.8,1.3-1.3,1.9c-0.2,0.3-0.5,0.6-0.8,1l0,0c0,0-2.9,2.2-3.9,8.3l0,0c0,0,0,2.4-0.4,6
		c-0.3,2.7,0,5.2,0.3,6.7c0,0.1,0.1,0.2,0.1,0.3c0,0.1,0.1,0.2,0.1,0.2c0,0.1,0.1,0.2,0.1,0.2c0.1,0.1,0.1,0.2,0.1,0.3
		c0,0.1-0.2,0.2-0.2,0.2l-0.1,0.1l-0.2-0.1l-0.1-0.1l0-0.2c0-0.1,0-0.2-0.1-0.3c0-0.1-0.1-0.2-0.1-0.3l0,0c-0.3-0.7-0.7-2-0.7-4.1
		c0-3.3,0.3-6,0.3-6c0,0,0.1-3.8-1.1-6.3c0.1,0.3,0.1,0.6,0.2,0.8c0.2,1.3-0.1,3.1-0.3,4.1c0,0.1-0.1,0.3-0.1,0.4
		c0,0.2-0.1,0.5-0.2,0.9c-0.4,1.4-1.3,4.1-0.9,6.7c0,0,1.1,4.8,2.5,7.6c0.2,0.3,0.3,0.5,0.4,0.7c0.5,0.6,0.5,0.6,0.3,0.8
		c-0.2,0.2-0.2,0.1-0.8-0.6c-0.1-0.2-0.2-0.4-0.3-0.6c-0.8-1.3-1.8-3.7-2.4-5.1l0-0.1c-0.2-0.5-1.5-3.1-2.6-4.1
		c-0.5-0.4-1.5-1.1-2-1.4c0.4,0.6,0.8,1.3,1.1,1.8c0.1,0.2,0.2,0.4,0.3,0.6c1,1.6,1.7,3.1,2,3.8c0.6,1.3,1.9,4.9,1.9,5L227,258.4z"
		/>
	<path class="st4" d="M288.4,245.8c0.5,0.2,0.8,1.8,0.8,1.8s0-0.9,0-1.3c0-0.4-0.2-2.1-0.2-2.1l-0.5,0.3c-0.6,0.4-0.9,1.2-0.9,1.2
		S287.9,245.7,288.4,245.8"/>
	<path class="st3" d="M288.9,247.6c-0.1-0.7-0.4-1.5-0.6-1.5c-0.4-0.1-0.7-0.1-0.7-0.1l-0.5,0.1l0.2-0.5c0,0,0.3-0.9,1-1.4l0.9-0.6
		l0.1,0.5c0,0.1,0.2,1.7,0.2,2.2c0,0.4,0,1.3,0,1.3L288.9,247.6z M288,245.4c0.1,0,0.3,0.1,0.5,0.1l0,0c0.1,0,0.2,0.1,0.3,0.2
		c0-0.3-0.1-0.7-0.1-1.1l-0.1,0C288.4,244.9,288.2,245.2,288,245.4z"/>
</g>
</svg>
