<?xml version="1.0" encoding="utf-8"?>
<!-- Generator: Adobe Illustrator 21.1.0, SVG Export Plug-In . SVG Version: 6.00 Build 0)  -->
<svg version="1.1" id="Warstwa_1" xmlns="http://www.w3.org/2000/svg" xmlns:xlink="http://www.w3.org/1999/xlink" x="0px" y="0px"
	 viewBox="0 0 512 512" style="enable-background:new 0 0 512 512;" xml:space="preserve">
<style type="text/css">
	.st0{fill:#0079C1;}
	.st1{fill:#FFFFFF;}
</style>
<g>
	<path class="st0" d="M18.9,159.4C6.7,189.2,0,221.7,0,256c0,34.2,6.8,66.8,18.9,96.5L163.7,256L18.9,159.4z"/>
	<path class="st0" d="M436.3,74.2C390.1,28.3,326.3-0.1,256-0.1S121.9,28.3,75.7,74.2L256,194.5L436.3,74.2z"/>
	<path class="st0" d="M493.1,352.5c12.2-29.8,18.9-62.3,18.9-96.5s-6.8-66.8-18.9-96.6L348.3,256L493.1,352.5z"/>
	<path class="st0" d="M256,317.5L75.7,437.7C122,483.6,185.7,512,256,512s134-28.4,180.3-74.3L256,317.5z"/>
	<path class="st1" d="M436.3,437.7c24.2-24.1,43.7-53,56.9-85.2L348.3,256l144.8-96.6c-13.2-32.1-32.6-61.1-56.9-85.2L256,194.5
		L75.7,74.2c-24.3,24.1-43.7,53-56.9,85.2L163.7,256L18.9,352.5c13.2,32.2,32.5,61.1,56.9,85.2L256,317.5L436.3,437.7z"/>
</g>
</svg>
