<?xml version="1.0" encoding="utf-8"?>
<!-- Generator: Adobe Illustrator 21.1.0, SVG Export Plug-In . SVG Version: 6.00 Build 0)  -->
<svg version="1.1" id="Warstwa_1" xmlns="http://www.w3.org/2000/svg" xmlns:xlink="http://www.w3.org/1999/xlink" x="0px" y="0px"
	 viewBox="0 0 512 512" style="enable-background:new 0 0 512 512;" xml:space="preserve">
<style type="text/css">
	.st0{fill:#FF0000;}
	.st1{fill:#FFFFFF;}
	.st2{fill:#005CE6;}
	.st3{fill:#FDE403;}
</style>
<g>
	<path class="st0" d="M256,512c103.3,0,192.3-61.2,232.7-149.4H23.3C63.7,450.8,152.7,512,256,512z"/>
	<path class="st1" d="M256,0C152.7,0,63.7,61.2,23.3,149.4h465.5C448.3,61.2,359.3,0,256,0z"/>
	<path class="st2" d="M0,256c0,38.1,8.4,74.2,23.3,106.6h465.5c14.9-32.4,23.3-68.6,23.3-106.6c0-38.1-8.4-74.2-23.3-106.7H23.3
		C8.4,181.8,0,217.9,0,256z"/>
	<g>
		<g>
			<path class="st0" d="M100,76l147.9,0.1l3.4,1.3c-1.6,27-3.4,52.8-5.1,79.8c-0.5,22.1-6.7,44.3-20.2,62.1
				c-12.8,17.4-31.4,30.4-52.2,36.7c-26.3-7.9-49.1-27-61.2-51.7c-7.4-14.6-10.3-30.8-10.9-47.1c-1.6-27.1-5-79.8-5-79.8L100,76z"/>
			<path class="st2" d="M100,76c46.3-20.2,101.4-20,147.8,0.1c0,0-3.2,55.6-4.8,81.5c-0.4,21.1-6.5,42.4-19.3,59.4
				c-12.3,16.7-30.1,29.1-50,35.2c-25.2-7.5-46.9-25.7-58.6-49.5c-7.1-13.9-9.9-29.5-10.5-45.1C103.3,131.5,100,76,100,76z"/>
		</g>
		<g>
			<path class="st3" d="M151.5,74c0.7-1.6,1.6-3.2,2.4-4.9c0.4,1.2,1.6,3.7,2.1,4.9c1.3-0.1,4-0.4,5.3-0.6c-1,1.5-2,2.9-3.1,4.5
				c1,1.3,2.1,2.8,3.1,4.3c-1.3-0.1-4-0.4-5.3-0.6c-0.8,1.7-1.5,3.4-2.2,5.1c-0.7-1.6-1.5-3.3-2.1-5.1c-1.3,0.2-4,0.4-5.3,0.6
				c1-1.4,2-2.9,3.1-4.3c-0.8-1.2-2.3-3.2-3.1-4.5C147.7,73.6,150.3,73.9,151.5,74L151.5,74z"/>
			<path class="st3" d="M194.4,69.1c0.7,1.6,1.4,3.2,2.2,4.9c1.3-0.1,4.1-0.4,5.4-0.6c-1,1.5-2,2.9-3.1,4.5c0.8,1.1,2.4,3.2,3.1,4.3
				c-1.3-0.1-4-0.4-5.4-0.6c-0.6,1.2-1.5,3.7-2.1,4.9c-0.7-1.6-1.4-3.1-2.3-4.7c-1.3,0.1-3.9,0.3-5.1,0.3c0.7-1,2.1-3,2.8-4.3
				c-0.7-1-2.2-3.2-2.8-4.4c1.3,0.2,3.9,0.4,5.2,0.6C192.9,72.9,194,70.3,194.4,69.1L194.4,69.1z"/>
			<path class="st3" d="M172,101c0.5-1.2,1.5-3.6,2.1-4.9c0.7,1.6,1.5,3.2,2.5,4.8c1.2-0.1,3.6-0.3,4.9-0.3c-0.7,1-2,3.1-2.8,4.2
				c0.7,1.2,2.2,3.4,2.8,4.5c-1.3-0.2-3.9-0.5-5.2-0.6c-0.6,1.2-1.6,3.5-2.2,4.9c-0.7-1.6-1.3-3.2-2.1-4.9c-1.3,0.1-4,0.4-5.3,0.6
				c1-1.5,2-2.9,3-4.5c-0.7-1-2.3-3.2-3-4.4C168,100.6,170.7,100.9,172,101L172,101z"/>
			<path class="st1" d="M156.7,159c5.8-11.7,11.6-23.2,17.3-34.9c6,11.6,11.7,23.1,17.5,34.9c3.9-5.2,7.7-10.3,11.6-15.6
				c9.7,13.1,19.4,25.9,29.1,38.8c-0.3,9.7-8.2,18.6-18.1,19.1c-7.5,1.2-13.3-5.5-20.9-5.1c-6.8-0.1-12.4,5.7-19.3,5.2
				c-7,0.1-12.3-5.5-19.3-5.2c-7.4-0.1-13.4,6.4-20.9,5.1c-9.8-0.6-17.3-9.4-17.8-19.1c9.7-12.8,19.4-25.7,29.2-38.8
				C149.1,148.7,152.8,153.8,156.7,159L156.7,159z"/>
			<path class="st1" d="M141.3,206.1c5-1.8,9.6-4.9,15-4.2c6.3,0.4,11.2,5.2,17.6,5.1c7,0.5,12.3-5.2,19.3-5.1
				c7-0.5,12.5,5.2,19.3,5.1c4.7,0.3,8.8-1.9,12.9-3.6c-1.6,2.6-2.9,5.5-4.9,7.7c-6.2,2.9-13.1,1.5-18.7-1.6c-6.1-3-13.2-2-19,1.2
				c-6.1,3.2-13.5,2.2-19.4-1c-6.1-3.2-13.4-2.2-19.2,1c-5.2,2.8-11.1,2.3-16.7,0.6c-1.3-2.6-2.8-5.3-4.5-7.8
				C128.6,206.1,135.1,208.5,141.3,206.1L141.3,206.1z"/>
			<path class="st1" d="M132.5,218.3c7,0.9,13-3.2,19.4-4.9c8.5-2.1,15.1,5.8,23.6,4.7c5.9-0.2,10.5-4.6,16.2-4.9
				c8.6-1,15.4,6.4,24.2,5.1c-10.9,13.4-25.3,23.9-41.8,29.5C157.8,242.1,143.2,231.6,132.5,218.3L132.5,218.3z"/>
		</g>
	</g>
</g>
</svg>
