<?xml version="1.0" encoding="utf-8"?>
<!-- Generator: Adobe Illustrator 21.1.0, SVG Export Plug-In . SVG Version: 6.00 Build 0)  -->
<svg version="1.1" id="Layer_1" xmlns="http://www.w3.org/2000/svg" xmlns:xlink="http://www.w3.org/1999/xlink" x="0px" y="0px"
	 viewBox="0 0 512 512" style="enable-background:new 0 0 512 512;" xml:space="preserve">
<style type="text/css">
	.st0{fill:#424242;}
	.st1{fill:#BFBFBF;}
	.st2{fill:#F9CF41;}
</style>
<circle class="st0" cx="256" cy="256" r="256"/>
<path id="XMLID_16453_" class="st1" d="M435.3,73.5c0.2,0.6,0.2,0.6,1.6,1.9c0.4,0.3,1.1,1.1,2,2C437.9,76,436.8,74.6,435.3,73.5z"
	/>
<path id="XMLID_16452_" class="st1" d="M434.8,72c-0.7-0.6-1.3-1.3-2-1.9l0,0C433.5,70.7,434.1,71.4,434.8,72
	c-0.1-0.1-0.2-0.2-0.3-0.3C434.6,71.9,434.7,72,434.8,72z"/>
<path id="XMLID_16449_" class="st1" d="M509.5,215.2c-2.2-13.7-5.5-26.9-9.8-39.8c-4.3-12.8-9.5-25.2-15.7-37.1
	c-0.4-0.7-0.8-1.5-1.2-2.2c-5.9-11-12.5-21.6-19.9-31.6c-7.8-10.7-16.5-20.8-25.8-30.1l0,0c-0.8-0.8-1.5-1.5-2.3-2.3
	c0.7,0.7,1.5,1.5,2.2,2.2c-0.3-0.3-0.6-0.6-0.9-0.9c0.5,0.5,1,1,1.5,1.6c0,0,4.6,4.8,6.1,6.8c-0.7-0.4-1.3-0.8-1.9-1.3
	c3,3.2,6.2,6.7,6.2,6.8c-0.1,0-0.1,0-2.1-1.9c2.4,3.7,6.8,5.8,7.9,10.5c-1.6-1.2-2.7-2.9-4.3-4.1c1.5,2.9,4.4,4.4,6.4,6.8
	c0,0.1-0.1,0.3-0.1,0.4c-0.9,0.1-2.2,0.2-15.2-14.9c2.3,0.3,3.1,3.2,5.4,3.5c1.8-1.7-12.2-13.7-16.7-16c0.1,0.3,0.1,0.3,0.7,1.1
	c-0.2-0.1-0.2-0.1-3.9-2.9c0.1,0.3,0.4,0.8,0.6,1c-0.5,0.2-0.9,0.4-3.5-1.6c0.7-2.9-3.7-4-3.7-4c0.4,0.8,0.4,0.8,2.3,2.7
	c-2.3-0.9-3-3.7-5.4-4.6c0.3,0.8,0.3,0.8,2.5,3.2c0.6,0.6,0.7,0.7,1,1c-2.2,0.5-2.3-2.3-3.6-3.2c-0.1,0.2-0.3,0.5-0.3,0.8
	c0.3,0.3,0.7,0.6,0.9,0.9c-0.7-0.5-0.7-0.5-1.2-0.8c1.4,1.9,3.4,3.3,4.7,5.2c-0.1,0-0.1,0-3-1.9c-0.1,0.1-0.2,0.2-0.3,0.3
	c0.9,1.2,2.4,1.8,3.5,3c-0.2-0.1-0.2-0.1-1.6-0.9c0.3,0.7,1.1,1.1,1.3,1.9c-1.2-0.3-1.6-1.5-2.5-2.2c0.5,1.2,1.7,1.8,2.5,2.7
	c-0.7-0.5-1.4-1.1-2.1-1.6c0.9,0.9,1.9,1.5,2.6,2.5c-0.1-0.1-0.1-0.1-3.2-2.7c1,1,2,2,2.9,3.1c0,0,0,0-1.9-1.3c1.1,1,1.1,1,1.4,1.4
	c-0.1,0-0.3,0.1-0.4,0.1c0.5,0.8,3.9,4.8,4,4.8c0.1-0.1,0.2-0.2,0.2-0.3c-0.1-0.1-0.1-0.3-0.2-0.4c1,1.1,0.9,1.3,0.8,1.8
	c0,0,0,0-1.6-0.9c0.4,0.9,1.8,2.4,2,2.7c-0.1,0.1-0.1,0.3-0.2,0.4c0.5,0.9,1.6,1.2,2,2.2c-0.2,0.1-0.2,0.1-1.1,0.2
	c0.5,0.5,1,1.1,1.5,1.6c-0.4,1.9,1.6,2.4,2.2,3.7c-0.1,0.1-0.2,0.1-0.3,0.2c1.2,1.7,1.9,3.7,3.4,5.1c-0.1,0.3-0.2,0.8-0.2,1.1
	c0.3,0.5,0.7,0.9,1,1.4c-0.1,0-0.3,0-0.4,0c0,0.1-0.1,0.3-0.1,0.4c0.3,0.4,0.7,0.7,1.1,1c-0.1,0.1-0.2,0.1-0.3,0.2
	c0,0,0.6,3.4,1.8,3.5c0.2-0.2,0.3-0.5,0.4-0.7c0.6,1.2,0.7,1.2,0.9,1.9c-0.4,0-0.4,0-1.3-0.4c0,0.1,0,0.3,0.1,0.4
	c-0.2,0.1-0.5,0.1-0.8,0c0,0.4-0.1,0.8-0.2,1.2c-0.7-0.3-0.7-0.3-1.2-0.3c0.3,0.6,0.3,0.6,2.1,1.7c0,0.2-0.1,0.6-0.2,0.8
	c-1-0.1-1.5-0.9-2.3-1.4c0.6,0.9,1.5,1.4,2.2,2.3c-0.3,0.4-0.3,0.4-2.1-0.2c1.2,1.9,1.2,1.9,0.8,3.1c0,0,2.2,2.9,3.5,3.4
	c0.1-0.2,0.3-0.4,0.5-0.5c0.8,0.8,0.9,1,1.2,1.5c-0.1,0.1-0.2,0.2-0.3,0.3c-1.3-0.1-1.3-0.1-2.1,0c0.3,1.6,0.3,1.6,2.1,1.4
	c0.1,0.5,0.2,0.7-0.4,1.1c0,0,0.6,1.7,2.4,1.4c-0.2,0.2-0.5,0.5-0.8,0.6c0,0.1-0.1,0.3-0.2,0.4c1.3,1.2,1.3,1.2,1.4,1.4
	c-0.1,0.2-0.4,0.4-0.6,0.5c0.3,0.7,1,0.9,1.4,1.5c-0.1,0.1-0.2,0.2-0.2,0.3c1.3,0.6,1.3,0.6,1.7,1.1c-0.2,0.1-0.4,0.2-0.5,0.3
	c-0.3,0-0.6,0-0.9,0c0.1,0.3,0.3,0.8,1.4,1c0.1,0,0.1,0,0.1,0h0h0h0h0h0h0h0c1.3,1.9,3.7,2.8,4.8,4.9c0.2-0.2,0.9-1.2,0.3-3
	c0.1-0.1,0.2-0.2,0.3-0.2c-0.6-1.3-0.8-2.7-1.5-3.9c1.1,1.5,1.2,1.6,1.6,1.9c0-0.1-0.1-0.3-0.1-0.4c0.1-0.1,0.2-0.1,0.3-0.2
	c0.1,0,0.2,0.1,0.4,0.1c0.1-0.5,0.1-0.5-0.5-1.9c4.1,3,5.2,8.2,8.4,11.8c0.3,0.3,0.3,0.3,0.6,0.5c0.4,0.3,1.2,1,1.8,2.8
	c0.2,0.4,0.2,0.9,0.4,1.3c0.3,0.5,0.7,0.9,0.9,1.4c0.3,0.5,0.3,1,0.7,1.5c0.2,0.3,0.5,0.4,0.8,0.6c0.2,0.2,0.4-0.2,0.7-0.2
	c0,0,0-0.1,0-0.1c-0.1-0.8-0.1-1.6-0.3-2.4c-0.1-0.6-0.4-1.1-0.5-1.7c0.1-0.1,0.2,0,0.4,0.1c0.1,0.1,0.2,0.1,0.2,0.2
	c0.3,0.2,0.5,0.6,0.7,0.8c0.1,0.1,0.3,0.1,0.5,0.2c0.1,0.1,0.2,0.2,0.3,0.4c0-0.1,0-0.1-0.1-0.4c-0.5-1.2-0.7-2.1-0.2-2.1
	c0,0,0-0.1,0-0.2c-0.3-0.9-0.6-1.8-0.9-2.7c0,0,0-0.1,0-0.1c-0.9-2.6-2.7-4.8-3.8-7.3c-1.1-2.4-1.1-2.4-0.4-2.9
	c0.1-1.1,0.1-1.1-3.6-2.4c0.5-0.4,1.2-0.5,1.7-1c-0.1-0.3-0.3-0.7-0.5-1.2c0,0-2.2-2.6-2.2-2.6l-5.2-6.8c-2.5-3.3-2.5-7.7-4.7-11.1
	c1-1.1-0.2-2.7-4.1-8.1c-0.2,0.1-0.5,0.3-0.7,0.4c0,0-0.6-1.1-0.1-2c0.2,0.1,0.5,0.2,0.7,0.2c0.1,0,0.3-0.1,0.4-0.1
	c3.9,2.6,6.4,6.5,7.5,11.6c-0.1,0-0.3,0.1-0.4,0.1c6.6,12.6,12.8,17.3,12.9,17.4c0.2-0.3,0.6-0.5,0.8-0.8c-0.1-0.2-0.1-0.6,0-0.8
	c0.1,0,0.1,0,0.1,0h0h0h0h0h0h0h0c0.1-0.1,0.1-0.3,0.2-0.4c-0.1-0.2-0.2-0.5-0.1-0.7c0.4,0.2,0.6,0.5,1,0.6c0-0.5,0-0.5-0.2-1.2
	c0.2,0.1,0.5,0.4,0.6,0.6c0.1-0.4,0.1-0.4-0.2-1.2c1.1,0.9,8.5,14.9,8.5,15c-1.2-0.9-1.6-2.4-2.4-3.4c-0.1,0-0.1,0-0.1,0h0h0h0h0h0
	h0h0c-0.7-1.1-0.9-2.3-1.4-3.4c-0.2-0.4-0.3-0.6-0.4-0.8c-0.4,0-0.6-0.1-2.1-1.1c-0.1-0.1-0.2-0.2-0.3-0.3c-0.1,0.1-0.1,0.3-0.2,0.4
	c0.1,0.2,0.1,0.5,0,0.6c0.1,0.3,0.2,0.7,0.2,1c-0.4-0.1-0.8-0.4-1.2-0.5c0.7,2,2.9,3.2,3,5.5c4.2,2.4,3.8,6.5,3.8,6.6
	c-1.3-0.8-1.3-2.7-2.7-3.4c-0.3,1,0.7,3.8,0.7,3.8c3,5.8,3,5.8,6.9,11c-1.9,0.2-1.9,0.3-2.5,1.5c-1.2-0.6-1.8-2.1-3.3-2.1
	c-1.5,4-1.8,5.1-1.5,6c-1.6-0.8-2.5-2.4-3.9-3.4c-0.4,0.5-0.7,1.3-0.7,1.9c-4.3-1.2-4.7-5.8-7.3-8.5c0.1-0.3,0.2-0.7,0.3-1
	c0.3-0.1,0.6-0.3,0.9-0.4c-0.2-1.9-2.6-2.8-2.5-4.8c-0.3-0.7-0.4-1.6-0.7-2.3c0-0.1,0-0.1-0.1-0.1l0,0c0,0,0,0-0.1,0.5
	c0,0.2-0.1,0.4-0.1,0.7c-0.1,0.3-0.2,0.7-0.3,1.1h0c-0.4,0-0.7,0-0.8,0c-0.2-0.1-0.2-0.1-0.3-0.1c-0.1,0-0.1,0-0.1,0.1
	c0.6,0.9,1.3,1.7,1.9,2.6c-0.2,0.2-0.5,0.5-0.7,0.7c0.8,1.8,0.8,1.8,3,5.3l-0.8,0.4c3.5,5.3,3.5,5.3,5,7.4c-0.3-0.1-0.6-0.3-0.9-0.4
	c0,0.3-0.1,0.7-0.1,1c-0.6,0-1.4-0.2-1.9-0.5c-0.1,0.2-0.2,0.5-0.3,0.8c0.1,0.3,0.2,0.8,0.3,1.1c-0.3-0.2-0.7-0.4-1-0.5
	c-0.2,0.2-0.5,0.5-0.7,0.7c-0.3,0-0.7,0-1-0.1c-0.4,0.9-0.1,2-0.4,2.9l-0.4,0.8l0.9,1.3l-0.1,0.5c-0.1,0.3-0.3,0.6-0.4,0.9
	c0.3,0.7,0.7,1.6,0.9,2.3c-0.1,0-0.1,0-0.2,0c-1.4,1.5-1.4,1.5-2.1,3.3l0.5,1.1c0.3,2.4-0.7,2.8-1.7,3.2c-0.1,0.5,0,1.3,0.3,1.8
	c-0.4,0.2-0.8,0.4-1.2,0.6l-1.2-0.1c-0.3-0.6-0.8-1.2-1.3-1.7c-0.2,0.2-0.4,0.5-0.6,0.8c1.4,1.8,1.8,3.5,1.8,3.5
	c-2,0.5-2,0.5-3.4,0.1c-0.2-0.2-0.5-0.5-0.6-0.8c-0.5,0.4-1.2,0.9-1.7,1.2c-0.3-0.1-0.6-0.3-0.9-0.4c2,4.2,2,4.2,2.1,4.5
	c2,0.8,2,0.8,3.1,0.6c0.4,0.5,0.8,1.2,1.1,1.7c0.3,0.1,0.7,0.2,1,0.2c0.1,0.4,0.3,1,0.4,1.5c0.4,1.8,2.3,2.8,2.9,4.5
	c0,0.6,0,0.6,1.4,4.2c-1.8,2.5,0.4,5.4-0.7,8c-5.7-0.7-5.7-0.7-8.5-1c-0.2-0.3-0.4-0.6-0.6-0.9c-3-0.6-4.6,0.2-5.2,0.4
	c0,0.6,0.1,1.5,0.1,2.1c-0.2-0.2-0.5-0.4-0.8-0.6c0.7,11.9,1.7,23,2.2,23.3c0.1,3.8,0.1,3.8,1.4,5.8c0.6-0.1,1.4-0.6,2-0.4
	c1.9,0.6,1.8,3.1,3.5,3.9c1.5,0.7,3-0.9,4.6-0.1c0-0.6-0.2-1.4-0.4-2c1.9-0.5,3.6,0.4,5.4,0.5c0.1-0.3,0.2-0.7,0.3-1
	c-0.3-0.2-0.6-0.4-0.9-0.6c0.9-1,2.1-1.5,3.1-2.4c-1-5.5,1.9-10.6,1.1-16.1c0.4-0.4,1.1-0.8,1.7-0.9c2.4-4.5,2.4-4.5,0.9-8
	c0.2-0.4,0.2-0.4,0.8-3c2.1-0.2,3.2,2.2,5.3,1.9c0.4-1.9,1.5-3.5,2-5.4c1.6-0.5,1.6-0.5,3.5,1.4c0.6,1.7,0.7,2.1,7.3,12.3
	c0.3,0,0.7,0.1,1,0.1c5.6,8.3,5.5,10,5.3,12.3c-0.2,2.8,0,3.1,0.7,3.9c0.4-4.2-0.9-8.3,0-12.5c1,1.8,1,1.8,1.6,2.5
	c0.1-2.1-4.9-10.4-6.8-10.3c-0.5-6-10.9-9.5-6.2-16.2c0.3,0,0.7-0.1,1-0.2c-0.1,0.6-0.1,0.6,0.7,3c0.4-0.5,0.8-1.3,0.8-2
	c1.4,5.1,5.7,8.5,7.9,13.2c1.4,1.2,1.4,1.2,7.3,20.4c0.6,0,1.3,0.3,1.8,0.6c0,0.3,0,0.7,0.1,1c-0.3-0.2-0.6-0.4-0.9-0.6
	c-0.2,2.2,1,6.3,1,6.4c0.2-0.2,0.6-0.4,0.8-0.6c0.2,0.3,0.5,0.6,0.6,0.8c-0.1-1.7-0.8-3.4-0.5-5.2c0.3,0.1,0.6,0.3,0.9,0.4
	c-0.4-4.6-2.6-8.8-3.2-13.4c0.6,0.8,0.6,0.8,1.1,2.9c0-0.3,0-0.7,0.1-1c0.2,0.2,0.5,0.5,0.6,0.7c0.1-1.9-0.4-3.8-0.4-5.7
	c0.1,0.6,0.3,1.4,0.6,2c0-0.3,0-0.8-0.1-1.1c0.3,0,0.7,0.1,1,0.1c0.3,0.4,0.6,1,0.9,1.4c0,0.3,0,0.7,0,1c0.4-1,0.4-1,0.6-3
	c0.3-0.1,0.7-0.2,1-0.3l-0.5-1.5c-3.2-7.1-4.1-23.2-4.2-25c0.7,0.2,1.4,1,1.7,1.6l0.5,0.8l0.2,1l-0.2,0.5c0.7,1.7,1.1,3.6,2.2,5.2
	c0.1-1.4,0.5-2.8,0.2-4.3c-0.1,0.3-0.2,0.7-0.2,0.9c-1.7-3.6-2.1-4.3-1.6-7.5c-0.1-0.4-0.2-0.9-0.3-1.2c1.7,2,2.6,8.8,2.6,8.9
	c0.4,1.4,0.6,1.8,2.2,5.7c1.3,4.1,2.1,6.3,2.5,8c0.2,0.9,0.4,1.8,0.6,2.8c0.1,0.8,0.2,1.6,0.3,2.7c-0.3,0-0.7,0-1,0
	c-0.4-0.5-0.8-1.2-1-1.8c-0.1-0.6-0.5-1.5-1-2c-0.9,0.7-0.9,0.7-1.3,3.7c-0.5,0.2-1.2,0.7-1.6,1.2c0.5,2.1,0.5,2.1,0.3,3
	c-0.3,0-0.7,0-1,0c-4.8,6.7,1.6,11.9,2.4,17.8c0.2-0.3,0.4-0.6,0.5-0.9c0.3,0.4,0.3,0.4,1.5,2.8c0.2-0.2,0.5-0.5,0.7-0.7
	c0-0.4,0-0.8,0-1.2c0-0.4,0-0.4,0-0.4h0h0h0h0h0h0h0c0.9,0.8,0.9,0.8,1.3,2.8c1.1-2.8,1.1-2.8,1.1-3c0.8,1.5,0.8,1.5,1.3,10.4l0,1.3
	c0.1,0.8,0.1,0.8,0,3.4c-0.1,6.4-0.1,6.4-0.4,9.4c-0.2,0.1-0.5,0.1-0.8,0.2l-0.2-0.4l-0.2,0.8c0-0.3-0.1-0.7-0.1-1
	c-1.6,0.6-1.6,0.8-1.9,2c-0.9-0.6-1.6-1.4-2.4-2c-0.5-0.3-0.5-0.3-0.5-0.3h0l0,0h0l0,0h0l0,0l0,0c-0.3,0-0.7-0.1-1-0.1
	c-0.9-1.9-2.2-3.5-2.9-5.5c-1.8,0.9-2,1-3.1,2.4c0,0.1,1.4,7.9-1.4,9.7c-1.3-2.4-5.4-10.1-5.4-10.1c-0.6-0.3-1.4-0.5-2.1-0.6
	c-0.3-0.5-0.7-1.3-0.8-1.9c-0.7,0-1.6,0.1-2.3,0.2c-1.6-1.6-2.3-3.8-3.9-5.5c1.4-1.7,1.4-1.7,1.2-12.3c-1-0.1-1-0.1-2.8-1.2
	c-0.2,0.6-0.4,1.5-0.6,2.1c-0.3,0-0.7-0.1-1-0.1c-0.2,0.3-0.4,0.6-0.6,0.9c-0.6-0.2-1.4-0.6-1.9-1c-2.7,0.7-2.7,0.7-3.4,1.7
	c-1.1-0.7-1.2-0.7-4.7-1.5c-1.2,1.6-1.2,1.6-3.3,2l-2.6,1.3l-1,2.2c0.1,0.3,0.3,0.7,0.4,0.9c-2.6,0.8-2.6,0.8-3.4,1.4l-1.7-0.2
	c-1.5-1-3.3-0.5-4.8-1.3c-0.1-0.6-0.2-1.4-0.3-2c-0.3,0-0.7,0-1,0c-0.2,0.3-0.5,0.8-0.8,1.1l-0.4,0l0.2,1.3
	c-0.3,1.3-0.3,2.6-0.6,3.8l0.1,0.7l-0.7,0.7c-1.5,1.9-6.4,7-6.4,7c0,0.1,0.6,9.4-2.1,14.4c-3.5,6.9-10.2,11.2-14.4,17.4
	c0.2,0.7,0.3,1.6,0.1,2.3l-6.1,11.5c-3.5,3.3,0.9,6.9-0.4,10.3c5,8.3-9.1,13.6-3.4,22l0.3,0.4l-1.1,0.9c0.1,0.2,0.3,0.5,0.5,0.8
	c-0.4,0.4-1.1,0.7-1.6,0.8c0.2,0.2,0.4,0.5,0.5,0.8c-1,2.2,0.5,4.3,3.3,4.6c-0.1,0.5-0.4,1.2-0.7,1.6c0.4,1,1.1,1.9,1.5,2.9l1,1.2
	l1.4,1.2l-0.6,1.7c-0.1,0.2-0.2,0.5-0.3,0.8c1.1,1.9,1.1,1.9,1.1,2.4c-0.4,0.3-0.8,0.8-1,1.2c3.5,4.3,3.5,4.3,4.3,4.7
	c0.4,1.6,1.7,3,1.4,4.9c1.5,1.9,4,4.2,4,4.2c3.3-2.9,4.9-4.3,10.2-2.9c1.4,0.2,1.5,0.3,2,1.1c5.8,0.1,8.3-5.4,12.8-7.4
	c0.8,0.7,1.9,1.6,2.7,2.3c-0.2,0.2-0.4,0.4-0.6,0.5c0.9,2.1-1.7,4.3-0.1,6.4c1.8-0.4,4.8-1.7,4.9-1.7c0.1,0.2,0.2,0.5,0.2,0.7
	c-0.2,0.2-0.4,0.4-0.5,0.6c0.3,2,0.3,2,0.2,2.5c0.1,0.2,0.3,0.4,0.5,0.6c-2.6,4.4-4.7,9.1-7.5,13.5l-0.6,0.6
	c-0.2,0.2-0.4,0.4-0.5,0.6c0.2,1.8-1.5,3.5-1.5,3.5c0.8,2.3,5.5,24.2-70.9,92.5c13.4-1.6,47.3-26.9,69.7-52c1.2-1.4,2.3-2.7,3.4-4.1
	c-1.1,1.4-2.3,2.7-3.4,4.1c2-2.2,2-2.2,4-4.6c5.3-6.5,8.3-10.8,9.3-12.2c5.5-7.9,5.5-7.9,8.8-13c0-0.1,4.3-6.7,7-11.5
	c1.6-2.8,3.1-5.5,4.5-8.2c6.1-11.9,11.4-24.3,15.7-37.1c0.9-2.7,1.8-5.5,2.6-8.2l0-0.1c0.2-0.5,0.3-1,0.4-1.6
	c1.7-6.7,1.7-6.7,2.1-8.2l4.9-33.9c0.6-7.5-0.9-15-0.4-22.5c0.7,2.5,0.4,5.1,1,7.6c0.1-0.4,0.1-0.4,0.5-6.7c0.4,18,0,21.1-2.3,38.2
	c0-0.1,0,0.1,0.1,0.2c-0.2,1.2-0.7,4.8-2.4,12.2c1.2-5.3,2.4-11.1,3.3-16.9c2.2-13.7,3.4-27.7,3.4-41.9
	C512.8,242.9,511.7,228.9,509.5,215.2z M448.2,122.7c0,0.1,0,0.1,0,0.2C448.1,122.7,448,122.6,448.2,122.7
	C448.1,122.6,448.1,122.7,448.2,122.7z"/>
<path id="XMLID_16448_" class="st1" d="M441.8,80.4c-1-1.1-2-2.1-2.8-3C439.9,78.5,440.8,79.5,441.8,80.4z"/>
<ellipse id="XMLID_16447_" transform="matrix(0.4472 -0.8944 0.8944 0.4472 133.0418 472.2934)" class="st1" cx="448.6" cy="128.5" rx="0" ry="0"/>
<polygon id="XMLID_16446_" class="st1" points="420.5,351.8 420.5,351.8 420.5,351.8 "/>
<path id="XMLID_16445_" class="st1" d="M499.5,228.5L499.5,228.5c0,0-0.1-0.3-0.3-0.5c0,0,0,0,0,0
	C499.4,228.3,499.5,228.5,499.5,228.5z"/>
<polygon id="XMLID_16444_" class="st1" points="420.5,351.8 420.5,351.8 420.5,351.8 "/>
<polygon id="XMLID_16443_" class="st1" points="420.5,351.8 420.5,351.8 420.5,351.8 "/>
<path id="XMLID_16442_" class="st1" d="M445.3,180.6c0,0-0.1,0-0.1,0c0,0,0,0,0,0C445.2,180.6,445.3,180.6,445.3,180.6L445.3,180.6
	L445.3,180.6z"/>
<path id="XMLID_16441_" class="st1" d="M453.5,131.1c0,0,0.1,0.4,0.2,0.4c0-0.1,0-0.1-0.1-0.1C453.6,131.3,453.5,131.2,453.5,131.1
	L453.5,131.1C453.5,131.2,453.5,131.1,453.5,131.1z"/>
<path id="XMLID_16440_" class="st1" d="M463.1,144.1C463.1,144.1,463.1,144.1,463.1,144.1C463.1,144,463.1,144,463.1,144.1
	L463.1,144.1C463.1,144.1,463.1,144.1,463.1,144.1z"/>
<path id="XMLID_16439_" class="st1" d="M459.7,367c0.1,0,0.1,0,0.1-0.1c0.1-0.1,0.3-1.2,0-1.2c-0.2,0-0.5,0.5-0.7,1l-0.3,0.3
	c-0.1,0.3-0.3,0.7-0.4,1c0,0,0,0,0,0.1c0,0.6,0.6,0.1,0.6,0.1c-0.1-0.2,0.3-0.7,0.3-0.8C459.5,367.1,459.6,367,459.7,367z"/>
<path id="XMLID_16438_" class="st1" d="M451.6,377.4c-0.2,0-0.4,0.1-0.5,0.3c0,0-0.4,0.5-0.3,0.8c0.2,0.4,0.7-0.7,0.8-0.7l0,0
	C451.8,377.4,451.7,377.4,451.6,377.4z"/>
<path id="XMLID_16437_" class="st1" d="M395.9,324.8C395.9,324.8,395.9,324.8,395.9,324.8c0,0.1,0.1,0.2,0.2,0.3
	c0.1,0.1,0.1,0.1,0.4,0c0,0,0,0,0.1,0l-0.2-1.1l-0.2-0.5c-0.1,0-0.1,0-0.2,0c-0.1,0-0.3,0.1-0.4,0.2c-0.1,0.1,0,0.2,0.1,0.3
	c0.1,0.1,0.2,0.1,0.2,0.3C396,324.4,395.9,324.6,395.9,324.8z"/>
<path id="XMLID_16436_" class="st1" d="M397,322.7c-0.1,0.2-0.2,0.5-0.3,0.8c0,0,0,0.1,0.1,0.1c0,0,0.5-0.2,0.5-0.2
	c0,0,0.1,0,0.1-0.1C397.4,323.1,397.2,322.7,397,322.7C397.1,322.7,397.1,322.7,397,322.7z"/>
<path id="XMLID_16435_" class="st1" d="M398.1,319.7C398.1,319.7,398.1,319.7,398.1,319.7c0,0,0.1,0.1,0.1,0.2c0,0.1,0,0.1,0.1,0.2
	c0.1,0.1,0.2,0.1,0.4,0.1l0.3-0.7l-0.9-0.3C398,319.3,398,319.5,398.1,319.7z"/>
<path id="XMLID_16434_" class="st1" d="M399,317.6c0,0,0,0.1,0,0.1c0,0,0.1,0,0.2-0.6c0,0,0-0.1,0-0.1c-0.2,0-0.4,0-0.7,0l0.1,0.5
	C398.8,317.5,398.9,317.5,399,317.6C399,317.5,399,317.5,399,317.6z"/>
<polygon id="XMLID_16433_" class="st1" points="395.8,318.1 395.8,318.1 395.8,318.1 "/>
<polygon id="XMLID_16432_" class="st1" points="396,317.1 395.4,317.6 395.8,318.1 396.1,317.5 "/>
<polygon id="XMLID_16431_" class="st1" points="394.4,317.2 394.4,317.8 394.8,317.8 394.9,317.4 394.7,317.4 "/>
<polygon id="XMLID_16430_" class="st1" points="393.3,316.4 392.9,316.3 392.8,316.6 393,316.9 "/>
<path id="XMLID_16429_" class="st1" d="M392,315.6l-0.1,0.5l0.5-0.2c0.1,0,0.1,0,0.2,0l0.3-0.3l-0.7-0.1L392,315.6z"/>
<path id="XMLID_16428_" class="st1" d="M429.2,269L429.2,269c-0.1,0-0.7,0.4-0.9,0.6l-0.3,0.8c0.1,0,0.2-0.1,0.3-0.1
	c-0.1,0.1-0.2,0.2-0.3,0.3c-0.1,0.2-0.1,0.2-0.2,0.3l0.2,0.6c0.4-0.1,0.4-0.1,0.5-0.3c0.2-0.2,0.4-0.4,0.5-0.7l0,0l0.2-0.7
	C429.4,269.6,429.3,269.2,429.2,269z"/>
<path id="XMLID_16427_" class="st1" d="M430.8,267.3c-0.2-0.1-0.3-0.2-0.5-0.3c-0.1-0.1-0.3-0.2-0.4-0.3c-0.1,0-0.1-0.1-0.1-0.1
	c0,0,0,0-0.1,0c-0.1,0.2-0.2,0.5-0.3,0.7c0,0.1,0,0.1,0.2,0.1c0.2,0,0.2,0.1,0.4,0.1c0.4,0.2,0.4,0.2,0.5,0.2c0.4,0,0.5-0.3,0.5-0.3
	l0,0C430.9,267.3,430.8,267.3,430.8,267.3z"/>
<path id="XMLID_16426_" class="st1" d="M423.9,271.4c0.1,0.3,0.4,1.1,1.1,0.1c0.1-0.2,0.2-0.5,0.3-0.7c-0.1,0-0.2,0-0.2,0.1
	c-0.1,0-0.3,0.2-0.5,0l-0.3-0.3c-0.1,0.1-0.3,0.3-0.3,0.4C423.9,271.1,423.8,271.2,423.9,271.4z"/>
<path id="XMLID_16425_" class="st1" d="M421.3,270.1c0,0-0.1,0-0.1,0c0,0-0.6,0.3-0.6,1l0.4,0.5c0.3-0.6,0.4-0.6,0.8-0.4
	c0.5,0.3,0.7,0.2,0.7,0.1c0.3-1,0.4-1.2,1.1-1.7c0.1-0.1,0.2-0.1,0.2-0.1c0,0,0,0,0-0.1c-0.5,0.1-1,0.3-1.5,0.4
	C421.9,270,421.6,270,421.3,270.1z"/>
<polygon id="XMLID_16424_" class="st1" points="419.6,271.3 419.6,271.3 420.1,271.3 419.8,270.7 "/>
<path id="XMLID_16423_" class="st1" d="M418.4,272.2l-0.3-0.2c-0.1,0.2-0.3,0.4-0.3,0.6c0,0.2,0.1,0.5,0.2,0.7
	c0.4,0.5,0.8-0.1,0.9-0.6c0-0.2,0-0.3-0.1-0.3c0,0-0.1,0-0.1-0.1C418.6,272.3,418.5,272.3,418.4,272.2z"/>
<path id="XMLID_16422_" class="st1" d="M419,268.8l-0.5-1c0,0-0.7,1-0.4,1.6c0.2,0.4,0.9,0.4,1,0.1l0,0
	C419.2,269.4,419.1,269.3,419,268.8z"/>
<path id="XMLID_16421_" class="st1" d="M464.1,222.7c0.1,0.2,0.4,0.1,0.7-1l0,0l0,0l-0.3-0.4l-0.4,0.4c0,0.2,0,0.4,0.1,0.6
	C464.1,222.5,464.1,222.6,464.1,222.7z"/>
<path id="XMLID_16420_" class="st1" d="M466.7,220l0.7-0.3l-0.6-0.9c-0.1-0.3-0.3-0.6-0.4-0.9c0,0,0,0-0.1,0c0,0,0,0,0,0
	c-0.1,0-0.5,1.2-0.6,1.3c-0.1,0.4,0.1,0.5,0.2,0.5L466.7,220z"/>
<path id="XMLID_16419_" class="st1" d="M468.5,217.9l0.2-0.5l-0.3-0.4c-0.1,0-0.3,0-0.4,0c0,0.1,0,0.2,0,0.2c0,0.2,0.1,0.5,0.1,0.7
	C468.2,217.9,468.3,217.9,468.5,217.9z"/>
<path id="XMLID_16418_" class="st1" d="M478.8,221c0,0,0.3-0.5-0.3-1.7c-0.1-0.2-0.1-0.2-0.1-2.5c0-1-0.3-1.9-0.3-2.9l0,0
	c0-0.5-1.1-2.5-1.6-2.7c-0.4,0-0.5,1.2-0.6,2c-0.2,0-0.4-0.2-0.6-0.3c0,0,0,0-0.1,0c0.3,0.8,0.9,1.3,1.1,2.1l-0.2,1.1l0,0.7l0.4,0.5
	l-0.2,1.2l0.3,1c0,0.3,0.1,0.6,0.1,1l0,0h0l0,0h0h0h0h0c0,0,0,0,0,0c-0.1,0.2,0.9,1.6,0.9,1.7c0.2-0.3,0-0.9,0-1.3
	c-0.1-0.4,0-0.5,0-0.5C478,220,478.3,221,478.8,221z"/>
<path id="XMLID_16417_" class="st1" d="M474.6,205.9c0,0.2,0,0.2,0.4,0.9c0,0.3,0.1,0.5,0.1,0.8c0.1,0.4,0.7,1.7,0.8,1.8
	c0.2,0.2,0.3,0,0.3-0.3l0.4-0.1l0-1.1l0-0.9c0-0.5-0.3-0.8-0.5-1.3c-0.1-0.2-0.1-0.4-0.2-0.6c-0.3-0.8-0.4-1.7-0.7-2.5
	c-0.1-0.2-0.1-0.2-0.2-0.2c0,0.1,0,0.2,0,0.3c0,0.1,0.4,1.4,0.2,1.5c-0.1,0-0.2-0.1-0.3-0.2c-0.2,0-0.2,0.1-0.2,0.1
	c-0.1,0.2,0.2,0.3,0.2,0.5c-0.1,0.3-0.3,0.6-0.3,1C474.6,205.8,474.6,205.9,474.6,205.9z"/>
<path id="XMLID_16416_" class="st1" d="M489,226.6c0-0.5-0.2-0.9-0.4-1c0,0-0.4,0.2-0.6,0.6c-0.1,0.3-0.2,0.2-0.5-0.1
	c-0.5-0.5-0.5-0.5-0.6-0.4c0,0-0.1,0-0.1,0.4c0,0.3,0,0.4,0,0.5c-0.1,0.4-0.3,0.3-1-0.1c-0.2-0.2-0.4-0.3-0.5-0.3
	c-0.4,0-1.1,0.6-0.2,2.2c0,0,0.7,0.9,1.1,1.4c0.4,0.4,0.4,1,0.8,1.3c0.4,0.3,0.7-0.3,1.1-0.1c0.4,0.3,0.2,0.9,0.5,1.2
	c0.1,0.1,0.6,0.3,0.6,0c0-1-0.2-1.9-0.3-2.8c-0.1-0.6-0.1-1.4-0.1-1.5C488.9,227.5,489,226.9,489,226.6z"/>
<path id="XMLID_16415_" class="st1" d="M488.9,236C488.9,236,488.9,236,488.9,236c0,0.1,0.1,0.8,0.6,1.2c0.2,0.2,0.2,0,0.2-0.2
	c0-0.3-0.1-0.7-0.1-1.1C489.1,236,489.1,236,488.9,236z"/>
<path id="XMLID_16414_" class="st1" d="M500.9,238.8c0,0.1,0.2,0.4,0.7,0.6c0.2,0.1,0.3,0.1,0.4,0.5c0.1,0.1,0.3,0.2,0.4,0.3
	c0.1-0.1,0-0.3,0.1-0.4c0,0,0.1-0.1,0.4-0.1c0.1,0,0.2,0.1,0.3,0c0,0,0.1-0.1,0.1-0.1c0.1,0,0.1,0.1,0.2,0c0,0,0,0,0-0.2
	c0-0.7-0.3-1.1-0.3-1.1c-0.1-0.1-0.1-0.2-0.2-0.2c0,0,0,0,0,0c-0.1,0.1-0.2,0.1-0.2,0.1c-0.2-0.5-0.3-0.7-0.4-0.8
	c0,0-0.1,0.1-0.1,0.2c-0.1,0.4-0.2,0.6-0.3,0.6c-0.1,0-0.1,0-0.4-0.4c0-0.1-0.1-0.1-0.1-0.1c-0.2-0.1-0.4,0-0.4,0.1
	C501.1,238,500.8,238.5,500.9,238.8z"/>
<path id="XMLID_16413_" class="st1" d="M508.6,238.5c-0.1,0.1,0.1,2.4,0.1,2.4c0,0.1,0.1,0.2,0.1,0.2c0,0,0,0,0.2-0.1
	c0.1-0.1,0.1,0.1,0.2,0.1c0-0.3,0.4-0.5,0.4-0.8c0.1-0.5-0.1-0.9-0.1-1.3c0-0.3,0.1-1.4,0.1-1.4v0c0,0,0-1-0.2-1.2
	c-0.2,0.1-0.1,0.3-0.1,0.5c0,0.1-0.1,0.3-0.1,0.4c0,0-0.1,0.3-0.2,0.4c-0.1-0.2-0.1-0.2-0.2-0.2c-0.1,0.1-0.1,0.1,0,0.4
	c0,1,0,1.1-0.1,1.2C508.7,238.8,508.7,238.6,508.6,238.5z"/>
<path id="XMLID_16412_" class="st1" d="M505,234.7c0,0-0.1-1.3-0.3-1.4c0,0-0.1,0.2-0.2,0.8c-0.1,1.6,0,1.6,0.1,1.7
	C505,236.1,505.1,235.4,505,234.7z"/>
<path id="XMLID_16411_" class="st1" d="M504.3,237c0,0.6,0.1,1.1,0.1,1.7c0.1,0.1,0.1,0.2,0.1,0.2c0,0,0.1,0,0-0.3l0,0
	c0-1-0.3-2.4-0.4-2.5C504.2,236.1,504.2,236.7,504.3,237z"/>
<path id="XMLID_16410_" class="st1" d="M501.5,228.2c0-0.3-0.1-1-0.3-1.1c-0.2,0.1,0.2,1.6,0.2,1.7
	C501.5,228.8,501.6,228.6,501.5,228.2z"/>
<path id="XMLID_16409_" class="st1" d="M499.8,233.8C499.8,233.8,499.8,233.8,499.8,233.8c-0.1,0-0.1,0,0,1.2c0,0.4,0.1,0.6,0.2,0.6
	c0,0,0-0.2,0-0.7c0-0.5,0-0.5,0-0.9C499.9,233.9,499.9,233.8,499.8,233.8z"/>
<path id="XMLID_16408_" class="st1" d="M499.6,216.1l0.1,1.1l0.3,0.3c0-0.2-0.1-0.5-0.1-0.7l0-0.7
	C499.8,216.1,499.7,216.1,499.6,216.1z"/>
<path id="XMLID_16407_" class="st1" d="M499.1,222.1C499.1,222.1,499,222.1,499.1,222.1c0,0-0.1,0.2,0,0.5c0.2,0.6,0.6,1.2,0.8,1.8
	c0.1,0.4,0.1,0.9,0.3,1.3c0,0,0.3,0.9,0.5,0.9c0.1-0.2,0.1-0.2,0.1-0.2c0-0.1-0.4-0.9-0.5-1.2c-0.1-0.1-0.2-0.3-0.3-1.3
	c-0.1-0.2-0.1-0.6-0.2-0.8c-0.2-0.3-0.2-0.5-0.2-0.5L499.1,222.1z"/>
<path id="XMLID_16406_" class="st1" d="M500.1,222.3c0.3,0.6,0.3,0.6,0.3,0.6c0,0,0,0,0-0.1c0-0.1,0-0.2,0-0.3
	c0-0.1-0.1-0.2-0.1-0.3c-0.1-0.1-0.1-0.3-0.1-0.4c0,0,0-0.1,0-0.1c0,0-0.2-0.4-0.2-0.5c0,0,0,0.1,0,0.2L500.1,222.3z"/>
<path id="XMLID_16405_" class="st1" d="M502.5,229.1c0,0,0-0.1,0-0.1c0,0,0-0.1,0-0.1c0-0.1,0-0.2-0.1-0.3l-0.1,0.3l0.1,0.4
	C502.5,229.1,502.5,229.1,502.5,229.1z"/>
<polygon id="XMLID_16404_" class="st1" points="428.4,137.4 428.4,137.4 428.4,137.4 "/>
<rect id="XMLID_16403_" x="428.4" y="137.4" class="st1" width="0" height="0"/>
<path id="XMLID_16402_" class="st1" d="M427.2,131.8c-0.1,0.2-0.2,0.4-0.3,0.5l0.6,1.2l0,0.9l0.5,0.7l0,0.5l0.5,0.8l-0.1,0.9l0,0
	c0,0,0,0,0,0c0,0,0,0,0,0c0,0,0,0,0,0c0,0,0,0,0,0c0,0,0,0,0,0.1c0,0,0,0,0,0.1c0,0,0,0.1,0,0.1c0.2,0.5,0.3,0.7,0.7,0.7
	c0.1-0.2,0.1-0.2,0.4-0.7c0.1,0,0.1,0.1,0.2,0.1c-0.2,0.4-0.5,0.7-0.6,1.1c1.4,2.1,1.4,2.1,1.7,4.2c0.1,0,0.1,0.1,0.2,0.1
	c0-0.6,0-1,0.5-1.5c0.1,0,0.2,0.1,0.2,0.1c0.3,1.3,1.1,2.4,1.4,3.7c-0.1,0-0.2,0-0.2,0.1c0,0.1,0.5,1.5,0.9,1.9
	c0.8-0.4,0.8-0.4,1.6,0c0.1,0,0.1-0.1,0.2-0.1c0.1-0.8,0.1-0.9,0.5-0.9c0-0.1,0-0.2,0-0.2c0.1,0.2,0.2,0.4,0.3,0.6
	c-0.8,1.1,1.3,3.6,1.9,3.5c0.1,0,0.1-0.1,0.2-0.1c0.5,0.4,0.8,2.7,0.8,2.7c0,0.5,0,0.5,0.9,1.8c-0.2,0.3-0.2,0.3-0.6,0.3
	c-0.5-0.6-0.5-0.6-0.7-0.7c-0.2,0.1-0.2,0.1-1.4-0.1c-0.1,0.1-0.7,1.3,0,2.3c2,2.8,2.3,3.1,0.2,4c0.5,2.6,2.2,1.7,2.2,1.7
	c1.2,0.8,1.2,0.8,2.1,1.2c0.6-0.3,0.6-1.1,1.2-1.4c0.5,0.4,0.8,2.6-0.9,2.9c-0.4,0.1-0.8,0-1.3,0c0,0.2,0.1,0.4,0.2,0.5
	c-1.1,3.6-1.6,5.4-1.8,5.6c0,0.1,0.1,0.2,0.1,0.3c0.4,0.1,0.4,0.1,0.7,0.1c2-2.1,2-2.1,2.9-1.5c0.4-1.2,0-1.6-0.3-1.9
	c1.5-0.4,1.5-0.4,3.1,0.1c0.5-0.3,0.3-1,0.7-1.3c2.5,0.5,2.5,0.5,4.2-0.9c0,0,0,0,0,0c0,0,0,0,0,0c0,0,0,0,0,0c0,0,0,0,0,0
	c0,0,0,0,0,0c0,0,0,0,0,0c0,0,0,0,0,0c0,0,0,0,0,0c0.1-0.1,0.4-0.3,0.4-2.4c-0.2-0.2-0.2-0.2-1.5,0.2c-1.2-1.4,0.1-2.9,0.2-2.9
	c0.2-0.6,0.2-1.1,0.2-1.1v0c0,0-1.1-3.7-2.9-4.4c-0.3,0.1-0.5,0.2-0.6,1c-0.3-0.2-0.7-0.4-1-0.5l-2.4-4.9l-2.9-3.4
	c-0.3-0.2-0.7-0.1-1-0.4c-0.9-1.2-1.4-2.7-2.4-3.8c0-0.1,0-0.1,0-0.2c0,0-0.7-0.8-3.1-1.8c0-0.1,0.1-0.3,0.2-0.4
	c0.1,0,0.3,0.1,0.4,0.2c0-0.1,0-0.1-1.4-1.6c0-0.1,0-0.2,0.1-0.3c2.2-0.8,0.4-5.2,0.3-5.2c-0.1,0-0.1-0.1-3.1-1
	c-0.3,0.3-0.5,0.7-0.7,1c-0.5-0.8-0.7-1.4-0.6-1.8c0.1,0,0.2,0,0.2,0c0.1-0.3,0.1-0.3,0.4-0.6c0-0.6-0.1-1.6-1.2-2.9
	c-0.8,0.8-0.8,0.8-0.9,0.8c-0.7,0-1-0.7-1.6-0.8C426.3,129,426.3,129,427.2,131.8z"/>
<path id="XMLID_16401_" class="st1" d="M429.7,142.4c0,0.1,0.1,0.1,0.1,0.3c0,0.1,0,0.2,0,0.2c0,0,0.4,0,0.3-0.4
	c-0.1-0.1-0.1-0.3-0.2-0.4c0-0.2-0.1-0.3-0.1-0.5c-0.1-0.3-0.2-0.3-0.3-0.3l-0.1,0.4l-0.1,0.3c0,0.1,0.1,0.2,0.1,0.4
	C429.5,142.4,429.6,142.4,429.7,142.4z"/>
<path id="XMLID_16400_" class="st1" d="M430.2,141.2c-0.1-0.2-0.1-0.3-0.2-0.5l0,0.5c0,0.1,0,0.2,0,0.2c0.1,0.2,0.2,0.4,0.2,0.4
	C430.3,142,430.2,141.2,430.2,141.2z"/>
<path id="XMLID_16399_" class="st1" d="M431.8,142.9c0,0,0,0,0,0.1l0.1,0.6c0.4,0.4,0.4,0.4,0.5,0.5c0.1,0.1,0-0.4,0-0.4
	S432,143,431.8,142.9z"/>
<path id="XMLID_16398_" class="st1" d="M429.2,139.2l-0.4-0.6l-0.3-0.4l0.1,0.5c0,0.1,0.1,0.2,0.1,0.3l0,0.3
	c0.1,0.2,0.1,0.3,0.2,0.5c0.1,0,0.2,0,0.4,0l0.2-0.1L429.2,139.2z"/>
<path id="XMLID_16397_" class="st1" d="M425.8,133.9c0,0.1,0,0.1,0.1,0.2c0.1,0.1,0.2,0.2,0.2,0.3c0,0,0,0,0,0c0,0,0,0,0,0.1
	c0.1,0.1,0.1,0.1,0.1,0h0c0,0,0,0,0,0h0c0,0,0,0,0,0h0h0h0c0,0,0,0,0,0l0.4,0.2c0.5,0.7,0.5,0.7,0.5,0.7c0.2,0.2,0.5,0.1,0.5,0.1
	c0,0,0,0,0,0c0-0.1-0.1-0.2-0.2-0.3l-0.5-0.6l-0.3-0.5l-0.6-1c0.1,0.2,0.2,0.6,0.3,0.8c0,0,0,0-0.1,0c-0.1-0.1-0.1-0.2-0.2-0.2
	c-0.1-0.1-0.2-0.2-0.3-0.3l0,0c0,0.1,0,0.1,0,0.2C425.8,133.9,425.8,133.9,425.8,133.9z"/>
<path id="XMLID_16396_" class="st1" d="M424.9,129.7c-0.2,0.1-0.4,0.6-0.4,0.8c-0.1,0.3-0.1,0.3-0.2,0.4l-0.2,0.3l0.2,0.7l0.3,0.2
	c0.1,0.6,0.2,0.6,0.3,0.6c0.2,0.1,0.4,0,0.4-0.2c-0.1-0.4-0.5-0.5-0.7-0.8c0,0,0.1,0,0.4,0.1c0.3,0.1,0.3,0.1,0.3-0.1
	c-0.1-0.2-0.2-0.4-0.2-0.6l0.2-0.4c-0.1-0.2-0.2-0.4-0.2-0.6C424.9,130,425,129.8,424.9,129.7C425,129.7,424.9,129.7,424.9,129.7z"
	/>
<path id="XMLID_16395_" class="st1" d="M424.8,133.8C424.8,133.8,424.8,133.8,424.8,133.8c0.1,0,0-0.4,0-0.5c0,0,0,0,0,0l-0.2-0.3
	c-0.1,0.1-0.2,0.1-0.3,0.2C424.3,133.3,424.6,133.7,424.8,133.8z"/>
<polygon id="XMLID_16394_" class="st1" points="424.9,134.1 424.9,134.5 425.1,134.6 425.1,134.5 "/>
<polygon id="XMLID_16393_" class="st1" points="425.1,134.6 425.1,134.6 425.1,134.6 "/>
<path id="XMLID_16392_" class="st1" d="M425.6,135.9c0-0.1-0.2-0.3-0.2-0.4l-0.3-0.3c0.1,0.3,0.2,0.5,0.3,0.8c0,0.1,0.2,0.3,0.2,0.3
	C425.8,136.4,425.6,136,425.6,135.9L425.6,135.9z"/>
<path id="XMLID_16391_" class="st1" d="M429.3,127.7c-0.1-0.1-0.1-0.3-0.2-0.4c-0.1-0.1-0.3-0.3-0.4-0.4c0,0-0.1,0-0.1-0.1
	c0,0,0,0-0.1,0c0,0-0.1,0-0.1,0c0,0,0,0,0,0c0,0-0.1-0.1-0.2-0.3c0,0-0.1-0.1-0.1-0.1c0,0,0.4,0.9,0.8,1.3
	C429,127.7,429.1,127.7,429.3,127.7z"/>
<path id="XMLID_16390_" class="st1" d="M424.4,149c-1.3-0.1,1.5,3.5,1.6,3.5c0.5,0.5,0.8,0.9-0.2,2.4c2.8,1.6,2.8,1.6,2.2,2.6
	c0,0-1.2,1.9-0.7,3.2c0.1,0.2,0.1,0.2,1.6,1.2c0.5,0.3,0.6,0.9,1.1,1.3c0.1,0.1,0.1,0.1,0.2,0.2c0.1,0.1,0.3,0.1,0.4,0.2
	c1.4-1.1-1.1-4.3,0.9-4c1,0.1,1.6-0.2,2.1-0.5c0.6-0.4,0.6-0.4,1.2-0.1c0,0,0.1,0,0.1,0c0-0.2,0-0.2,0-0.5c-0.1-0.8-0.6-1.4-0.7-2.2
	c-0.1-0.9,0.1-1.8-0.2-2.6c-0.3-0.9-0.3-0.9,0-1.7c0.1-0.4-0.4-0.6-0.4-0.9c0-0.4,0.1-0.8,0-1.2c0,0-0.5-2.2-2.2-3.9l-1.6-0.5
	l-0.2-0.5l-0.3-0.4l-0.5-0.2l-0.3,0.3c-0.1,0.1-0.1,0.3-0.2,0.5c-0.4-0.7-1,0.3-1,0.3l-0.2,0.6c0.1,0.2,0.2,0.4,0.3,0.5
	c-0.1,0.1-0.2,0.1-0.3,0.2c0,0,0,0.1,0,0.1c0.2,0.3,0.6,0.5,0.8,0.7C427,149.2,426.6,149.2,424.4,149z"/>
<path id="XMLID_16389_" class="st1" d="M380.4,99.1C380.3,99.2,380.3,99.2,380.4,99.1c0.1,1.8,2.6,3.1,2.7,3.1c0,0,0-0.1,0-0.1
	c-0.3-0.6-0.2-0.6,0.7-0.7c0,0,0-0.1,0.1-0.1c-0.3-0.2-0.3-0.2-0.4-0.3c0.9-0.1,0.9-0.1,2.1,0.8c0.5,0.4,0.5,0.4,1.9,0.5
	c0.6,0.1,0.7,0.8,1.2,1c0.3,0.1,0.6,0.1,0.8,0.1c0.2,0,0.5,0.1,0.6-0.1c0.2-0.2,0-0.6,0.2-0.8c0.1,0,0.1,0,0.7,0.5l0.5-1.2
	c0,0,0-0.1,0-0.2c0-0.4-0.5-0.3-0.6-0.6c0-0.1,0.2-0.1,0.2-0.2c0.8-0.2,1.4,0,1.6,0.1c0.7,0.2,0.9-0.7,1.5-0.7
	c0.3-0.4,0-1.4,0.7-1.3c0,0,0.1-0.1,0.1-0.1c0-0.4,0.3-0.6,0.3-1c-0.1-0.7-0.2-0.9-0.7-1.5c0.5,0.1,0.5,0.1,0.6,0.1
	c0.1-0.1,0.2-0.4-0.5-1.6c-0.4-0.7-0.4-0.7-0.5-2.1c0-0.4-0.4-0.5-0.7-0.6c-1.6-0.5-2.3-1.8-2.4-1.9l-0.6-1.1
	c-1.8-1.4-1.8-0.9-1.8-0.3c0,0,0,0.7-0.4,0.5c-0.4-0.2-0.3-0.7-0.5-0.9c-0.3-0.3-1.3,0.2-1.5,0.4c-0.3,0.6,0.6,0.9,0.5,1.4
	c-0.7,0.1-1.1-0.6-1.8-0.5c0,0.4,0.6,0.8,0.1,1.2c-0.2-0.1-1-1.2-1.1-1.3c-0.2-0.2-0.7-1-1.2-1c-0.3,0-1,0.5-0.5,1
	c0.6,0.7,0.7,1.2,0.6,1.3c0,0-0.9,1.1-1.6-1.8c-0.9,0.3-0.5,1.5-0.4,1.7c0.3,0.6,0.5,1.5,0.5,1.5l-0.6,1.3c0,0-0.1,0-0.1,0
	c-0.1-0.1-0.2-0.2-0.4-0.9c-0.3-1.1-0.6-1.8-1.1-2.5c0,0-2.2-2.8-2.8-2.9c-0.9,0.3-0.4,1.3,0,2c-0.5,0.6-1.4-0.5-1.7,0.3
	c-0.3,0.7,0.6,0.9,0.7,1.4c0.1,0.5-0.8,0.2-0.8,0.6c0,0.3,0.3,0.4,0.4,0.7c0.4,0.2,1,0.1,1,0.1c0.4-0.1,0.6-0.6,1-0.6
	c0.4-0.1,0.5,0.5,0.9,0.4c0,0,0,0,0.3-0.4c0.3,0,0.7,0.5,0.9,0.7c0,0.2-0.2,0.5-0.1,0.7c0.1,0.4,0.4,0.5,0.6,0.9
	c-0.3,0.4-0.5,0.4-1.1,0.2c-0.9-0.3-1.6,0.3-1.6,0.3c0.1,0.2,0.2,0.5,0.4,0.7c2.9,1.2,2.9,1.2,3.3,1.1c0.1,0,0.2,0,0.2,0l1.9,1.6
	c0.2,0.3-0.1,0.5-0.1,0.7c-0.2,0.2-0.5,0-0.7,0.2c0,0.3,0.2,0.4,0.4,0.5C381.7,99.5,381.7,99.5,380.4,99.1z"/>
<path id="XMLID_16388_" class="st1" d="M457.7,143.4c0,0.2-0.1,0.4-0.1,0.6c0,0.1,0.5,1,0.5,1c0.2,0.4,0.8,0.9,1.1,1
	c0.2,0.1,0.4,0.2,0.1-0.6c-0.1-0.2-0.2-0.5-1.1-1.7L457.7,143.4z"/>
<path id="XMLID_16387_" class="st1" d="M461.1,146.4l-0.2,0.3l-0.5-0.3l0.1,0.5c0.3,0.4,0.3,0.4,0.3,0.4c0.1,0.1,0.2,0,0.3-0.1
	c0.1,0,0.1,0,0.2,0l0.5,0.2c0,0,0.1,0,0.1,0.1c0,0,0,0,0,0c0.1,0,0.2-0.1,0.1-0.4C461.9,146.9,461.4,146.4,461.1,146.4
	C461.1,146.3,461.1,146.3,461.1,146.4z"/>
<path id="XMLID_16386_" class="st1" d="M459.2,142.3c0,0-0.3-0.8-0.5-0.8c0,0,0,0,0,0c-0.1,0.1,0.1,1.1,0.1,1.1
	c0.1,0.3,0.3,0.4,0.4,0.7c0,0,0.6,1.4,0.7,1.5c0,0,0,0.1,0.1,0.1c0,0,0,0.1,0.1,0.1c0.2,0.1,0.2-0.2,0.4-0.2c0.1,0,0.1,0.1,0.2,0.1
	c0.5,1,0.9,0.9,0.9,0.9c-0.1-0.2-0.2-0.5-0.3-0.7c0-0.1,0-0.2,0-0.3c0.2-0.3,0-0.6,0-0.6c-0.1-0.2-0.4-0.3-0.5-0.6
	c-0.1-0.1,0-0.3,0-0.3c0.1-0.2,0.1-0.2,0-0.4c0,0-0.8-1.9-1.6-2c-0.2,0-0.2,0.1,0.2,0.6c0.7,1,0.7,1.4,0.7,1.5
	C459.8,143,459.6,143,459.2,142.3z"/>
<path id="XMLID_16385_" class="st1" d="M464,147.6C464,147.5,464,147.5,464,147.6c-0.1-0.1-0.2-0.2-0.2-0.2c-0.1,0-0.3,0.1-0.2,0.2
	c0.1,0.2,0.2,0.4,0.3,0.6c0,0-0.1,0.1-0.1,0.2c0,0.1,0.1,0.1,0.2,0.2c0,0,0.1,0.1,0.1,0.1l0,0c0,0,0.1,0,0.1,0c0.1,0,0.3,0,0.4,0
	l-0.4-0.7C464.2,147.9,464.1,147.7,464,147.6z"/>
<polygon id="XMLID_16384_" class="st1" points="465.6,146 465.6,146 465.6,146 "/>
<path id="XMLID_16383_" class="st1" d="M465,145.6l0.5,0.4l-0.2-0.6c-0.8-1.2-0.8-1.2-1-1.2C464.2,144.2,464.7,145.3,465,145.6z"/>
<path id="XMLID_16382_" class="st1" d="M463.7,134.4c0.2,0.5,0.7,0.9,1,1.4c0.1,0.2-0.1,0.4,0.1,0.6c0,0,0,0,0.1,0.1
	c0,0,0.6,0.2,0.5-0.1c0-0.1,0-0.2-0.2-0.4c-0.2-0.4-0.4-0.8-0.6-1.2c-0.1-0.2-0.1-0.3-0.2-0.5c0,0,0-0.1-0.1-0.1
	c-0.2-0.3-0.2-0.3-0.2-0.4c0-0.1,0-0.1,0-0.1c0-0.1,0.2-0.2,0-0.5c-0.1-0.2-0.2-0.3-0.2-0.3c-0.1,0-0.1,0-0.1,0.1
	c-0.1,0-0.2,0-0.3,0c0.3,1,0.3,1,0.3,1.1C463.7,134.2,463.6,134.3,463.7,134.4z"/>
<path id="XMLID_16381_" class="st1" d="M464,132.4C464,132.4,464,132.3,464,132.4c0.1,0,0.2,0,0.3,0c0,0,0,0,0,0c0,0,0-0.1-0.1-0.4
	c0,0,0-0.1,0-0.1l-0.6-0.2C463.7,131.9,463.8,132.1,464,132.4C463.9,132.4,463.9,132.4,464,132.4C463.9,132.4,464,132.4,464,132.4z"
	/>
<path id="XMLID_16380_" class="st1" d="M465.6,128.7c0.1,0,0.1-0.2,0.1-0.3c0,0,0-0.1,0-0.1l0,0c0,0-0.2-0.7-0.6-0.7
	c0,0-0.1,0-0.2,0.1c-0.1,0.1,0,0.1-0.1,0.2c0,0-0.1,0-0.1,0.1c0,0,0,0.1,0,0.1c0,0.1,0.1,0.1,0.1,0.2c0,0.1,0,0.1,0,0.2
	c0,0.1,0,0.1,0.1,0.2c0.2,0.4,0.5,0.7,0.7,1.1c0.1,0.3,0.3,0.5,0.4,0.8c0,0,0,0,0,0c0.2,0.1,0.2-0.1,0.2-0.1c-0.1-0.6-0.5-1-0.6-1.5
	C465.5,128.8,465.6,128.8,465.6,128.7z"/>
<path id="XMLID_16379_" class="st1" d="M464.2,126.1C464.1,126,464.1,126,464.2,126.1C464.1,126,464.1,126,464.2,126.1L464.2,126.1
	c0,0-0.1,0.1-0.2-0.1c-0.1-0.1-0.3-0.3-0.4-0.4c0,0,0,0-0.1-0.1l0.1,0.5c0.1,0.2,0.2,0.4,0.3,0.6c0.1,0,0.1,0,0.2,0
	c0.1,0,0.1,0,0.2,0C464.2,126.4,464.2,126.1,464.2,126.1L464.2,126.1z"/>
<path id="XMLID_16378_" class="st1" d="M456.5,119.1c0,0.1,0.1,0.4,0.2,0.5c0,0,0,0,0.1,0c0.1,0,0.1-0.1,0.1-0.1
	c0.1-0.1,0.2,0,0.2,0.1c0.2,0.2,0.3,0.4,0.4,0.6c0.3,0.4,0.4,0.1,0.4,0.1c-0.1-0.1-0.3-0.3-0.4-0.4c-0.1-0.2-0.1-0.4-0.2-0.7l0,0
	c-0.1-0.2-0.2-0.3-0.3-0.4c0,0-0.6-0.5-0.7-0.5c0,0,0,0,0,0c0,0,0,0.1,0.2,0.4c0,0.1,0.1,0.2,0.1,0.3
	C456.5,118.9,456.4,118.9,456.5,119.1z"/>
<path id="XMLID_16377_" class="st1" d="M420.2,76.3c-0.5-0.5-0.6-0.6-0.7-0.6c0,0,0,0,0,0c0,0,0.5,0.8,1,1.4
	c1.4,1.7,1.5,1.8,1.6,1.8c0-0.2-0.2-0.5-0.2-0.5c-0.2-0.8-0.2-1-1-1.9c-0.3-0.3-0.5-0.5-0.6-0.5c0,0,0,0,0,0c0,0,0,0.1,0.3,0.5
	c0.3,0.4,0.4,0.6,0.3,0.7C420.9,77.1,420.9,77.1,420.2,76.3z"/>
<path id="XMLID_16376_" class="st1" d="M421,78.2L421,78.2C421,78.3,421,78.3,421,78.2c0,0.1,0,0.2,0,0.2c0,0.1,0,0.2,0,0.3
	c0,0,0,0,0,0c0,0,0.1,0,0.1,0.1c0,0,0.1,0.1,0.1,0.1c0,0,0,0,0,0c0,0,0.1,0.1,0.1,0.1c0,0,0.1,0.1,0.1,0.1c0.1,0-0.1-0.2-0.4-0.6
	C421.1,78.4,421,78.2,421,78.2z"/>
<path id="XMLID_16375_" class="st1" d="M421.7,80c0-0.1,0-0.3-0.1-0.4c0,0-0.3-0.4-0.5-0.4c0,0,0,0,0,0c-0.1,0.1,0,0.2,0,0.2
	c0,0,0,0,0,0c0.1,0.1,0.1,0.1,0.2,0.2c0.1,0.1,0.2,0.2,0.2,0.3c0,0,0.1,0.1,0.2,0.1h0h0h0h0h0h0h0h0L421.7,80L421.7,80z"/>
<polygon id="XMLID_16374_" class="st1" points="421.8,81.3 421.8,81.3 421.8,81.3 "/>
<path id="XMLID_16373_" class="st1" d="M421.3,80.5c-0.1-0.1-0.2-0.2-0.3-0.4l0.1,0.4c0.1,0.2,0.3,0.3,0.4,0.5l0.3,0.3l0.1-0.2
	L421.3,80.5z"/>
<path id="XMLID_16372_" class="st1" d="M421.4,80.3c0.1,0,0.1,0,0.2,0c-0.1-0.1-0.2-0.3-0.3-0.4l-0.3-0.1
	C421.1,80,421.3,80.2,421.4,80.3z"/>
<path id="XMLID_16371_" class="st1" d="M422.9,82.5c-0.1-0.1-0.2-0.2-0.3-0.3c-0.1,0-0.1-0.1-0.2-0.1c0,0-0.1-0.1-0.2-0.1l0,0
	c0,0,0,0,0.1,0.1c0.1,0.1,0.2,0.3,0.4,0.4C422.8,82.5,422.8,82.5,422.9,82.5z"/>
<path id="XMLID_16370_" class="st1" d="M419.3,75.8c0,0-0.1-0.1-0.1-0.1l0,0c0,0,0.1,0.3,0.1,0.3c0,0.1,0.1,0.2,0.1,0.2l-0.6-0.4
	c0.1,0.2,0.2,0.4,0.3,0.7c0,0,0,0,0,0.1c0.2,0.2,0.4,0.2,0.4,0.1c0.1,0.1,0.2,0.2,0.2,0.3l0.2,0.1c-0.1-0.2-0.2-0.3-0.2-0.5
	c0,0,0-0.1-0.1-0.1C419.7,76.4,419.3,75.8,419.3,75.8L419.3,75.8z"/>
<path id="XMLID_16369_" class="st1" d="M419.1,75l-0.5-0.5c-0.2-0.3-0.4-0.6-0.6-0.9c0,0,0,0-0.1,0l0,0l0,0c0,0.2,0.7,1.6,0.9,1.5
	c0.1,0.2,0.4,0.5,0.5,0.5c0,0,0,0,0,0L419.1,75z"/>
<path id="XMLID_16368_" class="st1" d="M418.1,72.5c-0.1-0.1-0.5-0.5-0.7-0.5l0,0c0,0,0,0,0.4,0.6c0.5,0.7,0.5,0.7,0.6,0.7l0,0
	c0,0,0,0,0,0c-0.2,0.1,0.3,0.6,0.6,0.8c0.1-0.4,0.1-0.4,0.1-0.5C418.8,73.1,418.4,72.9,418.1,72.5z"/>
<path id="XMLID_16367_" class="st1" d="M419.4,74.7c0,0,0,0.1,0.1,0.2l0.4,0.4c0.1,0.1,0.2,0.1,0.4,0.2c-0.1-0.2-0.2-0.3-0.2-0.4
	C419.9,74.9,419.5,74.7,419.4,74.7z"/>
<path id="XMLID_16366_" class="st1" d="M418.2,71c-0.1-0.2-0.3-0.3-0.5-0.5c-0.1-0.1-0.1-0.2-0.2-0.2c0,0,0,0,0,0
	c0,0-0.2-0.2-0.3-0.2c0,0-0.1,0,0,0.1c0,0.1,0,0.1,0,0.2l0.6,0.5C418.3,71.1,418.3,71.1,418.2,71C418.3,71.1,418.3,71.1,418.2,71z"
	/>
<path id="XMLID_16365_" class="st1" d="M416.2,69c0,0,0,0,0.1,0.2c0,0.1,0,0.1,0,0.2c0,0,0,0,0,0c0,0,0,0.1,0,0.1
	c0.1,0.2,0.4,0.3,0.4,0.3C416.8,69.9,416.4,69.3,416.2,69C416.2,69.1,416.2,69,416.2,69z"/>
<path id="XMLID_16364_" class="st1" d="M416.2,68.6c0,0-0.1,0,0.1,0.2c0.2,0.2,1.1,1,1.1,1c0,0,0.1,0.1,0.4,0.1c0.1,0,0.1,0,0-0.1
	c-0.1-0.1-0.4-0.4-0.5-0.5C416.4,68.6,416.4,68.6,416.2,68.6C416.3,68.6,416.3,68.6,416.2,68.6z"/>
<path id="XMLID_16363_" class="st1" d="M417.2,69c0.1,0.1,0.3,0.3,0.4,0.4c0.2,0.1,0.4,0.2,0.5,0.3c0.2,0.1,0.2,0.1,0.2,0.1
	c0,0,0-0.1-0.1-0.1c-0.1-0.1-1-1-1.2-1C417.1,68.8,417.1,68.9,417.2,69z"/>
<path id="XMLID_16362_" class="st1" d="M417.4,67.6l0.2,0.2c0.2,0.1,0.4,0.2,0.6,0.4c0,0,0.1,0.2,0.2,0.2c0,0,0-0.2-0.3-0.4
	c-0.2-0.2-0.4-0.4-0.4-0.4C417.6,67.5,417.5,67.5,417.4,67.6C417.5,67.5,417.4,67.5,417.4,67.6z"/>
<path id="XMLID_16361_" class="st1" d="M415.9,66.1L415.9,66.1L415.9,66.1C415.9,66.1,415.9,66.1,415.9,66.1
	C415.8,66.1,415.8,66.1,415.9,66.1c-0.1,0-0.1,0-0.1,0c0,0,0,0,0,0c0,0,0,0,0,0c0,0,0,0-0.1,0c0,0.1,0.2,0.4,0.2,0.4
	c0-0.1,0-0.1,0-0.2c0,0,0-0.1,0-0.1c0.1,0,0.3,0.2,0.4,0.3c0.1,0.1,0.4,0.4,0.5,0.4c0.1,0,0-0.1,0-0.1c0,0-0.1-0.1-0.1-0.2
	c-0.1-0.1-0.2-0.2-0.3-0.4c-0.1-0.2-0.2-0.5-0.4-0.8c0,0,0,0-0.1-0.1l0,0c0,0.1,0,0.1,0,0.2c0,0,0,0.1,0,0.1c0,0,0,0,0,0
	c0.1,0.1,0.2,0.2,0.3,0.4L415.9,66.1L415.9,66.1z"/>
<path id="XMLID_16360_" class="st1" d="M417.2,66.8L417.2,66.8c-0.1-0.1-0.1-0.1-0.1-0.1c-0.1,0-0.1,0,0.1,0.3
	c0.1,0.1,0.3,0.3,0.4,0.4c0.1,0.1,0.3,0.2,0.4,0.3c0,0,0-0.1-0.1-0.2C417.8,67.5,417.2,66.8,417.2,66.8z"/>
<path id="XMLID_16359_" class="st1" d="M415.5,64.5L415.5,64.5l-0.3-0.4c0,0-0.1,0.1-0.1,0.1C415.3,64.6,415.5,64.5,415.5,64.5z"/>
<path id="XMLID_16358_" class="st1" d="M415.7,63.8l-0.2-0.3l-0.2-0.2c-0.1,0-0.1,0-0.2,0c0,0,0,0,0,0.1l0.5,0.4
	C415.5,63.8,415.6,63.8,415.7,63.8z"/>
<path id="XMLID_16357_" class="st1" d="M415.3,63.9c-0.1-0.1-0.1-0.1-0.4-0.2l0.1,0.1L415.3,63.9L415.3,63.9z"/>
<path id="XMLID_16356_" class="st1" d="M433.4,70.8c-2.2-2.1-2.7-2.4-2.7-2.4c0,0,0,0,0.3,0.3c1,0.9,2,1.9,2.9,2.8l0.5,0.5
	c0.6,0.6,0.6,0.6,0.6,0.6h0h0h0h0h0h0h0l0,0C435,72.5,435,72.5,433.4,70.8c0.1,0.1,0.2,0.3,0.4,0.4
	C433.6,71.1,433.6,71.1,433.4,70.8z"/>
<path id="XMLID_16355_" class="st1" d="M419,57.8c0.5,0.4,1,0.8,1.6,1.3C420,58.6,419.4,58.2,419,57.8z"/>
<path id="XMLID_16354_" class="st1" d="M383.9,33.4c2,1.2,3.9,2.3,5.9,3.5C387.8,35.7,385.6,34.4,383.9,33.4z"/>
<path id="XMLID_16353_" class="st1" d="M391.4,38c4,2.5,7.7,5.5,11.8,7.8c-0.1-0.1-0.3-0.2-0.4-0.3c2,1.5,2,1.5,17.2,13.2
	c-0.5-0.4-1.1-0.9-1.6-1.3c0.2,0.1,0.4,0.3,0.6,0.5c-1.4-1.2-2.8-2.3-4.2-3.4c-7.9-6.2-14.3-10.6-16.4-12c-2.8-1.9-5.7-3.7-8.6-5.5
	c0.8,0.5,1.5,1,2.2,1.4C391.8,38.2,391.6,38.1,391.4,38z"/>
<path id="XMLID_16352_" class="st1" d="M420.5,59.1c1,0.8,2,1.7,3,2.5C423.5,61.6,422,60.3,420.5,59.1z"/>
<path id="XMLID_16351_" class="st1" d="M380.7,31.5c1.1,0.6,2.1,1.2,3.2,1.8C382.1,32.3,380.8,31.6,380.7,31.5z"/>
<path id="XMLID_16350_" class="st1" d="M376.6,37.5c-0.2-0.2-0.3-0.2-1.1-0.8l-15.4-10.1c0,0,0-0.1,0.1-0.2
	c-0.1-0.1-0.1-0.1-0.2-0.2c-0.5-0.3-14-6.1-14.1-6.2c0.1,0.1,0.1,0.1,1.1,0.6c2.8,1.3,7.6,3.7,8.2,4.2c-2.4-1-4.5-2.6-7.1-3.3
	c0.9,0.7,2,1,3,1.6c-1.7-0.7-3.2-1.8-4.9-2.3c0,0-0.1,0.1-0.1,0.1c0.6,1,14.1,7.5,14.2,7.5c0,0,0-0.1,0-0.2
	c-0.5-0.7-1.3-0.9-1.9-1.5c1.4,0.3,1.4,0.3,1.4,0.3c1.2,0.7,1.6,2.1,2.9,2.7c0.6,0.2,1.2,0.1,1.8,0.4c0,0,1.7,1,1.8,1.3
	c-0.6-0.2-0.7-0.1-0.9-0.1c0,0,2.1,1.2,2.2,1.3l4,2.1c-0.1-0.1-0.1-0.3-0.1-0.4C376.2,37.5,376.2,37.5,376.6,37.5z"/>
<path id="XMLID_16349_" class="st1" d="M361.1,26.7C361.1,26.7,361.1,26.7,361.1,26.7L361.1,26.7c0,0.1,0.1,0.2,0.3,0.3
	c-0.5-0.2-0.6-0.2-0.6-0.2c0,0.1,1.3,0.8,1.6,0.9c0.1,0,0.9,0.3,0.9,0.3c0.1,0,0.2-0.1-1.2-0.9C361.6,26.8,361.3,26.7,361.1,26.7z"
	/>
<path id="XMLID_16348_" class="st1" d="M365.3,29c1.1,0.5,1.2,0.8,1.2,0.8c0,0-0.1,0-0.1,0c0.5,0.5,1.2,0.7,1.8,1
	c0.4,0.2,0.8,0.6,1.2,0.9c0.2,0.1,0.4,0.2,0.6,0.3c1.5,0.9,1.7,0.8,1.7,0.8c-0.1-0.1-0.1-0.1-0.5-0.4c-0.2-0.1-0.5-0.4-0.3-0.4
	c0.3-0.1,0.4,0.4,0.7,0.3c-0.3-0.3-3-2-3-2l0,0c-0.4-0.2-1.1-0.7-1.5-0.7c0,0.1-0.1,0.1-1.2-0.5c-0.2-0.1-1.6-1-2.1-1.1l0.8,0.8
	C364.7,28.7,364.9,28.8,365.3,29z"/>
<path id="XMLID_16345_" class="st1" d="M345.8,18.9c-0.1,0-0.3,0-0.4-0.1c0.2,0.1,0.4,0.2,0.6,0.3c-1-0.1-1.7-1-2.8-1
	c0,0,4.1,2.2,5.1,2.4c0.4,0.1,0.8,0,1.2,0.2c0.4,0.2,0.6,0.8,1,1c0.1,0,0.2,0,0.2,0c0.4,0,0.7,0.1,2.1,0.8c1.2,0.6,1.9,0.8,1.9,0.8
	c0,0,0,0,0.1,0c-0.5-0.4-1.1-0.7-1.7-1.1c3.4,1.6,3.4,1.6,3.5,1.6c-1.4-0.9-2.8-1.8-4.3-2.6c-3.3-1.7-5.7-2.4-8.2-3.1
	C344.6,18.4,345.2,18.7,345.8,18.9z M348.6,20.3c-0.7-0.2-1.3-0.6-1.9-1C347.4,19.5,348,19.8,348.6,20.3z"/>
<path id="XMLID_16344_" class="st1" d="M363,26.6c-0.1-0.1-0.9-0.6-1.2-0.7l0,0c-0.7-0.4-0.9-0.5-1.4-0.6c0.1,0.1,0.4,0.3,0.8,0.5
	C361.2,25.8,362.9,26.6,363,26.6z"/>
<path id="XMLID_16343_" class="st1" d="M360.3,29.4L360.3,29.4c-0.4-0.3-4.8-2.9-5.8-3c0,0,0,0,0,0c0,0.1,5.9,3.1,5.9,3.1
	C360.4,29.5,360.3,29.5,360.3,29.4z"/>
<path id="XMLID_16340_" class="st1" d="M339,13.4c0,0,0.1,0.1,0.4,0.2c1,0.4,2,0.8,2.9,1.2c1.3,0.5,2.1,0.8,2.3,0.8
	c-0.1,0-0.1-0.1-0.2-0.1c0.2,0.1,0.4,0.2,0.6,0.2c-0.2-0.1-1.1-0.4-1.7-0.7c0,0-2.5-0.9-2.9-1.2c0.4,0.1,0.8,0.3,1.2,0.4
	c-0.2-0.1-0.3-0.1-0.5-0.2c-0.5-0.2-0.9-0.3-1.2-0.4c1,0.3,2.1,0.6,3.1,1.1c-0.3-0.1-0.6-0.2-0.9-0.3l1.3,0.5
	c0.7,0.2,1.7,0.6,1.9,0.7c-0.2,0-0.3-0.1-0.5-0.1c0,0,4,1.6,4.4,1.7c-0.4-0.2-0.8-0.3-1.1-0.5c0.4,0.2,0.8,0.3,1.2,0.5
	c-0.5-0.2-7.7-3.1-8.7-3.5l0,0c0,0-1.6-0.6-2.3-0.8c0.1,0,0.2,0.1,0.4,0.1c-0.3-0.1-0.5-0.2-0.8-0.3c0.4,0.2,0.8,0.4,1.3,0.6
	C339.2,13.4,339.1,13.4,339,13.4C339,13.4,339,13.4,339,13.4z M339.8,13.6c-0.1,0-0.1,0-0.1,0h0l0,0l0,0l0,0c0,0-0.1,0-0.1-0.1
	C339.7,13.6,339.7,13.6,339.8,13.6z"/>
<path id="XMLID_16339_" class="st1" d="M346.3,16c-0.2-0.1-0.5-0.2-0.7-0.3C345.6,15.7,345.9,15.8,346.3,16z"/>
<path id="XMLID_16338_" class="st1" d="M346.7,16.1c-0.1,0-0.3-0.1-0.4-0.1c0.8,0.3,2.1,0.8,2.2,0.8c-0.1-0.1-0.8-0.3-0.8-0.3
	C347.7,16.5,346.7,16.1,346.7,16.1C346.6,16.1,346.7,16.1,346.7,16.1z"/>
<path id="XMLID_16337_" class="st1" d="M348.5,16.8c0,0,1.4,0.6,1.6,0.6c-0.1,0-0.2-0.1-0.2-0.1c0.1,0,0.1,0,0.2,0.1l0,0
	c0,0-0.8-0.3-1.6-0.6c0.1,0,0.2,0.1,0.3,0.2C348.6,16.8,348.6,16.8,348.5,16.8z"/>
<path id="XMLID_16336_" class="st1" d="M347.2,16.2c0.3,0.2,0.7,0.3,1,0.4C347.7,16.4,347.3,16.3,347.2,16.2z"/>
<path id="XMLID_16335_" class="st1" d="M334.9,11.8l0.3,0.1L334.9,11.8l-0.5-0.2l-0.4-0.1c0,0,0,0,0,0l0.4,0.1L334.9,11.8z"/>
<path id="XMLID_16334_" class="st1" d="M345.9,15.6c-0.9-0.3-1.3-0.5-1.3-0.5c0,0,2.5,1,2.6,1C347.1,16,347.1,16,345.9,15.6
	L345.9,15.6z"/>
<path id="XMLID_16333_" class="st1" d="M344.9,15.1c-0.5-0.2-1.3-0.5-1.4-0.5c0,0,1.5,0.6,1.7,0.6C345.1,15.2,345,15.2,344.9,15.1
	L344.9,15.1z"/>
<path id="XMLID_16332_" class="st1" d="M346,15.6c-0.2-0.1-0.4-0.1-0.6-0.2c-0.3-0.1-0.6-0.2-0.9-0.3c0.2,0.1,0.3,0.1,0.5,0.2
	C345.4,15.4,345.7,15.5,346,15.6z"/>
<path id="XMLID_16331_" class="st1" d="M341.3,13.9l0.5,0.2l0.7,0.3c0,0,0,0,0,0c0,0,0,0-0.1,0l0,0C342.1,14.2,341.7,14,341.3,13.9z
	"/>
<path id="XMLID_16330_" class="st1" d="M343.1,14.4c0,0,0.1,0.1,0.2,0.1c0,0,0,0,0,0c0,0,3,1.1,3.2,1.2c-0.2-0.1-0.4-0.2-0.7-0.3
	C345.8,15.4,343.3,14.5,343.1,14.4z"/>
<path id="XMLID_16329_" class="st1" d="M341.9,14L341.9,14C341.9,14,341.9,14,341.9,14l0.7,0.3c0.1,0,0.2,0.1,0.3,0.1c0,0,0,0,0.1,0
	c-0.1,0-0.1,0-0.2-0.1C342.6,14.2,342,14,341.9,14z"/>
<path id="XMLID_16328_" class="st1" d="M342.3,14.2c0,0,0.1,0,0.1,0.1c0.2,0.1,0.4,0.2,0.7,0.2l0.5,0.2l-0.8-0.3
	C342.6,14.3,342.4,14.2,342.3,14.2z"/>
<path id="XMLID_16327_" class="st1" d="M341,13.7c0,0,0.3,0.1,0.7,0.3c0.2,0.1,0.5,0.2,0.7,0.3c-0.3-0.1-0.6-0.2-1-0.4
	C341.3,13.8,341.1,13.8,341,13.7z"/>
<path id="XMLID_16326_" class="st1" d="M341.4,13.7c-0.1,0-0.3-0.1-0.4-0.2c0,0,4.6,1.7,4.8,1.7c-0.2-0.1-0.3-0.1-0.5-0.2
	c-0.8-0.3-1.6-0.6-2.4-0.9c-0.1,0-0.7-0.2-0.7-0.2c0,0,0,0,0.1,0C341.9,13.9,341.6,13.8,341.4,13.7z"/>
<path id="XMLID_16325_" class="st1" d="M347.2,15.9C347.3,15.9,347.3,15.9,347.2,15.9C347.2,15.9,347.2,15.9,347.2,15.9L347.2,15.9
	c-0.5-0.2-2.4-0.9-2.6-1C344.8,15,347.2,15.9,347.2,15.9C347.3,15.9,347.3,15.9,347.2,15.9z"/>
<path id="XMLID_16324_" class="st1" d="M348.4,16.3c-0.2-0.1-0.6-0.2-0.6-0.2v0l0.3,0.1L348.4,16.3z"/>
<path id="XMLID_16323_" class="st1" d="M335.2,11.5c-0.1,0-0.1,0-0.2,0c0.3,0.1,0.6,0.2,0.9,0.3c-0.1,0-0.1,0-0.2-0.1
	c0.1,0,5.7,2,5.7,2c0,0-1.1-0.4-1.6-0.6l0,0c0,0-4.1-1.4-6-2C334.3,11.3,334.8,11.4,335.2,11.5z"/>
<path id="XMLID_16322_" class="st1" d="M332.8,10.8c-0.3-0.1-0.6-0.2-0.9-0.3c0.1,0,2.6,0.9,2.7,0.9c-0.1,0-0.1,0-0.2-0.1
	c0,0,0.1,0,0.1,0C334.3,11.2,333.7,11.1,332.8,10.8z"/>
<path id="XMLID_16321_" class="st1" d="M330.9,10.1c0,0-2.8-0.9-4.2-1.3c2.7,0.8,5.4,1.7,8,2.5C334.3,11.2,331.2,10.2,330.9,10.1z"
	/>
<path id="XMLID_16320_" class="st1" d="M338.7,12.9C338.7,12.9,338.7,12.9,338.7,12.9c0,0,0.1,0.1,0.2,0.1c0.2,0.1,0.4,0.2,0.7,0.2
	c0.2,0.1,0.4,0.1,0.6,0.2c0,0,0.1,0,0.2,0c-0.1,0-0.2-0.1-0.3-0.1c-0.2-0.1-0.4-0.1-0.6-0.2C339.2,13,339,12.9,338.7,12.9z"/>
<path id="XMLID_16319_" class="st1" d="M338.5,12.9c0.2,0.1,0.4,0.2,0.7,0.2c0,0,0,0,0,0c-0.4-0.2-1.6-0.6-2.1-0.7
	C337.1,12.4,337.7,12.6,338.5,12.9C338.5,12.9,338.5,12.9,338.5,12.9z"/>
<path id="XMLID_16318_" class="st1" d="M340.3,13.4L340.3,13.4c-0.3-0.1-0.5-0.2-0.8-0.3C339.8,13.2,340.3,13.4,340.3,13.4
	C340.3,13.4,340.3,13.4,340.3,13.4z"/>
<path id="XMLID_16317_" class="st1" d="M337.5,12.5c0.2,0,0.4,0.1,0.6,0.2C337.9,12.6,337.7,12.5,337.5,12.5c-0.6-0.3-2.6-0.9-3.2-1
	c0,0,1.6,0.5,1.7,0.6c-0.1,0-0.1-0.1-0.2-0.1C336.4,12.1,336.9,12.3,337.5,12.5C337.5,12.5,337.5,12.5,337.5,12.5z"/>
<path id="XMLID_16316_" class="st1" d="M333.9,11.2c0.6,0.2,1.2,0.5,1.9,0.6c-0.2-0.1-0.4-0.1-0.6-0.2h0c-0.1,0-0.2-0.1-0.3-0.1
	c0,0,0,0,0,0c-0.6-0.2-1.2-0.4-1.8-0.6C333.5,11.1,334,11.3,333.9,11.2C334,11.3,333.9,11.3,333.9,11.2z"/>
<path id="XMLID_16315_" class="st1" d="M333.1,11c-0.5-0.2-2.9-1-2.9-1l0,0c-0.1,0-0.3-0.1-0.4-0.1c0.1,0,0.1,0.1,0.2,0.1l-0.2,0
	c0,0,0,0,0,0c0.8,0.3,1.7,0.5,2.5,0.8c0,0-0.1,0-0.1,0C332.5,10.8,332.8,10.9,333.1,11z"/>
<path id="XMLID_16314_" class="st1" d="M327.5,9.2L327.5,9.2c-0.2-0.1-0.5-0.1-0.7-0.2c0.1,0,2,0.6,2.1,0.6c-0.1,0-0.3-0.1-0.4-0.1
	c0.2,0.1,0.5,0.2,0.7,0.2C328.7,9.6,328.1,9.4,327.5,9.2z"/>
<path id="XMLID_16313_" class="st1" d="M324.9,8.5c0.1,0,0.3,0.1,0.4,0.1c-0.3-0.1-0.6-0.2-0.9-0.3c-0.2-0.1-0.4-0.1-0.6-0.2
	c-0.2-0.1-1.2-0.3-1.3-0.3C322.6,7.9,324.9,8.5,324.9,8.5C324.9,8.5,324.9,8.5,324.9,8.5z"/>
<path id="XMLID_16312_" class="st1" d="M328.5,9.5c-0.4-0.1-0.8-0.3-1.2-0.4c0.3,0.1,0.6,0.2,0.9,0.3c0.4,0.1,0.8,0.3,1.2,0.4
	C329,9.7,328.7,9.6,328.5,9.5z"/>
<path id="XMLID_16311_" class="st1" d="M333.2,11c-0.5-0.2-1.3-0.4-1.3-0.4c0,0,2.1,0.7,2.2,0.7C333.9,11.2,333.6,11.1,333.2,11z"/>
<path id="XMLID_16310_" class="st1" d="M337,12.2c-0.2-0.1-0.3-0.1-0.5-0.2l0,0c-0.4-0.1-0.7-0.2-1.1-0.3c0,0,0,0,0,0
	c-0.2-0.1-0.4-0.1-0.5-0.2C335,11.6,336.8,12.2,337,12.2z"/>
<path id="XMLID_16309_" class="st1" d="M356.6,63.4c1.6,1.1,2.3,3.2,4.3,3.9c1.1-3.2-2.7-3.9-3.5-6.2c3,1.9,4.7,5.7,8.8,6
	c0,0-2-2.5-2.7-3.8c0.1-0.2,0.2-0.5,0.3-0.7c-2.5-3.5-7.8-3.4-9.7-7.6c1.8,0.6,2.8,2.9,5.1,2.5c-1.8-2.5-5-3.7-6.3-6.6
	c0.1-0.1,0.3-0.3,0.4-0.4c2.2,1.4,2.2,1.4,2.7,1.4c0.1-0.1,0.3-0.3,0.4-0.4c-0.8-1.6-2.9-1.9-3.6-3.6c0.6-0.2,0.8-0.3,1-1.5
	c0.1,0.1,0.3,0.3,0.5,0.5c-1.2-1.6-3.5-1.9-4.4-3.7c0.2-0.3,0.6-0.5,1-0.6c-0.6-1.7-0.6-1.7-4.3-3.5c-3.2-3-3.2-3-3.6-4.4
	c1,0.1,1.7,0.7,2.7,0.8l-14.9-11.7c-8-5.6-8-5.6-8.1-5.8h0h0h0h0h0h0h0h0c0.7,0.1,0.7,0.1,2,0.5c0.1-0.1,0.3-0.3,0.5-0.4
	c-0.8-1-2.2-0.7-3.1-1.5c0.1-0.1,0.3-0.3,0.5-0.4c-1.4-1.3-1.5-1.3-3.2-2.3c-4.3-2.2-5.1-1.7-5.7-1.3c0.3,0.7,0.3,0.7,2.4,2.9
	c-0.1,0.1-0.2,0.3-0.3,0.5c-2.2-1.4-3.7-3.6-6.3-4.5c-0.2,0.1-0.4,0.3-0.5,0.4l-1.7-0.4c-3.9-1.4-3.9-1.4-4.2-1.9
	c0.8,0,1,0.1,1.8-0.1c0,0-5.8-2.5-7.2-2.9c-1.8-0.5-3.9,0.4-5.6-1.1c0.4,0,0.8,0,1.2,0c-3.6-1.2-5.2-1.2-6.3-1.3
	c-0.1,0.1-0.2,0.2-0.3,0.3c1.8,0.8,1.8,0.8,2.1,1c-0.8-0.2-1.5-0.4-2.3-0.5c8.2,3.4,8.2,3.4,8.7,4c-2.2-0.9-4.2-2.1-6.5-2.7
	c0.2,0.3,0.5,0.7,0.8,1c-1.8-0.6-1.8-0.6-2.6-0.8c3,1.5,6.8,1.6,9.2,4.4c-4,0.9-5.8-3.4-9.2-3.8c2.8,2,2.8,2,3,2.7
	c-2.8-0.6-4.8-5.1-8.1-2.8c2.4,1.6,2.4,1.6,2.4,1.7c0,0.2,0,0.5-0.1,0.7c-1.6-0.6-1.6-0.6-2.3-0.7c1,0.9,1,0.9,1.1,1.6
	c-0.2,0.1-0.4,0.3-0.5,0.4c-0.3-0.1-0.8-0.1-1.1,0c0.1,0.2,0.1,0.4,0.2,0.6c-0.2,0.3-0.6,0.7-0.8,0.9c0.7,0.9,1.9,1.1,2.5,2.1
	c-0.3,0.7-0.3,0.7,0.1,2.5c-1.4,0.2-2.7-0.5-4.1,0.1c-1,0.4-0.7,1.8-1.7,2.2c-0.2,0.1-0.4,0-0.6,0.1c-0.2,0.1-0.3,0.2-0.5,0.3
	c3.2,2,3.2,2,3,3.3c0.9,0.4,1.3,0.6,4.8,0.4c0.1,0.1,0.3,0.3,0.4,0.5c-1.3,1.2-1.3,1.2-4.5,0.4c-0.5,0.4-0.8,1-1.2,1.5
	c0.7,0.8,1.8,1.1,2.5,1.9l3.2,4.4c0.2,0,0.4-0.1,0.6-0.1c0-0.2,0.1-0.5,0.1-0.7l9.6,1c2.9,1.6,3.2,5.3,5.7,7.2
	c0.4,0.7,0.7,1.4,0.8,2c-0.1,0.1-0.3,0.3-0.4,0.4c0.7,0.9,0.8,0.9,1.8,2.1c0,2.1,0,2.1,0.9,3.9c-0.2,0.3-0.4,0.8-0.5,1.2
	c0.6,0.9,1.9,1.1,2.2,2.3c0.4,1.7-0.9,3.1-0.6,4.8c2.4,1.4,5.3,0,7.7,1.4c0.2,1-0.4,2-0.1,2.9c-0.2,0.1-0.4,0.2-0.6,0.3
	c-2.7-0.7-2.7-0.7-4.2-0.1c-0.2,1,0.5,1.8,0.7,2.8c-0.2,0.1-0.4,0.3-0.5,0.5c-0.1,0.1-1.6,5.9,4.8,4.4c0.6,0.5,0.6,0.5,3,5.9
	c-1.1,0.5-2.6,1.1-3.8,1.6c-0.1,2.1-1.5,4.2-0.2,6.3c1.3,2.2,1.3,2.2,2.1,6c0,0.2,0.1,0.5,0.2,0.7c0.5,1.8,2.3,2.5,3.2,3.9
	c1.2,1.9-1.7,3.4-0.6,5.3l7.4,11.9c2.5,2.4,6.1,1.9,8.9,3.4c-0.1,3.3,4.6,3.9,5.2,3.8c0-0.5-0.2-1-0.2-1.5c0.2-2.4,2.6-4.1,2.4-6.6
	c-0.1-2-2.3-3.4-1.3-5.6c4-1.5,1.3-5.9,2.1-8.8c1.1-1.8,1.1-1.8,4.7-4.7c0.1-1.5-1.1-2.9-0.4-4.4c1.9,1,2.6,3.7,5.3,3.6
	c1.4-0.1,2.5-0.9-0.8-4.2c0.6-0.4,0.6-0.4,5.9-0.3c0.1-0.2,0.2-0.4,0.2-0.5c0,0-2.4-5.2-2.7-7.3c0.1,0.1,0.3,0.3,0.5,0.5
	c9.1-1,9.1-1,13.4-6.5c-2.4-1.3-5.3-0.4-7.6-2C359.3,68.4,357.3,65.1,356.6,63.4z"/>
<path id="XMLID_16308_" class="st1" d="M263.2,26.3c0,0,0.1-0.1,0.1-0.1c-0.2-0.4-0.5-1.2,0.5-1.1c0.9,0.1,1.3,0.9,2,1.3
	c2.5,1.1,6.3,1.1,3.1-1.2c0,0-3-2.4-2.9-3.3c1.6-0.5,2.1,2,3.8,1.2c1.8-0.9,1.5-1.7,1.4-2.3c-0.1-0.4-0.1-0.4,0.8-0.8
	c0.7-0.3,1.6,0.1,2.1-0.7l0.2-1.8c0-0.2-0.2-0.5-0.3-0.7c-2-3.2-0.8-2.9,0.2-2.6c0.3,0.1,0.3,0.1,0.4,0c0,0,0-0.1,0-0.1
	c0.5-0.7,1.4-0.9,1.8-1.7c0.4-0.7,0.4-1,0.4-2.3c0.7-0.4,1.6-0.1,2.3-0.5c0-0.1,0-0.1,0-0.2c-0.4-0.1-0.8-0.1-1.1-0.4
	c0-0.1,0-0.1,0-0.2c0.8-0.6,0.8-0.6,0.5-1.3c0.4-0.4,1.2,0,1.4-0.7c0,0-0.1-0.1-0.1-0.1c0,0-3.4-3.2-14.4-4.5c0,0,0,0-0.1,0
	c0.3,0.4,0.6,0.7,0.5,1c-0.5-0.3-1.7-0.9-2.4-1c0,0,0,0.1-0.1,0.1c0.2,0.2,0.2,0.2,1.1,1.2c0,0.1,0,0.1,0,0.2
	c-1.2,0.5-2-1.2-3.2-0.4c0,0.4-0.4,0.7-0.2,1c0.2,0.3,0.6,0.3,0.8,0.5c0.4,0.4,0.5,1,0.9,1.4c0.4,0.5,1.1,0.3,1.6,0.5
	c-1.3,0.5-1.3,0.5-1.6,0.7c0,0,0,0.1,0,0.2l3.8,1.3c0.4,0.1,1.8-0.4,1.8-0.4c0.3-0.2,0.4-0.2,1.3,0.1c0,1.4-1.8,0.7-2.6,1.2
	c0.2,0.9,1.2,1.4,1.5,2.2c0,0-0.1,0.1-0.1,0.1c-2.7-2.8-3.7-3.7-5-4c0,0-0.1,0.1-0.1,0.2c0.5,1.2,0.5,1.2,0.8,2.3
	c0.2,0.6,0.1,1.3,0.4,1.9c0.4,0.8,1.3,1,1.7,1.8c0,0,0,0.1-0.1,0.2c-0.2,0-0.3,0-1-0.1c-1.2-0.3-2.7,0.4-2.7,0.4c0,0-1.5,2.4-1.4,3
	c0.8,0.4,1.4-0.3,2.1-0.4c1.9,4.3-1.5,2.6-2.9,0.7c-0.2-0.3-0.4-0.5-0.6-0.4c0,0-0.2,2.3,0.4,3.1c-0.2-0.1-0.4-0.1-0.6-0.2
	c-1.7,1.5-2.7,1.4-3,1.4c-0.2,0-0.5,0.1-0.7,0.2C252.8,24.3,263.1,26.2,263.2,26.3z"/>
<path id="XMLID_16307_" class="st1" d="M256.9,14.9c0.1,0.2-0.1,0.3,0,0.5c0.2,0.2,2.8,1.1,2.9,1.1c0.3-0.3-0.1-1,0.5-1.1
	c0.6-0.1,0.6-0.1,1-0.6c0.1-0.1,0.1-0.2,0.1-0.3c0.1-0.2,0.1-0.3,0.2-0.3c0.2-0.2,0.5-0.1,0.8,0c0.5-0.4,0-0.9,0.1-1.3
	c0.4,0,0.7,0.4,1.1,0.4c0.4-0.1,0.2-0.5,0.5-0.6c0-0.2-0.2-0.8-0.6-1.3c0.1-0.2,0.1-0.2,0-0.3c-0.3,0-0.6,0.1-1,0c0,0,0,0,0-0.1
	c0.2-0.2,0.6-0.1,0.8-0.4c-0.1-0.1-0.1-0.1,0-0.8c0-0.4,0-0.4-0.2-0.8c0,0,0-0.1,0-0.1c0,0,0,0,0.1,0c0,0-0.5-0.9-0.9-1.1
	c0,0.1,0,0.1-0.2,0.1c-0.6-0.1-1.1-0.9-1.1-0.9c-0.1-0.3-0.1-0.3,0.4-0.7l-0.8-1.3c-0.2-0.2-0.3-0.3-0.4-0.4c-0.1-0.1-0.2-0.2-1-0.2
	c0,0-0.1,0-0.1,0.1c0.2,0.3,0.6,0.4,0.8,0.7c-0.3,0.1-0.8-0.1-1,0.4c-0.1,0.2-0.1,0.2,0.4,1c0,0,0,0.1,0,0.1c-0.5,0.3-1.1-0.3-1.6,0
	c-0.1,0.7,0.6,0.8,0.8,1.2c-0.3,0.2-0.9-0.1-1.1,0.4c-0.2,0-0.3-0.1-0.5-0.1c-0.2,0.6,0.5,1,0.5,1.5c0,0.3-0.2,0.6-0.1,0.9
	c0,0,0,0.1,0,0.1c0,0.1,0,0.1,0.5,0.5c-0.5-0.3-0.7-0.2-0.5,0.2c0.2,0.6,0.2,0.6-0.6,1.3c0,0-0.6,0.8-0.2,1.3L256.9,14.9z"/>
<path id="XMLID_16306_" class="st1" d="M252,13.9c-0.1,0.2-0.1,0.5-0.1,1c2,0.5,2,0.5,2.1,0.5c0.3-0.1,0.4-0.8,0.4-1.1
	c0-0.4,0-0.8-0.1-1c-0.1-0.4-0.4-0.8-0.6-1.1c-0.1-0.1-0.1-0.3-0.1-0.4c-0.1-0.2-0.6-0.7-0.7-0.7c-0.2,0.1-0.1,0.4-0.2,0.5
	c-0.1,0.2-0.4,0.4-0.5,0.6c0,0,0,0.1-0.1,0.2c-0.1,0.3,0,0.5-0.1,0.8c0,0.2-0.1,0.4-0.1,0.6c0,0,0,0,0,0.1
	C251.8,13.9,251.9,13.9,252,13.9C251.9,14,251.9,13.9,252,13.9z"/>
<path id="XMLID_16305_" class="st1" d="M251.7,16.7c0,0,0,0.1-0.2,0.1c-0.1,0-0.2,0-0.3,0c-0.3,0-0.3,0-0.4,0.1c0,0,0,0,0,0
	c0,0.1,0.9,0.6,1.9,0.8c0.2,0,0.4,0.1,0.5,0.2c0.1,0.1,0.2,0.2,0.2,0.3c0,0.1,0.1,0.2,0.1,0.2c0.2,0.1,0.6,0,0.6,0c0,0,0,0-0.2-0.4
	c-0.2-0.3-0.1-0.3,0-0.4c0,0,0.1-0.1,0.1-0.2c0-0.1-0.1-0.2-0.3-0.4c-0.1-0.1-0.3-0.1-0.4-0.2c-0.1,0-0.2,0-0.2,0
	c-0.2,0-0.3,0-0.5,0c-0.3,0-0.6-0.1-0.9-0.1C251.8,16.6,251.7,16.6,251.7,16.7C251.7,16.6,251.7,16.6,251.7,16.7z"/>
<path id="XMLID_16304_" class="st1" d="M257.2,19c0-0.2,0-0.6-0.4-0.6l0,0c0,0-0.8,0.2-0.8,0.2c-0.1,0-0.1,0.1-0.2,0.2
	c-0.1,0.1,0,1.4,0.2,1.6C256.3,20.5,257.2,20.1,257.2,19z"/>
<path id="XMLID_16303_" class="st1" d="M251.2,23.7c-0.2,0.1-0.5,0.2-0.8,0.8c-0.3,0.6,0,1.4-0.4,2c-0.5,0.7-1.2,1.1-1.5,1.9
	c0,0.1,0,0.1,0.6,0.5c-0.1,0.6-0.1,0.6-0.1,0.6c1.1,1.3,1.2,1.4,1.6,1.1c0.2-0.2,0.6-0.4,1-0.2c0.5,0.2,0.5,0.9,1,1.2
	c0.5,0.2,1.1,0.1,1.6,0.4c0.5,0.4,0.5,0.4,1,0.4c0.6,0.1,1.2-0.3,1.8-0.2c1.5,0.4,1.5,0.4,2.1,0.5c0.8,0.1,1.4-0.6,2.2-0.6
	c0.3,0,0.3,0.4,0.4,0.8c0,0.6,0,0.6,0.2,0.6c0.1,0,1.4-0.1,1.9-0.1c0,0,0.1,0,0.1,0c0,0,0,0,0,0c0,0,0.6-0.3,0.4-1.4
	c-0.1-0.4-0.6-0.7-0.3-1.2c0.5-0.6,1.5-0.4,1.9-1c0.9-1.3-4.9-2.5-7.3-2.1c-0.6,0.1-1.2,0.7-1.9,0.6c-0.5-0.1-0.4-0.6-0.6-0.9
	c-0.6-0.1-1.2,0.3-1.8-0.1c-0.3-0.2-0.8-0.6-0.7-1.5c-0.7,0.4-0.9-0.6-0.8-0.7c0.3-0.7,0.3-0.7-0.2-1.8c0.7,0.2,1.1,0.9,1.7,1.2
	c0,0,0.1,0,0.1-0.1c0-0.2,0-0.3-0.2-0.8c-0.2-0.6-1-0.8-1.3-1.5c-0.2-0.4,0.6-0.5,0.3-0.9c0,0-0.1-0.1-0.1-0.1
	c-0.1-0.1-0.3-0.1-0.4-0.1c-0.2,0-0.6,0.1-1.4-0.6c-0.5-0.4-0.3-1.2-0.8-1.6c-0.3-0.2-0.5-0.2-0.7-0.2c-0.5,0-1.2,0.2-1.3,0.9
	c0,0.1,0,0.2,0,0.3c0.1,0.6,0.7,2.3,0.7,2.3c0.1,0.1,0.1,0.1,0.5,0.1c0.8,0.1,1.5,0.7,1.5,1.1C251.5,23.6,251.4,23.6,251.2,23.7z"/>
<path id="XMLID_16302_" class="st1" d="M263.9,33.5C263.9,33.5,263.9,33.5,263.9,33.5C263.9,33.5,263.9,33.5,263.9,33.5L263.9,33.5z
	"/>
<path id="XMLID_16301_" class="st1" d="M263.7,33.6L263.7,33.6c0,0,0.1,0,0.2,0l0,0c0,0,0,0,0,0c0,0,0,0,0,0
	C263.8,33.5,263.7,33.5,263.7,33.6C263.7,33.5,263.7,33.5,263.7,33.6z"/>
<path id="XMLID_16300_" class="st1" d="M263.8,33.5C263.8,33.5,263.7,33.5,263.8,33.5C263.7,33.5,263.8,33.5,263.8,33.5z"/>
<path id="XMLID_16299_" class="st1" d="M247.1,11.7c0.3,0,0.7-0.1,1,0.1c0.3,0.2-0.1,0.5,0,0.7c0.1,0.3,0.5,0.3,0.6,0.6
	c-0.4,1.3-0.4,1.3-0.3,1.5c0.3,0.1,1.1-0.2,1.4-0.4c0,0,0,0,0.4-0.8c0.5-0.9,0.5-0.9,0.5-1c0.2-0.3,0.6-0.5,0.9-0.7
	c0.1-0.1,0.1-0.2,0.1-0.3c0-0.1,0-0.1,0-0.2c-0.1-0.3-0.3-0.9-0.4-1c-0.2-0.4,0.2-0.8,0-1.1c-0.3-0.4-0.5,0.7-1,0.5
	c0-0.3,0.3-0.5,0.1-0.8c-0.2-0.4-0.9-0.8-1.1-0.9c-0.2,0.1-0.4,0.2-0.5,0.2c0,0-0.1,0-0.1,0.1c-0.2,0.2,0.2,0.4,0.1,0.7
	c0,0.1-0.1,0.1-0.4,0.2c-0.6,0.3-0.7,0.4-0.7,0.4c0,0,0,0,0,0c0.1,0.1,0.8,0,0.8,0c0.1,0,0.2,0,0.3,0c0.1,0.3-0.7,0.9-1.1,1.1
	c-0.4,0.1-0.5-0.4-0.7-0.5c-0.2-0.1-0.7,1.4-0.7,1.6C246.5,11.8,246.8,11.8,247.1,11.7z"/>
<path id="XMLID_16298_" class="st1" d="M246.3,14.6c0,0,0,0.1,0,0.1c0.1,0.2,1.1-0.1,1.2-0.5c0.1-0.5-0.5-1.1-0.9-1.1
	c0,0-0.1,0-0.1,0.1c0,0-0.2,0.4-0.3,0.6c0,0.2,0,0.3,0.1,0.5C246.3,14.3,246.3,14.5,246.3,14.6z"/>
<path id="XMLID_16297_" class="st1" d="M254.3,7.3c0,0,0,0.1,0,0.2c0,0.1,0.1,0.1,0.3,0.1c0.1,0,0.2,0,0.3,0.1
	c0.2,0.1,0.2,0.2,0.2,0.4c0,0,0,0.1,0,0.2c0.1,0.1,0.3-0.6,0.4-1.1c0.1-0.4-1-0.6-1-0.6c-0.1,0-0.1,0-0.1,0.1c0,0.2,0,0.3,0,0.5
	C254.3,7.2,254.3,7.3,254.3,7.3z"/>
<path id="XMLID_16296_" class="st1" d="M243.2,13.6c-0.2,0.2-0.3,0.5-0.5,0.8c-0.2,0.3-0.4,0.6-0.6,0.9c0,0.1-0.1,0.2-0.1,0.2
	c0,0,0.3,0.5,0.9-0.1c0.3-0.4,0.8-1.4,1.1-2.2l0,0c0,0,0,0,0,0C243.5,13.2,243.2,13.4,243.2,13.6z"/>
<path id="XMLID_16295_" class="st1" d="M246.6,25.4c-0.1-0.1-0.5-0.6-0.8-0.4l-0.4-0.3L245,25c0,0.1,0,0.3-0.1,0.4
	c-0.1,0-0.2-0.1-0.3,0c-0.1,0.1-0.1,0.2-0.2,0.2c-0.1,0.1-0.2,0-0.3,0.1c0,0,0,0-0.1,0.2c0,0.1-0.1,0.2-0.2,0.3
	c-0.2,0.1-0.6,0.4-0.7,0.4c-0.1,0.1-0.2,0.1-0.2,0.1c0,0.1,0.2,0.3,0.5,0.5c0.1,0,0.1,0.1,0,0.2c-0.1,0.1-0.2,0.2-0.3,0.3
	c-0.2,0.3,0.3,0.3,0.5,0.5c0.3,0.3,0.3,0.3,0.4,0.5c0.1,0.1,1,0.4,1.3,0.2c0.1-0.1,0.1-0.3,0.3-0.4c0.2-0.2,0.4-0.3,0.5-0.5
	c0,0,0.1-0.1,0.1-0.1c0.2-0.5,0.3-1,0.4-1.6l0,0c0,0,0,0,0,0C246.7,26.3,246.8,25.7,246.6,25.4z"/>
<path id="XMLID_16294_" class="st1" d="M242.9,19.2c-0.1,1.4-0.1,1.7-0.3,1.8c-0.4-0.4,0-0.8-0.1-1.2c-0.4-0.3-1-0.3-1.4-0.5
	c-0.3-0.2-0.3-0.2-0.4-0.5c0,0,0-0.2-0.1-0.3c-0.1-0.1-1,0.3-1.3,2c-0.1,0.4-0.1,1.4,0,1.5c0.1,0.1,0.3,0,0.4,0.1
	c0.1,0.1,0.2,0.3,0.3,0.3c0,0,0.1,0,0.1,0c0.2,0.1,0.4,0.1,0.5,0.1c1,0,1.1,0,1.1,0.4c0,0.7-0.6,1.1-1.6,1.8c-0.7,0.5-1,0.7-0.9,0.9
	c0.1,0.4,1.7,0.7,1.7,0.7c0.3,0,0.3,0,0.5-0.4c0,0,0.1,0,0.1-0.1c0.3-0.3,0.2-0.8,0.5-1.2c0.6-0.7,1.7-0.9,2.1-1.8
	c0.6-1.2,1.6-2.1,2.3-3.2c0,0,0,0,0-0.1c-1.3-0.4-1.5-0.7-1.6-0.9c-0.5-0.8-0.8-0.8-1.2-0.8C243.1,18,242.9,18.2,242.9,19.2z"/>
<path id="XMLID_16293_" class="st1" d="M237.9,13.1C237.9,13.1,237.9,13.1,237.9,13.1C237.9,13.1,237.9,13.1,237.9,13.1
	C237.9,13.1,237.9,13.1,237.9,13.1c0.1,0,0.1,0,0.1,0c0,0,0,0,0,0c0,0,0,0,0,0s0,0,0,0c0,0,0,0,0,0c0.2,0,0.5,0,1.4-0.7
	C240,12,240,12,240.1,12c0.4,0.4,1.6-0.5,1.8-0.8c0.4-0.5-1.3-1.4-2-1.4c-0.5,0-0.6,0-2.6,2.1C236.1,13.1,237.2,13.1,237.9,13.1z"/>
<path id="XMLID_16292_" class="st1" d="M241.5,9.2C241.5,9.2,241.5,9.2,241.5,9.2c0,0,0.1,0,0.2,0l0,0c0,0,0,0,0,0c0,0,0,0,0,0
	c0,0,0,0,0,0c0,0,0,0,0,0c0,0,0,0,0,0.1c0,0,0,0,0,0.1c0,0,0,0,0,0.1c0,0.1-0.1,0.2,0.2,0.1c0.1,0,0.2-0.1,0.3-0.1
	c0,0.2-0.1,0.3,0,0.5c0.1,0.2,0.3,0.2,0.3,0.2c0.2,0,0.3-0.1,0.4-0.1c0.1,0,0.2,0,0.3-0.1c0,0,0.1,0,0.1,0c0.2-0.1,0.1-0.4,0.2-0.6
	c0.1-0.2,0.2-0.3,0.4-0.5c0.1-0.2,0.2-0.4,0.1-0.4c0,0-0.1,0-0.2,0.1c-0.1,0.1-0.4,0.2-0.7,0.2c-0.3,0-0.6-0.3-0.9-0.2
	c-0.1,0-0.9,0.4-0.9,0.5C241.2,9.1,241.3,9.1,241.5,9.2C241.4,9.1,241.4,9.2,241.5,9.2z"/>
<path id="XMLID_16291_" class="st1" d="M238.7,10.1c0.2-0.2,0.1-0.3-0.1-0.3c-0.1,0-0.2,0-0.3,0.1c-0.1,0-0.1,0.1-0.2,0.2
	c0,0-0.1,0.1-0.1,0.1c0,0,0,0,0,0c-0.1,0.1-0.3,0.4-0.3,0.5C237.7,10.9,238.5,10.5,238.7,10.1z"/>
<path id="XMLID_16290_" class="st1" d="M232.9,14.2C232.9,14.2,232.9,14.2,232.9,14.2c0.1,0.2,0.8,0.2,1.2-0.3
	c0.1-0.1,0.2-0.5-0.2-0.5c-0.3,0-0.7,0-0.8,0.1c0,0,0,0,0,0.1c0,0,0,0,0,0.1c0,0.1,0.1,0.1,0,0.2C233,13.9,233,14,232.9,14.2
	C232.9,14.2,232.9,14.2,232.9,14.2z"/>
<path id="XMLID_16289_" class="st1" d="M225.7,22c-1.1-0.5-3.3,0-3.3,0c-0.4,0.1-0.9,1.3-0.9,1.3l1,0.9c0,0,0.1,0.1,0.4,0.1
	c0,0,1.5-0.2,1.9-0.3c0.8-0.2,1.6-0.7,2.5-0.8c0.8,0,0.8,0,1-0.1c0.3-0.1,0.5-0.4,0.8-0.5c0,0,0.5,0,0.3,0.5c0.2,0,0.5,0.1,0.7,0
	c0,0,0,0,0.1,0c0,0.2-0.1,0.3-0.1,0.5c0.8,0.1,1.1,0.2,1.6,0c0.3-0.1,0.5-0.4,0.7-0.5c0.2-0.1,0.5,0.1,0.7,0
	c0.5-0.3,0.8-0.8,1.2-1.1c0-0.1,0-0.2,0-0.2c0.3-0.3,0.8-0.2,1.2-0.4c0.1-0.7,0.9-0.8,1.1-1.3c0,0-0.1-1.7-1-0.6
	c-0.4,0.4-0.8,0.9-1,0.8c-0.1-0.3,0.3-0.8-0.1-0.8c-0.6,0-0.6,0.7-1,0.8c0,0-0.1-0.1-0.1-0.1c0.1-0.4,0.5-0.4,0.8-0.6
	c0-0.6,1.1-0.3,1-0.9c-0.3,0-0.6,0.1-0.8-0.1c0.1-0.1,0.1-0.1,0.2-0.1c0,0,0.8-0.3,0.9-0.4c0.3-0.3,0.3-0.9,0.6-1.2
	c0-0.2,0-0.2,0.2-0.3c0.6-0.3,0.8-0.7,0.8-1c-0.3-0.1-1.5,0.4-1.5,0.6c0.1,0.3-0.5,0.4-0.6,0.4c0,0,0,0,0-0.1
	c-0.6,0.2-0.6,0.2-1.1,0.7c-0.4,0.5-0.1,1-0.2,1.5c-0.2,0.5-0.9-0.1-1.2,0.3c0,0,0,0.1,0,0.1c-0.2,1.1-0.2,1.1-0.4,1.2
	c-0.1,0-2-0.2-2-0.2c-0.1-0.3,0-0.4,0.3-0.7c-0.1-0.7,0.6-1.1,0.8-1.7c0,0,0.4-1.2,0.5-1.8c-0.1,0-0.3,0-0.4,0c0,0,0.1,0,0.1,0
	c0.2-0.1,0.7-0.9,0-1c-0.8,0.1-1.1,0.6-1.4,1.1c-0.2,0.3-0.6,0.3-0.8,0.3c-0.3-0.1-0.1-0.4-0.2-0.5c-0.2,0-0.8,0.5-0.8,0.5
	c-0.2,0.3,0,0.6-0.1,0.9c-0.5,0.1-0.9-0.1-1.4,0c0,0-0.5,0.2-0.7,0.4c0,0,0,0,0.2,0.3c0.3,0.5-1.1,0.6-1.5,0.5c0,0,0-0.1,0-0.1
	c-0.2,0-1.4,0.3-1.6,0.6c0.2,0.5-0.4,0.6-0.6,0.9c-0.3,0.4,0.5,0.6,0.4,1c0,0.1-0.1,0.2-0.1,0.3c0.1,0.1,0.9,0.4,1.5-0.2
	c0.3-0.3,1.5-0.4,1.5-0.4c-0.1,0.2-0.4,0.3-0.6,0.4c0.7,0.1,1.3,0.3,2,0.4c0.3,0,0.6-0.1,1-0.1C227.3,21.7,226.1,22.2,225.7,22z"/>
<path id="XMLID_16288_" class="st1" d="M234.6,23.8c0.2,0,0.7,0,0.9-0.3c0.1-0.2,0.1-0.4,0.1-0.5c0,0,0-0.1,0.1-0.1c0,0,0,0,0,0
	c0,0-0.1-0.1-0.5-0.2c-0.2,0-0.3,0.1-0.4,0.2c-0.1,0.1-0.2,0.2-0.4,0.3c-0.2,0.1-0.2,0.1-0.3,0.1c-0.1,0-0.1,0-0.2,0c0,0,0,0,0,0
	c0,0,0.4,0.5,0.4,0.5C234.4,23.8,234.5,23.8,234.6,23.8z"/>
<path id="XMLID_16287_" class="st1" d="M224.6,14.2c-0.2,0.2-0.4,0.3-0.5,0.5c0,0.1,0.1,0.2,0.2,0.1c0.4-0.2,0.7-0.5,1.1-0.6
	c0,0,0,0,0,0c-0.3,0.4-1.1,0.5-0.9,1.1c0.7-0.2,0.7-0.2,1-0.3c0.7-0.4,0.9-0.4,1-0.4c0,0.1-0.1,0.2-0.8,0.6c0.4,0,0.6-0.1,0.6-0.2
	c0,0,3.8-2.5,4-2.6c0.4-0.1,0.2,0.7-1.4,1.6c-0.2,0.1-0.8,0.4-1.2,1.2c0.1,0,0.1,0,0.2-0.1c0,0,0.1,0,0.1-0.1
	c0.5-0.2,0.8-0.6,1.3-0.8c0.2-0.1,0.4,0,0.6,0c0.1,0,0.3-0.1,0.6-0.3l0.6-0.2l0.3-0.4l0.3-0.1c0.6-0.2,1-0.7,1.5-1
	c0.4-0.2,0.8-0.3,1.1-0.6c0.1,0,0.2-0.1,0.2-0.1l0.5-1c-0.2-0.2-1,0.4-1,0.4c-0.2,0.1-0.3,0.2-0.4,0.2c0,0,0,0-0.1,0
	c0-0.5,0-0.8-0.8-0.9c-0.7,0.1-1.1,0.7-1.8,0.9c0,0-1.9,0.6-1.9,0.6c-2.6,0.9-2.6,0.9-2.8,1c-0.2,0.1-0.2,0.1-0.3,0
	c-0.3,0-1.7,0.4-1.7,0.4c-0.4,0.1-0.9,0.7-1,0.9C224.1,14.3,224.4,13.9,224.6,14.2z"/>
<path id="XMLID_16286_" class="st1" d="M223.1,17.6c0,0,0.9-0.2,1.2-0.3c0.2-0.1,0.2-0.4,0.4-0.5c0.6-0.4,1.3-0.5,1.9-0.9l0,0
	c0,0,0.1-0.1,0.1-0.1c0,0,0,0-0.1,0c-1.5,0.1-3.7,1.6-3.7,1.6L223.1,17.6C223.1,17.6,223.1,17.6,223.1,17.6z"/>
<path id="XMLID_16285_" class="st1" d="M280.7,57.6c-1.3-1.4-2.3-2-2.9-1.8c0,0-0.6,1.1-1.7,1.5c-0.7-0.4-0.6-1.2-0.5-1.4
	c1.5-0.8-2.2-1.2-2.7-2.5c1-0.2,2.1-1.1,2.1-1.2c-1.5-1.7-4.4-0.4-5.5-2.8c0.6-0.3,1.4-0.2,1.9-0.7c-1-0.3-2.1-0.7-3-2.1
	c0.4-0.2,0.8-0.3,1.2-0.6c0-0.1,0-0.2,0-0.3c-2.6-2-5.5-1.5-6.1-0.8c0.4,0.8,0.4,0.8,0.2,1.3c-0.5-0.1-0.5-0.1-2.3-2.1
	c-1.3,1.8-1.3,1.8-1.7,1.9c-0.1-0.1-0.2-0.2-0.3-0.2c0.5-1.7,0.5-1.7-0.2-2.3c1.4-1.8,2.1-2.7,1.8-4.3c-0.3-1.5-5.5-1.1-7.3,0.5
	c0,0.5,0.3,0.8,0.4,1.3c-0.1,0.1-0.2,0.2-0.3,0.2c-0.2-0.1-0.3-0.4-0.4-0.6c-0.1,0-0.3,0-0.4-0.1c-1.2,0.9-1.3,1.6-1.4,1.9
	c1.3,0.4,1.3,0.4,1.4,1.1c-0.7,0.5-1.6,0.5-2.3,0.9l-0.1,5.1c-0.1,0.4-1.4,1-2-0.1c0.9-0.7,0.3-2.1-0.2-2.9c0.2-0.2,0.4-0.4,0.6-0.5
	c-0.1-0.6-0.7-1-0.9-1.6c1.6-3.3,1.6-3.3,6.8-7.4c-0.1-0.9-1.6-1.2-1.6-1.2c-3.3,0.2-3.4,0.2-9.7,5.9c-1.6,1.4-1.5,3.7-2.7,5.3
	c0.6,1.7,2.7,0.9,3.6,2c-0.4,0.4-0.4,0.4-3.7,0c-0.1,0.1-0.2,0.2-0.2,0.3c0.3,0.9,0.3,1.9,1,2.7c2.3-0.9,1.8,3,3.5,3.7
	c2.3,0.9,4.7-0.9,7,0c3.3,1.3,3.7,1.5,4.7,2.2c0,0,1.3,0.8,2.2-0.8c0.5-0.8-0.5-1.3-0.6-2c0.5-0.5,0.7-0.5,1.2-0.6
	c0,0,1.4,1.8,1.6,2.7c-0.1,0.1-0.2,0.3-0.3,0.4c1,0.4,1.4,1.5,2.3,2c0,0.1,0.1,0.3,0.1,0.5c-0.8,0.2-0.8,0.2-1.2,0.4
	c1.2,2.1,1.2,2.1-0.6,3.9c0,0.1,0.1,0.3,0.1,0.4c1.5,0,3-0.1,4.5-0.1c1.1,0,0.9,1.2,1.4,1.7c0.2,0.2,0.8,0.1,0.9,0.4
	c0,0,0.6,4.8,0,5.7c-0.1,0-0.1,0-1.3,2.4c-0.7-0.4-5.7,4-5.7,4c0.2,1.1,1.1,2.1,0.8,3.3l-4.6,0.3c-0.2,0-0.4,0.3-0.5,0.5
	c-0.5,0.8-1.6,0.8-1.9,0.8c0,0-1.6-4.1-3.1-3.1c-0.2,2.1-3.4,4-1.3,6.1c0.7,0.7,1.5,0.6,4.4,0.2c0.8-0.1,1.4-0.9,2.3-0.7
	c0.9,0.2,1,1.3,1.9,1.4c0.2-0.2,0.4-0.4,0.5-0.6c0.2-0.3,2.5-1,2.5,1.6c0,2,0,2,2.6,3.3c0,0,0.4,2.4,1.6,3.5
	c0.9,0.9,0.9,0.9,0.5,1.6c0.1,0.1,0.2,0.3,0.3,0.4c1.3,0.9,2.9,1,4.3,1.7c1.7,0.8,2.2,2.9,4,3.7c0,0,1.7,0.3,2-0.8
	c0,0-0.7-3.9-0.7-3.9c-0.5-1.9-2.6-2.3-3.4-3.9c2.4-4.2,4.3,6,8.6,5.7c-0.2-1-0.9-1.8-1.4-2.7c0-0.1,0.1-0.2,0.1-0.3
	c2.3-0.3,2.3-0.3,2.4-0.7c0.4-1.9-1-3.4-1.1-5.1c-0.1-1.5-2.1-1.1-2.4-2.3c-0.5-1.9-2.5-2.7-2.9-4.6c0.3-0.2,0.7-0.4,1-0.6
	c-1.1-2.5-1.1-2.5-1.1-3c0.1,0,0.1,0,1.9,0.9c1.3-0.5,0.7-1.9,1.1-2.7c1.4,0.4,1.2,2.1,2.2,2.7c0.1,0.1,1.5,0.1,2.8,0.2
	c-0.1,3.6-0.2,5.6,2.3,5.7c0.8-0.9,0.3-2,0.5-3c0.1,0,0.2,0,0.3,0c0.2,0.2,0.4,0.4,0.5,0.6c1.6,0.2,1.8-1.8,3.1-2
	c0-0.3,0-0.3-0.5-1.2c0.1-0.4,0.1-0.8,0.2-1.2c0.9-0.5,0.9-0.5,0.9-1l0,0c-0.1-0.6-0.1-0.6-1.8-1.5c-0.3-1.9-2.6-0.7-3.5-2
	c0.4-1.2,0.4-1.2,0.4-1.3c-0.5-0.5-1.4-0.4-1.8-1.1c-0.3-0.6,0.7-0.9,0.3-1.5c-0.2-0.2-0.5-0.5-0.8-0.6c-0.1,0.1-0.1,0.1-0.4,1
	c-0.1,0-0.3,0-0.4,0.1c-1.1-0.8-1.9-2-3.1-2.5c-0.2-0.3-0.5-0.8-0.7-1.1c0.1-0.1,0.2-0.2,0.3-0.2c0-0.1,0-0.3,0-0.4
	c-0.8-0.8-0.8-0.8-0.7-1.6c-0.1-0.2-0.3-0.4-0.4-0.5c0.1-0.1,0.1-0.2,0.2-0.3c0.9-0.1,1.8,0.3,2.7,0.1c0.6-0.9-0.1-2.1-0.1-2.1
	c-0.6-0.8-1.8-0.4-2.5-1.1c0-0.2,0-0.4,0-0.5c1.1-0.5,2.4,0.7,3.4-0.5c-2.1-2.4-2.1-2.4-2.5-2.2c-1.5,0.7-2.3,0.1-2.6-0.3
	C278.4,59.2,280.2,59.2,280.7,57.6z"/>
<path id="XMLID_16284_" class="st1" d="M261,67.7c-0.2-0.2-1.5-1-2-1.1c-0.1,0-0.3,0-0.5,0.3c0,0-0.1,0.1-0.1,0.1
	c-0.3,0.4-0.4,0.9-0.6,1.4c-0.3,0.6-1,0.9-1.2,1.6c-0.1,0.3-0.2,0.8,0.6,1.5c0.3,0.3,0.8,0.7,1.4,0.7c0.1,0,0.2,0,0.3-0.1
	c0,0,1.3-0.4,1.5-0.6c0.6-0.3,1-1.7,1-2.5l0,0C261.4,68.1,261.3,68,261,67.7z"/>
<path id="XMLID_16283_" class="st1" d="M264.3,70.3c0.2,0,0.5,0.1,0.7,0.2c0,0,0.1,0,0.1,0c0.1,0,0.2,0,0.2,0c0.3,0,0.3-0.6,0.3-0.8
	c0.1-1.3-0.8-1.6-1.4-1.6c-0.4,0-0.5,0.1-0.5,0.2c-0.1,0.2-0.1,0.4-0.2,0.6c-0.1,0.2-0.2,0.4-0.3,0.6c0,0,0,0.1,0,0.1
	c0,0.1,0,0.3,0.1,0.4c0.1,0.1,0.2,0.1,0.3,0.2C263.8,70.2,264,70.2,264.3,70.3z"/>
<path id="XMLID_16282_" class="st1" d="M257,61.2c-0.5,0.1-0.7,0.2-0.8,0.2c-0.6,0.4-0.9,1-1.3,1.5c-0.3,0.3-0.6,0.6-0.4,0.8
	c0.2,0.3,2.4,0.1,2.8-0.2c0.3-0.2,0.3-0.7,0.5-1c0.2-0.2,0.5-0.3,0.7-0.5c0.1-0.1,0.1-0.2,0.2-0.2c0.3-0.5,0.4-1.1,0.4-1.5
	c0-0.3,0-0.4-0.2-0.5c-0.3,0-0.6,0.3-1,0.7C258,61.1,257.4,61.1,257,61.2z"/>
<path id="XMLID_16281_" class="st1" d="M241.2,87.6c-0.4-0.1-0.8-0.2-0.9-0.5c-0.2-0.3-0.1-0.6,0-1c0.2-0.9-0.9-1-1.2-1.6
	c-0.1-0.2,0.1-0.5,0-0.7c-0.3-0.4-0.4-0.5-1.4-1c-0.6-0.3-0.6-0.3-0.7-0.7c-0.6-0.3-0.6-0.3,0-2.3c-0.9,0.2-1.2,0.1-1.2,0
	c0.1-0.5-0.5-0.4-0.7-0.4c-0.7,0.2-0.6,1-1.2,1.3c-0.2-0.2-0.2-1.6,0.1-2.5c0.2-0.4,0.4-1.2,0-1.3c-0.9,0.3-2.5,1.7-2.9,2.3
	c-0.4,0.5,0.1,1.1-0.1,1.6c-0.4,0.7-1.2,0.9-1.6,1.6c-0.2,0.4-0.3,1.1-0.3,1.4c0,0.8,0,0.9-0.1,1c-0.4,0.3-0.9,0.3-1.3,0.6
	c-0.2,0.1-0.3,0.4-0.5,0.5c-0.3,0.1-0.7,0.1-1,0.2c-0.9,0.1-0.9,0.1-1.2,0.3c0.3,0.8,3.4,2.2,3.4,2.2c-0.2,1.2-0.3,1.4-0.7,1.9
	c-0.4,0.6-0.4,0.6-0.4,0.8c0.6,0.1,1.6,0.1,1.6-1.3c0-0.5,0.2-0.8,0.7-0.9c1-0.4,2.1-0.1,3.2-0.5c0.7-0.2,1-1,1.7-1.4
	c0.2-0.1,0.3-0.1,0.4-0.1c0,0,2,0.4,1.6,1.2c-0.7,1.2-0.2,1.4,1.9,1.4c0,0,0,0,0,0c0,0,0,0,0,0s0,0,0,0c0,0,0,0,0,0c0,0,0,0,0,0
	c0,0,0,0,0,0c0,0,0,0,0,0c0,0,0,0,0,0c0.6,0,1.2,0,2.3,1.2c0.4,0.4,0.5,0.4,0.6,0.4c0.3,0,0.5-1.3,0.5-1.6
	C242.3,87.9,241.7,87.7,241.2,87.6z"/>
<path id="XMLID_16280_" class="st1" d="M234,93.2c0-0.1,0-0.1-0.1-0.2c-0.1-0.2-0.2-0.3-0.5-0.3c-1.2,0-1.7,1.3-2.8,1.6
	c-0.4,0.1-0.8,0-0.9-0.1c-0.3-0.1-0.4-0.2-0.4-0.1c-0.1,0-0.1,0.2,0,0.6c0.1,0.4,0.1,1,1.1,1c0.3,0,0.7-0.1,1.1-0.2
	c2.8-0.7,2.8-0.7,2.9-0.8c0.3-0.4-0.2-0.7-0.3-1C234,93.5,234,93.3,234,93.2z"/>
<path id="XMLID_16279_" class="st1" d="M241.2,95.5c-0.2,0-1.3,0.2-1.9,0.9c-0.3,0.4-0.3,0.9-0.3,1.2c0,0.3-0.1,0.4-0.4,0.7
	c-0.3,0.3-0.4,0.4-0.4,0.6c0,0.1,0,0.1-0.1,0.2c-0.1,0.2-0.3,0.2-0.5,0.4c0,0,0,0,0,0c0,0,0,0.1,0,0.1c0.1,0.1,1.1,0.5,1.6,0.1
	c0,0,2.5-2.8,2.5-3.3l0,0C241.9,95.7,241.5,95.6,241.2,95.5z"/>
<path id="XMLID_16278_" class="st1" d="M248.1,90.7c-0.1-0.2-0.1-0.4-0.2-0.6c0,0,0-0.1,0-0.1c-0.1-0.1-0.1-0.1-0.2-0.1
	c-0.6,0.2-1.2,2.1-1.2,2.1c-0.1,0.3-0.1,0.5-0.1,0.7c0,0.1,0.1,0.1,0.1,0.2c0.1,0.2,0.1,0.4,0.1,0.6c0,0,0,0.1,0,0.1
	c0.4,0.9,1.7,0.7,1.7,0.6c0,0,0,0,0,0c0-0.1-0.1-0.2-0.2-0.3c-0.2-0.2-0.3-0.3-0.4-0.5c-0.4-0.9,0.8-1.1,0.7-1.9
	C248.5,91,248.2,90.9,248.1,90.7z"/>
<path id="XMLID_16277_" class="st1" d="M254.3,91.1c0,0-0.1-0.1-0.1-0.2c-0.1-0.1-0.2-0.1-0.2-0.1c-0.6,0-1.3,1.4-1.1,1.8
	c0.2,0.4,2.2-0.2,2.4-0.5c0,0,0-0.2-0.1-0.3c-0.2-0.2-0.4-0.2-0.5-0.3C254.5,91.3,254.4,91.3,254.3,91.1z"/>
<path id="XMLID_16276_" class="st1" d="M234.8,34.6c1.7-0.9,1.7-0.9,2.3-2.2c0.1-0.2,0.1-0.5,0.2-0.7l0,0c0.1-0.3,0.2-0.6,0-0.7
	c-0.4-0.1-0.7,0.2-1.1,0.1c-0.6-0.1-1.1-0.4-1.6-0.5c-0.1,0-0.2,0-0.2,0c-0.7,0.1-1,0.7-1.6,1c-0.3,0.1-0.6,0.1-0.8,0.2
	c0,0-0.1,0-0.1,0.1c-0.1,0.1-0.6,0.7-0.2,1.7c0.1,0.3,0.1,0.3,0,0.4c-0.3,0.3-1.4,0.2-1.8,0.1c-0.4-0.1-0.6-0.5-0.9-0.6
	c-0.3-0.1-1.8,0.8-2.1,2.4c-0.2,1.1,1,1.3,1.4,2c-0.1,0.4-0.8,0.5-1.2,0.5c-0.1,0-0.6,0.1-0.6,0.3c0,0.1-0.1,0.2,0,0.2
	c0.1,0.6,0.4,1.2,0.6,1.8c0.2,0.9,0.2,1.1,0,1.6c-0.2,0.4-0.2,0.5-0.1,0.6c0.8,0.9,1.9-0.4,2.6-1.7c0.6-0.9,0.6-1,1.1-1.2
	c0.1-0.1,0.3-0.1,0.4-0.2c0.5-0.2,0.9-0.4,1.3-0.6c0.4-0.1,0.8,0,1.1-0.2c0.1,0,0.2-0.1,0.3-0.1c0.3-0.3,0.1-0.7-0.5-1.8
	c-0.5-1-0.4-1.3-0.4-1.4C233.1,35.6,233.4,35.4,234.8,34.6z"/>
<path id="XMLID_16275_" class="st1" d="M236.7,41.4c0.9-0.2,1-1,1.2-1.9c0.1-0.7,0.2-0.9,0.6-0.9c3.1,0.3,3.1,0.3,3.3,0.3
	c0.1,0,0.2,0,0.2-0.1c0.9-0.3,1.5-1.1,2.3-1.6c1.3-0.9,2.8-1.3,4.1-2.2c0.1,0,0.2-0.1,0.2-0.2c0-0.1,0-0.1,0-0.2
	c-1-0.9-2.6-0.8-3.7-1.7c0.7-1-0.1-1.1-0.7-1.1c-1.1,0-1.7,0.4-2.1,0.7c0,0-0.5,0.5-0.3,1.1c0,0.1,0.1,0.2,0.1,0.3
	c0,0.2-1.1,0.4-1.3,0.2c-0.6-0.5-0.2-1.3-0.6-1.9c-0.2-0.2-0.4,0-0.6,0.3c-0.1,0.1-0.1,0.1-1.1,2c-1.6,2.8-1.6,2.9-1.9,3.1
	c-0.4,0.3-1,0.2-1.3,0.6l-0.7,2.1C234.4,41.2,235.8,41.6,236.7,41.4z"/>
<path id="XMLID_16274_" class="st1" d="M222.6,52.3c0,0-0.5-1-1.3-1.1c-0.4,0-1.3,0.2-2.1,1.2c-0.2,0.2-2.9,4.3-2.8,4.7
	c0,0.1,0.3,0,0.6-0.1c0.6-0.3,1.1-0.5,1.5-0.3c1,0.3,0.8,1.7,1.7,2.1c0.1,0,0.2,0.1,0.4,0.1c0.7,0,2.2-0.9,2.7-2
	c0.2-0.5,0.1-1.5,0.1-1.5c-0.1-0.2-0.3-0.3-0.3-0.5c0-0.1,0-0.1,0-0.5C223.2,53.8,223.2,53.5,222.6,52.3z"/>
<path id="XMLID_16273_" class="st1" d="M192.9,48.5c0.3,0.5,0.5,0.9,0.4,1.2c-0.3,0.6-1.1,0.6-1.4,1.2c0,0-0.5,1.6,0.2,1.7
	c0.4,0.1,7.1,0.5,8.6,0.2c-0.4-0.4-0.4-0.4-0.5-0.5c3.2-1.7,3.2-1.7,3.6-1.7c0.1,0,0.3,0.1,0.3,0.7c0,0.7-0.1,2,1.2,1.4
	c0.8-0.4,1.3-1.5,2.4-1.5c0.4,0,0.5,0.5,0.6,1.5c0.1,0.8,0.2,2,3,0.8c1.2-0.5,2-2,2-2c0.8-1.5,2.7-1.5,3.8-2.5
	c0.4-0.3,0.4-0.3-0.5-1.3c0.4-1.5-1-2.2-1.4-3.4c0.2-0.3,0.3-0.5,1.4-0.6c0.1-4.6,0.3-4.7,2.6-6.2c1-0.6,3.6-2.3,3.1-3.5
	c0-0.1-3.9-5.2-4.4-1.1c-0.5,4.3-3,5.6-3.6,5.4c-0.3-1,1.4-3.1,2-3.9c0.4-0.5,0.4-0.5,0.5-0.9c-0.8,0.4-1.3,1.3-2.2,1.5
	c0,0-1.6,0.3-2.2-0.3c0.1-0.4,0.1-0.4,1.6-1.8c0.4-0.4,1.3-1.4,1-1.8c-0.6-0.9-1.5,0-2.2,0c0,0,0-0.1,0-0.2c0.6-0.6,1.5-0.8,2.1-1.4
	c-0.1-0.1-0.3-0.1-0.4-0.2c-0.4,0-8.2,1.5-7.6,2.8c-1.4,0.9-3.4,0.8-4.4,2.5c-0.6,1.1,1.8,0.8,1.8,2c-2,1.4-5.1-0.6-6.5,2.2
	c-0.6,1.2,0.9,1.3,2.5,1.3c1.7,0,1.7,0,1.9,0.6c1.3,0.2,0.8,2.3,0.3,2.4c-0.8,0.3-4.3-0.4-4.7-0.9c0,0-1.3-1.4-2.4-0.7
	c0,0-3.6,4.4-3.8,5C191.2,47.6,192.5,47.8,192.9,48.5z"/>
<path id="XMLID_16272_" class="st1" d="M227.7,30.7c-0.1-0.1-0.2-0.1-0.3-0.1c-0.1-0.1-0.1-0.2-0.1-0.2c-0.1-0.3-0.2-0.5-0.6-0.7
	c-0.5-0.3-1.6-0.3-1.6-0.3c-0.5,0-0.7,0.1-0.9,0.3c-0.2,0.3-0.1,0.6-0.2,0.9c-0.1,0.3-0.3,0.5-0.3,0.7c-0.2,0.6,0.8,0.9,1.4,0.8
	c0.4-0.1,0.5-0.2,0.5-0.3c0.2-0.3,0.2-0.4,0.4-0.5c0.5-0.4,1.1-0.5,1.4-0.6C227.6,30.7,227.6,30.7,227.7,30.7L227.7,30.7
	C227.7,30.7,227.7,30.7,227.7,30.7z"/>
<path id="XMLID_16271_" class="st1" d="M196,35.8c0.5-0.2,1.8-1,2.5-1.5c0.2-0.1,0.4-0.2,0.5-0.3c0,0,3.1-1.9,3.7-2.1
	c1.1-0.5,2-1.5,3.1-2c0,0,4.1-1.8,5.7-1.6c0.6,0.1,1,0,1.5-0.2c0,0,1.7-0.9,2.8-2.4l0,0c1-1.3-0.2-2.9-0.2-2.9c0,0-0.1-0.1-0.2-0.1
	c-0.5-0.1-0.9,0.2-1.4,0.1c-0.4-0.1-0.7-0.5-1.1-0.6c0,0-1.4-0.3-1.7-0.3c0,0-0.1,0-0.1,0c-1,2-3.4,1.5-4.9,2.7l-2.5,1.7
	c-3.8,2.4-3.8,2.4-3.9,2.5c-0.9,0.9-1.7,1.9-2.6,2.8c-0.7,0.7-1.8,1-2.4,1.9c-0.6,0.8-0.2,2.2-0.1,2.4
	C194.8,36.3,195.4,36.1,196,35.8z"/>
<path id="XMLID_16270_" class="st1" d="M303.2,385.2c0.1,0.1,0.1,0.1,0.1,0.1C303.3,385.3,303.2,385.2,303.2,385.2L303.2,385.2z"/>
<path id="XMLID_16269_" class="st1" d="M186.5,344.5c-6.2-4.7-1.5-12.1-4.4-17.6c0.7-0.6,1.6-1.4,2.3-1.9c-4.2-4.1-4.2-4.1-22.2-5
	c3.1-6.6,3.3-14.2,7-20.7c-0.3-0.8-0.6-1.8-0.9-2.5c-11,0.5-11,0.5-11.1,5.3c-2.6,2.4-2.6,2.4-2.9,8.2c-10.9,6.2-24.8-7.3-23.6-19.1
	l5.7-23.4c7.7-7,17.7-3.9,26.5-6c0.1-1.5,0.1-3.6,0-5.1c6.1,1.1,12,2.9,18,4c0-0.8,0-1.8,0.1-2.6c0.7,0.3,1.7,0.7,2.5,1
	c0.1,0.2,0.1,0.2,4,8.2c-0.2,0.5-0.2,0.5-0.2,0.5h0h0h0h0c0,0,0,0,0,0c0,0,0,0,0,0s0,0,0,0c1.3,10.7,3.5,12.4,4.4,13.1
	c6.9-3.6,1.5-10.9,3.4-16.1c-0.9-1.4-2.3-3.3-3.4-4.6c1.8-6,1.4-10.5,1.4-10.5c0.2-0.1,19.9-12.1,24.7-20.9
	c-2.1-4.4-2.1-4.4-1.7-7.4c0.8-0.1,1.8-0.2,2.6-0.3c0.5-0.7,1.1-1.5,1.5-2.2c-0.3-1.6-0.7-3.7-0.9-5.3c0.6,0.6,1.4,1.4,2,2.1
	c0.8,0,1.8,0,2.5-0.1c0.9-1.3,1.6-3.4,1.8-4.9c5.5-3.4,12-4,17.7-6.8c-0.3-8.8-0.3-8.8,13.2-12.5c0.3-0.7,0.7-1.6,0.9-2.3
	c1.8-0.4,4.2-1.1,5.9-1.5c-0.2,1.5-1.3,3.6-2.4,4.5c1.4,0.7,3.6,1.3,5.2,1.3c0.8-2.2,0.8-2.2,7.5-7c0.8,0.2,1.8,0.4,2.6,0.5
	c-2.6-1.5-2.6-1.5-7.1-3.6c-0.2-0.7-0.5-1.7-0.8-2.4c-0.7-1-0.7-1-0.7-1c0,0,0,0,0,0h0h0h0h0h0h0c-0.4-0.7-0.9-1.6-1.3-2.3
	c0.3-0.8,0.6-1.9,0.9-2.7c-0.8-0.1-1.8-0.2-2.6-0.3c1.4-0.7,3.5-1.3,5-1.7c0.3-0.7,0.6-1.7,0.8-2.4c-0.6-0.5-1.4-1.2-1.9-1.7
	c-0.1,0-14.6,2.3-18.4,6.7c6.4-20.4,31.1-3.9,41.8-17.4c2.2-0.2,5-0.4,7.2-0.5c0.2-2.8,1.1-5.5,1.4-8.2c-2-1.6-3.5-3.8-5.8-4.9
	c-1.3,0.7-3.5,0.8-5,0.5c1.6-0.7,3.9-1.5,5.6-1.8c-8.6-6.9-8.5-18.5-14.7-26.7c0.6-0.8,1.3-1.8,1.8-2.5c-0.8-1.3-2.3-2.8-3.6-3.7
	c-4.3,11-13.8,11.2-13.9,11.2c-0.5-3.5-0.6-4.1-2-7.8c1.6-1.9,1.6-1.9,2.3-7.3c-1.5,0-3.4-0.9-4.5-1.9c0.1-0.8,0.2-1.9,0.3-2.7
	c-4.8-3.8-4.8-3.8-14.9-5c-0.5,0.6-1.3,1.3-1.8,1.8c0.9,3.5-0.7,7.1,0.6,10.6c-2.5,1.7-4.7,3.8-7.2,5.5c0.5,1.3,0.5,1.3,0.3,15
	c-4.1,1.7-6.9,5.5-10.9,7.3c-1.1,3.7-6.6,18.2-7,18.5c-0.9-0.3-2-0.6-2.8-0.9c0-0.1,0-0.1-1.9-7.8c1-1.3,2.3-3.1,3.1-4.5
	c-0.7-1.6-1.7-3.6-2.6-5c0.6-0.7,1.4-1.5,2-2.2c-0.5-0.6-1.2-1.4-1.8-2c-1.5,0.2-3.6,0.2-5.1,0.1c-0.1-0.1-10.4-11.1-17.8-10.8
	c3.5-6.6-1.3-14.3,2.9-20.8c3-4.7,3-4.7,16.4-9.2c0.3-0.7,0.6-1.7,0.9-2.4c-0.7-0.5-1.6-1.2-2.3-1.6c0.6-0.5,1.3-1.2,1.9-1.8
	c1.8,0.3,4.6,0.8,9.8-1.3c0.1-0.5,0.1-0.5,4.2-6.2c-0.6-0.9-1.5-2.1-2.2-3.1c1.5,0.6,3.7,1,5.3,0.8c0.4-0.7,1-1.6,1.4-2.2
	c2.6-0.6,5-1.9,7.6-2.5c0.3,0.8,0.7,1.8,1.1,2.6c0.8,0.1,1.8,0.2,2.5,0.2c1.6-2.4,4.2-4,5.6-6.6c-0.3-0.8-0.6-1.8-0.9-2.6
	c1.4-1.3,3.2-3.1,4.4-4.5c-2.3-1-4.4-2.4-6.9-3.1c-2.7,1.6-2.7,1.6-9.3,10.5c-0.3-4.9,0.2-5.5,2.2-7.6c-1.3-0.6-3.3-0.9-4.7-0.5
	c0.9-5.6-1.3-9.9-1.3-10c3.4-5,3.4-5,4.1-7.3c-8.2,1.4-8.7,2.7-11.8,10.2c0.7,0.5,1.6,1.1,2.4,1.6c-1.3,5.3-1.3,5.3-6.6,8
	c-0.2,0.7-0.5,1.7-0.7,2.4c-0.7,0.3-1.6,0.7-2.3,0.9c-0.1-0.7-0.3-1.7-0.4-2.5c0.6-0.5,1.3-1.2,1.9-1.7c-0.3-0.7-0.7-1.6-1-2.3
	c-0.7-0.2-1.7-0.5-2.5-0.7c-2.1,1.5-3.4,2.5-9.6,1.6c-2.1-3.7-2.1-3.7-2.8-7c-0.8,0-1.8-0.1-2.6-0.1c-0.2,0.8-0.4,1.8-0.6,2.5
	c-1.4,0.4-1.4,0.4-7.3,6.9c0.7-5.8,0.7-5.8,0-7.7c-0.7,0.3-1.7,0.8-2.4,1.1c-1.4-0.7-3.5-1.4-5-1.7c0.6-1.4,2-2.9,3.4-3.6
	c0.3-4.8-3.9-8.7-6.9-9.6c0.6-1.5,2-3.4,3.3-4.5c-4.9-0.2-8.9,3.1-13.7,3.6c2.3-1.7,5.2-2.2,7.7-3.5c-5.8-0.2-5.8-0.2-9.9,2.3
	c-0.2-0.7-0.6-1.7-0.8-2.4c1.4-2.2,2-4.8,3.5-6.9c-0.4-0.7-0.9-1.5-1.2-2.2c2.3-3.1,2.3-3.1,8.9-9.6c-23,9.9-23,9.9-44.3,20.9
	c0.3-0.7,0.8-1.6,1.1-2.3c-7.2-0.4-14.5,7.7-15.3,8.7c0.8,0.1,1.8,0.3,2.5,0.4c-7.5,8.1-19.6,9.1-27,17.3c0.1,0.2,0.1,0.6,0.2,0.8
	l-1.5,1.1c-1.4,0.6-3.2,1.8-4.2,2.9c0.7-0.1,1.7-0.3,2.5-0.4c-8,8.1-8,8.1-10.5,13.1c0.7-0.6,1.6-1.4,2.2-2
	c-1.1,3-2.1,5.9-24.6,19.9c17.1-4,26-20.4,41.3-27.1c-0.9,2-0.9,2-7.4,7c4.6,0.6,4.6,0.6,9.1-4.9c0.6,1.4,1.2,3.4,1.4,4.9
	c-0.5,0.6-1.2,1.3-1.7,1.8c2.6,1,2.6,1,4.4,5.7c-9.7,15.2-17.7,54-17.7,54.3c1.9,2.4,2.6,3.4,0.7,7.9c2.2,4.9,4.1,9.1-0.8,12.6
	c-0.7-0.2-1.7-0.5-2.4-0.8c0.2-0.7,0.5-1.7,0.7-2.5c-0.7,0.3-1.7,0.6-2.5,0.8c-2.1,9.4-7.4,17.6-11.5,22.9
	c1.3,5.2-5.3,41.1-6.5,43.7c3,5.5,8.9,9,10.3,15.5c0,0.2,0,0.2,0,0.2c0,0.1,0,0.1,0,0.2c0,0.1,0,0.2,0,0.3c0,0.1,0,0.3,0,0.4
	c0,0.2,0,0.3,0,0.5c0,0.2,0,0.4,0,0.5c0,0.2,0,0.4,0,0.6c0,0.2,0,0.4,0,0.6c0.4,2.8,1.2,5.4,1.6,8.2c0,0.3,0,0.6,0,0.9
	c0,0.2,0,0.5,0,0.7c0,0.2,0,0.4,0,0.6c0,0.2,0,0.3,0,0.5c0,0.1,0,0.2,0,0.4c0,0.1,0,0.2,0,0.3c0,0.1,0,0.2,0,0.2c0,0.1,0,0.1,0,0.2
	c2.6,3.6,2.8,4.4,3.3,7.4c-0.5,0.6-1.1,1.5-1.6,2.1c1.9,9.1,8.7,15.5,12.9,23.3c0.3-0.7,0.8-1.7,1.1-2.5c-2.6-4.1-15-25.2-9.1-37.4
	c19.1,22.9,15.4,62.5,52.6,72.3c1.4-0.9,3.2-2.1,4.7-2.8c9,7.1,24,5.1,28.4,19c1.5,0.6,3.5,1.6,5,2.4c-0.2,0.7-0.6,1.7-0.8,2.4
	c1,0.2,2.4,0.5,3.4,0.6c0.8,1.5,1.6,3.6,2.1,5.3c4.7-1.3,8.1,2.3,12.1,3.4c0.6-0.5,1.5-1.1,2.1-1.6c0.1-0.8,0.1-1.8,0.2-2.5
	c1.3-0.6,3.2-0.9,4.7-0.7l0.1-0.5L186.5,344.5z"/>
<path id="XMLID_16268_" class="st2" d="M306.9,383.8c-0.5,2.7-2.4,4.6-3.5,7c-1.2-5.5-1.3-6.1,3.9-9c-0.7-0.3-0.7-0.3-10.1,1.6
	c3.2-3.2,3.8-8,6.6-11.5c-0.8-1.6-2.3-3.6-3.7-4.7c0.8-0.4,1.9-0.9,2.7-1.3c-2.4-1-5-1.1-7.3-2.4c0.1-0.8,0.2-1.9,0.3-2.7
	c-0.8,0-2,0-2.8,0c-0.4-0.7-1-1.6-1.4-2.3c-7.8-1.3-7.8-1.3-9.8,0.6c-1.5-1.6-1.5-1.6-7.3-3.1c0.1-0.8,0.1-1.8,0.2-2.5
	c-7.2-2.8-11.2-10-17.8-13.7c-10.2,9.1-19-4-28.7-4.5c0.6,1.8,1.3,4.3-2.3,9.9c-2.5-4,0.3-9-2.5-12.9c-0.2,3.4-0.4,8-9.5,5.5
	c-1.7,2.2-3,3.9-4.2,9.9l-9.5-1.3l-0.1,0.5c0.1,0,0.1,0,0.2,0c2.4,7,2.4,7,4.8,7.7c0.3,1.5,0,3.6-0.6,5c1.4,2.2,1.4,2.2-3.4,14.2
	c-0.7,0.3-1.7,0.6-2.4,0.9c-0.8,7.7-0.8,7.7,0.2,10.4c-0.5,0.8-1.1,1.8-1.6,2.5c0.7-0.1,1.7-0.3,2.5-0.4c-0.2,0.7-0.4,1.7-0.5,2.5
	c-0.7,0.4-1.5,0.8-2.2,1.2c0.5,9.4,3.4,10.7,9.3,13.3c0,0.2,5.1,18.5,25.9,28.8c12.7,6.3,9,53.1,8.9,53.5c2.5,2.8,3.3,6.8,3.9,10.9
	c-0.2-0.1-0.4-0.2-0.5-0.4c-0.1-0.1,0-0.2,0-0.2c0.3-0.2,0.3-0.8-0.1-0.9h0c-0.2,0-0.6,0.1-0.7,0.5c0,0,0.1,0.7,0.3,1.3
	c0.1,0.2,0,0.4,0,0.6c0,0.1,0,0.2,0.1,0.3c0.1,0.1,0.6,0.3,1,0.4c1,6.6,2.2,13.1,10.7,14.5c-1.5-3.8-1.5-3.8,1.7-8.9l-1.2-0.5
	c-0.4-0.7-0.8-1.6-1.2-2.2c1.7-1.8,2.7-4.2,4.3-6.1c-0.6-0.5-1.4-1.1-1.9-1.6c0.7-0.2,1.7-0.5,2.4-0.7c0.7-1.3,1.4-3.2,1.8-4.6
	c0.7-0.1,1.7-0.2,2.5-0.3c2.2,0,2.8,0,3.5,0c4.3-3.2,4.8-3.8,2.1-8.8c2.6-0.6,5.4,0.7,7.8-1.1c2-1.5,2-1.5,16.5-20.5
	c5.5-7.2,15.7-6.3,21.8-12.6l29.2-43.2l0,0c0.4-1.6-0.6-3.9-0.9-5.5C334.3,391.1,317.1,381.3,306.9,383.8z"/>
<path id="XMLID_16267_" class="st1" d="M54.9,102.7c-0.2,0.2-1,0.8-1.1,0.8c0.1-0.3,0-0.4,0-0.4c0,0-0.1,0-0.2,0.1
	c-0.6,0.6-0.7,1.5-1.3,2.1c-0.3,0.2-1,0.8-1.1,0.8c-0.3,0.2-0.4,0.3-0.5,0.4c0,0.1-0.1,0.1-0.1,0.6c0,0.1,0,0.4,0.4,0.1
	c0.5-0.4,0.8-1,1.2-1.4c0.5-0.6,1.2-0.9,1.7-1.4c0.4-0.3,0.6-0.5,0.6-0.6l0,0c0.1-0.1,0.1-0.2,0.2-0.3c0,0,0,0,0,0c0,0-0.1,0-0.1,0
	C54.7,103.2,55,103,54.9,102.7C55,102.7,55,102.7,54.9,102.7z"/>
<path id="XMLID_16266_" class="st1" d="M50.3,106.1c-0.1,0-0.3,0.1-0.3,0.2c-0.4,0.3-0.7,0.7-1,1c-0.2,0.1-0.4,0.2-0.6,0.4
	c-0.3,0.3-0.6,0.7-0.6,0.9c0,0.2,0.1,0.1,0.4-0.1c0.1-0.1,0.3-0.2,0.4-0.3c0.3-0.3,0.7-0.6,1-0.9c0.3-0.2,0.6-0.4,0.8-0.7
	C50.6,106.1,50.3,106.1,50.3,106.1z"/>
<path id="XMLID_16265_" class="st1" d="M45.2,109.9c0,0-0.3,0.4-0.3,0.6c0.1,0.1,0.5-0.3,0.7-0.6l0,0c0.1-0.2,0.2-0.3,0.2-0.4
	c0,0,0,0,0,0C45.7,109.5,45.3,109.8,45.2,109.9z"/>
<path id="XMLID_16264_" class="st1" d="M42.6,111.4c0,0,0.2,0,0.8-0.8c0.1-0.1,0.4-0.5,0.4-0.6c0,0,0,0,0,0
	C43.7,110,42.4,110.9,42.6,111.4z"/>
<path id="XMLID_16263_" class="st1" d="M42.1,110.7L42.1,110.7L42.1,110.7L42.1,110.7L42.1,110.7L42.1,110.7L42.1,110.7L42.1,110.7
	L42.1,110.7c-0.1,0.1-1,1.3-1,1.4c0.1,0,0.5-0.5,0.6-0.7l0,0C41.8,111.4,42.2,110.8,42.1,110.7z"/>
<path id="XMLID_16262_" class="st1" d="M42.6,111.8c0,0-0.3,0.4-0.3,0.5c0,0,0.1,0,0.2,0c0,0,0,0,0,0c0,0,0,0.1,0,0.1
	c0,0.1,0,0.1-0.1,0.2c0,0,0,0,0,0c0,0,0,0,0.2-0.2c0.4-0.5,0.5-0.9,0.5-0.9c0,0,0,0,0,0C42.7,111.7,42.7,111.7,42.6,111.8z"/>
<path id="XMLID_16261_" class="st1" d="M110.3,50.9C110.3,50.9,110.4,50.9,110.3,50.9L110.3,50.9c0.4-0.3,0.7-0.6,0.8-0.7
	c0.7-0.6,1.2-1.3,1.8-1.9c0.6-0.6,1.3-1.1,1.8-1.7c0.1-0.1,0.3-0.3,0-0.3c-1.1,0.1-1.3,0.2-4.4,2.8c-0.8,0.6-1,0.9-1.1,1.1
	c0,0-0.9,1.3-0.9,1.4c0.1-0.1,0.3-0.2,1.8-1.6C110.3,50.1,110.5,50.4,110.3,50.9z"/>
<path id="XMLID_16260_" class="st1" d="M204.9,309.5c-0.6-0.4-1.4-0.2-2-0.5c-0.8-0.3-1.5-0.8-2.3-1.1c-0.1,0-0.2,0-0.3-0.1
	c-1.3,0.2,0.5,3.9,0.5,4c0.8,1.7,1.8,2,2.1,2.1c0.6,0.1,0.6,0.1,2-0.4c0.8-0.3,2-0.4,2.4,0c0,0,0.1,0,0.1,0c0.1,0,0.4-0.3,0.4-0.4
	C208.1,312.4,205,309.6,204.9,309.5z"/>
<path id="XMLID_16259_" class="st1" d="M216.6,302.1c0.1-0.1,0.1-0.1,0.2-0.2c-0.2-0.3-0.4-0.3-1.7-0.7l-9.5-3
	c-0.6-0.3-0.4-1-0.9-1.4c-1-0.6-2.7-1.4-4.2-2c-3.4-1.5-3.4-1.5-3.5-2.2c-3.4-1.5-3.4-1.5-5-1.3c-1.8,0.3-2,0.3-2.4,0.1
	c-0.2-0.6-0.5-1.5-3.2-1.8c0,0,0,0-2.3,1c-0.7,0.3-1.4,0.2-2.1,0.3c0,0-4,1.8-2.2,2.7l1.5,1.2c5.1-3.5,5.3-2.4,5.5-1.5
	c-0.2,0.1-0.4,0.3-0.6,0.4c0,0.1,0,0.2,0,0.3c1.8,0.5,3.7,0,5.5,0.6c2.1,0.7,3.4,2.7,5.6,3.3c0,0,3-0.1,3.4-0.4
	c0.3,0.3,0.3,0.3,0.5,3c0,0.7,0,0.7,1.5,0.7c0.2,0.2,0.2,0.3,1.7,0.3c1.3,0,2,0.1,2.2,0.5c0.8,1.6-2.6,1.6-1.9,3.3c0,0,0.1,0,0.1,0
	c0.1,0,0.2,0,0.2,0c0.1,0,0.2,0,0.4,0c0.2,0,0.3,0,0.5,0c0.2,0,0.4,0,0.5,0c0.2,0,0.4,0,0.6,0c0.2,0,0.4,0,0.6,0c0.2,0,0.4,0,0.6,0
	C211.7,305.2,216.6,302.1,216.6,302.1z"/>
<path id="XMLID_16258_" class="st1" d="M223.7,312.5c1.7,2.3,3.7-1.8,5.9-1.5l5.1,0.2c0.1,0,0.2,0,0.3-0.1c0.6-0.1,1.5-1,1.7-1.9
	c0.1-0.8-0.2-1.4-0.5-1.5c-0.7-0.6-1.7-0.5-2.4-1c-0.4-0.3-0.3-0.9-0.7-1.2c-0.1-0.1-0.3-0.2-0.5-0.3c-0.1-0.1-0.8-0.4-1.6-0.6
	c-0.1,0-0.3-0.1-0.5-0.2c0,0-0.2-2-3.7-0.2c-1.7,0.9-3.2-0.2-3.8-0.5c-0.4-0.3-0.5-0.3-0.8-0.3c-0.2,0-0.3,0-0.5,0.1
	c-2.8,1.5-2.8,1.5-2.9,1.6c0,0.1-0.2,0.6,1.9,1.2c2.3,0.7,2.2,1.6,1.8,2.2c-0.2,0.2-1.9,0.8-3.7,0.5c-1.5-0.2-3.5,0.9-3.5,0.9
	c0,0-0.1,0.1-0.1,0.2c0.5,0.5,3.7,1,4.6,1C222.8,311.2,222.8,311.2,223.7,312.5z"/>
<path id="XMLID_16257_" class="st1" d="M248.1,310c-0.6-0.2-2.2-0.2-2.3-0.2c-1,0.1-3.7,1.5-3.6,1.9c0,0.1,0.1,0.2,0.2,0.2
	c0.5,0.3,1.1,0.5,1.6,0.8c0.4,0.3,0.7,0.6,1.2,0.9c0.2,0.1,0.4,0.1,0.5,0.1c0,0,4.3-1.1,4.3-1.1c0.2,0,0.4-0.1,0.6-0.2
	c0.6-0.2,1-0.4,1.1-0.5c0,0,0-0.1,0-0.2c-0.8-0.8-1.9-0.8-2.8-1.2c-0.2-0.1-0.4-0.3-0.5-0.3C248.3,310.1,248.1,310.1,248.1,310z"/>
<path id="XMLID_16256_" class="st2" d="M267.8,339.9c0.4-0.1,0.9-0.2,1.3-0.6c0.1-0.1,0.3-0.3,0.3-0.5c0.2-0.8-0.4-1.2-0.8-1.2
	c-1.1,0.2-3.8,2.5-3.8,2.5c-1,0.8-0.8,1.5-0.8,1.5c0.1,0.2,0.2,0.3,0.6,0.4c0,0,0.2,0.1,0.4,0.2c0,0,0.1,0,0.1,0.1
	c0,0,0.1,0.1,0.2,0.1c0.1,0,0.2,0,0.5-0.1c0.3-0.2,0.6-0.4,0.6-0.4c0.3-0.2,0.3-0.4,0.3-0.9c0-0.2,0-0.5,0.1-0.6
	C267.1,340,267.3,340,267.8,339.9z"/>
<path id="XMLID_16255_" class="st2" d="M164.4,381.2c-0.4-0.8-0.5-1.7-0.9-2.5c-0.3-0.6-0.5-0.7-0.7-0.7c-0.3,0-0.9,0.5-0.8,1.4
	c0,0.5,0.3,0.8,0.4,1.3c0.1,0.5,0.1,1.1,0.2,1.6c0,0.1,0.1,0.3,0.1,0.4c0,0.2,0.2,0.9,0.4,1.1c0.5,0.8,2.1-0.7,2.1-1.1
	c0-0.1,0-0.2,0-0.3C165,382,164.6,381.7,164.4,381.2z"/>
<path id="XMLID_16254_" class="st2" d="M167,380.5c-0.5,0.1-0.7,0.9-0.9,1.3c0.8,0.4,0.8,0.4,0.9,0.6c0.1,0,0.2,0.2,0.6-0.2
	c0.2-0.1,0.3-0.3,0.3-0.6h0C167.9,381.2,167.3,380.5,167,380.5z"/>
<path id="XMLID_16253_" class="st2" d="M264.1,509c-0.2,0.1-0.3,0.2-0.6,0.4c-0.1,0-0.1,0-0.3,0.2c-0.1,0.1-0.1,0.1-0.4,0.3
	c-0.1,0.1-0.3,0.1-0.4,0.2c-0.1,0.1-0.1,0.1-0.1,0.2c0,0.1,0.1,0.2,0.1,0.2c0.1,0,0.2-0.1,0.3-0.1c0.2-0.1,0.5-0.1,0.7-0.2
	c0.1,0,0.1,0,0.2-0.1c0.1-0.1,0.2-0.1,0.3-0.2c0,0,0.6-0.6,0.7-0.7c0.2-0.2,0.1-0.2,0-0.3C264.5,508.9,264.3,508.9,264.1,509z"/>
<path id="XMLID_16252_" class="st2" d="M262.7,509.5c0.1-0.1,0.1-0.4-0.2-0.3c0.1-0.2,0-0.2,0-0.2c-0.2,0-0.4,0.2-0.4,0.2
	c0,0-0.1,0.1-0.1,0.1c-0.1,0.1-0.2,0.2-0.3,0.3c0,0,0,0,0,0c-0.1,0-0.1,0.1-0.2,0.1c0,0-0.1,0.1-0.1,0.1c0,0,0,0.2,0.3,0.2
	C261.9,510,262.5,509.7,262.7,509.5C262.6,509.6,262.6,509.5,262.7,509.5z"/>
<path id="XMLID_16251_" class="st2" d="M252.6,512.4c-0.1-0.1-0.2-0.1-0.3-0.2c0,0-0.2-0.1-0.4-0.2c-0.1,0,0.1,0.3,0.1,0.3
	c0.2,0.3,0.4,0.4,0.4,0.4c0.2,0.1,0.6,0.3,0.6,0.1c0,0,0-0.1-0.1-0.2C252.8,512.5,252.7,512.5,252.6,512.4z"/>
<path id="XMLID_16250_" class="st2" d="M256,513.5c0,0-0.1,0-0.1,0c0,0,0,0.1-0.1,0.1c0,0-0.1,0-0.1,0c0-0.1-0.1-0.1-0.1-0.1
	c-0.1,0-0.2,0.1-0.4,0.1c-0.1,0-0.2,0-0.3,0c0,0,0,0,0,0c-0.1,0,0,0.1,0,0.1c0.1,0.1,0.2,0.1,0.3,0.1c0,0.1,0,0.1,0.1,0.1l0,0
	c0,0,0,0,0,0c0,0,0.1,0,0.2,0c0.1,0,0.2,0.1,0.3,0.1c0.1,0,0.1-0.2,0.2-0.2c0.1,0,0.2,0.1,0.3,0l0,0l0,0
	C256.4,513.8,256.2,513.5,256,513.5z"/>
</svg>
