<?xml version="1.0" encoding="utf-8"?>
<!-- Generator: Adobe Illustrator 21.1.0, SVG Export Plug-In . SVG Version: 6.00 Build 0)  -->
<svg version="1.1" id="Warstwa_1" xmlns="http://www.w3.org/2000/svg" xmlns:xlink="http://www.w3.org/1999/xlink" x="0px" y="0px"
	 viewBox="0 0 512 512" style="enable-background:new 0 0 512 512;" xml:space="preserve">
<style type="text/css">
	.st0{clip-path:url(#SVGID_2_);}
	.st1{fill:#4560AB;}
	.st2{fill:#FDD900;}
	.st3{fill:#AF1F24;}
	.st4{fill:#FFFFFF;stroke:#000000;stroke-width:1.008;}
	.st5{fill:#FDD900;stroke:#000000;stroke-width:1.008;}
	.st6{fill:#FDD900;stroke:#000000;stroke-width:1.08;}
	.st7{stroke:#FFFFFF;stroke-width:6.927;}
	.st8{stroke:#000000;stroke-width:6.927;}
	.st9{fill:#3E5EA6;stroke:#000000;stroke-width:0.855;}
	.st10{fill:#A51E22;}
	.st11{fill:#3E5EA6;stroke:#000000;stroke-width:1.067;}
	.st12{fill:#3E5EA6;stroke:#000000;stroke-width:0.826;}
</style>
<g>
	<defs>
		<path id="SVGID_1_" d="M512.3,255.7C512.3,397.3,397.5,512,256,512C114.4,512-0.3,397.3-0.3,255.7S114.4-0.6,256-0.6
			S512.3,114.1,512.3,255.7z"/>
	</defs>
	<clipPath id="SVGID_2_">
		<use xlink:href="#SVGID_1_"  style="overflow:visible;"/>
	</clipPath>
	<g class="st0">
		<rect x="-155.6" y="-1.6" class="st1" width="821.1" height="513.2"/>
		<rect x="-155.6" y="94.6" class="st2" width="821.1" height="320.8"/>
		<rect x="-155.6" y="126.7" class="st3" width="821.1" height="256.6"/>
		<g>
			<g id="e">
				<path class="st4" d="M518.9,196.3l-33.2,11l33.2,11l33.2-11L518.9,196.3z"/>
				<path class="st5" d="M16.8,203.7h480.3c2.3,0,4.3,1.6,4.3,3.7v0c0,2-1.9,3.7-4.3,3.7H16.8c-2.3,0-4.3-1.6-4.3-3.7v0
					C12.6,205.3,14.5,203.7,16.8,203.7z"/>
				<path class="st5" d="M489.6,211c2,0,3.9-1.8,3.9-3.7s-2-3.7-3.9-3.7"/>
				<path class="st5" d="M485.7,211c2,0,3.9-1.8,3.9-3.7s-2-3.7-3.9-3.7"/>
				<path class="st5" d="M481.8,211c2,0,3.9-1.8,3.9-3.7s-2-3.7-3.9-3.7"/>
			</g>
			<g>
				<g id="e_1_">
					<path class="st4" d="M487.1,218.3l-33.2,11l33.2,11l33.2-11L487.1,218.3z"/>
					<path class="st5" d="M-15,225.7h480.3c2.3,0,4.3,1.6,4.3,3.7v0c0,2-1.9,3.7-4.3,3.7H-15c-2.3,0-4.3-1.6-4.3-3.7v0
						C-19.3,227.3-17.4,225.7-15,225.7z"/>
					<path class="st5" d="M457.8,233c2,0,3.9-1.8,3.9-3.7s-2-3.7-3.9-3.7"/>
					<path class="st5" d="M453.9,233c2,0,3.9-1.8,3.9-3.7s-2-3.7-3.9-3.7"/>
					<path class="st5" d="M450,233c2,0,3.9-1.8,3.9-3.7s-2-3.7-3.9-3.7"/>
				</g>
			</g>
			<path class="st6" d="M-67.9,249.5h653.2c3.2,0,5.8,2.5,5.8,5.5l0,0c0,3-2.6,5.5-5.8,5.5H-67.9c-3.2,0-5.8-2.5-5.8-5.5l0,0
				C-73.7,252-71.1,249.5-67.9,249.5z"/>
		</g>
		<path class="st4" d="M450.5,255c-39.1,36.7-91.2,110-195.5,110c-91.2,0-156.4-73.3-195.5-110C98.6,218.3,163.7,145,255,145
			C359.3,145,411.4,218.3,450.5,255L450.5,255z"/>
		<path d="M241.3,183.3c10.4,11,1.7,15.4,12.7,16.1c11.6,0.8,5,11.6,14.8,12c6.8,0.3-0.7,25.9,5.9,34.3c6.7,8.8,12.3,2.6,12.4,8.9
			c0.1,6.6-18.2,5.9-18.5,26.2c-0.5,11.7-15.5,12.4-16.2,19.9c-0.9,7.1,29.4,11,29,17.4c-0.4,6.3-32.7,5.3-34.1,12.5
			c-0.7,6.5,44.4,11.8,48,30.4c-6.7,2.1-25.9,4-40.4,4C163.8,365,98.6,291.6,59.5,255C98.6,218.3,163.8,145,255,145
			C255,145,227.9,168.2,241.3,183.3L241.3,183.3z"/>
		<g>
			<g>
				<g id="b">
					<path id="a" class="st7" d="M137.2,245.2v-29.3 M156.2,215.9v29.3 M175.1,215.9v29.3"/>
					<g>
						<path id="a_1_" class="st7" d="M137.2,294.1v-29.3 M156.2,264.8v29.3 M175.1,264.8v29.3"/>
					</g>
				</g>
				<g id="c">
					<g id="b_1_">
						<path id="a_2_" class="st7" d="M194.1,245.2v-29.3 M213,215.9v29.3 M232,215.9v29.3"/>
						<g>
							<path id="a_3_" class="st7" d="M194.1,294.1v-29.3 M213,264.8v29.3 M232,264.8v29.3"/>
						</g>
					</g>
				</g>
			</g>
			<g>
				<g>
					<g>
						<g id="b_2_">
							<path id="a_4_" class="st8" d="M280.6,245.2v-29.3 M299.5,215.9v29.3 M318.5,215.9v29.3"/>
							<g>
								<path id="a_5_" class="st8" d="M280.6,294.1v-29.3 M299.5,264.8v29.3 M318.5,264.8v29.3"/>
							</g>
						</g>
						<g id="c_1_">
							<g id="b_3_">
								<path id="a_6_" class="st8" d="M337.5,245.2v-29.3 M356.4,215.9v29.3 M375.4,215.9v29.3"/>
								<g>
									<path id="a_7_" class="st8" d="M337.5,294.1v-29.3 M356.4,264.8v29.3 M375.4,264.8v29.3"/>
								</g>
							</g>
						</g>
					</g>
					<g>
						<path class="st9" d="M544.2,250.6c-5.9,9.6,4.5-3.2,30.1,12.9c4.7,3,8.9,10.9,8.9,16.4c-1.2-0.8-2.1-2.4-3.4-3.5
							c-1.9,1.7,1.8,9.7,2.3,13.5c-4-2.1-3.6-3.1-4.9-5.7c0.3,3.1-0.7,11.7,0.9,15c-3.1-0.8-2.9-3.2-4.6-3.7c1.1,3.7-1,7.8-0.4,12
							c-1.8-1.7-3.8-3-4.7-3.7c-0.1,2-3.5,7.3-3.6,9.1c-1.6-0.9-2-2.3-2.2-3.2c-1.9,2.3-8.8,10.7-9.3,13.3
							c-5.3-4.4-18.9-15.1-20.7-20.8c-1.6,3.2-3.8,4.3-8.3,6.7c-1.8-9-8.4-19.1-4.8-26.9c-2.5,1.4-4.6,2.8-7.1,4.5
							C514.7,273.5,526.8,258.2,544.2,250.6L544.2,250.6z"/>
						<path class="st10" d="M522.2,298.3c2.5-4.6,4.7-6.1,6.3-9c2.8-5.2,3.2-9.4,5.7-8.8c2.4,0.6,2.4,2.7-0.7,7.9
							C530.2,293.5,528.7,294.6,522.2,298.3L522.2,298.3z"/>
						<path class="st10" d="M538.8,309.2c-0.3-3.5,0.8-5,0.6-7.2c-0.3-4-2.1-6.7,0.2-6.9c2.3-0.2,3.3,1.2,3.3,5.2
							C542.9,304.3,542.2,305.3,538.8,309.2L538.8,309.2z"/>
						<path class="st10" d="M551.4,316.1c-1-4.9-0.2-7.1-0.9-10.2c-1.1-5.6-3.3-9.2-1.2-9.7s3.4,1.3,4.1,6.9
							C554.3,308.7,553.9,310.3,551.4,316.1L551.4,316.1z"/>
						<path class="st10" d="M564.5,281.8c-3.1-2.2-4.9-2.3-6.9-3.7c-3.5-2.5-5.3-5.1-6.4-3.8c-1.1,1.3-0.3,2.8,3.3,5
							C558.3,281.6,559.5,281.7,564.5,281.8L564.5,281.8z"/>
						<path class="st10" d="M562.4,298.1c-1.6-3.2-3.3-4-4.4-6c-1.9-3.6-1.9-6.7-3.9-5.9c-2,0.8-2.2,2.4,0,5.9
							C556.2,295.5,557.4,296.1,562.4,298.1L562.4,298.1z"/>
						<path class="st11" d="M-45,259.9c-0.3-2.8,0.3-3.1-1.5-5.2c2.7,1,2.8,3.8,6,1.9c1.2-0.6,1.7-0.6,0.3-3.7
							c3.4,0.1,14.5,3.7,16.3,3.8c4.7,0.2,13.2-4.6,19.1,1.3c5.7,5.4,3.8,11,3.8,18.4c-2.3-1-1.2-1.5-3.6-4.2
							c1.8,6.5-0.1,18.3-0.1,25.2c-0.9-1.7-0.8-0.9-1.7-2.7c-2.4,6.3-5.3,7.6-5.3,15.1c-0.9-2.9,0-2.3-1-3.8
							c-2.4,4.8-18.1,8.9-12.1,13.7c-5.5-3-7.9-2.7-10.4-5.4c-1.1,0.6-1.9,1.9-2.9,3.6c-9.7-4.2-6.2-13.2-13.8-19.2
							c-1.3,2.5-0.7,2.2-2.1,6.2c-1.5-5.7-2-9.3-3.7-13.5c-1.5,2.3-1.4,1.4-4.1,4.9c-1.1-6.9-2.9-8.6-2.2-13.2
							c-2.9,1.9-1,1.1-3.9,3.5C-65.2,268.8-53.4,255.7-45,259.9L-45,259.9z"/>
						<path class="st10" d="M-56.9,288.9c2.5-5.7,4.7-7.5,6.3-11.2c2.8-6.5,3.3-11.6,5.7-10.9c2.4,0.8,2.3,3.5-0.8,9.8
							C-48.9,283-50.4,284.4-56.9,288.9L-56.9,288.9z"/>
						<path class="st10" d="M-47.5,303.2c1-5.1,2.6-7,3.2-10.3c1.1-5.8,0.5-10.1,2.7-9.9c2.2,0.2,2.7,2.4,1.2,8.2
							C-41.8,297-42.8,298.3-47.5,303.2L-47.5,303.2z"/>
						<path class="st10" d="M-36.2,313.1c0.3-5,1.5-6.9,1.7-10.1c0.3-5.6-0.8-9.7,1.3-9.7c2.1,0,2.9,2,2.2,7.6
							C-31.6,306.6-32.4,308-36.2,313.1z"/>
						<path class="st10" d="M-12,280.6c-4.6-4.3-7.4-5.1-10.4-7.9c-5.3-4.9-7.8-9.5-9.7-7.8c-1.9,1.6-0.7,4.1,4.8,8.7
							C-21.8,278.2-19.8,278.9-12,280.6z"/>
						<path class="st10" d="M-14.8,297.3c-3-4.3-5.2-5.5-7.2-8.3c-3.4-4.9-4.6-9.1-6.6-8.1c-1.9,1-1.5,3.2,2.2,8
							C-22.6,293.8-21.1,294.6-14.8,297.3L-14.8,297.3z"/>
						<path class="st12" d="M191.8,164.5c-5.4,9.8,9.5-3.3,32.8,13.2c4.3,3.1,10.5,15.1,10.5,20.7c-5-1-13.8-5.6-13.8-5.6
							s10.3,9.7,10.3,20.9c-3.7-2.1-5.5-1.8-6.7-4.4c0,3.6,3.2,5.9,3.2,11.5c-2.6-2-4.9-3.3-7.1-4.4c3.4,5.6-6.3,16.4-1.4,20.1
							c-8.5-1.2-17.2-6.3-20.7-11.8c-1.8,1.2-2,3-2.1,4.9c0.3,0.2-13-9.2-11.7-12.8c-1.8,2.3-2,3.6-2.4,6.2
							c-4.9-4.5-9.3-9-10.9-14.8c-2.2,2.6-2.3,2.6-4.5,5.3c-1.6-9.2-1.6-8.9,1.6-16.8c-2.3,1.4-4.2,2.8-6.5,4.6
							C164.8,187.9,175.8,172.3,191.8,164.5L191.8,164.5z"/>
						<path class="st10" d="M178.4,212.5c0.9-6.8,2.8-9.3,3.3-13.7c1-7.7-0.2-13.3,2.7-13.1c2.9,0.1,3.7,3,2.3,10.6
							C185.3,204,184.1,205.9,178.4,212.5L178.4,212.5z"/>
						<path class="st10" d="M193.5,224.9c-0.6-5.7,0.5-8.1,0.2-11.8c-0.6-6.5-2.8-10.9-0.3-11.3c2.5-0.4,3.8,1.8,4.1,8.3
							C197.8,216.7,197.1,218.4,193.5,224.9L193.5,224.9z"/>
						<path class="st10" d="M217.1,235c-2.6-4.9-4.8-6.4-6.4-9.6c-2.9-5.6-3.5-10.2-5.8-9.3c-2.3,0.8-2.1,3.2,1.1,8.7
							C209.3,230.2,210.8,231.4,217.1,235z"/>
						<path class="st10" d="M225.3,190.8c-6.5-3.2-9.9-3.3-14.1-5.3c-7.4-3.6-11.7-7.7-13.3-5.5c-1.5,2.3,0.5,4.5,8.2,7.8
							C213.7,191.1,216.1,191.2,225.3,190.8L225.3,190.8z"/>
						<path class="st10" d="M227.7,209.3c-4.8-3.7-7.6-4.3-10.6-6.6c-5.4-4.2-8.1-8.3-9.9-6.6c-1.8,1.7-0.6,3.9,5.1,7.8
							C217.9,207.8,219.9,208.2,227.7,209.3L227.7,209.3z"/>
					</g>
				</g>
			</g>
		</g>
	</g>
</g>
</svg>
