<?xml version="1.0" encoding="utf-8"?>
<!-- Generator: Adobe Illustrator 21.1.0, SVG Export Plug-In . SVG Version: 6.00 Build 0)  -->
<svg version="1.1" id="Warstwa_1" xmlns="http://www.w3.org/2000/svg" xmlns:xlink="http://www.w3.org/1999/xlink" x="0px" y="0px"
	 viewBox="0 0 512 512" style="enable-background:new 0 0 512 512;" xml:space="preserve">
<style type="text/css">
	.st0{fill:#E70013;}
	.st1{fill:#FFFFFF;}
</style>
<g>
	<path class="st0" d="M512,256c0,141.4-114.6,256-256,256S0,397.4,0,256C0,114.5,114.6,0,256,0S512,114.5,512,256z"/>
	<g>
		<path class="st1" d="M256,128c70.7,0,128,57.4,128,128c0,70.7-57.3,128-128,128s-128-57.3-128-128C128,185.3,185.3,128,256,128z"
			/>
		<g>
			<path class="st0" d="M292.2,336.1c-44.2,0-80.1-35.8-80.1-80.1c0-44.2,35.9-80.1,80.1-80.1c21.1,0,40.1,8.1,54.4,21.4
				c-18.1-25.1-47.7-41.5-81.2-41.5c-55.2,0-100,44.8-100,100S210.2,356,265.4,356c33.4,0,62.9-16.3,81.2-41.6
				C332.3,327.9,313.3,336.1,292.2,336.1z"/>
			<polygon class="st0" points="279,198.4 304.6,234.1 346.6,220.8 320.5,256.3 346.1,292 304.3,278.2 278.3,313.6 278.5,269.6 
				236.7,255.7 278.7,242.4 			"/>
		</g>
	</g>
</g>
</svg>
